0.2, 0.0, 0.0, 0.0, 87.1, 87.3, 87.6, 95.4; 61.92; 325.09; 2.90; [4, 5, 6, 7]
0.4, 0.0, 0.2, 0.0, 94.0, 97.9, 0.0, 0.0; 136.36; 715.91; 2.90; [4, 5]
0.4, 0.7, 0.4, 0.2, 84.5, 76.7, 82.9, 98.7; 110.96; 582.52; 2.93; [4, 5, 6, 7]
0.4, 0.0, 0.2, 0.0, 94.4, 98.1, 0.0, 0.0; 139.65; 733.17; 2.76; [4, 5]
0.2, 0.2, 0.5, 0.0, 86.2, 77.9, 85.4, 97.2; 112.04; 588.19; 2.98; [4, 5, 6, 7]
0.8, 0.0, 0.0, 0.0, 85.1, 85.1, 85.0, 100.0; 68.19; 357.98; 2.96; [4, 5, 6, 7]
0.4, 0.0, 0.2, 0.0, 95.7, 93.6, 90.6, 0.0; 91.42; 479.98; 2.89; [4, 5, 6]
96.8, 96.4, 0.2, 0.0, 0.0, 0.0, 0.0, 0.0; 223.45; 1173.09; 2.21; [0, 1]
0.4, 0.0, 0.0, 0.0, 95.1, 98.5, 0.0, 0.0; 152.38; 799.97; 1.86; [4, 5]
0.5, 0.0, 0.2, 0.0, 85.1, 82.0, 85.0, 93.4; 120.81; 634.28; 2.96; [4, 5, 6, 7]
86.3, 85.7, 98.3, 85.9, 0.0, 0.0, 0.0, 0.0; 118.50; 622.12; 2.60; [0, 1, 2, 3]
1.1, 0.0, 0.0, 0.0, 88.2, 87.8, 88.5, 96.0; 86.54; 454.34; 2.98; [4, 5, 6, 7]
0.2, 0.2, 0.0, 0.0, 94.6, 98.5, 0.0, 0.0; 149.47; 784.72; 2.77; [4, 5]
0.0, 0.0, 0.0, 0.2, 86.8, 77.7, 85.8, 98.1; 118.61; 622.72; 2.98; [4, 5, 6, 7]
98.3, 87.1, 85.1, 77.3, 0.0, 0.0, 0.0, 0.0; 138.00; 724.52; 2.60; [0, 1, 2, 3]
0.9, 0.2, 0.0, 0.0, 87.4, 87.8, 90.4, 91.7; 84.96; 446.03; 2.98; [4, 5, 6, 7]
0.0, 0.0, 0.0, 0.2, 94.7, 98.3, 0.0, 0.0; 145.71; 764.95; 2.87; [4, 5]
0.2, 0.2, 0.0, 0.2, 85.8, 87.0, 83.8, 95.2; 109.97; 577.35; 2.99; [4, 5, 6, 7]
84.6, 83.6, 84.2, 96.1, 0.0, 0.0, 0.0, 0.0; 124.08; 651.41; 2.71; [0, 1, 2, 3]
0.6, 0.2, 0.0, 0.0, 85.7, 85.5, 84.2, 97.9; 90.95; 477.47; 2.98; [4, 5, 6, 7]
0.0, 0.0, 0.0, 0.0, 94.8, 97.6, 0.0, 0.0; 142.35; 747.32; 2.79; [4, 5]
0.6, 0.2, 0.0, 0.0, 86.8, 82.5, 86.8, 94.3; 120.69; 633.61; 2.99; [4, 5, 6, 7]
92.7, 89.7, 84.8, 69.4, 0.0, 0.0, 0.0, 0.0; 147.55; 774.64; 2.50; [0, 1, 2, 3]
0.4, 0.2, 0.0, 0.0, 86.2, 85.9, 85.7, 98.9; 82.65; 433.93; 2.93; [4, 5, 6, 7]
0.2, 0.0, 0.0, 0.2, 94.2, 97.8, 0.0, 0.0; 143.26; 752.14; 2.77; [4, 5]
0.4, 0.0, 0.0, 0.0, 88.7, 86.8, 89.6, 96.4; 107.82; 566.08; 2.98; [4, 5, 6, 7]
87.8, 91.0, 88.6, 82.5, 0.0, 0.0, 0.0, 0.0; 146.81; 770.76; 2.69; [0, 1, 2, 3]
0.4, 0.0, 0.0, 0.4, 87.4, 84.9, 87.9, 97.2; 86.73; 455.33; 2.95; [4, 5, 6, 7]
0.2, 0.0, 0.0, 0.0, 95.2, 99.6, 0.0, 0.0; 139.16; 730.58; 2.89; [4, 5]
0.7, 0.2, 0.0, 0.0, 88.7, 79.6, 85.7, 98.9; 118.14; 620.25; 2.98; [4, 5, 6, 7]
90.4, 78.6, 84.2, 96.8, 0.0, 0.0, 0.0, 0.0; 131.58; 690.79; 2.67; [0, 1, 2, 3]
0.4, 0.0, 0.0, 0.0, 86.7, 85.9, 85.9, 99.4; 95.05; 499.00; 2.97; [4, 5, 6, 7]
0.4, 0.0, 0.0, 0.0, 96.8, 97.7, 0.0, 0.0; 145.17; 762.12; 2.76; [4, 5]
0.7, 0.2, 0.0, 0.0, 88.7, 86.2, 86.9, 94.4; 112.23; 589.21; 2.99; [4, 5, 6, 7]
99.1, 87.0, 75.3, 90.0, 0.0, 0.0, 0.0, 0.0; 134.60; 706.67; 2.56; [0, 1, 2, 3]
84.5, 88.7, 96.0, 86.4, 0.0, 0.0, 0.0, 0.0; 120.71; 633.72; 1.20; [0, 1, 2, 3]
0.2, 0.0, 0.0, 0.0, 87.6, 87.0, 78.3, 94.9; 100.38; 526.99; 2.97; [4, 5, 6, 7]
91.7, 86.7, 81.5, 80.8, 0.0, 0.0, 0.0, 0.0; 135.71; 712.45; 2.65; [0, 1, 2, 3]
0.2, 0.2, 0.0, 0.0, 85.3, 78.3, 87.9, 97.7; 99.43; 521.99; 2.94; [4, 5, 6, 7]
0.2, 0.0, 0.0, 0.0, 95.6, 97.6, 0.0, 0.0; 148.05; 777.24; 2.66; [4, 5]
0.5, 0.2, 0.0, 0.0, 85.2, 89.8, 87.3, 96.4; 103.89; 545.40; 2.92; [4, 5, 6, 7]
93.6, 84.8, 87.6, 77.3, 0.0, 0.0, 0.0, 0.0; 141.57; 743.24; 2.65; [0, 1, 2, 3]
0.0, 0.0, 0.0, 0.0, 86.8, 87.3, 88.1, 94.9; 84.83; 445.33; 2.95; [4, 5, 6, 7]
0.4, 0.2, 0.0, 0.0, 96.3, 97.4, 0.0, 0.0; 144.94; 760.91; 2.82; [4, 5]
0.2, 0.2, 0.0, 0.0, 85.3, 81.4, 86.6, 97.4; 121.66; 638.70; 2.96; [4, 5, 6, 7]
71.1, 87.9, 88.6, 73.9, 0.0, 0.0, 0.0, 0.0; 151.40; 794.84; 2.67; [0, 1, 2, 3]
0.2, 0.0, 0.0, 0.0, 85.0, 87.2, 87.2, 95.9; 77.55; 407.14; 2.99; [4, 5, 6, 7]
0.4, 0.2, 0.0, 0.0, 96.5, 97.8, 0.0, 0.0; 149.95; 787.23; 2.55; [4, 5]
0.5, 0.0, 0.0, 0.0, 87.1, 86.1, 85.0, 94.1; 114.44; 600.82; 2.95; [4, 5, 6, 7]
87.3, 93.3, 88.2, 88.4, 0.0, 0.2, 0.0, 0.0; 122.36; 642.37; 2.63; [0, 1, 2, 3]
0.4, 0.0, 0.0, 0.0, 85.6, 83.0, 86.7, 98.1; 92.38; 485.00; 3.01; [4, 5, 6, 7]
0.4, 0.0, 0.2, 0.0, 95.7, 98.7, 0.0, 0.0; 146.59; 769.58; 2.70; [4, 5]
0.2, 0.0, 0.0, 0.0, 86.0, 85.8, 87.8, 97.6; 100.92; 529.84; 3.01; [4, 5, 6, 7]
90.2, 91.3, 73.2, 90.6, 0.0, 0.0, 0.0, 0.0; 140.39; 737.03; 2.57; [0, 1, 2, 3]
0.4, 0.0, 0.4, 0.2, 85.2, 84.6, 87.6, 98.5; 85.36; 448.15; 2.91; [4, 5, 6, 7]
0.4, 0.2, 0.0, 0.0, 95.8, 98.0, 0.0, 0.0; 144.10; 756.55; 2.74; [4, 5]
0.2, 0.0, 0.0, 0.0, 87.0, 77.4, 87.3, 98.6; 114.44; 600.82; 2.99; [4, 5, 6, 7]
91.5, 83.2, 84.4, 92.2, 0.0, 0.0, 0.0, 0.0; 119.12; 625.39; 2.48; [0, 1, 2, 3]
0.6, 0.2, 0.2, 0.2, 86.4, 82.3, 84.3, 97.9; 85.69; 449.89; 2.92; [4, 5, 6, 7]
0.4, 0.0, 0.0, 0.0, 96.7, 98.5, 0.0, 0.0; 145.16; 762.07; 2.67; [4, 5]
0.7, 0.0, 0.0, 0.0, 89.5, 81.6, 88.2, 92.5; 137.62; 722.50; 2.94; [4, 5, 6, 7]
86.2, 96.8, 90.4, 77.3, 0.0, 0.0, 0.0, 0.0; 132.22; 694.16; 2.66; [0, 1, 2, 3]
0.4, 0.0, 0.0, 0.0, 86.4, 81.4, 86.2, 98.7; 101.48; 532.75; 2.96; [4, 5, 6, 7]
86.8, 93.4, 87.6, 77.0, 0.0, 0.0, 0.0, 0.0; 142.41; 747.64; 2.62; [0, 1, 2, 3]
0.0, 0.0, 0.0, 0.0, 84.9, 86.8, 85.7, 97.2; 88.16; 462.82; 2.97; [4, 5, 6, 7]
0.4, 0.2, 0.0, 0.0, 94.0, 98.9, 0.0, 0.0; 146.49; 769.07; 2.77; [4, 5]
0.2, 0.2, 0.0, 0.0, 84.2, 77.6, 89.5, 97.9; 120.36; 631.88; 2.95; [4, 5, 6, 7]
86.7, 97.2, 89.5, 76.3, 0.0, 0.2, 0.0, 0.0; 141.97; 745.37; 2.45; [0, 1, 2, 3]
0.2, 0.0, 0.0, 0.0, 86.4, 77.3, 85.8, 98.9; 102.13; 536.18; 2.96; [4, 5, 6, 7]
97.0, 85.0, 87.4, 76.0, 0.0, 0.0, 0.0, 0.0; 134.77; 707.54; 2.78; [0, 1, 2, 3]
0.4, 0.0, 0.0, 0.0, 86.1, 86.3, 87.8, 98.9; 83.88; 440.36; 2.97; [4, 5, 6, 7]
0.4, 0.0, 0.0, 0.0, 95.9, 97.7, 0.0, 0.0; 144.73; 759.81; 2.77; [4, 5]
0.4, 0.0, 0.0, 0.0, 85.7, 80.3, 85.0, 98.9; 115.54; 606.60; 2.98; [4, 5, 6, 7]
85.4, 88.2, 77.7, 89.1, 0.0, 0.0, 0.0, 0.0; 139.38; 731.77; 2.78; [0, 1, 2, 3]
0.2, 0.0, 0.0, 0.2, 86.4, 86.1, 86.8, 98.3; 82.53; 433.28; 2.99; [4, 5, 6, 7]
0.2, 0.2, 0.0, 0.0, 94.1, 98.7, 0.0, 0.0; 145.44; 763.56; 2.83; [4, 5]
0.2, 0.0, 0.0, 0.0, 88.3, 78.5, 88.2, 96.0; 112.95; 592.96; 2.99; [4, 5, 6, 7]
91.5, 82.8, 88.3, 90.3, 0.0, 0.0, 0.0, 0.0; 122.31; 642.13; 2.58; [0, 1, 2, 3]
0.0, 0.2, 0.0, 0.2, 85.5, 84.4, 87.7, 98.1; 80.64; 423.38; 2.91; [4, 5, 6, 7]
0.2, 0.0, 0.0, 0.0, 96.5, 97.8, 0.0, 0.0; 148.72; 780.77; 2.74; [4, 5]
0.5, 0.0, 0.2, 0.0, 85.7, 87.7, 86.6, 97.8; 98.72; 518.29; 2.99; [4, 5, 6, 7]
0.2, 0.2, 0.0, 0.0, 97.6, 98.9, 0.0, 0.0; 143.06; 751.06; 2.70; [4, 5]
0.0, 0.0, 0.0, 0.0, 89.6, 81.2, 84.7, 94.9; 119.72; 628.54; 2.94; [4, 5, 6, 7]
93.8, 84.9, 80.2, 92.1, 0.0, 0.0, 0.0, 0.0; 138.44; 726.78; 2.72; [0, 1, 2, 3]
0.2, 0.0, 0.2, 0.4, 89.5, 86.9, 86.8, 93.6; 87.53; 459.55; 2.93; [4, 5, 6, 7]
0.2, 0.0, 0.0, 0.0, 95.3, 97.7, 0.0, 0.0; 148.29; 778.50; 2.78; [4, 5]
0.4, 0.0, 0.0, 0.0, 87.5, 84.7, 84.5, 96.9; 111.93; 587.64; 2.94; [4, 5, 6, 7]
86.4, 88.5, 91.6, 77.8, 0.0, 0.0, 0.0, 0.0; 137.05; 719.49; 2.65; [0, 1, 2, 3]
0.0, 0.2, 0.0, 0.0, 86.4, 88.1, 85.7, 95.5; 86.52; 454.21; 2.97; [4, 5, 6, 7]
0.0, 0.0, 0.0, 0.2, 97.2, 97.0, 0.0, 0.0; 143.32; 752.42; 2.75; [4, 5]
0.6, 0.2, 0.0, 0.2, 84.6, 81.4, 86.4, 94.7; 135.21; 709.87; 2.91; [4, 5, 6, 7]
86.1, 85.5, 90.7, 95.5, 0.0, 0.2, 0.0, 0.0; 122.92; 645.34; 2.82; [0, 1, 2, 3]
