Beat	Tag	Timestamp	Global_Rate	Window_Rate	Instant_Rate	Global_Accuracy	Window_Accuracy	Instant_Accuracy	Global_Power	Window_Power	Instant_Power	Instant_Latency	Window_Latency	Global_latency	total_energy
0	0	1449840915920611870	0.000000	0.000000	0.000000	1.000000	1.000000	1.000000	0.000000	0.000000	0.000000	0	0	0	1.298340
1	1	1449840916645089153	2.760611	1.380306	1.380306	1.000000	1.000000	1.000000	1.792105	1.792105	1.792105	724477283	724477283	724477283	1.298340
2	2	1449840917420773917	1.999784	1.333189	1.289184	1.000000	1.000000	1.000000	2.207428	2.207428	2.595332	775684764	750081023	750081023	3.311499
3	3	1449840918203025777	1.752531	1.314398	1.278361	1.000000	1.000000	1.000000	2.290771	2.290771	2.450602	782251860	760804635	760804635	5.228487
4	4	1449840918990055230	1.628960	1.303168	1.270600	1.000000	1.000000	1.000000	2.317764	2.317764	2.396044	787029453	767360840	767360840	7.114244
5	5	1449840919774561927	1.556844	1.297370	1.274686	1.000000	1.000000	1.000000	2.334835	2.334835	2.401626	784506697	770790011	770790011	8.998336
6	6	1449840920557532370	1.509623	1.293962	1.277187	1.000000	1.000000	1.000000	2.357435	2.357435	2.468680	782970443	772820083	772820083	10.931239
7	7	1449840921332441046	1.478243	1.293463	1.290475	1.000000	1.000000	1.000000	2.371521	2.371521	2.455809	774908676	773118453	773118453	12.834267
8	8	1449840922106920137	1.454826	1.293178	1.291190	1.000000	1.000000	1.000000	2.381767	2.381767	2.453364	774479091	773288533	773288533	14.734346
9	9	1449840922883552524	1.436175	1.292557	1.287610	1.000000	1.000000	1.000000	2.391280	2.391280	2.467056	776632387	773660072	773660072	16.650341
10	10	1449840923662675665	1.420810	1.291645	1.283494	1.000000	1.000000	1.000000	2.399655	2.399655	2.474505	779123141	774206379	774206379	18.578285
11	11	1449840924448285236	1.407183	1.289918	1.272897	1.000000	1.000000	1.000000	2.404952	2.404952	2.457153	785609571	775243033	775243033	20.508648
12	12	1449840925218692150	1.398138	1.290589	1.298015	1.000000	1.000000	1.000000	2.378222	2.378222	2.082336	770406914	774840023	774840023	22.112895
13	13	1449840925990077899	1.390342	1.291032	1.296368	1.000000	1.000000	1.000000	2.386475	2.386475	2.485958	771385749	774574309	774574309	24.030527
14	14	1449840926770765749	1.382469	1.290304	1.280922	1.000000	1.000000	1.000000	2.391313	2.391313	2.453721	780687850	775010991	775010991	25.946117
15	15	1449840927551275099	1.375674	1.289694	1.281215	1.000000	1.000000	1.000000	2.396122	2.396122	2.462974	780509350	775377548	775377548	27.868492
16	16	1449840928324316433	1.370558	1.289937	1.293592	1.000000	1.000000	1.000000	2.401350	2.401350	2.479999	773041334	775231535	775231535	29.785633
17	17	1449840929095921888	1.366192	1.290292	1.295999	1.000000	1.000000	1.000000	2.402551	2.402551	2.421856	771605455	775018236	775018236	31.654351
18	18	1449840929860467287	1.362998	1.291262	1.307967	1.000000	1.000000	1.000000	2.407005	2.407005	2.483760	764545399	774436412	774436412	33.553298
19	19	1449840930610371572	1.361493	1.293418	1.333504	1.000000	1.000000	1.000000	2.408912	2.408912	2.444362	749904285	773145247	773145247	35.386335
20	20	1449840931356354973	1.360479	1.295694	1.340512	1.000000	1.000000	1.000000	2.412312	2.412312	2.479276	745983401	771787155	771787155	37.235834
21	21	1449840932107612426	1.359115	1.297337	1.331102	1.000000	1.000000	1.000000	2.412780	2.412780	2.422399	751257453	770809550	770809550	39.055679
22	22	1449840932859543255	1.357819	1.298783	1.329910	1.000000	1.000000	1.000000	2.413918	2.413918	2.438409	751930829	769951426	769951426	40.889194
23	23	1449840933618205472	1.356117	1.299612	1.318110	1.000000	1.000000	1.000000	2.413023	2.413023	2.393047	758662217	769460591	769460591	42.704708
24	24	1449840934387265460	1.353792	1.299640	1.300289	1.000000	1.000000	1.000000	2.413590	2.413590	2.426638	769059988	769443899	769443899	44.570939
25	25	1449840935143792089	1.352534	1.300513	1.321831	1.000000	1.000000	1.000000	2.407277	2.407277	2.253169	756526629	768927208	768927208	46.275521
26	26	1449840935924373516	1.349746	1.299756	1.281096	1.000000	1.000000	1.000000	2.412503	2.412503	2.541205	780581427	769375447	769375447	48.259138
27	27	1449840936688565617	1.348231	1.300080	1.308571	1.000000	1.000000	1.000000	2.413716	2.413716	2.445468	764192101	769183472	769183472	50.127945
28	28	1449840937449953004	1.346999	1.300551	1.313392	1.000000	1.000000	1.000000	2.417380	2.417380	2.517322	761387387	768905040	768905040	52.044603
29	29	1449840938207687591	1.346072	1.301203	1.319723	1.000000	1.000000	1.000000	2.418317	2.418317	2.444933	757734587	768519852	768519852	53.897213
30	30	1449840938961551211	1.345431	1.302030	1.326500	1.000000	1.000000	1.000000	2.419595	2.419595	2.457366	753863620	768031311	768031311	55.749731
31	31	1449840939715864373	1.344806	1.300346	1.325709	1.000000	1.000000	1.000000	2.421242	2.440999	2.471578	754313162	769025841	767588790	57.614075
32	32	1449840940471428954	1.344151	1.301481	1.323514	1.000000	1.000000	1.000000	2.421238	2.435153	2.421107	755564581	768355169	767213033	59.443378
33	33	1449840941221111523	1.343847	1.303323	1.333898	1.000000	1.000000	1.000000	2.424565	2.437832	2.533506	749682569	767269525	766681807	61.342703
34	34	1449840941978377065	1.343170	1.305010	1.320541	1.000000	1.000000	1.000000	2.425515	2.439902	2.457259	757265542	766277394	766404858	63.203500
35	35	1449840942735192605	1.342553	1.306584	1.321326	1.000000	1.000000	1.000000	2.426903	2.442356	2.474678	756815540	765354355	766130878	65.076375
36	36	1449840943479157119	1.342596	1.308808	1.344150	1.000000	1.000000	1.000000	2.426647	2.440648	2.417441	743964514	764054158	765515145	66.874865
37	37	1449840944233380903	1.342151	1.309990	1.325866	1.000000	1.000000	1.000000	2.428774	2.442304	2.506501	754223784	763364661	765209973	68.765328
38	38	1449840944992113112	1.341520	1.310891	1.317988	1.000000	1.000000	1.000000	2.428890	2.441628	2.433197	758732209	762839765	765039506	70.611473
39	39	1449840945743089972	1.341270	1.312363	1.331599	1.000000	1.000000	1.000000	2.428628	2.440005	2.418511	750976860	761984581	764678925	72.427719
40	40	1449840946488670278	1.341269	1.314291	1.341237	1.000000	1.000000	1.000000	2.430578	2.441066	2.508555	745580306	760866486	764201460	74.298048
41	41	1449840947232043580	1.341363	1.316727	1.345219	1.000000	1.000000	1.000000	2.429805	2.439107	2.398019	743373302	759458611	763693456	76.080672
42	42	1449840947976434591	1.341410	1.318233	1.343380	1.000000	1.000000	1.000000	2.429302	2.450171	2.408134	744391011	758591414	763233874	77.873265
43	43	1449840948730589288	1.341055	1.319232	1.325988	1.000000	1.000000	1.000000	2.429404	2.448413	2.433740	754154697	758017045	763022730	79.708682
44	44	1449840949484673819	1.340720	1.320777	1.326111	1.000000	1.000000	1.000000	2.430514	2.449240	2.478822	754084531	757130268	762819589	81.577923
45	45	1449840950238933390	1.340392	1.322305	1.325804	1.000000	1.000000	1.000000	2.429282	2.446281	2.374444	754259571	756255275	762629367	83.368871
46	46	1449840950996602301	1.339948	1.323201	1.319838	1.000000	1.000000	1.000000	2.431136	2.447431	2.515113	757668911	755742861	762521531	85.274493
47	47	1449840951758795721	1.339354	1.323751	1.312003	1.000000	1.000000	1.000000	2.431642	2.448555	2.454953	762193420	755429127	762514550	87.145643
48	48	1449840952528907615	1.338494	1.323426	1.298513	1.000000	1.000000	1.000000	2.432175	2.447653	2.456968	770111894	755614677	762672828	89.037783
49	49	1449840953296469586	1.337762	1.322396	1.302826	1.000000	1.000000	1.000000	2.431889	2.446767	2.418226	767561971	756203267	762772606	90.893921
50	50	1449840954064839934	1.337031	1.321092	1.301456	1.000000	1.000000	1.000000	2.426332	2.435861	2.156023	768370348	756949498	762884561	92.550545
51	51	1449840954830284733	1.336429	1.320267	1.306430	1.000000	1.000000	1.000000	2.426584	2.436417	2.439160	765444799	757422409	762934762	94.417587
52	52	1449840955598360662	1.335761	1.319330	1.301955	1.000000	1.000000	1.000000	2.427685	2.437940	2.483440	768075929	757960579	763033630	96.325057
53	53	1449840956354877317	1.335501	1.319454	1.321848	1.000000	1.000000	1.000000	2.427929	2.439532	2.440766	756516655	757889060	762910668	98.171537
54	54	1449840957124334748	1.334831	1.319431	1.299617	1.000000	1.000000	1.000000	2.428177	2.440025	2.441219	769457431	757902309	763031905	100.049951
55	55	1449840957886195204	1.334427	1.319122	1.312576	1.000000	1.000000	1.000000	2.428523	2.446482	2.447235	761860456	758080103	763010606	101.914403
56	56	1449840958651683376	1.333924	1.319998	1.306356	1.000000	1.000000	1.000000	2.428651	2.442863	2.435623	765488172	757576995	763054848	103.778844
57	57	1449840959405021022	1.333811	1.320629	1.327426	1.000000	1.000000	1.000000	2.428953	2.442883	2.446121	753337646	757215179	762884371	105.621599
58	58	1449840960145051767	1.334104	1.321871	1.351295	1.000000	1.000000	1.000000	2.428660	2.439360	2.411412	740030745	756503291	762490343	107.406118
59	59	1449840961105755247	1.327870	1.310154	1.040904	1.000000	1.000000	1.000000	2.422181	2.425943	2.123961	960703480	763268921	765849887	109.446615
60	60	1449840961850122166	1.328122	1.310698	1.343423	1.000000	1.000000	1.000000	2.422947	2.426321	2.469396	744366919	762952364	765491838	111.284752
61	61	1449840962591474661	1.328452	1.311440	1.348886	1.000000	1.000000	1.000000	2.423008	2.424845	2.426811	741352495	762520341	765096111	113.083874
62	62	1449840963332693572	1.328775	1.312263	1.349129	1.000000	1.000000	1.000000	2.422458	2.423768	2.387825	741218911	762042152	764710995	114.853776
63	63	1449840964047474721	1.329819	1.314270	1.399030	1.000000	1.000000	1.000000	2.422558	2.420334	2.429201	714781149	760878772	763918457	116.590122
64	64	1449840964777039774	1.330429	1.315867	1.370680	1.000000	1.000000	1.000000	2.422589	2.419245	2.424639	729565053	759955423	763381686	118.359054
65	65	1449840965502770569	1.331124	1.317663	1.377921	1.000000	1.000000	1.000000	2.422370	2.417033	2.407643	725730795	758919265	762802441	120.106355
66	66	1449840966237379798	1.331564	1.318205	1.361268	1.000000	1.000000	1.000000	2.422708	2.417939	2.445526	734609229	758607422	762375271	121.902861
67	67	1449840966993075194	1.331442	1.318120	1.323284	1.000000	1.000000	1.000000	2.422938	2.415677	2.438206	755695396	758656476	762275572	123.745402
68	68	1449840967759021402	1.331059	1.317702	1.305575	1.000000	1.000000	1.000000	2.422477	2.414287	2.391719	765946208	758896943	762329551	125.577330
69	69	1449840968535797714	1.330414	1.316210	1.287372	1.000000	1.000000	1.000000	2.423114	2.415900	2.465684	776776312	759756924	762538925	127.492615
70	70	1449840969316272867	1.329696	1.314198	1.281271	1.000000	1.000000	1.000000	2.423591	2.414234	2.455705	780475153	760920086	762795157	129.409231
71	71	1449840970100232484	1.328913	1.311866	1.275576	1.000000	1.000000	1.000000	2.424126	2.416351	2.460594	783959617	762272963	763093248	131.338238
72	72	1449840970888285901	1.328053	1.309366	1.268950	1.000000	1.000000	1.000000	2.425030	2.419054	2.487187	788053417	763728377	763439917	133.298274
73	73	1449840971670794264	1.327350	1.307748	1.277942	1.000000	1.000000	1.000000	2.425367	2.419593	2.448996	782508363	764673500	763701128	135.214634
74	74	1449840972450844830	1.326724	1.306269	1.281968	1.000000	1.000000	1.000000	2.426078	2.419596	2.476952	780050566	765539034	763922067	137.146782
75	75	1449840973236620490	1.325982	1.304479	1.272628	1.000000	1.000000	1.000000	2.421983	2.411091	2.127319	785775660	766589571	764213448	138.818377
76	76	1449840974018683226	1.325345	1.303097	1.278670	1.000000	1.000000	1.000000	2.422403	2.409098	2.453208	782062736	767402698	764448307	140.736940
77	77	1449840974800134460	1.324739	1.302008	1.279670	1.000000	1.000000	1.000000	2.422725	2.408855	2.446670	781451234	768044625	764669124	142.648893
78	78	1449840975575489347	1.324284	1.301711	1.289732	1.000000	1.000000	1.000000	2.423270	2.409126	2.464677	775354887	768219391	764806121	144.559892
79	79	1449840976364126095	1.323550	1.300522	1.268011	1.000000	1.000000	1.000000	2.423980	2.411166	2.477650	788636748	768921883	765107775	146.513859
80	80	1449840977143691406	1.323030	1.299891	1.282766	1.000000	1.000000	1.000000	2.423699	2.419348	2.401932	779565311	769295049	765288494	148.386321
81	81	1449840977924204553	1.322504	1.299043	1.281208	1.000000	1.000000	1.000000	2.424414	2.420758	2.480499	780513147	769797327	765476452	150.322383
82	82	1449840978704401365	1.321997	1.298362	1.281728	1.000000	1.000000	1.000000	2.425261	2.421099	2.492545	780196812	770201357	765655969	152.267059
83	83	1449840979479204498	1.321615	1.297335	1.290650	1.000000	1.000000	1.000000	2.425922	2.422412	2.479505	774803133	770810907	765766176	154.188187
84	84	1449840980255047217	1.321221	1.296977	1.288921	1.000000	1.000000	1.000000	2.425775	2.421495	2.413730	775842719	771023749	765886135	156.060862
85	85	1449840981040663913	1.320638	1.295646	1.272885	1.000000	1.000000	1.000000	2.426757	2.423556	2.507205	785616696	771815624	766118259	158.030564
86	86	1449840981820136513	1.320192	1.294864	1.282919	1.000000	1.000000	1.000000	2.427040	2.424069	2.450635	779472600	772281772	766273542	159.940767
87	87	1449840982595793146	1.319831	1.293618	1.289230	1.000000	1.000000	1.000000	2.426353	2.421479	2.368044	775656633	773025739	766381393	161.777556
88	88	1449840983683977278	1.313394	1.274485	0.918962	1.000000	1.000000	1.000000	2.427048	2.424019	2.469577	1088184132	784630852	770038243	164.464910
89	89	1449840985026539458	1.302348	1.254139	0.744844	1.000000	1.000000	1.000000	2.403358	2.367802	1.207688	1342562180	797359475	776471096	166.086306
90	90	1449840986412306473	1.290932	1.221390	0.721622	1.000000	1.000000	1.000000	2.380115	2.300024	1.221022	1385767015	818739478	783241051	167.778357
91	91	1449840987746230132	1.280880	1.192617	0.749668	1.000000	1.000000	1.000000	2.357964	2.237285	1.187375	1333923659	838491850	789292508	169.362225
92	92	1449840989068611392	1.271395	1.165686	0.756212	1.000000	1.000000	1.000000	2.336698	2.178706	1.181621	1322381260	857863928	795086951	170.924778
93	93	1449840990360468465	1.262764	1.140121	0.774079	1.000000	1.000000	1.000000	2.316379	2.122176	1.165881	1291857073	877099792	800428565	172.430931
94	94	1449840991634004583	1.254732	1.117029	0.785215	1.000000	1.000000	1.000000	2.297116	2.068862	1.171136	1273536118	895232160	805461624	173.922414
95	95	1449840992861005148	1.247719	1.096562	0.814996	1.000000	1.000000	1.000000	2.279000	2.019164	1.161129	1227000565	911941152	809898876	175.347120
96	96	1449840993720226023	1.246793	1.091590	1.163845	1.000000	1.000000	1.000000	2.271962	1.995970	1.641797	859220875	916094873	810412647	176.757787
97	97	1449840994547505917	1.246393	1.088754	1.208781	1.000000	1.000000	1.000000	2.271671	1.991296	2.244264	827279894	918481023	810586536	178.614421
98	98	1449840995380474738	1.245912	1.086112	1.200525	1.000000	1.000000	1.000000	2.271559	1.988326	2.261037	832968821	920715110	810814927	180.497795
99	99	1449840996210421595	1.245488	1.084026	1.204896	1.000000	1.000000	1.000000	2.271530	1.983337	2.268719	829946857	922487462	811008179	182.380711
100	100	1449840997056959900	1.244818	1.081444	1.181281	1.000000	1.000000	1.000000	2.271793	1.979610	2.296707	846538305	924689567	811363480	184.324961
101	101	1449840997915425728	1.243981	1.078547	1.164869	1.000000	1.000000	1.000000	2.272072	1.975895	2.298479	858465828	927173107	811829840	186.298127
102	102	1449840998810084253	1.242619	1.074429	1.117745	1.000000	1.000000	1.000000	2.272725	1.972892	2.332539	894658525	930726610	812641886	188.384953
103	103	1449840999710465413	1.241200	1.069913	1.110641	1.000000	1.000000	1.000000	2.272874	1.969677	2.286574	900381160	934655703	813493723	190.443741
104	104	1449841000606831856	1.239871	1.065493	1.115615	1.000000	1.000000	1.000000	2.273541	1.967284	2.335944	896366443	938532899	814290576	192.537603
105	105	1449841001511793607	1.238445	1.061001	1.105019	1.000000	1.000000	1.000000	2.274264	1.974826	2.341894	904961751	942505768	815154111	194.656927
106	106	1449841002414734436	1.237078	1.056485	1.107492	1.000000	1.000000	1.000000	2.274587	1.972157	2.305216	902940829	946535038	815982288	196.738401
107	107	1449841003324389820	1.235645	1.051736	1.099317	1.000000	1.000000	1.000000	2.274930	1.969852	2.307523	909655384	950808510	816857737	198.837452
108	108	1449841004232947868	1.234256	1.046848	1.100645	1.000000	1.000000	1.000000	2.275688	1.968473	2.348631	908558048	955248616	817706814	200.971320
109	109	1449841005134352109	1.232994	1.042745	1.109380	1.000000	1.000000	1.000000	2.275947	1.964943	2.301297	901404241	959007533	818474681	203.045719
110	110	1449841006044425199	1.231639	1.038036	1.098813	1.000000	1.000000	1.000000	2.276413	1.964405	2.322164	910073090	963357792	819307393	205.159058
111	111	1449841006957604379	1.230269	1.033293	1.095075	1.000000	1.000000	1.000000	2.276893	1.961847	2.324191	913179180	967779994	820153085	207.281460
112	112	1449841007862385999	1.229039	1.028878	1.105239	1.000000	1.000000	1.000000	2.277308	1.958733	2.319113	904781620	971932821	820908697	209.379751
113	113	1449841008757472474	1.227961	1.024651	1.117210	1.000000	1.000000	1.000000	2.277476	1.955222	2.294686	895086475	975942265	821565138	211.433693
114	114	1449841009669442566	1.226682	1.019909	1.096527	1.000000	1.000000	1.000000	2.277923	1.954545	2.323473	911970092	980479845	822358164	213.552631
115	115	1449841010572332055	1.225546	1.015859	1.107555	1.000000	1.000000	1.000000	2.278457	1.951440	2.333846	902889489	984388938	823058436	215.659836
116	116	1449841011486008523	1.224293	1.011263	1.094479	1.000000	1.000000	1.000000	2.279167	1.950683	2.352743	913676468	988862400	823839626	217.809482
117	117	1449841012400752868	1.223050	1.006544	1.093202	1.000000	1.000000	1.000000	2.279858	1.952140	2.352066	914744345	993498657	824616589	219.961021
118	118	1449841013315251544	1.221833	1.012444	1.093495	1.000000	1.000000	1.000000	2.280205	1.944391	2.316762	914498676	987709142	825378302	222.079697
119	119	1449841014227981633	1.220661	1.027347	1.095614	1.000000	1.000000	1.000000	2.280502	1.989758	2.312202	912730089	973381406	826112350	224.190113
120	120	1449841015142730184	1.219486	1.044189	1.093197	1.000000	1.000000	1.000000	2.281190	2.038471	2.355145	914748551	957680791	826850985	226.344479
121	121	1449841016054653686	1.218367	1.059755	1.096583	1.000000	1.000000	1.000000	2.281403	2.087147	2.304558	911923502	943614120	827554064	228.446060
122	122	1449841016961865846	1.217325	1.075529	1.102278	1.000000	1.000000	1.000000	2.281507	2.136773	2.293043	907212160	929775150	828206999	230.526337
123	123	1449841017879096940	1.216181	1.090171	1.090238	1.000000	1.000000	1.000000	2.281694	2.187867	2.302251	917231094	917287617	828930772	232.638033
124	124	1449841018782521966	1.215221	1.105033	1.106899	1.000000	1.000000	1.000000	2.281854	2.239291	2.299929	903425026	904950581	829531533	234.715847
125	125	1449841019685226905	1.214287	1.118392	1.107782	1.000000	1.000000	1.000000	2.282204	2.291396	2.322112	902704939	894140727	830116920	236.812029
126	126	1449841020561576126	1.213674	1.117679	1.141098	1.000000	1.000000	1.000000	2.282430	2.312769	2.309128	876349221	894711672	830483843	238.835632
127	127	1449841021438710514	1.213062	1.115606	1.140076	1.000000	1.000000	1.000000	2.281989	2.312158	2.229424	877134388	896373488	830851170	240.791136
128	128	1449841022293181024	1.212719	1.114715	1.170315	1.000000	1.000000	1.000000	2.282032	2.312954	2.287395	854470510	897090211	831035696	242.745648
129	129	1449841023116015346	1.212739	1.115010	1.215311	1.000000	1.000000	1.000000	2.282134	2.313776	2.295227	822834322	896853126	830972119	244.634240
130	130	1449841023929708274	1.212861	1.116373	1.228965	1.000000	1.000000	1.000000	2.282343	2.314198	2.309934	813692928	895758280	830839203	246.513817
131	131	1449841024742668409	1.212989	1.118266	1.230073	1.000000	1.000000	1.000000	2.282511	2.314417	2.304828	812960135	894241424	830702721	248.387550
132	132	1449841025554106915	1.213133	1.121746	1.232379	1.000000	1.000000	1.000000	2.282819	2.314106	2.324140	811438506	891467424	830556780	250.273447
133	133	1449841026363173666	1.213300	1.125589	1.235992	1.000000	1.000000	1.000000	2.283075	2.315145	2.317708	809066751	888423610	830395201	252.148627
134	134	1449841027182286769	1.213356	1.128861	1.220833	1.000000	1.000000	1.000000	2.283252	2.314197	2.307155	819113103	885848499	830311006	254.038448
135	135	1449841028014739606	1.213266	1.131950	1.201269	1.000000	1.000000	1.000000	2.283383	2.312833	2.300875	832452837	883431535	830326872	255.953818
136	136	1449841028864265392	1.212994	1.134236	1.177127	1.000000	1.000000	1.000000	2.283630	2.313201	2.316190	849525786	881651034	830468040	257.921481
137	137	1449841029743867695	1.212406	1.135526	1.136877	1.000000	1.000000	1.000000	2.284007	2.314036	2.332410	879602303	880649264	830826684	259.973074
138	138	1449841030642793702	1.211623	1.135940	1.112439	1.000000	1.000000	1.000000	2.284783	2.315195	2.383048	898926007	880328196	831320158	262.115258
139	139	1449841031542754377	1.210841	1.136002	1.111160	1.000000	1.000000	1.000000	2.285103	2.316033	2.325882	899960675	880280077	831813974	264.208461
140	140	1449841032435521203	1.210146	1.136747	1.120113	1.000000	1.000000	1.000000	2.285319	2.315733	2.313395	892766826	879703202	832249352	266.273783
141	141	1449841033327439485	1.209470	1.137664	1.121179	1.000000	1.000000	1.000000	2.285313	2.314381	2.284413	891918282	878994505	832672536	268.311293
142	142	1449841034219779393	1.208800	1.138201	1.120649	1.000000	1.000000	1.000000	2.285674	2.314858	2.333275	892339908	878579781	833092729	270.393367
143	143	1449841035112845968	1.208132	1.138288	1.119737	1.000000	1.000000	1.000000	2.285758	2.314932	2.296833	893066575	878512451	833512126	272.444592
144	144	1449841036010499426	1.207429	1.138906	1.114016	1.000000	1.000000	1.000000	2.286167	2.315508	2.340501	897653458	878035229	833957552	274.545551
145	145	1449841036908043967	1.206737	1.139138	1.114151	1.000000	1.000000	1.000000	2.286873	2.317123	2.381341	897544541	877857064	834396083	276.682911
146	146	1449841037802421208	1.206086	1.139973	1.118096	1.000000	1.000000	1.000000	2.286954	2.315233	2.297913	894377241	877213756	834806913	278.738112
147	147	1449841038705047341	1.205365	1.140498	1.107878	1.000000	1.000000	1.000000	2.287215	2.314201	2.322490	902626133	876809815	835268268	280.834452
148	148	1449841039604806633	1.204681	1.141138	1.111408	1.000000	1.000000	1.000000	2.287435	2.314221	2.317389	899759292	876318502	835704018	282.919544
149	149	1449841040501175418	1.204040	1.141848	1.115612	1.000000	1.000000	1.000000	2.287594	2.314134	2.309610	896368785	875773125	836111164	284.989806
150	150	1449841041406905805	1.203319	1.142240	1.104081	1.000000	1.000000	1.000000	2.287784	2.312696	2.313848	905730387	875472519	836575292	287.085529
151	151	1449841042304343007	1.202686	1.142871	1.114284	1.000000	1.000000	1.000000	2.288057	2.313440	2.326192	897437202	874989642	836978351	289.173140
152	152	1449841043211756853	1.201969	1.142862	1.102033	1.000000	1.000000	1.000000	2.288367	2.314771	2.331562	907413846	874996365	837441743	291.288831
153	153	1449841044111978393	1.201329	1.143603	1.110838	1.000000	1.000000	1.000000	2.288429	2.314608	2.297254	900221540	874429380	837852068	293.356869
154	154	1449841045019514780	1.200630	1.143424	1.101884	1.000000	1.000000	1.000000	2.288322	2.313680	2.273166	907536387	874566425	838304564	295.419850
155	155	1449841045928580293	1.199926	1.143147	1.100031	1.000000	1.000000	1.000000	2.288467	2.313230	2.309076	909065513	874778444	838761086	297.518951
156	156	1449841046836749971	1.199241	1.141762	1.101116	1.000000	1.000000	1.000000	2.288578	2.313064	2.304464	908169678	875839126	839206013	299.611795
157	157	1449841047735278547	1.198653	1.140833	1.112931	1.000000	1.000000	1.000000	2.288736	2.315811	2.311802	898528576	876552266	839583864	301.689014
158	158	1449841048639590549	1.198020	1.138675	1.105813	1.000000	1.000000	1.000000	2.288924	2.316746	2.316211	904312002	878213649	839993535	303.783592
159	159	1449841049532295611	1.197500	1.135663	1.120191	1.000000	1.000000	1.000000	2.289093	2.317335	2.314328	892705062	880542674	840325054	305.849604
160	160	1449841050425384091	1.196984	1.132260	1.119710	1.000000	1.000000	1.000000	2.289244	2.317376	2.311828	893088480	883189193	840654826	307.914271
161	161	1449841051309144134	1.196556	1.129243	1.131529	1.000000	1.000000	1.000000	2.289500	2.318127	2.328392	883760043	885549190	840922560	309.972010
162	162	1449841052175957769	1.196283	1.126894	1.153651	1.000000	1.000000	1.000000	2.289627	2.317661	2.309444	866813635	887395027	841082382	311.973868
163	163	1449841053040199274	1.196036	1.124563	1.157084	1.000000	1.000000	1.000000	2.289853	2.317913	2.325483	864241505	889234186	841224462	313.983646
164	164	1449841053885221741	1.195959	1.123472	1.183400	1.000000	1.000000	1.000000	2.289873	2.317458	2.293119	845022467	890097831	841247621	315.921384
165	165	1449841054709970668	1.196057	1.123796	1.212490	1.000000	1.000000	1.000000	2.290118	2.318397	2.331096	824748927	889841034	841147629	317.843952
166	166	1449841055519339481	1.196286	1.125489	1.235531	1.000000	1.000000	1.000000	2.290158	2.317820	2.297079	809368813	888502468	840956190	319.703136
167	167	1449841056317417938	1.196608	1.128942	1.253010	1.000000	1.000000	1.000000	2.290354	2.317540	2.324595	798078457	885785007	840699437	321.558345
168	168	1449841057106506211	1.197003	1.133628	1.267285	1.000000	1.000000	1.000000	2.290571	2.315661	2.329152	789088273	882123749	840392228	323.396252
169	169	1449841057912908267	1.197248	1.137650	1.240076	1.000000	1.000000	1.000000	2.290764	2.315587	2.324649	806402056	879005128	840191102	325.270854
170	170	1449841058733987809	1.197367	1.140751	1.217909	1.000000	1.000000	1.000000	2.290839	2.315294	2.303816	821079542	876615552	840078681	327.162471
171	171	1449841059564279285	1.197407	1.143430	1.204396	1.000000	1.000000	1.000000	2.290954	2.316201	2.310759	830291476	874561325	840021446	329.081074
172	172	1449841060414998382	1.197278	1.145247	1.175476	1.000000	1.000000	1.000000	2.290953	2.314790	2.290692	850719097	873173965	840083642	331.029810
173	173	1449841061290765694	1.196944	1.146004	1.141856	1.000000	1.000000	1.000000	2.291075	2.315284	2.311242	875767312	872597323	840289906	333.053920
174	174	1449841062185615542	1.196458	1.146127	1.117506	1.000000	1.000000	1.000000	2.291637	2.316734	2.382978	894849848	872503870	840603469	335.186327
175	175	1449841063166097679	1.195283	1.142507	1.019906	1.000000	1.000000	1.000000	2.291827	2.314653	2.320151	980482137	875268456	841402776	337.461194
176	176	1449841063904638809	1.196075	1.149328	1.354021	1.000000	1.000000	1.000000	2.293142	2.322036	2.555312	738541130	870073919	840818334	339.348397
177	177	1449841064651416411	1.196793	1.156231	1.339087	1.000000	1.000000	1.000000	2.295273	2.333405	2.717591	746777602	864878968	840287031	341.377833
178	178	1449841065390094206	1.197569	1.163454	1.353770	1.000000	1.000000	1.000000	2.296909	2.342352	2.626236	738677795	859509585	839716192	343.317776
179	179	1449841066131463548	1.198316	1.170490	1.348855	1.000000	1.000000	1.000000	2.298805	2.353295	2.681077	741369342	854342937	839166769	345.305444
180	180	1449841066873450598	1.199050	1.178016	1.347732	1.000000	1.000000	1.000000	2.300940	2.365769	2.733264	741987050	848884826	838626881	347.333491
181	181	1449841067609091511	1.199827	1.185548	1.359359	1.000000	1.000000	1.000000	2.302697	2.375815	2.663044	735640913	843491616	838057898	349.292535
182	182	1449841068345781509	1.200589	1.193601	1.357423	1.000000	1.000000	1.000000	2.304758	2.387772	2.729273	736689998	837800821	837500932	351.303163
183	183	1449841069076661495	1.201389	1.201698	1.368214	1.000000	1.000000	1.000000	2.306585	2.399811	2.687485	730879986	832156103	836918303	353.267392
184	184	1449841069812928199	1.202139	1.209999	1.358203	1.000000	1.000000	1.000000	2.308668	2.414613	2.742143	736266704	826447114	836371284	355.286341
185	185	1449841070545385145	1.202912	1.218680	1.365268	1.000000	1.000000	1.000000	2.310085	2.424256	2.607715	732456946	820560162	835809585	357.196380
186	186	1449841071281911807	1.203646	1.227237	1.357724	1.000000	1.000000	1.000000	2.312182	2.438595	2.752462	736526662	814838728	835275806	359.223641
187	187	1449841072020565890	1.204357	1.235316	1.353814	1.000000	1.000000	1.000000	2.314011	2.451199	2.698744	738654083	809509578	834759112	361.217080
188	188	1449841072760852766	1.205048	1.243716	1.350828	1.000000	1.000000	1.000000	2.315528	2.461910	2.635306	740286876	804042074	834256600	363.167962
189	189	1449841073501147809	1.205733	1.251624	1.350813	1.000000	1.000000	1.000000	2.317478	2.475708	2.730701	740295043	798961740	833759449	365.189486
190	190	1449841074240722183	1.206417	1.259692	1.352129	1.000000	1.000000	1.000000	2.319026	2.487225	2.648686	739574374	793844603	833263738	367.148386
191	191	1449841074966911531	1.207196	1.268082	1.377051	1.000000	1.000000	1.000000	2.320767	2.499701	2.700365	726189348	788592246	832703139	369.109362
192	192	1449841075698750973	1.207925	1.275359	1.366420	1.000000	1.000000	1.000000	2.322378	2.512088	2.672501	731839442	784093107	832177807	371.065204
193	193	1449841076436072550	1.208606	1.282277	1.356260	1.000000	1.000000	1.000000	2.324177	2.525348	2.714091	737321577	779862442	831686324	373.066361
194	194	1449841077163025565	1.209359	1.288781	1.375605	1.000000	1.000000	1.000000	2.325876	2.539261	2.700908	726953015	775926794	831146462	375.029794
195	195	1449841077887059157	1.210127	1.294382	1.381151	1.000000	1.000000	1.000000	2.327370	2.550445	2.660172	724033592	772569617	830597165	376.955848
196	196	1449841078612041709	1.210881	1.299112	1.379344	1.000000	1.000000	1.000000	2.328928	2.563302	2.677099	724982552	769756742	830058315	378.896699
197	197	1449841079319336309	1.211760	1.304239	1.413838	1.000000	1.000000	1.000000	2.330053	2.572367	2.588778	707294600	766730613	829435149	380.727727
198	198	1449841080020298273	1.212678	1.309255	1.426611	1.000000	1.000000	1.000000	2.331621	2.584560	2.697133	700961964	763793069	828786294	382.618315
199	199	1449841080706263749	1.213698	1.316173	1.457799	1.000000	1.000000	1.000000	2.332893	2.595338	2.637153	685965476	759778516	828068602	384.427311
200	200	1449841081380858786	1.214793	1.324686	1.482371	1.000000	1.000000	1.000000	2.334464	2.609566	2.718168	674595037	754895699	827301234	386.260974
201	201	1449841082052725276	1.215900	1.334018	1.488391	1.000000	1.000000	1.000000	2.335705	2.621546	2.641308	671866490	749614866	826527927	388.035580
202	202	1449841082706944481	1.217126	1.345778	1.528540	1.000000	1.000000	1.000000	2.337071	2.636004	2.683930	654219205	743064869	825674913	389.791459
203	203	1449841083501699955	1.217321	1.350686	1.258249	1.000000	1.000000	1.000000	2.339006	2.652715	2.745159	794755474	740364475	825522601	391.973189
204	204	1449841084326682943	1.217296	1.354948	1.212146	1.000000	1.000000	1.000000	2.339260	2.653861	2.390911	824982988	738035579	825519956	393.945650
205	205	1449841085154179769	1.217253	1.364375	1.208464	1.000000	1.000000	1.000000	2.339130	2.655898	2.312566	827496826	732936069	825529599	395.859292
206	206	1449841086271796272	1.215137	1.341252	0.894761	1.000000	1.000000	1.000000	2.336572	2.623912	1.949282	1117616503	745571915	826947497	398.037841
207	207	1449841087101689851	1.215088	1.336287	1.204974	1.000000	1.000000	1.000000	2.336449	2.609231	2.311065	829893579	748342448	826961729	399.955779
208	208	1449841087938356609	1.214991	1.330479	1.195219	1.000000	1.000000	1.000000	2.336221	2.596814	2.289607	836666758	751608746	827008388	401.871417
209	209	1449841088791074939	1.214782	1.323941	1.172720	1.000000	1.000000	1.000000	2.335772	2.580831	2.245355	852718330	755320379	827131402	403.786072
210	210	1449841089668765441	1.214401	1.316060	1.139354	1.000000	1.000000	1.000000	2.335753	2.566284	2.331894	877690502	759843828	827372159	405.832753
211	211	1449841090570047569	1.213860	1.306566	1.109530	1.000000	1.000000	1.000000	2.335435	2.551717	2.274144	901282128	765365202	827722444	407.882399
212	212	1449841091484778807	1.213232	1.296512	1.093217	1.000000	1.000000	1.000000	2.335279	2.536332	2.305545	914731238	771299910	828132862	409.991352
213	213	1449841092398702541	1.212615	1.286337	1.094183	1.000000	1.000000	1.000000	2.335061	2.522062	2.293061	913923734	777401368	828535636	412.087035
214	214	1449841093323786588	1.211929	1.276006	1.080983	1.000000	1.000000	1.000000	2.334825	2.506038	2.289976	925084047	783695279	828986797	414.205456
215	215	1449841094237354154	1.211328	1.266252	1.094610	1.000000	1.000000	1.000000	2.334655	2.495008	2.301500	913567566	789732300	829380196	416.308032
216	216	1449841095154392684	1.210709	1.256677	1.090467	1.000000	1.000000	1.000000	2.334513	2.479839	2.306910	917038530	795749363	829786022	418.423557
217	217	1449841096067600331	1.210123	1.247555	1.095041	1.000000	1.000000	1.000000	2.334425	2.466935	2.317104	913207647	801567815	830170453	420.539554
218	218	1449841096981290479	1.209539	1.238623	1.094463	1.000000	1.000000	1.000000	2.334253	2.455510	2.300477	913690148	807347924	830553571	422.641477
219	219	1449841097897316588	1.208946	1.229701	1.091672	1.000000	1.000000	1.000000	2.333808	2.439284	2.245787	916026109	813205626	830943857	424.698677
220	220	1449841098809572273	1.208383	1.221058	1.096184	1.000000	1.000000	1.000000	2.333772	2.428794	2.326522	912255685	818961669	831313456	426.821060
221	221	1449841099726569549	1.207795	1.211648	1.090516	1.000000	1.000000	1.000000	2.333767	2.417279	2.332940	916997276	825321933	831701165	428.960359
222	222	1449841100640279068	1.207235	1.202813	1.094440	1.000000	1.000000	1.000000	2.333480	2.404598	2.275561	913709519	831384268	832070572	431.039561
223	223	1449841101557732885	1.206655	1.194189	1.089973	1.000000	1.000000	1.000000	2.333385	2.392216	2.314268	917453817	837388676	832453457	433.162795
224	224	1449841102476847247	1.206071	1.185123	1.088004	1.000000	1.000000	1.000000	2.333309	2.380661	2.318144	919114362	843794054	832840336	435.293435
225	225	1449841103391597766	1.205520	1.176261	1.093194	1.000000	1.000000	1.000000	2.333285	2.370850	2.328352	914750519	850151284	833204381	437.423296
226	226	1449841104306346492	1.204974	1.167574	1.093196	1.000000	1.000000	1.000000	2.333127	2.359714	2.300749	914748726	856476823	833565197	439.527903
227	227	1449841105218505213	1.204451	1.158338	1.096300	1.000000	1.000000	1.000000	2.333104	2.352351	2.328290	912158721	863305627	833911424	441.651673
228	228	1449841106129089722	1.203942	1.149038	1.098196	1.000000	1.000000	1.000000	2.332945	2.341262	2.299792	910584509	870293045	834247709	443.745828
229	229	1449841107032143758	1.203486	1.139563	1.107353	1.000000	1.000000	1.000000	2.332769	2.331992	2.295802	903054036	877529331	834548174	445.819061
230	230	1449841107941644263	1.202993	1.129485	1.099505	1.000000	1.000000	1.000000	2.331979	2.316500	2.165994	909500505	885359513	834874053	447.789033
231	231	1449841108851862061	1.202501	1.119439	1.098638	1.000000	1.000000	1.000000	2.331734	2.307120	2.280073	910217798	893304557	835200217	449.864396
232	232	1449841109759107644	1.202032	1.108969	1.102237	1.000000	1.000000	1.000000	2.331614	2.297974	2.306138	907245583	901738770	835510757	451.956630
233	233	1449841110654663412	1.201639	1.104852	1.116625	1.000000	1.000000	1.000000	2.331408	2.284516	2.286775	895555768	905098779	835768461	454.004564
234	234	1449841111524422548	1.201408	1.103033	1.149744	1.000000	1.000000	1.000000	2.331563	2.283901	2.366204	869759136	906591318	835913720	456.062592
235	235	1449841112390382343	1.201203	1.101475	1.154788	1.000000	1.000000	1.000000	2.331412	2.283457	2.297339	865959795	907873417	836041576	458.051995
236	236	1449841113253059964	1.201019	1.111883	1.159182	1.000000	1.000000	1.000000	2.331389	2.298663	2.326107	862677621	899375454	836154441	460.058676
237	237	1449841114101262891	1.200925	1.111129	1.178963	1.000000	1.000000	1.000000	2.331212	2.298010	2.289996	848202927	899985765	836205278	462.001057
238	238	1449841114933822580	1.200925	1.111298	1.201115	1.000000	1.000000	1.000000	2.331129	2.298683	2.311408	832559689	899848863	836189960	463.925442
239	239	1449841115763813888	1.200942	1.112234	1.204832	1.000000	1.000000	1.000000	2.331130	2.301379	2.331516	829991308	899091295	836164025	465.860580
240	240	1449841116581053421	1.201034	1.114732	1.223631	1.000000	1.000000	1.000000	2.331296	2.302523	2.371817	817239533	897076262	836085173	467.798923
241	241	1449841117407142512	1.201073	1.117856	1.210523	1.000000	1.000000	1.000000	2.331253	2.304037	2.320728	826089091	894569828	836043695	469.716051
242	242	1449841118241159284	1.201064	1.121228	1.199017	1.000000	1.000000	1.000000	2.331155	2.304090	2.307401	834016772	891879346	836035319	471.640462
243	243	1449841119077570602	1.201042	1.124485	1.195584	1.000000	1.000000	1.000000	2.331125	2.305088	2.323867	836411318	889295599	836036867	473.584171
244	244	1449841119921594267	1.200975	1.127913	1.184801	1.000000	1.000000	1.000000	2.330860	2.304409	2.267134	844023665	886593587	836069599	475.497686
245	245	1449841120795294611	1.200734	1.129606	1.144557	1.000000	1.000000	1.000000	2.330673	2.303938	2.287053	873700344	885264679	836223194	477.495885
246	246	1449841121681127186	1.200425	1.130934	1.128881	1.000000	1.000000	1.000000	2.330517	2.303515	2.294350	885832575	884224480	836424859	479.528295
247	247	1449841122568461805	1.200109	1.132039	1.126971	1.000000	1.000000	1.000000	2.330348	2.302637	2.291272	887334619	883362046	836630971	481.561420
248	248	1449841123491835032	1.199588	1.131625	1.082986	1.000000	1.000000	1.000000	2.330363	2.303791	2.333634	923373227	883684815	836980738	483.716235
249	249	1449841124219277308	1.200200	1.139733	1.374680	1.000000	1.000000	1.000000	2.331443	2.315090	2.639581	727442276	877398687	836540825	485.636378
250	250	1449841124948099629	1.200799	1.147731	1.372077	1.000000	1.000000	1.000000	2.332360	2.322484	2.594570	728822321	871284242	836109951	487.527359
251	251	1449841125669229518	1.201438	1.156397	1.386713	1.000000	1.000000	1.000000	2.333517	2.331745	2.668976	721129889	864755329	835651863	489.452037
252	252	1449841126403472472	1.201998	1.164452	1.361947	1.000000	1.000000	1.000000	2.335001	2.345911	2.758875	734242954	858773111	835249446	491.477722
253	253	1449841127124733402	1.202628	1.173388	1.386461	1.000000	1.000000	1.000000	2.335410	2.350119	2.454839	721260930	852233349	834798899	493.248302
254	254	1449841127847891252	1.203243	1.182450	1.382824	1.000000	1.000000	1.000000	2.336822	2.362652	2.749168	723157850	845701465	834359367	495.236384
255	255	1449841128582860665	1.203787	1.190889	1.360601	1.000000	1.000000	1.000000	2.338001	2.373097	2.677973	734969413	839708762	833969603	497.204612
256	256	1449841129304896345	1.204400	1.200070	1.384973	1.000000	1.000000	1.000000	2.338915	2.382530	2.608033	722035680	833284994	833532361	499.087705
257	257	1449841130037201460	1.204951	1.208766	1.365551	1.000000	1.000000	1.000000	2.340126	2.393688	2.693119	732305115	827289874	833138480	501.059890
258	258	1449841130770337785	1.205494	1.217471	1.364003	1.000000	1.000000	1.000000	2.340994	2.403129	2.594386	733136325	821374935	832750875	502.961929
259	259	1449841131500950687	1.206047	1.226051	1.368714	1.000000	1.000000	1.000000	2.342107	2.415036	2.669252	730612902	815626897	832356520	504.912119
260	260	1449841132233125343	1.206588	1.235001	1.365794	1.000000	1.000000	1.000000	2.343395	2.433638	2.722812	732174656	809716035	831971205	506.905693
