5.3, 2.2, 2.2, 2.6, 91.5, 70.0, 86.6, 94.4; 27.97; 750.48; 3.63; [4, 5, 6, 7]
99.6, 99.9, 99.9, 100.0, 0.0, 0.0, 0.2, 0.0; 88.63; 2378.06; 2.40; [0, 1, 2, 3]
1.6, 0.1, 0.0, 0.0, 99.7, 100.0, 99.9, 99.9; 77.27; 2073.28; 2.63; [4, 5, 6, 7]
100.0, 0.3, 0.3, 0.3, 0.0, 0.0, 0.0, 0.0; 81.31; 2181.53; 2.20; [0]
1.3, 0.2, 0.2, 0.0, 99.9, 100.0, 100.0, 0.0; 79.56; 2134.62; 2.31; [4, 5, 6]
100.0, 0.2, 0.4, 0.2, 0.0, 0.0, 0.0, 0.0; 75.20; 2017.52; 2.33; [0]
100.0, 100.0, 0.9, 0.2, 0.0, 0.0, 0.0, 0.0; 93.61; 2511.63; 2.05; [0, 1]
1.8, 0.2, 0.2, 0.0, 99.9, 100.0, 99.9, 99.8; 92.48; 2481.28; 2.10; [4, 5, 6, 7]
100.0, 100.0, 0.7, 0.4, 0.0, 0.1, 0.0, 0.0; 87.09; 2336.56; 2.13; [0, 1]
2.0, 0.0, 0.0, 0.4, 100.0, 99.9, 99.9, 99.9; 87.20; 2339.67; 2.06; [4, 5, 6, 7]
100.0, 100.0, 0.8, 0.5, 0.0, 0.0, 0.0, 0.0; 81.57; 2188.64; 2.21; [0, 1]
1.8, 0.2, 0.1, 0.3, 100.0, 100.0, 99.9, 100.0; 82.61; 2216.38; 2.60; [4, 5, 6, 7]
100.0, 100.0, 0.9, 0.2, 0.0, 0.0, 0.0, 0.0; 65.97; 1769.85; 2.52; [0, 1]
0.8, 0.0, 0.0, 0.1, 100.0, 100.0, 0.0, 0.0; 74.05; 1986.89; 2.30; [4, 5]
1.1, 0.2, 0.0, 0.2, 100.0, 100.0, 0.0, 0.0; 75.84; 2034.74; 2.30; [4, 5]
2.5, 0.0, 0.0, 0.3, 100.0, 99.9, 0.0, 0.0; 73.63; 1975.46; 2.26; [4, 5]
2.5, 0.6, 0.0, 0.0, 99.9, 100.0, 0.0, 0.0; 58.97; 1582.09; 2.17; [4, 5]
2.5, 0.5, 0.0, 0.0, 99.9, 100.0, 100.0, 0.0; 44.40; 1191.29; 2.43; [4, 5, 6]
2.6, 0.8, 0.1, 0.0, 99.6, 99.7, 99.9, 0.0; 30.86; 827.95; 2.79; [4, 5, 6]
99.6, 97.3, 98.3, 98.9, 0.0, 0.1, 0.0, 0.0; 30.66; 822.49; 2.78; [0, 1, 2, 3]
100.0, 100.0, 100.0, 1.9, 0.0, 0.0, 0.0, 0.0; 35.82; 960.99; 2.37; [0, 1, 2]
100.0, 0.4, 0.3, 0.5, 0.0, 0.0, 0.0, 0.0; 44.88; 1204.12; 1.90; [0]
2.7, 0.0, 0.1, 0.6, 99.4, 99.8, 99.9, 0.0; 49.47; 1327.28; 1.64; [4, 5, 6]
100.0, 99.9, 100.0, 99.8, 0.0, 0.0, 0.0, 0.0; 46.86; 1257.21; 1.69; [0, 1, 2, 3]
100.0, 96.2, 98.2, 98.5, 0.0, 0.0, 0.0, 0.0; 42.00; 1126.90; 2.08; [0, 1, 2, 3]
2.0, 0.4, 0.0, 0.0, 100.0, 100.0, 0.0, 0.0; 31.58; 847.18; 1.72; [4, 5]
100.0, 0.1, 0.2, 0.4, 0.0, 0.0, 0.0, 0.0; 38.36; 1029.21; 1.74; [0]
99.7, 98.4, 99.3, 99.9, 0.0, 0.0, 0.0, 0.0; 40.66; 1090.99; 1.52; [0, 1, 2, 3]
2.2, 0.1, 0.0, 0.3, 99.9, 100.0, 0.0, 0.0; 42.41; 1137.85; 1.61; [4, 5]
2.9, 0.0, 0.0, 0.5, 99.9, 99.9, 99.9, 0.0; 41.00; 1100.11; 2.35; [4, 5, 6]
100.0, 0.2, 0.5, 0.5, 0.0, 0.0, 0.0, 0.0; 33.89; 909.25; 2.42; [0]
100.0, 100.0, 99.9, 100.0, 0.0, 0.0, 0.0, 0.0; 38.53; 1033.82; 2.02; [0, 1, 2, 3]
100.0, 99.8, 99.9, 1.5, 0.0, 0.0, 0.0, 0.0; 44.53; 1194.79; 1.80; [0, 1, 2]
100.0, 0.1, 0.5, 0.3, 0.0, 0.0, 0.0, 0.0; 54.14; 1452.67; 1.60; [0]
100.0, 0.3, 0.1, 0.3, 0.0, 0.1, 0.0, 0.0; 65.55; 1758.59; 1.38; [0]
100.0, 100.0, 0.7, 0.8, 0.0, 0.0, 0.0, 0.0; 77.51; 2079.53; 1.28; [0, 1]
1.6, 0.3, 0.2, 0.0, 100.0, 100.0, 0.0, 0.0; 81.65; 2190.60; 1.26; [4, 5]
99.9, 99.6, 99.7, 1.7, 0.0, 0.0, 0.0, 0.0; 76.41; 2050.15; 1.30; [0, 1, 2]
3.0, 0.2, 0.0, 1.0, 99.7, 99.9, 99.8, 0.0; 75.51; 2025.96; 2.12; [4, 5, 6]
100.0, 100.0, 1.0, 1.1, 0.0, 0.0, 1.6, 0.0; 35.57; 954.39; 2.16; [0, 1]
99.9, 100.0, 99.9, 1.8, 0.0, 0.0, 0.0, 0.0; 36.03; 966.78; 1.84; [0, 1, 2]
100.0, 0.5, 0.2, 0.4, 0.0, 0.0, 0.0, 0.0; 44.35; 1189.92; 1.64; [0]
2.1, 0.0, 0.0, 0.0, 100.0, 100.0, 100.0, 0.0; 51.23; 1374.53; 1.60; [4, 5, 6]
100.0, 0.2, 0.4, 0.1, 0.0, 0.0, 0.0, 0.0; 71.90; 1929.19; 1.49; [0]
100.0, 100.0, 0.6, 0.5, 0.0, 0.0, 0.0, 0.0; 83.16; 2231.24; 1.35; [0, 1]
1.5, 0.1, 0.0, 0.0, 100.0, 100.0, 100.0, 99.9; 86.79; 2328.54; 1.62; [4, 5, 6, 7]
100.0, 100.0, 0.6, 0.2, 0.0, 0.0, 0.0, 0.0; 89.95; 2413.23; 1.65; [0, 1]
1.9, 0.1, 0.1, 0.0, 100.0, 100.0, 100.0, 100.0; 93.10; 2497.76; 2.00; [4, 5, 6, 7]
100.0, 100.0, 0.6, 0.5, 0.0, 0.0, 0.0, 0.0; 88.96; 2386.69; 2.01; [0, 1]
1.7, 0.1, 0.0, 0.1, 100.0, 99.9, 99.9, 100.0; 98.18; 2634.07; 2.21; [4, 5, 6, 7]
100.0, 100.0, 0.2, 0.7, 0.0, 0.0, 0.0, 0.0; 75.20; 2017.57; 2.45; [0, 1]
1.0, 0.0, 0.1, 0.0, 100.0, 100.0, 0.0, 0.0; 79.03; 2120.48; 2.37; [4, 5]
1.3, 0.0, 0.0, 0.4, 100.0, 100.0, 0.0, 0.0; 84.99; 2280.31; 2.26; [4, 5]
1.1, 0.0, 0.0, 0.1, 100.0, 100.0, 0.0, 0.0; 82.60; 2216.15; 2.31; [4, 5]
100.0, 100.0, 100.0, 1.2, 0.0, 0.0, 0.0, 0.0; 90.77; 2435.34; 2.20; [0, 1, 2]
1.0, 0.0, 0.0, 0.1, 99.9, 99.9, 100.0, 0.0; 90.93; 2439.72; 2.18; [4, 5, 6]
1.6, 0.1, 0.0, 0.4, 99.0, 99.0, 79.1, 0.0; 86.51; 2321.14; 2.20; [4, 5, 6]
1.5, 0.1, 0.0, 0.2, 100.0, 100.0, 99.9, 0.0; 75.20; 2017.67; 2.35; [4, 5, 6]
100.0, 100.0, 1.2, 0.6, 0.0, 0.1, 0.0, 0.0; 71.03; 1905.64; 2.38; [0, 1]
1.0, 0.0, 0.1, 0.0, 100.0, 100.0, 0.0, 0.0; 74.77; 2006.10; 2.23; [4, 5]
1.4, 0.1, 0.2, 0.1, 100.0, 100.0, 0.0, 0.0; 71.24; 1911.29; 2.35; [4, 5]
1.3, 0.0, 0.2, 0.0, 100.0, 100.0, 0.0, 0.0; 73.75; 1978.76; 2.31; [4, 5]
1.2, 0.0, 0.1, 0.3, 100.0, 100.0, 0.0, 0.0; 78.02; 2093.29; 2.19; [4, 5]
1.2, 0.0, 0.0, 0.2, 100.0, 99.9, 0.0, 0.0; 86.90; 2331.50; 2.15; [4, 5]
99.9, 99.9, 100.0, 0.8, 0.0, 0.1, 0.0, 0.0; 89.64; 2405.09; 2.11; [0, 1, 2]
1.5, 0.1, 0.0, 0.3, 99.9, 99.9, 99.8, 0.0; 92.62; 2484.95; 2.13; [4, 5, 6]
1.0, 0.0, 0.0, 0.2, 99.9, 99.9, 99.7, 0.0; 81.04; 2174.26; 2.25; [4, 5, 6]
1.6, 0.1, 0.0, 0.4, 100.0, 100.0, 99.9, 0.0; 74.71; 2004.44; 2.40; [4, 5, 6]
100.0, 100.0, 0.5, 0.5, 0.0, 0.0, 0.0, 0.0; 71.78; 1925.72; 2.38; [0, 1]
1.2, 0.2, 0.0, 0.1, 100.0, 100.0, 0.0, 0.0; 77.52; 2079.76; 2.24; [4, 5]
1.0, 0.1, 0.0, 0.0, 100.0, 100.0, 0.0, 0.0; 77.71; 2084.99; 2.31; [4, 5]
1.0, 0.2, 0.0, 0.0, 100.0, 100.0, 0.0, 0.0; 79.18; 2124.33; 2.36; [4, 5]
1.6, 0.2, 0.1, 0.1, 99.9, 99.9, 0.0, 0.0; 82.96; 2225.91; 2.27; [4, 5]
100.0, 99.9, 99.9, 1.0, 0.0, 0.0, 0.0, 0.0; 88.52; 2374.98; 2.08; [0, 1, 2]
0.8, 0.0, 0.0, 0.1, 100.0, 99.9, 99.9, 0.0; 90.28; 2422.16; 2.02; [4, 5, 6]
1.2, 0.1, 0.0, 0.4, 100.0, 100.0, 100.0, 0.0; 92.95; 2493.98; 2.18; [4, 5, 6]
1.7, 0.1, 0.0, 0.1, 99.9, 99.9, 99.9, 0.0; 85.27; 2287.86; 2.34; [4, 5, 6]
1.5, 0.3, 0.2, 0.0, 100.0, 99.8, 100.0, 0.0; 78.22; 2098.57; 2.51; [4, 5, 6]
100.0, 100.0, 0.5, 0.5, 0.0, 0.0, 0.0, 0.0; 78.49; 2105.85; 2.53; [0, 1]
0.8, 0.0, 0.1, 0.1, 100.0, 100.0, 0.0, 0.0; 86.28; 2314.81; 2.33; [4, 5]
100.0, 100.0, 100.0, 1.5, 0.0, 0.0, 0.0, 0.0; 82.78; 2220.89; 2.43; [0, 1, 2]
0.9, 0.1, 0.1, 0.1, 100.0, 100.0, 99.9, 0.0; 83.00; 2227.00; 2.30; [4, 5, 6]
0.9, 0.1, 0.0, 0.3, 99.9, 99.9, 100.0, 0.0; 82.45; 2212.15; 2.30; [4, 5, 6]
1.4, 0.0, 0.0, 0.3, 98.0, 87.8, 99.9, 0.0; 80.95; 2171.81; 2.29; [4, 5, 6]
