4.4, 0.9, 3.0, 1.1, 92.3, 77.0, 92.8, 95.0; 28.05; 752.56; 3.62; [4, 5, 6, 7]
2.1, 0.4, 0.9, 1.8, 99.8, 99.9, 100.0, 100.0; 91.19; 2446.53; 3.74; [4, 5, 6, 7]
3.0, 1.1, 0.1, 2.5, 100.0, 100.0, 99.9, 99.8; 90.59; 2430.46; 3.77; [4, 5, 6, 7]
2.2, 0.3, 0.0, 2.0, 99.9, 99.9, 100.0, 100.0; 83.77; 2247.68; 3.78; [4, 5, 6, 7]
2.1, 1.4, 0.8, 1.2, 99.8, 100.0, 99.8, 99.9; 80.44; 2158.10; 3.77; [4, 5, 6, 7]
1.9, 0.5, 1.3, 1.0, 100.0, 99.8, 100.0, 100.0; 77.17; 2070.35; 3.77; [4, 5, 6, 7]
2.1, 0.4, 1.8, 1.8, 100.0, 100.0, 99.7, 99.7; 73.31; 1966.83; 3.77; [4, 5, 6, 7]
2.2, 0.3, 0.0, 2.5, 99.9, 99.8, 99.9, 97.5; 74.95; 2010.89; 3.76; [4, 5, 6, 7]
3.4, 2.0, 1.3, 1.8, 88.3, 97.7, 94.2, 86.0; 49.46; 1327.09; 3.79; [4, 5, 6, 7]
3.3, 0.2, 0.7, 2.3, 100.0, 99.8, 99.7, 97.5; 24.85; 666.85; 3.81; [4, 5, 6, 7]
3.3, 0.3, 0.6, 2.2, 98.8, 99.9, 100.0, 99.5; 31.45; 843.83; 3.82; [4, 5, 6, 7]
99.4, 100.0, 98.4, 99.8, 0.0, 0.0, 0.0, 0.0; 57.07; 1531.20; 2.80; [0, 1, 2, 3]
3.4, 0.4, 0.0, 0.8, 99.5, 99.9, 99.9, 99.7; 28.61; 767.57; 3.76; [4, 5, 6, 7]
4.1, 0.1, 0.0, 1.4, 97.9, 98.9, 99.5, 99.6; 21.22; 569.43; 3.79; [4, 5, 6, 7]
4.6, 0.2, 0.1, 0.3, 99.4, 99.5, 99.4, 99.7; 23.74; 636.90; 3.81; [4, 5, 6, 7]
4.3, 0.4, 0.0, 0.0, 99.9, 100.0, 99.9, 99.7; 21.52; 577.43; 3.82; [4, 5, 6, 7]
3.9, 0.4, 1.0, 0.0, 100.0, 100.0, 99.9, 99.9; 24.53; 658.26; 3.83; [4, 5, 6, 7]
2.7, 0.0, 0.4, 0.0, 99.9, 98.5, 99.5, 99.4; 36.11; 968.95; 3.81; [4, 5, 6, 7]
100.0, 100.0, 100.0, 1.6, 0.0, 0.0, 0.0, 0.0; 70.87; 1901.50; 3.23; [0, 1, 2]
4.5, 0.4, 0.0, 0.0, 99.6, 97.4, 99.8, 99.9; 34.84; 934.78; 3.79; [4, 5, 6, 7]
6.2, 0.5, 0.0, 0.9, 99.7, 99.9, 99.9, 100.0; 22.00; 590.25; 3.83; [4, 5, 6, 7]
2.6, 0.3, 0.0, 0.4, 98.9, 93.2, 100.0, 99.7; 51.61; 1384.71; 3.80; [4, 5, 6, 7]
1.7, 0.1, 0.0, 0.3, 100.0, 100.0, 99.9, 99.8; 63.07; 1692.27; 3.75; [4, 5, 6, 7]
1.4, 0.2, 0.0, 0.5, 99.9, 100.0, 100.0, 100.0; 60.53; 1623.93; 3.75; [4, 5, 6, 7]
1.8, 0.2, 0.0, 0.2, 99.9, 100.0, 99.9, 99.9; 59.87; 1606.31; 3.76; [4, 5, 6, 7]
1.9, 0.0, 0.0, 0.4, 100.0, 100.0, 100.0, 100.0; 64.04; 1718.25; 3.76; [4, 5, 6, 7]
2.0, 0.2, 0.0, 0.3, 100.0, 100.0, 99.9, 99.9; 60.28; 1617.37; 3.76; [4, 5, 6, 7]
1.8, 0.3, 0.1, 0.4, 99.9, 100.0, 100.0, 100.0; 63.27; 1697.56; 3.76; [4, 5, 6, 7]
1.8, 0.0, 0.0, 0.3, 100.0, 100.0, 100.0, 99.9; 63.62; 1706.91; 3.76; [4, 5, 6, 7]
2.8, 0.7, 0.2, 0.1, 98.9, 69.9, 95.3, 95.9; 67.66; 1815.18; 3.75; [4, 5, 6, 7]
2.6, 0.4, 0.1, 0.0, 100.0, 100.0, 100.0, 100.0; 57.33; 1538.24; 3.77; [4, 5, 6, 7]
2.4, 0.1, 0.1, 0.0, 99.9, 99.7, 99.6, 99.9; 57.23; 1535.44; 3.78; [4, 5, 6, 7]
2.3, 0.1, 0.0, 0.0, 100.0, 99.9, 100.0, 100.0; 49.65; 1332.05; 3.79; [4, 5, 6, 7]
3.8, 0.2, 0.1, 0.0, 99.9, 100.0, 99.9, 99.9; 52.61; 1411.39; 3.80; [4, 5, 6, 7]
1.8, 0.4, 0.1, 0.0, 99.9, 99.9, 100.0, 99.7; 56.13; 1506.03; 3.78; [4, 5, 6, 7]
1.9, 0.4, 0.0, 0.0, 100.0, 100.0, 99.9, 100.0; 56.82; 1524.59; 3.78; [4, 5, 6, 7]
0.9, 0.0, 0.2, 0.0, 99.8, 99.9, 99.9, 0.0; 85.54; 2294.96; 3.42; [4, 5, 6]
2.0, 0.4, 0.0, 0.3, 78.5, 99.9, 96.9, 99.9; 84.33; 2262.47; 3.72; [4, 5, 6, 7]
2.0, 0.2, 0.0, 0.0, 85.1, 90.4, 98.5, 94.5; 78.77; 2113.27; 3.72; [4, 5, 6, 7]
3.3, 0.2, 0.3, 0.1, 100.0, 99.9, 100.0, 99.9; 72.99; 1958.36; 3.76; [4, 5, 6, 7]
1.6, 0.0, 0.6, 0.0, 100.0, 100.0, 99.9, 99.9; 70.14; 1881.73; 3.78; [4, 5, 6, 7]
1.5, 0.0, 0.4, 0.0, 100.0, 100.0, 99.9, 100.0; 62.39; 1673.93; 3.79; [4, 5, 6, 7]
1.7, 0.2, 0.4, 0.0, 100.0, 99.9, 99.9, 99.9; 63.67; 1708.29; 3.80; [4, 5, 6, 7]
1.5, 0.1, 0.1, 0.0, 100.0, 100.0, 99.9, 100.0; 70.70; 1896.99; 3.79; [4, 5, 6, 7]
1.1, 0.3, 0.2, 0.0, 98.7, 99.9, 99.9, 99.9; 71.02; 1905.39; 3.80; [4, 5, 6, 7]
