0.2, 0.0, 0.0, 0.0, 43.4, 41.5, 41.6, 99.8; 66.30; 285.08; 2.32; [4, 5, 6, 7]
0.0, 0.2, 0.0, 0.0, 56.9, 35.8, 96.3, 0.0; 79.83; 343.25; 2.48; [4, 5, 6]
0.6, 0.0, 0.0, 0.0, 82.6, 81.9, 0.0, 0.0; 93.90; 403.76; 2.26; [4, 5]
0.0, 0.0, 0.0, 0.0, 47.6, 45.6, 45.6, 88.6; 94.63; 406.90; 2.45; [4, 5, 6, 7]
0.2, 0.0, 0.0, 0.0, 43.6, 42.0, 45.0, 96.8; 66.73; 286.92; 2.46; [4, 5, 6, 7]
0.6, 0.0, 0.0, 0.0, 59.9, 71.9, 62.6, 0.0; 79.82; 343.23; 2.45; [4, 5, 6]
0.4, 0.0, 0.0, 0.0, 45.3, 41.5, 43.5, 96.2; 70.13; 301.54; 2.47; [4, 5, 6, 7]
0.6, 0.2, 0.2, 0.0, 56.2, 37.0, 98.1, 0.0; 79.56; 342.12; 2.44; [4, 5, 6]
0.0, 0.0, 0.0, 0.0, 47.9, 41.7, 45.3, 91.4; 73.42; 315.71; 2.45; [4, 5, 6, 7]
0.6, 0.0, 0.0, 0.0, 56.3, 47.8, 87.8, 0.0; 79.57; 342.14; 2.49; [4, 5, 6]
0.6, 0.0, 0.2, 0.0, 44.0, 44.2, 42.3, 97.4; 75.07; 322.80; 2.48; [4, 5, 6, 7]
0.0, 0.0, 0.0, 0.0, 55.8, 86.4, 49.2, 0.0; 80.49; 346.09; 2.40; [4, 5, 6]
0.7, 0.2, 0.0, 0.2, 83.0, 83.2, 0.0, 0.0; 92.46; 397.58; 2.26; [4, 5]
0.4, 0.0, 0.0, 0.0, 45.5, 43.6, 44.9, 92.1; 90.83; 390.59; 2.46; [4, 5, 6, 7]
0.0, 0.0, 0.2, 0.0, 82.7, 83.6, 0.0, 0.0; 92.90; 399.47; 2.45; [4, 5]
0.6, 0.2, 0.0, 0.0, 43.8, 43.4, 41.8, 97.9; 75.52; 324.74; 2.45; [4, 5, 6, 7]
0.2, 0.2, 0.0, 0.0, 57.6, 61.4, 73.6, 0.0; 79.70; 342.71; 2.48; [4, 5, 6]
0.2, 0.0, 0.0, 0.0, 43.5, 44.7, 42.0, 92.3; 74.39; 319.87; 2.46; [4, 5, 6, 7]
0.4, 0.2, 0.0, 0.0, 57.2, 86.4, 48.4, 0.0; 79.78; 343.04; 2.44; [4, 5, 6]
0.0, 0.0, 0.0, 0.0, 43.0, 47.2, 42.8, 92.8; 73.69; 316.88; 2.46; [4, 5, 6, 7]
0.2, 0.0, 0.2, 0.2, 55.5, 62.0, 73.8, 0.0; 80.32; 345.40; 2.42; [4, 5, 6]
0.4, 0.0, 0.0, 0.0, 83.8, 83.3, 0.0, 0.0; 95.11; 408.95; 2.16; [4, 5]
0.0, 0.0, 0.0, 0.0, 43.9, 43.5, 41.0, 97.4; 75.46; 324.48; 2.46; [4, 5, 6, 7]
0.2, 0.2, 0.2, 0.0, 59.4, 43.0, 89.2, 0.0; 79.56; 342.09; 2.48; [4, 5, 6]
0.4, 0.0, 0.0, 0.0, 50.8, 45.4, 49.4, 81.5; 80.99; 348.26; 2.46; [4, 5, 6, 7]
0.4, 0.0, 0.0, 0.0, 42.9, 41.7, 41.2, 100.0; 66.40; 285.51; 2.46; [4, 5, 6, 7]
0.4, 0.2, 0.2, 0.0, 100.0, 0.0, 0.0, 0.0; 152.18; 654.37; 2.40; [4]
79.7, 79.6, 0.0, 0.2, 0.0, 0.0, 0.0, 0.0; 284.62; 1223.85; 1.40; [0, 1]
0.6, 0.2, 0.0, 0.0, 60.4, 63.8, 68.4, 0.0; 98.87; 425.15; 2.21; [4, 5, 6]
0.4, 0.0, 0.0, 0.0, 81.9, 81.2, 0.0, 0.0; 95.48; 410.55; 2.24; [4, 5]
0.2, 0.0, 0.0, 0.0, 43.0, 43.1, 42.3, 97.0; 73.63; 316.60; 2.44; [4, 5, 6, 7]
0.2, 0.0, 0.0, 0.0, 58.5, 78.7, 52.4, 0.0; 79.86; 343.38; 2.48; [4, 5, 6]
0.2, 0.0, 0.0, 0.0, 46.2, 44.3, 43.8, 94.2; 80.19; 344.84; 2.45; [4, 5, 6, 7]
