Beat	Tag	Timestamp	Global_Rate	Window_Rate	Instant_Rate	Global_Accuracy	Window_Accuracy	Instant_Accuracy	Global_Power	Window_Power	Instant_Power	Instant_Latency	Window_Latency	Global_latency	total_energy
0	0	1450309664375854053	0.000000	0.000000	0.000000	1.000000	1.000000	1.000000	0.000000	0.000000	0.000000	0	0	0	3.146001
1	1	1450309666750271675	0.842312	0.421156	0.421156	1.000000	1.000000	1.000000	1.324957	1.324957	1.324957	2374417622	2374417622	2374417622	3.146001
2	2	1450309669011994224	0.647090	0.431393	0.442141	1.000000	1.000000	1.000000	1.341407	1.341407	1.358676	2261722549	2318070085	2318070085	6.218949
3	3	1450309671271994273	0.580035	0.435026	0.442478	1.000000	1.000000	1.000000	1.343652	1.343652	1.348257	2260000049	2298713406	2298713406	9.266010
4	4	1450309673534969732	0.545904	0.436723	0.441896	1.000000	1.000000	1.000000	1.344663	1.344663	1.347744	2262975459	2289778919	2289778919	12.315922
5	5	1450309675793955029	0.525481	0.437901	0.442677	1.000000	1.000000	1.000000	1.344521	1.344521	1.343945	2258985297	2283620195	2283620195	15.351874
6	6	1450309678046593834	0.512043	0.438894	0.443924	1.000000	1.000000	1.000000	1.344829	1.344829	1.346393	2252638805	2278456630	2278456630	18.384811
7	7	1450309680293100189	0.502600	0.439775	0.445136	1.000000	1.000000	1.000000	1.344609	1.344609	1.343272	2246506355	2273892305	2273892305	21.402480
8	8	1450309682539095000	0.495506	0.440450	0.445237	1.000000	1.000000	1.000000	1.344562	1.344562	1.344228	2245994811	2270405118	2270405118	24.421610
9	9	1450309684783451604	0.490014	0.441012	0.445562	1.000000	1.000000	1.000000	1.344483	1.344483	1.343837	2244356604	2267510839	2267510839	27.437660
10	10	1450309687024601670	0.485678	0.441526	0.446199	1.000000	1.000000	1.000000	1.344824	1.344824	1.347933	2241150066	2264874761	2264874761	30.458580
11	11	1450309689268815603	0.482064	0.441892	0.445590	1.000000	1.000000	1.000000	1.344227	1.344227	1.338197	2244213933	2262996504	2262996504	33.461780
12	12	1450309691501764136	0.479247	0.442381	0.447838	1.000000	1.000000	1.000000	1.343498	1.343498	1.335372	2232948533	2260492506	2260492506	36.443597
13	13	1450309693747763438	0.476646	0.442600	0.445236	1.000000	1.000000	1.000000	1.343340	1.343340	1.341442	2245999302	2259377645	2259377645	39.456475
14	14	1450309696000388227	0.474315	0.442694	0.443927	1.000000	1.000000	1.000000	1.343662	1.343662	1.347847	2252624789	2258895298	2258895298	42.492669
15	15	1450309698265993910	0.472114	0.442607	0.441383	1.000000	1.000000	1.000000	1.342795	1.342795	1.330693	2265605683	2259342657	2259342657	45.507496
16	16	1450309700510228084	0.470466	0.442792	0.445586	1.000000	1.000000	1.000000	1.341915	1.341915	1.328631	2244234174	2258398376	2258398376	48.489256
17	17	1450309702748930890	0.469079	0.443019	0.446687	1.000000	1.000000	1.000000	1.341134	1.341134	1.328523	2238702806	2257239813	2257239813	51.463423
18	18	1450309704963581482	0.468122	0.443484	0.451538	1.000000	1.000000	1.000000	1.340533	1.340533	1.330131	2214650592	2254873746	2254873746	54.409197
19	19	1450309707137916303	0.467704	0.444319	0.459911	1.000000	1.000000	1.000000	1.339956	1.339956	1.329188	2174334821	2250634855	2250634855	57.299296
20	20	1450309709288102703	0.467578	0.445313	0.465076	1.000000	1.000000	1.000000	1.339528	1.339528	1.331013	2150186400	2245612432	2245612432	60.161222
21	21	1450309711430007947	0.467546	0.446294	0.466874	1.000000	1.000000	1.000000	1.338901	1.338901	1.325761	2141905244	2240673994	2240673994	63.000876
22	22	1450309713569924777	0.467536	0.447208	0.467308	1.000000	1.000000	1.000000	1.338284	1.338284	1.324697	2139916830	2236094123	2236094123	65.835617
23	23	1450309715728325866	0.467358	0.447885	0.463306	1.000000	1.000000	1.000000	1.338370	1.338370	1.340343	2158401089	2232716165	2232716165	68.728614
24	24	1450309717907311213	0.467015	0.448335	0.458929	1.000000	1.000000	1.000000	1.337675	1.337675	1.321294	2178985347	2230477381	2230477381	71.607695
25	25	1450309720089862635	0.466669	0.448720	0.458179	1.000000	1.000000	1.000000	1.337159	1.337159	1.324506	2182551422	2228560343	2228560343	74.498498
26	26	1450309722301680967	0.466113	0.448850	0.452117	1.000000	1.000000	1.000000	1.336483	1.336483	1.319445	2211818332	2227916419	2227916419	77.416871
27	27	1450309724512178632	0.465609	0.448980	0.452387	1.000000	1.000000	1.000000	1.335975	1.335975	1.322677	2210497665	2227271280	2227271280	80.340645
28	28	1450309726709005609	0.465242	0.449199	0.455202	1.000000	1.000000	1.000000	1.335263	1.335263	1.315754	2196826977	2226183984	2226183984	83.231129
29	29	1450309728897301265	0.464962	0.449463	0.456977	1.000000	1.000000	1.000000	1.334766	1.334766	1.320614	2188295656	2224877490	2224877490	86.121022
30	30	1450309731074510228	0.464777	0.449784	0.459304	1.000000	1.000000	1.000000	1.334268	1.334268	1.319512	2177208963	2223288539	2223288539	88.993874
31	31	1450309733249253319	0.464621	0.451135	0.459824	1.000000	1.000000	1.000000	1.333637	1.333947	1.314296	2174743091	2216632721	2221722556	91.852130
32	32	1450309735422652326	0.464483	0.451735	0.460109	1.000000	1.000000	1.000000	1.333151	1.332575	1.317744	2173399007	2213688603	2220212446	94.716113
33	33	1450309737585050849	0.464423	0.452400	0.462449	1.000000	1.000000	1.000000	1.332624	1.331477	1.315295	2162398523	2210435219	2218460508	97.560305
34	34	1450309739756725939	0.464309	0.453023	0.460474	1.000000	1.000000	1.000000	1.332105	1.330369	1.314639	2171675090	2207391873	2217084467	100.415273
35	35	1450309741922035288	0.464239	0.453665	0.461828	1.000000	1.000000	1.000000	1.331559	1.329321	1.312537	2165309349	2204269342	2215605178	103.257321
36	36	1450309744075795945	0.464241	0.454344	0.464304	1.000000	1.000000	1.000000	1.331007	1.328146	1.311141	2153760657	2200973403	2213887274	106.081204
37	37	1450309746234884049	0.464213	0.454947	0.463158	1.000000	1.000000	1.000000	1.330516	1.327114	1.312372	2159088104	2198059461	2212406216	108.914732
38	38	1450309748399088311	0.464157	0.455512	0.462064	1.000000	1.000000	1.000000	1.330007	1.325993	1.310756	2164204262	2195333110	2211137743	111.751476
39	39	1450309750552932046	0.464161	0.456139	0.464286	1.000000	1.000000	1.000000	1.329602	1.324984	1.313798	2153843735	2192316015	2209668666	114.581192
40	40	1450309752685884687	0.464273	0.456890	0.468834	1.000000	1.000000	1.000000	1.329155	1.323750	1.311113	2132952641	2188709434	2207750765	117.377733
41	41	1450309754807874512	0.464437	0.457742	0.471256	1.000000	1.000000	1.000000	1.328883	1.323055	1.317542	2121989825	2184635297	2205659035	120.173543
42	42	1450309756930245917	0.464592	0.458516	0.471171	1.000000	1.000000	1.000000	1.328516	1.322305	1.312894	2122371405	2180949393	2203675996	122.959991
43	43	1450309759079032111	0.464610	0.459198	0.465379	1.000000	1.000000	1.000000	1.328087	1.321229	1.309614	2148786194	2177708956	2202399489	125.774072
44	44	1450309761243095862	0.464553	0.459822	0.462094	1.000000	1.000000	1.000000	1.327734	1.320014	1.312283	2164063751	2174756922	2201528222	128.613936
45	45	1450309763411081688	0.464481	0.460511	0.461258	1.000000	1.000000	1.000000	1.327414	1.319413	1.313123	2167985826	2171502927	2200782836	131.460767
46	46	1450309765579016346	0.464412	0.461051	0.461269	1.000000	1.000000	1.000000	1.327239	1.319088	1.319217	2167934658	2168959610	2200068745	134.320744
47	47	1450309767771521213	0.464236	0.461378	0.456099	1.000000	1.000000	1.000000	1.327004	1.318665	1.316177	2192504867	2167419679	2199907811	137.206468
48	48	1450309769978700095	0.464003	0.461431	0.453067	1.000000	1.000000	1.000000	1.326771	1.318179	1.315845	2207178882	2167170622	2200059292	140.110773
49	49	1450309772179549444	0.463806	0.461243	0.454370	1.000000	1.000000	1.000000	1.326482	1.317623	1.312621	2200849349	2168054439	2200075416	142.999654
50	50	1450309774382279455	0.463609	0.460871	0.453982	1.000000	1.000000	1.000000	1.326314	1.317196	1.318084	2202730011	2169805892	2200128508	145.903037
51	51	1450309776592213453	0.463391	0.460390	0.452502	1.000000	1.000000	1.000000	1.326154	1.316949	1.318198	2209933998	2172073517	2200320772	148.816168
52	52	1450309778803185572	0.463176	0.459888	0.452290	1.000000	1.000000	1.000000	1.325941	1.316634	1.315144	2210972119	2174442026	2200525606	151.723914
53	53	1450309780995787760	0.463043	0.459647	0.456079	1.000000	1.000000	1.000000	1.325808	1.315924	1.318861	2192602188	2175582063	2200376107	154.615652
54	54	1450309783178430505	0.462953	0.459621	0.458160	1.000000	1.000000	1.000000	1.325743	1.315957	1.322258	2182642745	2175703977	2200047712	157.501670
55	55	1450309785365132157	0.462851	0.459592	0.457310	1.000000	1.000000	1.000000	1.325634	1.315797	1.319708	2186701652	2175842318	2199805056	160.387478
56	56	1450309787560121712	0.462721	0.459711	0.455583	1.000000	1.000000	1.000000	1.325467	1.315688	1.316248	2194989555	2175281359	2199719065	163.276628
57	57	1450309789721095111	0.462722	0.460060	0.462754	1.000000	1.000000	1.000000	1.325322	1.315497	1.317071	2160973399	2173630550	2199039316	166.122783
58	58	1450309791855582385	0.462819	0.460500	0.468497	1.000000	1.000000	1.000000	1.325232	1.315635	1.319982	2134487274	2171552560	2197926350	168.940269
59	59	1450309793993404527	0.462900	0.460857	0.467766	1.000000	1.000000	1.000000	1.325075	1.315469	1.315671	2137822142	2169870110	2196907635	171.752939
60	60	1450309796121955516	0.463012	0.461202	0.469803	1.000000	1.000000	1.000000	1.325050	1.315599	1.323574	2128550989	2168248177	2195768357	174.570234
61	61	1450309798239782145	0.463157	0.461606	0.472182	1.000000	1.000000	1.000000	1.324866	1.315571	1.313411	2117826629	2166350961	2194490624	177.351810
62	62	1450309800325436159	0.463407	0.462230	0.479466	1.000000	1.000000	1.000000	1.324741	1.315535	1.316713	2085654014	2163426128	2192735195	180.098018
63	63	1450309802373687815	0.463775	0.463044	0.488221	1.000000	1.000000	1.000000	1.324717	1.315783	1.323104	2048251656	2159621233	2190441805	182.808068
64	64	1450309804440562773	0.464071	0.463794	0.483822	1.000000	1.000000	1.000000	1.324542	1.315727	1.312849	2066874958	2156127895	2188511073	185.521563
65	65	1450309806509976392	0.464350	0.464483	0.483229	1.000000	1.000000	1.000000	1.324360	1.315717	1.312077	2069413619	2152931370	2186678805	188.236792
66	66	1450309808610125542	0.464522	0.464869	0.476157	1.000000	1.000000	1.000000	1.324207	1.315808	1.313816	2100149150	2151144320	2185367749	190.996003
67	67	1450309810774997918	0.464484	0.464827	0.461921	1.000000	1.000000	1.000000	1.324085	1.315929	1.315975	2164872376	2151337129	2185061848	193.844921
68	68	1450309812977669355	0.464328	0.464550	0.453994	1.000000	1.000000	1.000000	1.323919	1.315998	1.312888	2202671437	2152619368	2185320813	196.736781
69	69	1450309815221476181	0.464051	0.463904	0.445671	1.000000	1.000000	1.000000	1.323751	1.315955	1.312648	2243806826	2155618137	2186168436	199.682110
70	70	1450309817489015717	0.463709	0.462941	0.441007	1.000000	1.000000	1.000000	1.323500	1.315792	1.306742	2267539536	2160104367	2187330880	202.645198
71	71	1450309819763039823	0.463359	0.461857	0.439749	1.000000	1.000000	1.000000	1.323317	1.315568	1.311023	2274024106	2165172176	2188551912	205.626497
72	72	1450309822038220009	0.463015	0.460773	0.439526	1.000000	1.000000	1.000000	1.323192	1.315623	1.314627	2275180186	2170265802	2189755082	208.617509
73	73	1450309824309573366	0.462692	0.459907	0.440266	1.000000	1.000000	1.000000	1.322930	1.315442	1.304760	2271353357	2174351374	2190872867	211.581081
74	74	1450309826581002638	0.462377	0.459152	0.440251	1.000000	1.000000	1.000000	1.322774	1.315420	1.311796	2271429272	2177930225	2191961467	214.560733
75	75	1450309828845118919	0.462092	0.458477	0.441673	1.000000	1.000000	1.000000	1.322542	1.315169	1.305953	2264116281	2181134573	2192923531	217.517564
76	76	1450309831108506534	0.461817	0.457809	0.441816	1.000000	1.000000	1.000000	1.322423	1.314985	1.313726	2263387615	2184316338	2193850690	220.491034
77	77	1450309833374153600	0.461543	0.457299	0.441375	1.000000	1.000000	1.000000	1.322276	1.314825	1.311511	2265647066	2186754411	2194783111	223.462456
78	78	1450309835639029208	0.461278	0.456897	0.441525	1.000000	1.000000	1.000000	1.322159	1.314741	1.313386	2264875608	2188677635	2195681732	226.437111
79	79	1450309837906765560	0.461013	0.456432	0.440968	1.000000	1.000000	1.000000	1.321961	1.314546	1.307032	2267736352	2190907202	2196593816	229.401115
80	80	1450309840167300921	0.460773	0.456031	0.442373	1.000000	1.000000	1.000000	1.321825	1.314319	1.311375	2260535361	2192834047	2197393085	232.365523
81	81	1450309842431921190	0.460529	0.455652	0.441575	1.000000	1.000000	1.000000	1.321654	1.313985	1.308413	2264620269	2194656923	2198223051	235.328582
82	82	1450309844698852870	0.460285	0.455265	0.441125	1.000000	1.000000	1.000000	1.321488	1.313756	1.308438	2266931680	2196522242	2199060961	238.294720
83	83	1450309846951708822	0.460083	0.454849	0.443881	1.000000	1.000000	1.000000	1.321363	1.313503	1.311321	2252855952	2198530701	2199709093	241.248938
84	84	1450309849213937506	0.459862	0.454301	0.442042	1.000000	1.000000	1.000000	1.321268	1.313218	1.313625	2262228684	2201183565	2200453374	244.220658
85	85	1450309851467567077	0.459668	0.453841	0.443729	1.000000	1.000000	1.000000	1.321165	1.312985	1.312686	2253629571	2203414495	2201078976	247.178967
86	86	1450309853729829424	0.459457	0.453380	0.442035	1.000000	1.000000	1.000000	1.321093	1.312952	1.315185	2262262347	2205656921	2201790411	250.154260
87	87	1450309855989595274	0.459257	0.452704	0.442524	1.000000	1.000000	1.000000	1.321036	1.312930	1.316254	2259765850	2208950003	2202456795	253.128685
88	88	1450309858233680272	0.459099	0.451956	0.445616	1.000000	1.000000	1.000000	1.320965	1.312769	1.314889	2244084998	2212603261	2202929843	256.079407
89	89	1450309860471612695	0.458959	0.451276	0.446841	1.000000	1.000000	1.000000	1.320912	1.312796	1.316329	2237932423	2215940270	2203323130	259.025263
90	90	1450309862691594188	0.458864	0.450656	0.450454	1.000000	1.000000	1.000000	1.320781	1.312331	1.309196	2219981493	2218987954	2203508223	261.931653
91	91	1450309864898859283	0.458800	0.450051	0.453049	1.000000	1.000000	1.000000	1.320704	1.312344	1.313747	2207265095	2221969237	2203549508	264.831442
92	92	1450309867093984063	0.458765	0.449313	0.455555	1.000000	1.000000	1.000000	1.320625	1.312245	1.313483	2195124780	2225618263	2203457934	267.714700
93	93	1450309869245658330	0.458828	0.448618	0.464754	1.000000	1.000000	1.000000	1.320564	1.311993	1.314742	2151674267	2229065683	2202901121	270.543597
94	94	1450309871351401214	0.458991	0.448358	0.474892	1.000000	1.000000	1.000000	1.320528	1.312124	1.317023	2105742884	2230361281	2201867522	273.316910
95	95	1450309873377605394	0.459326	0.448648	0.493534	1.000000	1.000000	1.000000	1.320446	1.312126	1.312142	2026204180	2228920967	2200018435	275.975577
96	96	1450309875380402737	0.459706	0.449302	0.499302	1.000000	1.000000	1.000000	1.320411	1.312212	1.316767	2002797343	2225675907	2197964048	278.612794
97	97	1450309877404570251	0.460032	0.450251	0.494030	1.000000	1.000000	1.000000	1.320365	1.312190	1.315498	2024167514	2220985745	2196172331	281.275581
98	98	1450309879444262696	0.460319	0.451355	0.490270	1.000000	1.000000	1.000000	1.320320	1.312272	1.315622	2039692445	2215553112	2194575598	283.959046
99	99	1450309881507205350	0.460551	0.452586	0.484744	1.000000	1.000000	1.000000	1.320269	1.312343	1.314966	2062942654	2209524307	2193245972	286.671746
100	100	1450309883615283304	0.460684	0.453678	0.474366	1.000000	1.000000	1.000000	1.320185	1.312510	1.311534	2108077954	2204208921	2192394292	289.436563
101	101	1450309885767563473	0.460722	0.454514	0.464624	1.000000	1.000000	1.000000	1.320159	1.312724	1.317509	2152280169	2200150790	2191997122	292.272210
102	102	1450309887990462482	0.460614	0.454875	0.449863	1.000000	1.000000	1.000000	1.320119	1.312772	1.316109	2222899009	2198408084	2192300082	295.197787
103	103	1450309890240530819	0.460453	0.455021	0.444431	1.000000	1.000000	1.000000	1.320108	1.313262	1.319044	2250068337	2197698583	2192860939	298.165726
104	104	1450309892487844200	0.460300	0.455188	0.444976	1.000000	1.000000	1.000000	1.320092	1.313491	1.318484	2247313381	2196894720	2193384520	301.128773
105	105	1450309894743992064	0.460133	0.455243	0.443233	1.000000	1.000000	1.000000	1.320075	1.313916	1.318339	2256147864	2196629106	2193982266	304.103140
106	106	1450309896993970520	0.459981	0.455336	0.444449	1.000000	1.000000	1.000000	1.320055	1.314062	1.317998	2249978456	2196182134	2194510532	307.068607
107	107	1450309899257489994	0.459806	0.455350	0.441790	1.000000	1.000000	1.000000	1.320124	1.314603	1.327269	2263519474	2196111215	2195155476	310.072906
108	108	1450309901528305995	0.459620	0.455309	0.440370	1.000000	1.000000	1.000000	1.320087	1.314700	1.316205	2270816001	2196309228	2195856036	313.061765
109	109	1450309903781309357	0.459472	0.455411	0.443852	1.000000	1.000000	1.000000	1.320015	1.314888	1.312471	2253003362	2195818129	2196380323	316.018766
110	110	1450309906032755178	0.459329	0.455474	0.444159	1.000000	1.000000	1.000000	1.319963	1.314993	1.314426	2251445821	2195515145	2196880919	318.978124
111	111	1450309908285094329	0.459187	0.455559	0.443983	1.000000	1.000000	1.000000	1.319905	1.315177	1.313749	2252339151	2195105774	2197380543	321.937132
112	112	1450309910535594149	0.459052	0.455673	0.444346	1.000000	1.000000	1.000000	1.319856	1.315385	1.314478	2250499820	2194558045	2197854822	324.895364
113	113	1450309912783187971	0.458924	0.455709	0.444920	1.000000	1.000000	1.000000	1.319811	1.315508	1.314918	2247593822	2194382641	2198294990	327.850765
114	114	1450309915050936382	0.458761	0.455671	0.440966	1.000000	1.000000	1.000000	1.319734	1.315426	1.311265	2267748411	2194566632	2198904230	330.824384
115	115	1450309917310395847	0.458617	0.455630	0.442584	1.000000	1.000000	1.000000	1.319702	1.315545	1.316154	2259459465	2194760962	2199430798	333.798181
116	116	1450309919583532663	0.458450	0.455555	0.439921	1.000000	1.000000	1.000000	1.319634	1.315440	1.312139	2273136816	2195123445	2200066194	336.780853
117	117	1450309921860324429	0.458280	0.455437	0.439215	1.000000	1.000000	1.000000	1.319590	1.315382	1.314558	2276791766	2195690975	2200721969	339.773828
118	118	1450309924138096191	0.458111	0.455205	0.439026	1.000000	1.000000	1.000000	1.319530	1.315309	1.312804	2277771762	2196813867	2201374933	342.764097
119	119	1450309926416553908	0.457944	0.454925	0.438893	1.000000	1.000000	1.000000	1.319491	1.315266	1.315052	2278457717	2198164710	2202022687	345.760388
120	120	1450309928696790954	0.457777	0.454510	0.438551	1.000000	1.000000	1.000000	1.319406	1.315275	1.309627	2280237046	2200173228	2202674474	348.746648
121	121	1450309930964532811	0.457634	0.454094	0.440967	1.000000	1.000000	1.000000	1.319338	1.315194	1.311432	2267741857	2202189120	2203212221	351.720638
122	122	1450309933236062368	0.457487	0.453569	0.440232	1.000000	1.000000	1.000000	1.319267	1.315103	1.310879	2271529557	2204735945	2203772199	354.698339
123	123	1450309935512285289	0.457334	0.452717	0.439324	1.000000	1.000000	1.000000	1.319229	1.315104	1.314803	2276222921	2208887567	2204361229	357.691124
124	124	1450309937767575578	0.457219	0.451697	0.443402	1.000000	1.000000	1.000000	1.319203	1.315076	1.316050	2255290289	2213872480	2204771947	360.659199
125	125	1450309940032177266	0.457091	0.450082	0.441579	1.000000	1.000000	1.000000	1.319164	1.315142	1.314398	2264601688	2221819063	2205250585	363.635786
126	126	1450309942294541081	0.456968	0.448336	0.442016	1.000000	1.000000	1.000000	1.318939	1.314297	1.291603	2262363815	2230471279	2205703865	366.557861
127	127	1450309944463881800	0.456999	0.447365	0.460970	1.000000	1.000000	1.000000	1.318913	1.314301	1.315535	2169340719	2235310386	2205417541	369.411706
128	128	1450309946570672249	0.457131	0.446918	0.474656	1.000000	1.000000	1.000000	1.318903	1.314364	1.317592	2106790449	2237546986	2204647017	372.187596
129	129	1450309948602655655	0.457381	0.447124	0.492130	1.000000	1.000000	1.000000	1.318886	1.314409	1.316459	2031983406	2236515011	2203308539	374.862619
130	130	1450309950610479267	0.457667	0.447793	0.498052	1.000000	1.000000	1.000000	1.318895	1.314673	1.320191	2007823612	2233173199	2201804809	377.513330
131	131	1450309952631176439	0.457927	0.448674	0.494879	1.000000	1.000000	1.000000	1.318896	1.314714	1.319051	2020697172	2228787099	2200422308	380.178733
132	132	1450309954647873867	0.458191	0.450063	0.495860	1.000000	1.000000	1.000000	1.318884	1.314744	1.317250	2016697428	2221913713	2199030453	382.835228
133	133	1450309956653263104	0.458469	0.451721	0.498656	1.000000	1.000000	1.000000	1.318948	1.315004	1.328180	2005389237	2213757743	2197574504	385.498747
134	134	1450309958679188888	0.458710	0.453231	0.493601	1.000000	1.000000	1.000000	1.318896	1.314775	1.311364	2025925784	2206378156	2196293543	388.155473
135	135	1450309960751113760	0.458878	0.454496	0.482643	1.000000	1.000000	1.000000	1.318861	1.314624	1.313846	2071924872	2200237390	2195372294	390.877664
136	136	1450309962869044677	0.458972	0.455407	0.472159	1.000000	1.000000	1.000000	1.318821	1.314466	1.313300	2117930917	2195835806	2194802872	393.659143
137	137	1450309965046960241	0.458973	0.456000	0.459155	1.000000	1.000000	1.000000	1.318786	1.314009	1.313976	2177915564	2192982342	2194679607	396.520872
138	138	1450309967269414519	0.458907	0.456335	0.449953	1.000000	1.000000	1.000000	1.318754	1.313947	1.314403	2222454278	2191370285	2194880872	399.442073
139	139	1450309969510506764	0.458814	0.456418	0.446211	1.000000	1.000000	1.000000	1.318711	1.313962	1.312912	2241092245	2190973247	2195213328	402.384430
140	140	1450309971735818117	0.458745	0.456600	0.449375	1.000000	1.000000	1.000000	1.318692	1.314018	1.316096	2225311353	2190102098	2195428314	405.313154
141	141	1450309973959866679	0.458680	0.456796	0.449630	1.000000	1.000000	1.000000	1.318645	1.313965	1.312155	2224048562	2189159079	2195631295	408.231451
142	142	1450309976180778120	0.458620	0.457002	0.450266	1.000000	1.000000	1.000000	1.318620	1.313984	1.315072	2220911441	2188172800	2195809324	411.152111
143	143	1450309978405055136	0.458556	0.457165	0.449584	1.000000	1.000000	1.000000	1.318565	1.313845	1.310829	2224277016	2187395573	2196008399	414.067759
144	144	1450309980646890704	0.458468	0.457345	0.446063	1.000000	1.000000	1.000000	1.318521	1.313888	1.312479	2241835568	2186531812	2196326643	417.010120
145	145	1450309982891711390	0.458376	0.457447	0.445470	1.000000	1.000000	1.000000	1.318496	1.313843	1.314869	2244820686	2186043853	2196661085	419.961765
146	146	1450309985131686250	0.458293	0.457679	0.446434	1.000000	1.000000	1.000000	1.318488	1.314025	1.317427	2239974860	2184938454	2196957754	422.912769
147	147	1450309987382438297	0.458195	0.457861	0.444296	1.000000	1.000000	1.000000	1.318490	1.314169	1.318766	2250752047	2184070464	2197323702	425.880983
148	148	1450309989655133556	0.458068	0.457896	0.440006	1.000000	1.000000	1.000000	1.318850	1.316152	1.369968	2272695259	2183901247	2197832969	428.994503
149	149	1450309991992580077	0.457852	0.457484	0.427817	1.000000	1.000000	1.000000	1.321864	1.331344	1.741263	2337446521	2185867541	2198769973	433.064613
150	150	1450309994364514371	0.457591	0.456845	0.421597	1.000000	1.000000	1.000000	1.325713	1.351098	1.857379	2371934294	2188924116	2199924402	437.470195
151	151	1450309996643491821	0.457463	0.456767	0.438793	1.000000	1.000000	1.000000	1.327797	1.362131	1.629577	2278977450	2189298636	2200447932	441.183963
152	152	1450309998899366350	0.457367	0.456876	0.443287	1.000000	1.000000	1.000000	1.327801	1.362744	1.328390	2255874529	2188776802	2200812580	444.180645
153	153	1450310001158758039	0.457268	0.456993	0.442597	1.000000	1.000000	1.000000	1.327739	1.362886	1.318560	2259391689	2188215761	2201195450	447.159788
154	154	1450310003423781632	0.457163	0.456926	0.441497	1.000000	1.000000	1.000000	1.327668	1.362915	1.317082	2265023593	2188540205	2201609919	450.143010
155	155	1450310005695250879	0.457050	0.456878	0.440244	1.000000	1.000000	1.000000	1.327639	1.363222	1.323417	2271469247	2188769124	2202060624	453.149112
156	156	1450310007973566655	0.456930	0.456767	0.438921	1.000000	1.000000	1.000000	1.327580	1.364141	1.318618	2278315776	2189300856	2202549439	456.153340
157	157	1450310010233058169	0.456836	0.456141	0.442577	1.000000	1.000000	1.000000	1.327492	1.364029	1.314216	2259491514	2192305882	2202912128	459.122800
158	158	1450310012493131763	0.456743	0.455080	0.442463	1.000000	1.000000	1.000000	1.327682	1.365265	1.356776	2260073594	2197415320	2203273909	462.189214
159	159	1450310014726668485	0.456685	0.453693	0.447720	1.000000	1.000000	1.000000	1.327585	1.364978	1.312378	2233536722	2204133764	2203464241	465.120458
160	160	1450310016951093845	0.456640	0.452212	0.449554	1.000000	1.000000	1.000000	1.327540	1.364843	1.320523	2224425360	2211353823	2203595248	468.057862
161	161	1450310019155929612	0.456621	0.450960	0.453549	1.000000	1.000000	1.000000	1.327547	1.365031	1.328529	2204835767	2217491776	2203602953	470.987050
162	162	1450310021316908744	0.456658	0.449984	0.462753	1.000000	1.000000	1.000000	1.327484	1.364925	1.317196	2160979132	2222301166	2203339843	473.833484
163	163	1450310023462630693	0.456714	0.449039	0.466044	1.000000	1.000000	1.000000	1.327414	1.364453	1.315878	2145721949	2226978923	2202986359	476.656992
164	164	1450310025578936981	0.456807	0.448432	0.472521	1.000000	1.000000	1.000000	1.327333	1.364448	1.313486	2116306288	2229991606	2202457822	479.436732
165	165	1450310027640068655	0.456968	0.448505	0.485170	1.000000	1.000000	1.000000	1.327280	1.364584	1.317982	2061131674	2229631833	2201601300	482.153266
166	166	1450310029639279642	0.457204	0.449302	0.500197	1.000000	1.000000	1.000000	1.327224	1.364790	1.317149	1999210987	2225674502	2200382081	484.786524
167	167	1450310031601499565	0.457484	0.450758	0.509627	1.000000	1.000000	1.000000	1.327168	1.365034	1.316633	1962219923	2218484647	2198955961	487.370049
168	168	1450310033552165132	0.457776	0.452606	0.512646	1.000000	1.000000	1.000000	1.327079	1.365122	1.310358	1950665567	2209425023	2197478042	489.926120
169	169	1450310035550329450	0.458006	0.454271	0.500459	1.000000	1.000000	1.000000	1.326992	1.365254	1.310923	1998164318	2201327426	2196298670	492.545560
170	170	1450310037582762749	0.458191	0.455602	0.492021	1.000000	1.000000	1.000000	1.326950	1.365499	1.319367	2032433299	2194898157	2195334757	495.227085
171	171	1450310039641830875	0.458342	0.456746	0.485657	1.000000	1.000000	1.000000	1.326891	1.365760	1.316199	2059068126	2189398809	2194537876	497.937229
172	172	1450310041748744251	0.458433	0.457540	0.474628	1.000000	1.000000	1.000000	1.326854	1.366011	1.320158	2106913376	2185598873	2194028431	500.718688
173	173	1450310043934679990	0.458427	0.457808	0.457470	1.000000	1.000000	1.000000	1.326794	1.366229	1.316377	2185935739	2184320830	2193981652	503.596202
174	174	1450310046175538590	0.458356	0.457815	0.446258	1.000000	1.000000	1.000000	1.326739	1.366402	1.317522	2240858600	2184288264	2194251060	506.548584
175	175	1450310048438936317	0.458258	0.457685	0.441814	1.000000	1.000000	1.000000	1.326711	1.366630	1.321890	2263397727	2184907498	2194646184	509.540548
176	176	1450310050710668110	0.458152	0.457464	0.440193	1.000000	1.000000	1.000000	1.326627	1.366432	1.312419	2271731793	2185966063	2195084170	512.522012
177	177	1450310052985595605	0.458043	0.457295	0.439574	1.000000	1.000000	1.000000	1.326555	1.366266	1.314465	2274927495	2186771911	2195535263	515.512324
178	178	1450310055254812900	0.457942	0.457319	0.440681	1.000000	1.000000	1.000000	1.326469	1.364249	1.311671	2269217295	2186655979	2195949207	518.488790
179	179	1450310057524336442	0.457842	0.457793	0.440621	1.000000	1.000000	1.000000	1.326402	1.349092	1.314901	2269523542	2184391879	2196360236	521.472989
180	180	1450310059791844860	0.457746	0.458524	0.441013	1.000000	1.000000	1.000000	1.326305	1.329291	1.309442	2267508418	2180911016	2196755504	524.442161
181	181	1450310062047761131	0.457664	0.458686	0.443279	1.000000	1.000000	1.000000	1.326209	1.318142	1.309414	2255916271	2180142310	2197082359	527.396089
182	182	1450310064305097647	0.457581	0.458675	0.443000	1.000000	1.000000	1.000000	1.326135	1.317613	1.313058	2257336516	2180191043	2197413426	530.360102
183	183	1450310066549229767	0.457514	0.458782	0.445607	1.000000	1.000000	1.000000	1.326060	1.317415	1.312777	2244132120	2179682391	2197668719	533.306147
184	184	1450310068805076115	0.457435	0.458847	0.443293	1.000000	1.000000	1.000000	1.325989	1.317284	1.313310	2255846348	2179376483	2197984902	536.268774
185	185	1450310071051258145	0.457367	0.459024	0.445200	1.000000	1.000000	1.000000	1.325911	1.316881	1.311755	2246182030	2178533576	2198245427	539.215214
186	186	1450310073305579367	0.457291	0.459193	0.443593	1.000000	1.000000	1.000000	1.325851	1.316759	1.315093	2254321222	2177733757	2198546910	542.179855
187	187	1450310075563346874	0.457212	0.459205	0.442915	1.000000	1.000000	1.000000	1.325783	1.316732	1.313434	2257767507	2177676290	2198863597	545.145282
188	188	1450310077832365609	0.457122	0.459142	0.440719	1.000000	1.000000	1.000000	1.325726	1.315301	1.315404	2269018735	2177974461	2199236763	548.129958
189	189	1450310080094977353	0.457039	0.458938	0.441967	1.000000	1.000000	1.000000	1.325654	1.315308	1.312610	2262611744	2178943628	2199572080	551.099886
190	190	1450310082356738639	0.456959	0.458676	0.442133	1.000000	1.000000	1.000000	1.325602	1.315152	1.315949	2261761286	2180188158	2199899392	554.076248
191	191	1450310084603853948	0.456895	0.458380	0.445015	1.000000	1.000000	1.000000	1.325525	1.314564	1.311138	2247115309	2181597476	2200146596	557.022526
192	192	1450310086854196291	0.456828	0.457755	0.444377	1.000000	1.000000	1.000000	1.325472	1.314512	1.315582	2250342343	2184576250	2200408032	559.983035
193	193	1450310089108184627	0.456758	0.457000	0.443658	1.000000	1.000000	1.000000	1.325421	1.314517	1.315956	2253988336	2188185130	2200685650	562.949184
194	194	1450310091374147815	0.456676	0.455960	0.441313	1.000000	1.000000	1.000000	1.325354	1.314489	1.312743	2265963188	2193173694	2201022132	565.923812
195	195	1450310093589167173	0.456649	0.454896	0.451463	1.000000	1.000000	1.000000	1.325235	1.313969	1.302266	2215019358	2198303283	2201093913	568.808358
196	196	1450310095771025086	0.456658	0.453640	0.458325	1.000000	1.000000	1.000000	1.325166	1.313799	1.311706	2181857913	2204391514	2200995770	571.670315
197	197	1450310097915609064	0.456706	0.452392	0.466291	1.000000	1.000000	1.000000	1.325109	1.313710	1.313641	2144583978	2210470316	2200709416	574.487528
198	198	1450310100044835899	0.456769	0.451178	0.469654	1.000000	1.000000	1.000000	1.325041	1.313724	1.311092	2129226835	2216422358	2200348393	577.279140
199	199	1450310102143465703	0.456863	0.450497	0.476501	1.000000	1.000000	1.000000	1.325017	1.314007	1.320028	2098629804	2219771207	2199837244	580.049391
200	200	1450310104208481981	0.456992	0.450277	0.484258	1.000000	1.000000	1.000000	1.324954	1.313769	1.311609	2065016278	2220857306	2199163139	582.757885
201	201	1450310106229472125	0.457165	0.450534	0.494807	1.000000	1.000000	1.000000	1.324905	1.313708	1.314223	2020990144	2219588040	2198276706	585.413916
202	202	1450310108216833952	0.457371	0.451344	0.503180	1.000000	1.000000	1.000000	1.324881	1.313677	1.319512	1987361827	2215602989	2197232573	588.036264
203	203	1450310110214482926	0.457565	0.452627	0.500588	1.000000	1.000000	1.000000	1.324867	1.313837	1.321955	1997648974	2209326764	2196249403	590.677067
204	204	1450310112241322723	0.457727	0.454093	0.493379	1.000000	1.000000	1.000000	1.324851	1.313941	1.321292	2026839797	2202192804	2195418964	593.355114
205	205	1450310114278048709	0.457877	0.455656	0.490984	1.000000	1.000000	1.000000	1.324817	1.313770	1.317263	2036725986	2194637080	2194644851	596.038017
206	206	1450310116293675981	0.458048	0.457436	0.496123	1.000000	1.000000	1.000000	1.324774	1.313864	1.315288	2015627272	2186100262	2193775834	598.689147
207	207	1450310118316545988	0.458210	0.459200	0.494347	1.000000	1.000000	1.000000	1.324746	1.313986	1.318476	2022870007	2177698346	2192950202	601.356252
208	208	1450310120379064759	0.458330	0.460658	0.484844	1.000000	1.000000	1.000000	1.324700	1.314086	1.314614	2062518771	2170808395	2192323128	604.067668
209	209	1450310122485941575	0.458405	0.461811	0.474636	1.000000	1.000000	1.000000	1.324663	1.314141	1.316648	2106876816	2165386838	2191914294	606.841683
210	210	1450310124645402214	0.458427	0.462581	0.463079	1.000000	1.000000	1.000000	1.324604	1.314235	1.312023	2159460639	2161785246	2191759753	609.674945
211	211	1450310126862887376	0.458391	0.462855	0.450961	1.000000	1.000000	1.000000	1.324542	1.314316	1.311712	2217485162	2160504209	2191881674	612.583648
212	212	1450310129111291856	0.458325	0.462919	0.444760	1.000000	1.000000	1.000000	1.324495	1.314378	1.314832	2248404480	2160206475	2192148291	615.539922
213	213	1450310131372953561	0.458247	0.462794	0.442153	1.000000	1.000000	1.000000	1.324428	1.314303	1.310660	2261661705	2160790794	2192474645	618.504192
214	214	1450310133644562914	0.458160	0.462681	0.440217	1.000000	1.000000	1.000000	1.324377	1.314322	1.313844	2271609353	2161316227	2192844433	621.488732
215	215	1450310135903010080	0.458086	0.462593	0.442782	1.000000	1.000000	1.000000	1.324313	1.314292	1.310898	2258447166	2161725065	2193149562	624.449326
216	216	1450310138168790731	0.458006	0.462512	0.441349	1.000000	1.000000	1.000000	1.324257	1.314211	1.312784	2265780651	2162107046	2193485817	627.423808
217	217	1450310140433862423	0.457927	0.462460	0.441487	1.000000	1.000000	1.000000	1.324187	1.314072	1.309466	2265071692	2162350519	2193815706	630.389843
218	218	1450310142693626915	0.457855	0.462526	0.442524	1.000000	1.000000	1.000000	1.324112	1.313826	1.308335	2259764492	2162042045	2194118224	633.346372
219	219	1450310144942292882	0.457793	0.462625	0.444708	1.000000	1.000000	1.000000	1.324042	1.313702	1.309031	2248665967	2161577186	2194367300	636.289946
220	220	1450310147197378087	0.457726	0.462673	0.443442	1.000000	1.000000	1.000000	1.323969	1.313444	1.308519	2255085205	2161354650	2194643291	639.240768
221	221	1450310149459715026	0.457653	0.462564	0.442021	1.000000	1.000000	1.000000	1.323899	1.313364	1.308862	2262336939	2161862038	2194949597	642.201854
222	222	1450310151738564811	0.457565	0.462361	0.438818	1.000000	1.000000	1.000000	1.323825	1.313101	1.308063	2278849785	2162812286	2195327525	645.182732
223	223	1450310154018072883	0.457477	0.462179	0.438691	1.000000	1.000000	1.000000	1.323786	1.313090	1.315632	2279508072	2163662944	2195705017	648.181726
224	224	1450310156293679295	0.457393	0.462111	0.439443	1.000000	1.000000	1.000000	1.323722	1.312991	1.309918	2275606412	2163984385	2196061719	651.162584
225	225	1450310158571210659	0.457309	0.461666	0.439072	1.000000	1.000000	1.000000	1.323687	1.313468	1.316157	2277531364	2166068119	2196423807	654.160174
226	226	1450310160847589190	0.457226	0.460995	0.439294	1.000000	1.000000	1.000000	1.323614	1.313327	1.307744	2276378531	2169218806	2196777589	657.137094
227	227	1450310163120221727	0.457148	0.460090	0.440018	1.000000	1.000000	1.000000	1.323558	1.313244	1.311263	2272632537	2173487091	2197111751	660.117113
228	228	1450310165388722102	0.457074	0.459109	0.440820	1.000000	1.000000	1.000000	1.323492	1.313169	1.309055	2268500375	2178129543	2197424859	663.086704
229	229	1450310167662112924	0.456996	0.457885	0.439872	1.000000	1.000000	1.000000	1.323446	1.312949	1.313162	2273390822	2183954911	2197756588	666.072035
230	230	1450310169939952071	0.456915	0.456402	0.439013	1.000000	1.000000	1.000000	1.323422	1.313174	1.318213	2277839147	2191049007	2198104773	669.074713
231	231	1450310172215217512	0.456837	0.454644	0.439509	1.000000	1.000000	1.000000	1.323373	1.313117	1.312477	2275265441	2199524850	2198438802	672.060947
232	232	1450310174473256815	0.456776	0.452786	0.442862	1.000000	1.000000	1.000000	1.323332	1.312958	1.314078	2258039303	2208547432	2198695701	675.028186
233	233	1450310176697388510	0.456744	0.451244	0.449614	1.000000	1.000000	1.000000	1.323273	1.312580	1.309718	2224131695	2216096856	2198804868	677.941172
234	234	1450310178875113701	0.456755	0.450222	0.459195	1.000000	1.000000	1.000000	1.323241	1.312421	1.315825	2177725191	2221126369	2198714784	680.806678
235	235	1450310181024032484	0.456791	0.449465	0.465350	1.000000	1.000000	1.000000	1.323182	1.312166	1.309091	2148918783	2224866129	2198502886	683.619807
236	236	1450310183167178942	0.456831	0.448608	0.466604	1.000000	1.000000	1.000000	1.323146	1.312143	1.314400	2143146458	2229116769	2198268325	686.436760
237	237	1450310185277403498	0.456900	0.448023	0.473883	1.000000	1.000000	1.000000	1.323097	1.311920	1.311126	2110224556	2232028587	2197896833	689.203531
238	238	1450310187356194317	0.456996	0.447914	0.481049	1.000000	1.000000	1.000000	1.323058	1.311878	1.313240	2078790819	2232570989	2197396387	691.933482
239	239	1450310189405935560	0.457117	0.448297	0.487866	1.000000	1.000000	1.000000	1.323032	1.311863	1.316301	2049741243	2230666470	2196778583	694.631559
240	240	1450310191442064410	0.457248	0.449124	0.491128	1.000000	1.000000	1.000000	1.322999	1.311941	1.314588	2036128850	2226555410	2196109209	697.308229
241	241	1450310193484220331	0.457373	0.450306	0.489679	1.000000	1.000000	1.000000	1.322974	1.312085	1.316381	2042155921	2220711102	2195470399	699.996483
242	242	1450310195538257104	0.457487	0.451624	0.486846	1.000000	1.000000	1.000000	1.322945	1.312098	1.315534	2054036773	2214232178	2194885963	702.698639
243	243	1450310197600376695	0.457593	0.452985	0.484938	1.000000	1.000000	1.000000	1.322911	1.312214	1.314230	2062119591	2207580774	2194339599	705.408740
244	244	1450310199688818280	0.457676	0.454241	0.478826	1.000000	1.000000	1.000000	1.322874	1.312191	1.313272	2088441585	2201475182	2193905591	708.151431
245	245	1450310201846274782	0.457700	0.454937	0.463509	1.000000	1.000000	1.000000	1.322840	1.312310	1.314479	2157456502	2198108826	2193756819	710.987364
246	246	1450310204045160875	0.457688	0.455399	0.454776	1.000000	1.000000	1.000000	1.322808	1.312382	1.314950	2198886093	2195879008	2193777670	713.878789
247	247	1450310206270427129	0.457654	0.455674	0.449384	1.000000	1.000000	1.000000	1.322743	1.312303	1.307073	2225266254	2194552160	2193905154	716.787376
248	248	1450310208500837871	0.457615	0.455877	0.448348	1.000000	1.000000	1.000000	1.322727	1.312656	1.318694	2230410742	2193573701	2194052354	719.728606
249	249	1450310210721600837	0.457586	0.456070	0.450296	1.000000	1.000000	1.000000	1.322645	1.312442	1.302643	2220762966	2192643601	2194159625	722.621467
250	250	1450310212948739249	0.457551	0.456264	0.449007	1.000000	1.000000	1.000000	1.322580	1.312377	1.306544	2227138412	2191712042	2194291540	725.531320
251	251	1450310215165883885	0.457525	0.456578	0.451031	1.000000	1.000000	1.000000	1.322527	1.312398	1.309437	2217144636	2190205632	2194382588	728.434531
252	252	1450310217400404863	0.457484	0.456886	0.447523	1.000000	1.000000	1.000000	1.322464	1.312363	1.306946	2234520978	2188728005	2194541868	731.354929
253	253	1450310219618951785	0.457457	0.457311	0.450745	1.000000	1.000000	1.000000	1.322425	1.312260	1.312661	2218546922	2186695967	2194636749	734.267129
254	254	1450310221835499417	0.457432	0.457723	0.451152	1.000000	1.000000	1.000000	1.322371	1.312227	1.308885	2216547632	2184727341	2194723013	737.168334
255	255	1450310224052267589	0.457407	0.458148	0.451107	1.000000	1.000000	1.000000	1.322344	1.312209	1.315726	2216768172	2182701901	2194809464	740.084994
256	256	1450310226269536300	0.457382	0.458562	0.451005	1.000000	1.000000	1.000000	1.322300	1.312327	1.311118	2217268711	2180731574	2194897196	742.992095
257	257	1450310228496245284	0.457349	0.458884	0.449093	1.000000	1.000000	1.000000	1.322251	1.312276	1.309743	2226708984	2179200789	2195020977	745.908512
258	258	1450310230726561509	0.457314	0.459152	0.448367	1.000000	1.000000	1.000000	1.322218	1.312443	1.313880	2230316225	2177927984	2195157780	748.838879
259	259	1450310232954157405	0.457281	0.459474	0.448914	1.000000	1.000000	1.000000	1.322168	1.312316	1.309469	2227595896	2176401486	2195283024	751.755848
260	260	1450310235195091275	0.457238	0.459734	0.446243	1.000000	1.000000	1.000000	1.322131	1.312124	1.312716	2240933870	2175171310	2195458604	754.697558
