4.4, 3.4, 2.8, 0.6, 1.6, 2.8, 6.2, 2.2; 3.20; 31.55; 1.10; [4, 5, 6, 7]
22.2, 24.3, 24.1, 13.6, 47.4, 45.4, 42.3, 45.1; 45.05; 47.60; 1.89; [4, 5, 6, 7]
27.4, 19.2, 9.0, 25.9, 40.8, 38.4, 43.9, 35.2; 39.58; 40.00; 1.89; [4, 5, 6, 7]
28.8, 26.5, 6.7, 23.3, 33.1, 37.0, 39.1, 39.5; 37.17; 40.00; 1.97; [4, 5, 6, 7]
24.5, 21.2, 25.1, 6.9, 46.5, 40.5, 37.9, 36.3; 40.30; 40.00; 1.91; [4, 5, 6, 7]
6.1, 22.2, 19.8, 18.3, 47.7, 44.2, 40.4, 50.5; 45.70; 40.00; 2.11; [4, 5, 6, 7]
13.8, 22.0, 14.6, 18.3, 43.7, 48.9, 44.6, 42.1; 44.82; 40.00; 2.13; [4, 5, 6, 7]
0.4, 0.2, 0.0, 0.2, 99.6, 98.7, 0.0, 0.0; 99.15; 44.85; 2.07; [4, 5]
0.7, 0.0, 0.2, 0.0, 84.2, 42.8, 78.4, 0.0; 68.47; 46.89; 2.09; [4, 5, 6]
0.2, 0.0, 0.0, 0.0, 43.8, 48.2, 51.0, 51.4; 48.60; 40.00; 2.05; [4, 5, 6, 7]
0.6, 0.2, 0.2, 0.0, 96.3, 96.8, 0.0, 0.0; 96.55; 44.00; 2.05; [4, 5]
1.8, 0.2, 0.0, 0.0, 100.0, 100.0, 0.0, 0.0; 100.00; 49.97; 2.06; [4, 5]
1.8, 0.0, 0.0, 0.0, 100.0, 100.0, 8.5, 0.0; 100.00; 50.13; 2.06; [4, 5]
98.9, 98.4, 98.2, 98.2, 0.0, 0.0, 0.0, 0.0; 98.42; 51.90; 1.40; [0, 1, 2, 3]
98.9, 99.6, 99.4, 0.9, 0.0, 0.0, 0.0, 0.0; 99.30; 64.01; 1.24; [0, 1, 2]
0.6, 0.0, 0.0, 0.2, 99.6, 100.0, 0.0, 0.0; 99.80; 57.66; 2.04; [4, 5]
0.5, 0.0, 0.0, 0.0, 100.0, 0.0, 0.0, 0.0; 100.00; 83.84; 1.59; [4]
0.2, 0.0, 0.0, 0.0, 61.9, 44.8, 56.4, 38.1; 50.30; 74.42; 2.05; [4, 5, 6, 7]
0.4, 0.0, 0.0, 0.2, 99.4, 99.6, 0.0, 0.0; 99.50; 46.16; 2.06; [4, 5]
100.0, 99.5, 0.5, 0.5, 0.0, 0.0, 0.0, 0.0; 99.75; 84.92; 1.46; [0, 1]
1.7, 0.0, 0.0, 0.0, 99.6, 98.5, 0.0, 0.0; 99.05; 80.26; 2.03; [4, 5]
4.7, 0.2, 0.0, 0.2, 50.2, 56.4, 72.0, 55.7; 58.58; 50.20; 2.29; [4, 5, 6, 7]
2.5, 0.0, 0.0, 0.0, 98.9, 97.6, 0.0, 0.0; 98.25; 46.83; 2.05; [4, 5]
3.9, 0.0, 0.0, 0.0, 62.7, 52.8, 21.7, 67.6; 51.20; 41.20; 2.10; [4, 5, 6, 7]
99.4, 99.4, 1.1, 0.2, 0.0, 0.0, 0.0, 0.0; 99.40; 91.68; 1.38; [0, 1]
0.4, 0.0, 0.0, 0.0, 99.4, 99.6, 0.0, 0.0; 99.50; 89.25; 2.01; [4, 5]
100.0, 0.2, 0.2, 0.0, 0.0, 0.0, 0.0, 0.0; 100.00; 147.13; 1.68; [0]
0.2, 0.2, 0.0, 0.0, 63.6, 66.7, 16.4, 55.4; 50.53; 156.77; 2.02; [4, 5, 6, 7]
98.5, 97.4, 96.6, 98.7, 0.0, 0.0, 0.0, 0.0; 97.80; 42.30; 1.37; [0, 1, 2, 3]
0.2, 0.0, 0.0, 0.0, 14.8, 90.8, 88.1, 0.0; 64.57; 40.00; 2.00; [4, 5, 6]
100.0, 0.2, 0.4, 0.2, 0.0, 0.2, 0.0, 0.0; 100.00; 152.81; 1.63; [0]
0.2, 0.2, 0.0, 0.0, 52.3, 57.6, 46.4, 55.5; 52.95; 156.68; 2.05; [4, 5, 6, 7]
97.4, 97.4, 98.1, 98.3, 0.0, 0.0, 0.0, 0.0; 97.80; 45.06; 1.37; [0, 1, 2, 3]
5.1, 0.0, 0.2, 0.0, 53.7, 67.7, 76.3, 21.8; 54.88; 40.79; 2.09; [4, 5, 6, 7]
1.5, 0.0, 0.0, 0.0, 100.0, 99.8, 0.0, 0.0; 99.90; 49.88; 2.05; [4, 5]
0.2, 0.0, 0.0, 0.0, 35.6, 57.4, 58.3, 63.1; 53.60; 49.51; 2.13; [4, 5, 6, 7]
0.4, 0.0, 0.0, 0.0, 98.7, 98.7, 0.0, 0.0; 98.70; 46.68; 2.04; [4, 5]
0.2, 0.2, 0.2, 0.0, 36.6, 53.2, 64.2, 38.4; 48.10; 51.36; 2.09; [4, 5, 6, 7]
0.2, 0.0, 0.0, 0.0, 99.1, 98.5, 0.0, 0.0; 98.80; 46.82; 2.05; [4, 5]
97.2, 95.6, 97.5, 1.4, 0.0, 0.0, 0.0, 0.0; 96.77; 65.05; 1.33; [0, 1, 2]
0.6, 0.0, 0.0, 0.0, 97.2, 97.6, 0.0, 0.0; 97.40; 58.93; 1.96; [4, 5]
100.0, 0.2, 0.0, 0.2, 0.0, 0.0, 0.0, 0.0; 100.00; 144.52; 1.73; [0]
0.4, 0.0, 0.0, 0.0, 43.8, 59.4, 65.4, 52.2; 55.20; 154.20; 2.15; [4, 5, 6, 7]
0.2, 0.2, 0.0, 0.0, 99.1, 98.3, 0.0, 0.0; 98.70; 47.88; 2.07; [4, 5]
0.5, 0.0, 0.0, 0.0, 72.3, 15.4, 76.7, 77.3; 60.42; 45.70; 2.30; [4, 5, 6, 7]
0.6, 0.0, 0.0, 0.2, 100.0, 0.0, 0.0, 0.0; 100.00; 88.88; 1.72; [4]
2.1, 0.2, 0.0, 0.0, 60.9, 57.6, 71.9, 40.9; 57.83; 78.32; 2.19; [4, 5, 6, 7]
1.7, 0.0, 0.0, 0.0, 99.1, 98.3, 0.0, 0.0; 98.70; 51.05; 2.08; [4, 5]
0.2, 0.0, 0.0, 0.2, 56.9, 49.9, 70.8, 47.0; 56.15; 40.70; 2.23; [4, 5, 6, 7]
0.4, 0.0, 0.0, 0.0, 99.1, 99.1, 0.0, 0.0; 99.10; 49.77; 2.08; [4, 5]
0.0, 0.0, 0.0, 0.0, 59.9, 42.0, 55.4, 57.4; 53.68; 43.20; 2.17; [4, 5, 6, 7]
0.9, 0.0, 0.0, 0.0, 99.8, 99.6, 0.0, 0.0; 99.70; 43.02; 2.09; [4, 5]
0.2, 0.0, 0.0, 0.0, 56.8, 66.4, 66.3, 76.0; 66.38; 47.17; 2.50; [4, 5, 6, 7]
0.7, 0.0, 0.0, 0.0, 89.3, 89.8, 88.7, 0.0; 89.27; 41.20; 2.60; [4, 5, 6]
0.7, 0.0, 0.0, 0.0, 100.0, 0.0, 0.0, 0.0; 100.00; 101.95; 1.81; [4]
0.2, 0.0, 0.0, 0.2, 69.0, 79.2, 53.5, 61.5; 65.80; 92.07; 2.46; [4, 5, 6, 7]
0.6, 0.0, 0.0, 0.0, 51.5, 66.1, 68.8, 49.2; 58.90; 40.00; 2.36; [4, 5, 6, 7]
0.9, 0.2, 0.0, 0.0, 98.7, 99.6, 0.0, 0.0; 99.15; 55.20; 2.08; [4, 5]
0.2, 0.0, 0.0, 0.2, 69.5, 29.2, 63.9, 76.2; 59.70; 55.41; 2.29; [4, 5, 6, 7]
1.1, 0.0, 0.0, 0.0, 99.8, 98.9, 0.0, 0.0; 99.35; 49.65; 2.09; [4, 5]
4.3, 0.2, 0.0, 0.0, 51.4, 66.3, 59.2, 55.1; 58.00; 50.20; 2.25; [4, 5, 6, 7]
2.3, 0.0, 0.2, 0.0, 98.9, 97.2, 0.0, 0.0; 98.05; 43.83; 2.09; [4, 5]
0.2, 0.0, 0.0, 0.2, 6.7, 42.2, 30.1, 2.7; 20.43; 48.39; 1.18; [4, 5, 6, 7]
