2.0, 4.5, 1.2, 0.0, 94.0, 99.8, 94.0, 93.4; 26.54; 712.02; 1.81; [4, 5, 6, 7]
100.0, 100.0, 0.7, 0.7, 0.0, 0.0, 0.0, 0.0; 69.20; 1856.51; 3.22; [0, 1]
99.6, 100.0, 98.9, 100.0, 0.0, 0.0, 0.0, 0.2; 97.61; 2618.96; 2.08; [0, 1, 2, 3]
100.0, 99.8, 0.8, 0.4, 0.0, 0.0, 0.0, 0.0; 116.84; 3134.77; 1.65; [0, 1]
1.9, 0.2, 0.0, 0.0, 99.8, 100.0, 99.2, 100.0; 107.52; 2884.64; 1.74; [4, 5, 6, 7]
1.5, 0.0, 0.0, 0.0, 100.0, 100.0, 100.0, 0.0; 87.14; 2337.95; 1.98; [4, 5, 6]
1.4, 0.0, 0.0, 0.2, 100.0, 100.0, 100.0, 0.0; 82.67; 2218.00; 2.13; [4, 5, 6]
1.6, 0.2, 0.0, 0.0, 99.6, 100.0, 100.0, 100.0; 78.66; 2110.46; 2.27; [4, 5, 6, 7]
1.1, 0.0, 0.0, 0.0, 100.0, 100.0, 99.8, 0.0; 72.66; 1949.36; 2.39; [4, 5, 6]
100.0, 0.0, 0.0, 0.0, 0.0, 0.0, 0.0, 0.0; 70.82; 1899.99; 2.43; [0]
100.0, 100.0, 100.0, 1.7, 0.0, 0.0, 0.0, 0.0; 77.78; 2086.73; 2.27; [0, 1, 2]
100.0, 0.2, 0.0, 0.2, 0.0, 0.0, 0.0, 0.0; 81.58; 2188.72; 2.15; [0]
2.1, 0.0, 0.0, 0.0, 100.0, 100.0, 100.0, 99.8; 82.23; 2206.10; 2.16; [4, 5, 6, 7]
0.7, 0.0, 0.0, 0.0, 100.0, 100.0, 0.0, 0.0; 76.08; 2041.36; 2.24; [4, 5]
1.6, 0.2, 0.0, 0.0, 100.0, 100.0, 0.0, 0.0; 79.01; 2119.82; 2.33; [4, 5]
100.0, 0.0, 0.0, 0.2, 0.0, 0.0, 0.0, 0.0; 87.78; 2355.16; 2.14; [0]
100.0, 0.2, 0.4, 0.0, 0.0, 0.0, 0.0, 0.0; 95.45; 2561.05; 2.01; [0]
100.0, 100.0, 99.4, 100.0, 0.0, 0.0, 0.0, 0.0; 96.74; 2595.43; 1.92; [0, 1, 2, 3]
99.8, 100.0, 100.0, 0.6, 0.0, 0.0, 0.0, 0.0; 101.97; 2735.93; 1.85; [0, 1, 2]
100.0, 100.0, 99.8, 100.0, 0.0, 0.0, 0.0, 0.0; 103.63; 2780.33; 1.77; [0, 1, 2, 3]
1.7, 0.0, 0.0, 0.0, 100.0, 99.8, 100.0, 0.0; 103.40; 2774.23; 1.73; [4, 5, 6]
100.0, 0.0, 0.2, 0.0, 0.0, 0.0, 0.0, 0.0; 103.98; 2789.74; 1.72; [0]
100.0, 100.0, 100.0, 1.1, 0.0, 0.0, 0.0, 0.0; 108.90; 2921.86; 1.65; [0, 1, 2]
100.0, 0.4, 0.0, 0.2, 0.0, 0.2, 0.0, 0.0; 114.83; 3080.81; 1.61; [0]
1.1, 0.2, 0.0, 0.2, 99.8, 99.6, 0.0, 0.0; 118.50; 3179.30; 1.53; [4, 5]
0.8, 0.2, 0.0, 0.4, 100.0, 100.0, 0.0, 0.0; 119.27; 3200.05; 1.51; [4, 5]
100.0, 100.0, 100.0, 1.8, 0.0, 0.0, 0.0, 0.0; 116.88; 3135.94; 1.56; [0, 1, 2]
1.3, 0.0, 0.0, 0.2, 100.0, 100.0, 100.0, 0.0; 113.35; 3041.24; 1.58; [4, 5, 6]
2.4, 0.0, 0.0, 0.0, 100.0, 100.0, 100.0, 99.8; 113.65; 3049.30; 1.58; [4, 5, 6, 7]
3.2, 0.0, 0.0, 0.0, 69.5, 95.4, 72.8, 84.0; 108.41; 2908.65; 1.95; [4, 5, 6, 7]
3.1, 0.2, 0.0, 0.0, 99.6, 100.0, 100.0, 0.0; 63.94; 1715.45; 2.15; [4, 5, 6]
100.0, 99.5, 100.0, 1.6, 0.0, 0.0, 0.0, 0.0; 42.15; 1130.86; 2.64; [0, 1, 2]
100.0, 100.0, 1.7, 0.4, 0.0, 0.2, 0.0, 0.0; 36.10; 968.48; 2.61; [0, 1]
1.9, 0.2, 0.0, 0.0, 100.0, 99.8, 100.0, 0.0; 34.82; 934.33; 2.45; [4, 5, 6]
2.5, 0.0, 0.0, 0.0, 100.0, 100.0, 0.0, 0.0; 32.30; 866.64; 2.23; [4, 5]
3.0, 0.0, 0.0, 0.2, 99.1, 99.1, 97.7, 98.2; 33.94; 910.73; 2.24; [4, 5, 6, 7]
100.0, 0.7, 0.2, 0.4, 0.0, 0.2, 0.0, 0.0; 36.12; 969.00; 2.24; [0]
1.1, 0.2, 0.0, 0.0, 100.0, 99.8, 0.0, 0.0; 39.57; 1061.56; 2.04; [4, 5]
100.0, 99.8, 100.0, 1.0, 0.0, 0.0, 0.0, 0.0; 39.26; 1053.43; 2.12; [0, 1, 2]
100.0, 0.2, 0.0, 0.2, 0.0, 0.0, 0.0, 0.0; 40.28; 1080.70; 2.10; [0]
100.0, 0.6, 0.4, 0.2, 0.0, 0.0, 0.0, 0.0; 42.92; 1151.52; 2.02; [0]
2.1, 0.0, 0.0, 0.0, 100.0, 100.0, 0.0, 0.0; 49.78; 1335.54; 1.82; [4, 5]
100.0, 94.3, 100.0, 100.0, 0.0, 0.0, 0.0, 0.0; 51.31; 1376.71; 1.73; [0, 1, 2, 3]
0.2, 0.0, 0.0, 0.0, 100.0, 0.0, 0.0, 0.0; 54.46; 1461.21; 1.66; [4]
100.0, 0.6, 0.0, 0.4, 0.0, 0.0, 0.0, 0.0; 61.98; 1662.86; 1.55; [0]
1.1, 0.0, 0.0, 0.2, 100.0, 0.0, 0.0, 0.0; 70.34; 1887.19; 1.44; [4]
1.3, 0.0, 0.0, 0.0, 100.0, 100.0, 0.0, 0.0; 73.79; 1979.70; 1.39; [4, 5]
100.0, 0.7, 0.0, 0.5, 0.0, 0.0, 0.0, 0.0; 71.45; 1916.88; 1.41; [0]
100.0, 0.2, 0.4, 0.0, 0.0, 0.0, 0.0, 0.0; 77.68; 2084.13; 1.34; [0]
2.1, 0.2, 0.0, 0.0, 99.8, 99.6, 99.8, 0.0; 77.22; 2071.77; 1.33; [4, 5, 6]
100.0, 100.0, 0.9, 0.7, 0.0, 0.0, 0.0, 0.0; 63.81; 1711.90; 1.49; [0, 1]
100.0, 100.0, 94.1, 100.0, 0.0, 0.0, 0.0, 0.0; 63.72; 1709.64; 1.43; [0, 1, 2, 3]
98.0, 99.4, 98.0, 99.4, 0.0, 0.0, 0.0, 0.0; 61.94; 1661.88; 1.46; [0, 1, 2, 3]
5.7, 0.0, 0.0, 0.2, 96.2, 96.4, 100.0, 97.7; 43.16; 1157.94; 1.59; [4, 5, 6, 7]
100.0, 100.0, 1.9, 0.7, 0.0, 0.0, 0.0, 0.0; 29.85; 800.92; 1.95; [0, 1]
100.0, 100.0, 99.8, 1.9, 0.0, 0.0, 0.0, 0.0; 30.98; 831.23; 1.84; [0, 1, 2]
2.1, 0.2, 0.0, 0.2, 100.0, 0.0, 0.0, 0.0; 32.34; 867.74; 1.80; [4]
5.6, 0.0, 0.0, 0.0, 100.0, 100.0, 100.0, 100.0; 32.34; 867.80; 2.00; [4, 5, 6, 7]
4.5, 0.0, 0.2, 0.0, 100.0, 100.0, 100.0, 100.0; 29.34; 787.14; 2.17; [4, 5, 6, 7]
100.0, 99.8, 100.0, 100.0, 0.0, 0.0, 0.0, 0.0; 24.13; 647.30; 2.66; [0, 1, 2, 3]
2.4, 0.0, 0.0, 0.2, 100.0, 100.0, 0.0, 0.0; 21.61; 579.69; 2.92; [4, 5]
100.0, 99.8, 100.0, 99.8, 0.0, 0.0, 0.0, 0.0; 25.72; 690.19; 2.59; [0, 1, 2, 3]
0.9, 0.0, 0.0, 0.0, 100.0, 0.0, 0.0, 0.0; 29.14; 781.82; 2.27; [4]
100.0, 100.0, 100.0, 1.9, 0.0, 0.0, 0.0, 0.0; 34.45; 924.29; 2.06; [0, 1, 2]
5.4, 0.0, 0.2, 0.2, 100.0, 99.8, 100.0, 0.0; 37.36; 1002.46; 1.90; [4, 5, 6]
2.3, 0.0, 0.0, 0.0, 100.0, 100.0, 94.7, 97.7; 38.93; 1044.42; 1.95; [4, 5, 6, 7]
1.1, 0.0, 0.0, 0.0, 100.0, 0.0, 0.0, 0.0; 40.99; 1099.85; 2.14; [4]
1.9, 0.4, 0.2, 0.0, 93.6, 97.0, 100.0, 100.0; 41.30; 1108.15; 2.16; [4, 5, 6, 7]
99.8, 99.8, 100.0, 1.1, 0.0, 0.2, 0.0, 0.0; 38.92; 1044.20; 2.37; [0, 1, 2]
99.8, 99.8, 99.8, 1.8, 0.0, 0.2, 0.0, 0.0; 38.46; 1031.94; 2.35; [0, 1, 2]
100.0, 0.4, 0.0, 0.0, 0.0, 0.2, 0.0, 0.0; 41.92; 1124.76; 2.21; [0]
100.0, 100.0, 99.6, 99.8, 0.0, 0.0, 0.0, 0.0; 44.01; 1180.88; 2.08; [0, 1, 2, 3]
100.0, 0.2, 0.0, 0.0, 0.0, 0.0, 0.0, 0.0; 44.63; 1197.32; 1.91; [0]
3.2, 0.0, 0.0, 0.0, 100.0, 100.0, 100.0, 99.8; 47.48; 1273.90; 1.72; [4, 5, 6, 7]
100.0, 100.0, 1.5, 0.2, 0.0, 0.0, 0.0, 0.0; 42.32; 1135.42; 1.67; [0, 1]
100.0, 100.0, 0.6, 0.4, 0.0, 0.0, 0.0, 0.0; 45.61; 1223.74; 1.51; [0, 1]
100.0, 100.0, 0.2, 1.6, 0.0, 0.0, 0.0, 0.0; 45.95; 1232.92; 1.47; [0, 1]
99.8, 100.0, 100.0, 1.1, 0.0, 0.0, 0.0, 0.0; 46.32; 1242.73; 1.47; [0, 1, 2]
100.0, 99.8, 99.8, 2.4, 0.0, 0.0, 0.0, 0.0; 42.70; 1145.73; 1.49; [0, 1, 2]
100.0, 100.0, 100.0, 2.2, 0.0, 0.0, 0.0, 0.0; 43.70; 1172.38; 1.50; [0, 1, 2]
0.9, 0.0, 0.0, 0.0, 100.0, 100.0, 0.0, 0.0; 44.61; 1196.87; 1.47; [4, 5]
100.0, 0.0, 0.5, 0.0, 0.0, 0.0, 0.0, 0.0; 52.02; 1395.64; 1.45; [0]
1.1, 0.2, 0.0, 0.0, 100.0, 100.0, 100.0, 100.0; 55.10; 1478.37; 1.49; [4, 5, 6, 7]
1.8, 0.2, 0.0, 0.2, 100.0, 100.0, 99.8, 100.0; 56.98; 1528.86; 1.63; [4, 5, 6, 7]
1.1, 0.0, 0.0, 0.0, 100.0, 99.8, 100.0, 0.0; 56.00; 1502.46; 1.86; [4, 5, 6]
1.3, 0.2, 0.0, 0.0, 99.4, 100.0, 100.0, 100.0; 55.62; 1492.27; 2.15; [4, 5, 6, 7]
99.1, 99.8, 100.0, 1.1, 0.0, 0.0, 0.0, 0.0; 56.05; 1503.88; 2.35; [0, 1, 2]
100.0, 100.0, 98.3, 100.0, 0.0, 0.0, 0.0, 0.0; 59.04; 1583.93; 2.32; [0, 1, 2, 3]
100.0, 0.4, 0.6, 0.6, 0.0, 0.0, 0.0, 0.0; 67.29; 1805.31; 2.17; [0]
100.0, 99.8, 99.6, 1.3, 0.0, 0.0, 0.0, 0.0; 73.51; 1972.16; 2.06; [0, 1, 2]
100.0, 100.0, 100.0, 0.4, 0.0, 0.0, 0.0, 0.0; 75.46; 2024.56; 2.04; [0, 1, 2]
1.9, 0.0, 0.0, 0.2, 100.0, 100.0, 100.0, 99.8; 80.44; 2158.29; 2.05; [4, 5, 6, 7]
100.0, 0.4, 0.4, 0.2, 0.0, 0.0, 0.0, 0.0; 84.32; 2262.41; 2.12; [0]
0.4, 0.0, 0.0, 0.0, 100.0, 100.0, 0.0, 0.0; 85.69; 2298.98; 2.07; [4, 5]
100.0, 100.0, 100.0, 0.5, 0.0, 0.0, 0.0, 0.0; 88.53; 2375.16; 2.09; [0, 1, 2]
1.3, 0.2, 0.0, 0.0, 100.0, 100.0, 99.8, 100.0; 86.45; 2319.38; 2.06; [4, 5, 6, 7]
1.1, 0.0, 0.0, 0.2, 100.0, 100.0, 0.0, 0.0; 88.16; 2365.33; 2.06; [4, 5]
1.8, 0.0, 0.0, 0.0, 100.0, 100.0, 99.8, 100.0; 89.32; 2396.57; 2.01; [4, 5, 6, 7]
1.2, 0.0, 0.4, 0.0, 100.0, 100.0, 100.0, 100.0; 88.15; 2365.01; 2.02; [4, 5, 6, 7]
1.3, 0.0, 0.0, 0.0, 100.0, 0.0, 0.0, 0.0; 88.98; 2387.42; 2.02; [4]
1.5, 0.0, 0.0, 0.0, 100.0, 100.0, 100.0, 100.0; 87.80; 2355.78; 2.17; [4, 5, 6, 7]
100.0, 99.8, 100.0, 100.0, 0.0, 0.0, 0.0, 0.0; 73.07; 1960.43; 2.43; [0, 1, 2, 3]
1.5, 0.0, 0.0, 0.0, 100.0, 100.0, 100.0, 99.8; 73.19; 1963.74; 2.54; [4, 5, 6, 7]
100.0, 100.0, 100.0, 0.2, 0.0, 0.0, 0.0, 0.0; 69.85; 1873.98; 2.56; [0, 1, 2]
100.0, 100.0, 0.6, 0.4, 0.0, 0.2, 0.0, 0.0; 67.55; 1812.25; 2.55; [0, 1]
100.0, 100.0, 100.0, 0.6, 0.0, 0.0, 0.0, 0.0; 68.75; 1844.46; 2.48; [0, 1, 2]
1.1, 0.0, 0.0, 0.2, 99.8, 100.0, 0.0, 0.0; 68.58; 1840.09; 2.46; [4, 5]
52.4, 67.9, 53.9, 68.4, 0.0, 0.0, 0.0, 0.0; 73.68; 1976.80; 2.32; [0, 1, 2, 3]
1.7, 0.0, 0.0, 0.0, 100.0, 100.0, 100.0, 0.0; 70.71; 1897.07; 2.27; [4, 5, 6]
2.4, 0.2, 0.2, 0.0, 99.8, 99.8, 100.0, 100.0; 70.85; 1900.83; 2.24; [4, 5, 6, 7]
2.2, 0.2, 0.0, 0.2, 100.0, 100.0, 100.0, 100.0; 69.69; 1869.92; 2.26; [4, 5, 6, 7]
1.8, 0.0, 0.2, 0.2, 100.0, 100.0, 99.8, 0.0; 66.39; 1781.20; 2.32; [4, 5, 6]
0.4, 0.0, 0.0, 0.0, 100.0, 0.0, 0.0, 0.0; 65.11; 1746.78; 2.37; [4]
100.0, 100.0, 100.0, 0.4, 0.0, 0.0, 0.0, 0.0; 67.62; 1814.18; 2.29; [0, 1, 2]
1.7, 0.0, 0.0, 0.0, 99.8, 100.0, 99.8, 0.0; 72.73; 1951.26; 2.17; [4, 5, 6]
100.0, 100.0, 0.7, 0.7, 0.0, 0.0, 0.0, 0.0; 70.20; 1883.45; 2.23; [0, 1]
100.0, 99.8, 99.8, 1.3, 0.0, 0.0, 0.0, 0.0; 70.97; 1904.18; 2.21; [0, 1, 2]
0.9, 0.0, 0.0, 0.0, 100.0, 100.0, 99.8, 0.0; 69.95; 1876.85; 2.28; [4, 5, 6]
1.6, 0.0, 0.0, 0.0, 100.0, 0.0, 0.0, 0.0; 68.41; 1835.37; 2.35; [4]
99.6, 100.0, 100.0, 1.6, 0.0, 0.0, 0.0, 0.0; 77.19; 2071.11; 2.23; [0, 1, 2]
100.0, 100.0, 1.3, 0.0, 0.0, 0.0, 0.0, 0.0; 79.24; 2125.89; 2.10; [0, 1]
1.3, 0.2, 0.0, 0.0, 99.6, 100.0, 97.2, 100.0; 81.46; 2185.62; 2.06; [4, 5, 6, 7]
100.0, 100.0, 99.8, 100.0, 0.0, 0.0, 0.0, 0.0; 83.34; 2235.95; 2.02; [0, 1, 2, 3]
100.0, 100.0, 100.0, 100.0, 0.0, 0.0, 0.0, 0.0; 85.25; 2287.32; 1.94; [0, 1, 2, 3]
100.0, 0.6, 0.2, 0.4, 0.0, 0.0, 0.0, 0.0; 89.90; 2411.95; 1.83; [0]
1.9, 0.2, 0.0, 0.0, 100.0, 100.0, 99.8, 0.0; 92.76; 2488.78; 1.77; [4, 5, 6]
100.0, 100.0, 0.2, 0.9, 0.0, 0.0, 0.0, 0.0; 90.81; 2436.42; 1.79; [0, 1]
100.0, 100.0, 99.8, 100.0, 0.0, 0.0, 0.0, 0.0; 92.46; 2480.81; 1.76; [0, 1, 2, 3]
100.0, 100.0, 100.0, 0.9, 0.0, 0.0, 0.0, 0.0; 92.14; 2472.22; 1.73; [0, 1, 2]
1.7, 0.0, 0.0, 0.0, 100.0, 99.8, 100.0, 99.8; 95.41; 2559.76; 1.72; [4, 5, 6, 7]
100.0, 100.0, 99.8, 1.3, 0.0, 0.0, 0.0, 0.0; 86.19; 2312.55; 1.83; [0, 1, 2]
100.0, 100.0, 100.0, 1.4, 0.0, 0.0, 0.0, 0.0; 90.39; 2425.04; 1.76; [0, 1, 2]
100.0, 100.0, 100.0, 99.8, 0.0, 0.0, 0.0, 0.0; 90.86; 2437.70; 1.75; [0, 1, 2, 3]
0.6, 0.0, 0.0, 0.0, 100.0, 0.0, 0.0, 0.0; 85.32; 2289.06; 1.77; [4]
100.0, 100.0, 100.0, 100.0, 0.0, 0.0, 0.0, 0.0; 87.90; 2358.27; 1.77; [0, 1, 2, 3]
1.1, 0.2, 0.0, 0.0, 100.0, 100.0, 99.8, 100.0; 87.65; 2351.74; 1.80; [4, 5, 6, 7]
1.5, 0.2, 0.0, 0.0, 99.8, 100.0, 100.0, 0.0; 87.34; 2343.41; 1.86; [4, 5, 6]
1.6, 0.0, 0.0, 0.2, 97.5, 99.8, 0.0, 0.0; 85.27; 2287.84; 1.99; [4, 5]
0.9, 0.2, 0.0, 0.0, 99.8, 100.0, 100.0, 0.0; 79.51; 2133.19; 2.01; [4, 5, 6]
1.4, 0.2, 0.0, 0.0, 100.0, 100.0, 0.0, 0.0; 75.98; 2038.64; 2.12; [4, 5]
1.0, 0.0, 0.0, 0.2, 100.0, 100.0, 0.0, 0.0; 76.79; 2060.38; 2.17; [4, 5]
1.2, 0.0, 0.0, 0.4, 100.0, 0.0, 0.0, 0.0; 82.28; 2207.53; 2.16; [4]
100.0, 0.6, 0.2, 0.2, 0.0, 0.0, 0.2, 0.0; 93.07; 2497.05; 2.01; [0]
1.3, 0.0, 0.0, 0.0, 100.0, 100.0, 100.0, 0.0; 98.38; 2639.56; 1.93; [4, 5, 6]
100.0, 0.7, 0.4, 0.2, 0.0, 0.0, 0.0, 0.0; 100.29; 2690.68; 1.93; [0]
0.9, 0.2, 0.0, 0.0, 99.8, 99.8, 100.0, 0.0; 103.99; 2790.09; 1.89; [4, 5, 6]
1.2, 0.2, 0.0, 0.0, 99.4, 99.4, 99.8, 0.0; 101.96; 2735.59; 2.03; [4, 5, 6]
100.0, 100.0, 100.0, 0.9, 0.0, 0.0, 0.0, 0.0; 96.26; 2582.54; 2.11; [0, 1, 2]
100.0, 100.0, 0.6, 0.2, 0.0, 0.2, 0.0, 0.0; 98.70; 2648.01; 2.07; [0, 1]
0.9, 0.0, 0.2, 0.2, 100.0, 100.0, 0.0, 0.0; 100.14; 2686.79; 2.04; [4, 5]
0.8, 0.2, 0.0, 0.0, 100.0, 100.0, 0.0, 0.0; 102.49; 2749.76; 2.00; [4, 5]
1.7, 0.0, 0.0, 0.2, 100.0, 99.5, 100.0, 99.8; 104.96; 2816.02; 1.96; [4, 5, 6, 7]
100.0, 100.0, 0.9, 0.2, 0.0, 0.0, 0.0, 0.0; 106.27; 2851.34; 1.98; [0, 1]
1.1, 0.0, 0.0, 0.2, 100.0, 100.0, 0.0, 0.0; 112.25; 3011.59; 1.96; [4, 5]
1.2, 0.0, 0.0, 0.0, 100.0, 99.8, 99.8, 0.0; 111.07; 2979.98; 1.94; [4, 5, 6]
99.8, 100.0, 100.0, 99.8, 0.0, 0.0, 0.0, 0.0; 108.56; 2912.53; 1.94; [0, 1, 2, 3]
1.1, 0.0, 0.0, 0.0, 100.0, 100.0, 0.0, 0.0; 108.62; 2914.35; 1.94; [4, 5]
1.3, 0.0, 0.0, 0.0, 100.0, 99.7, 99.5, 0.0; 92.64; 2485.61; 2.15; [4, 5, 6]
1.1, 0.0, 0.0, 0.0, 100.0, 0.0, 0.0, 0.0; 88.82; 2383.07; 2.12; [4]
100.0, 100.0, 99.8, 1.1, 0.0, 0.0, 0.0, 0.0; 90.13; 2418.29; 2.13; [0, 1, 2]
0.4, 0.0, 0.0, 0.0, 100.0, 0.0, 0.0, 0.0; 91.93; 2466.60; 2.10; [4]
100.0, 100.0, 100.0, 0.6, 0.0, 0.0, 0.0, 0.0; 95.20; 2554.28; 1.99; [0, 1, 2]
1.3, 0.2, 0.0, 0.2, 100.0, 100.0, 99.8, 0.0; 99.11; 2659.02; 1.97; [4, 5, 6]
1.4, 0.0, 0.0, 0.2, 100.0, 100.0, 100.0, 0.0; 91.04; 2442.61; 2.10; [4, 5, 6]
