0.4, 0.2, 0.2, 0.0, 88.8, 87.1, 85.8, 93.4; 88.78; 326.65; 2.96; [4, 5, 6, 7]
0.2, 0.0, 0.0, 0.0, 87.1, 87.7, 86.6, 97.6; 89.75; 316.74; 2.92; [4, 5, 6, 7]
0.6, 0.2, 0.0, 0.0, 86.7, 87.0, 86.0, 98.0; 89.42; 322.05; 2.93; [4, 5, 6, 7]
0.2, 0.0, 0.2, 0.0, 87.6, 88.4, 85.5, 98.0; 89.88; 323.14; 2.94; [4, 5, 6, 7]
0.4, 0.0, 0.0, 0.0, 85.8, 85.8, 89.6, 94.2; 88.85; 323.14; 2.94; [4, 5, 6, 7]
0.4, 0.0, 0.0, 0.0, 86.2, 85.7, 87.6, 96.8; 89.08; 325.46; 2.93; [4, 5, 6, 7]
0.2, 0.0, 0.0, 0.0, 81.5, 85.4, 87.3, 98.8; 88.25; 326.94; 2.92; [4, 5, 6, 7]
0.2, 0.2, 0.2, 0.2, 86.6, 85.6, 87.6, 94.4; 88.55; 327.03; 2.91; [4, 5, 6, 7]
0.4, 0.0, 0.0, 0.0, 87.2, 86.0, 87.6, 96.2; 89.25; 325.85; 2.93; [4, 5, 6, 7]
0.4, 0.2, 0.0, 0.0, 87.4, 86.2, 84.8, 96.6; 88.75; 325.07; 2.93; [4, 5, 6, 7]
0.2, 0.0, 0.0, 0.0, 86.1, 87.9, 86.5, 97.6; 89.53; 325.40; 2.92; [4, 5, 6, 7]
0.4, 0.0, 0.0, 0.0, 85.3, 88.2, 86.2, 94.8; 88.62; 325.11; 2.93; [4, 5, 6, 7]
0.6, 0.0, 0.0, 0.0, 86.2, 87.8, 86.6, 97.4; 89.50; 326.61; 2.93; [4, 5, 6, 7]
0.2, 0.0, 0.0, 0.0, 86.5, 87.4, 87.2, 98.0; 89.78; 325.67; 2.94; [4, 5, 6, 7]
0.4, 0.0, 0.0, 0.0, 84.5, 84.5, 89.9, 93.8; 88.17; 326.36; 2.94; [4, 5, 6, 7]
0.4, 0.2, 0.0, 0.0, 84.9, 84.7, 87.0, 99.0; 88.90; 328.73; 2.93; [4, 5, 6, 7]
0.2, 0.0, 0.2, 0.0, 83.7, 87.2, 84.3, 97.8; 88.25; 328.92; 2.92; [4, 5, 6, 7]
0.4, 0.0, 0.0, 0.0, 86.6, 89.2, 86.9, 95.0; 89.43; 329.52; 2.92; [4, 5, 6, 7]
0.6, 0.2, 0.0, 0.0, 83.3, 86.2, 85.8, 99.0; 88.58; 328.88; 2.93; [4, 5, 6, 7]
0.6, 0.0, 0.0, 0.0, 85.8, 86.4, 87.6, 98.2; 89.50; 327.70; 2.93; [4, 5, 6, 7]
0.2, 0.2, 0.0, 0.2, 86.6, 87.0, 84.5, 97.6; 88.93; 326.70; 2.93; [4, 5, 6, 7]
0.2, 0.0, 0.2, 0.0, 85.3, 86.3, 85.5, 98.8; 88.98; 324.27; 2.94; [4, 5, 6, 7]
0.2, 0.0, 0.0, 0.0, 86.2, 87.7, 86.6, 97.4; 89.47; 323.51; 2.95; [4, 5, 6, 7]
0.4, 0.0, 0.2, 0.0, 85.5, 86.3, 84.5, 96.6; 88.22; 324.51; 2.94; [4, 5, 6, 7]
0.6, 0.2, 0.0, 0.2, 85.3, 84.0, 86.8, 97.0; 88.28; 329.56; 2.92; [4, 5, 6, 7]
0.4, 0.0, 0.0, 0.0, 86.4, 86.6, 87.6, 94.8; 88.85; 330.03; 2.91; [4, 5, 6, 7]
0.2, 0.0, 0.2, 0.0, 86.6, 86.9, 83.7, 97.8; 88.75; 328.93; 2.92; [4, 5, 6, 7]
0.2, 0.0, 0.0, 0.0, 85.5, 88.8, 95.0, 87.2; 89.12; 325.89; 2.93; [4, 5, 6, 7]
0.2, 0.0, 0.0, 0.0, 86.2, 85.3, 86.7, 99.2; 89.35; 324.19; 2.93; [4, 5, 6, 7]
0.2, 0.0, 0.0, 0.0, 85.5, 90.2, 87.7, 93.8; 89.30; 325.69; 2.94; [4, 5, 6, 7]
0.8, 0.0, 0.2, 0.0, 84.9, 85.9, 89.4, 97.4; 89.40; 325.68; 2.94; [4, 5, 6, 7]
0.4, 0.0, 0.0, 0.0, 84.2, 84.1, 90.8, 94.4; 88.38; 326.58; 2.93; [4, 5, 6, 7]
0.2, 0.2, 0.0, 0.0, 87.0, 86.2, 86.9, 96.8; 89.23; 329.07; 2.92; [4, 5, 6, 7]
0.0, 0.0, 0.0, 0.0, 88.4, 85.3, 85.5, 98.2; 89.35; 330.00; 2.92; [4, 5, 6, 7]
0.4, 0.0, 0.2, 0.0, 86.3, 87.8, 85.5, 96.6; 89.05; 326.41; 2.93; [4, 5, 6, 7]
0.4, 0.2, 0.0, 0.0, 90.6, 87.3, 87.0, 95.2; 90.02; 325.91; 2.94; [4, 5, 6, 7]
0.4, 0.0, 0.0, 0.0, 85.7, 86.3, 86.3, 100.0; 89.58; 325.85; 2.94; [4, 5, 6, 7]
0.2, 0.0, 0.0, 0.0, 85.6, 84.9, 87.0, 94.4; 87.97; 327.39; 2.94; [4, 5, 6, 7]
0.0, 0.2, 0.0, 0.0, 87.4, 88.8, 86.0, 97.0; 89.80; 325.67; 2.93; [4, 5, 6, 7]
0.2, 0.0, 0.2, 0.0, 84.7, 86.3, 85.5, 99.4; 88.97; 324.00; 2.94; [4, 5, 6, 7]
0.6, 0.0, 0.0, 0.0, 85.5, 84.9, 85.0, 99.2; 88.65; 327.02; 2.93; [4, 5, 6, 7]
0.2, 0.2, 0.0, 0.2, 84.3, 87.6, 89.4, 93.4; 88.67; 327.57; 2.92; [4, 5, 6, 7]
0.4, 0.0, 0.2, 0.0, 83.8, 84.5, 83.4, 98.8; 87.62; 326.69; 2.92; [4, 5, 6, 7]
0.2, 0.0, 0.0, 0.0, 88.6, 86.7, 86.3, 98.0; 89.90; 326.03; 2.93; [4, 5, 6, 7]
0.4, 0.0, 0.0, 0.0, 83.1, 86.7, 88.6, 96.0; 88.60; 324.38; 2.93; [4, 5, 6, 7]
0.2, 0.2, 0.0, 0.0, 86.0, 85.6, 86.8, 98.8; 89.30; 324.83; 2.93; [4, 5, 6, 7]
0.4, 0.0, 0.2, 0.0, 84.4, 87.7, 85.8, 97.8; 88.93; 327.03; 2.92; [4, 5, 6, 7]
0.6, 0.2, 0.0, 0.0, 86.2, 86.7, 88.4, 95.4; 89.18; 325.93; 2.93; [4, 5, 6, 7]
0.2, 0.0, 0.0, 0.0, 88.4, 89.6, 90.4, 88.2; 89.15; 322.65; 2.94; [4, 5, 6, 7]
0.4, 0.0, 0.0, 0.0, 85.7, 86.8, 85.7, 97.6; 88.95; 325.12; 2.93; [4, 5, 6, 7]
0.0, 0.0, 0.0, 0.0, 88.8, 87.0, 86.6, 95.8; 89.55; 327.25; 2.93; [4, 5, 6, 7]
0.8, 0.0, 0.0, 0.0, 85.0, 85.9, 86.1, 98.8; 88.95; 327.47; 2.93; [4, 5, 6, 7]
96.4, 97.0, 0.0, 0.2, 0.0, 0.0, 0.0, 0.0; 96.70; 414.72; 2.92; [0, 1]
93.9, 85.8, 74.3, 89.1, 0.0, 0.0, 0.0, 0.0; 85.78; 508.76; 2.25; [0, 1, 2, 3]
93.2, 96.0, 0.4, 0.2, 0.0, 0.2, 0.0, 0.0; 94.60; 622.30; 1.82; [0, 1]
0.4, 0.2, 0.2, 0.0, 97.0, 84.5, 91.3, 0.0; 90.93; 684.58; 1.51; [4, 5, 6]
0.2, 0.0, 0.0, 0.0, 98.0, 89.2, 86.3, 0.0; 91.17; 692.39; 1.72; [4, 5, 6]
100.0, 0.2, 0.2, 0.0, 0.0, 0.0, 0.0, 0.0; 100.00; 675.08; 1.76; [0]
100.0, 0.0, 0.0, 0.4, 0.0, 0.0, 0.0, 0.0; 100.00; 766.94; 1.59; [0]
95.8, 97.0, 0.2, 0.2, 0.0, 0.0, 0.0, 0.0; 96.40; 804.95; 1.50; [0, 1]
0.4, 0.0, 0.0, 0.0, 100.0, 0.0, 0.0, 0.0; 100.00; 889.76; 1.46; [4]
0.4, 0.0, 0.0, 0.0, 86.5, 87.3, 86.1, 96.8; 89.17; 914.25; 1.39; [4, 5, 6, 7]
0.4, 0.0, 0.0, 0.0, 85.5, 86.1, 86.7, 98.0; 89.08; 857.07; 2.45; [4, 5, 6, 7]
0.2, 0.0, 0.0, 0.0, 86.9, 88.8, 86.5, 99.2; 90.35; 351.02; 2.89; [4, 5, 6, 7]
0.6, 0.2, 0.2, 0.0, 86.4, 86.4, 85.9, 95.6; 88.58; 344.25; 2.90; [4, 5, 6, 7]
0.2, 0.0, 0.2, 0.0, 88.0, 86.8, 85.4, 94.6; 88.70; 343.02; 2.90; [4, 5, 6, 7]
0.6, 0.0, 0.2, 0.0, 85.5, 86.2, 88.8, 94.4; 88.72; 344.43; 2.89; [4, 5, 6, 7]
0.0, 0.0, 0.0, 0.0, 86.4, 87.3, 86.6, 99.0; 89.82; 345.04; 2.89; [4, 5, 6, 7]
0.2, 0.2, 0.2, 0.0, 83.9, 86.0, 88.3, 98.0; 89.05; 344.03; 2.90; [4, 5, 6, 7]
0.2, 0.0, 0.0, 0.0, 86.2, 87.6, 85.6, 97.2; 89.15; 342.98; 2.90; [4, 5, 6, 7]
