Total Violations:  8
Total Jobs:  260
<<<<<<< HEAD
Violation Ratio:  3.076923076923077%
=======
Violation Ratio:  3.07692307692%
>>>>>>> 5d07200b22786ce931e1e444b56379d7a10d9e86
Energy Spent:  629.907326