0.1, 0.1, 0.0, 0.1, 51.5, 50.7, 51.0, 72.2; 67.11; 288.59; 2.43; [4, 5, 6, 7]
81.3, 80.7, 0.1, 0.2, 0.0, 0.0, 0.0, 0.0; 282.29; 1213.86; 2.17; [0, 1]
0.3, 0.1, 0.0, 0.1, 49.4, 50.8, 50.3, 75.0; 67.14; 288.69; 2.43; [4, 5, 6, 7]
0.4, 0.1, 0.0, 0.0, 76.0, 88.0, 0.0, 0.0; 95.06; 408.76; 2.33; [4, 5]
0.2, 0.1, 0.0, 0.2, 53.9, 69.8, 72.6, 0.0; 80.17; 344.72; 2.28; [4, 5, 6]
0.1, 0.0, 0.0, 0.0, 75.6, 89.1, 0.0, 0.0; 95.00; 408.52; 2.15; [4, 5]
0.2, 0.0, 0.1, 0.1, 56.8, 74.1, 66.7, 0.0; 84.41; 362.94; 2.28; [4, 5, 6]
0.4, 0.1, 0.0, 0.0, 76.1, 90.1, 0.0, 0.0; 94.99; 408.47; 2.19; [4, 5]
0.6, 0.0, 0.0, 0.1, 57.1, 66.8, 71.2, 0.0; 88.22; 379.34; 2.22; [4, 5, 6]
0.1, 0.0, 0.0, 0.0, 79.6, 84.3, 0.0, 0.0; 95.00; 408.50; 2.29; [4, 5]
0.3, 0.0, 0.0, 0.0, 57.6, 64.4, 72.5, 0.0; 91.16; 392.00; 2.26; [4, 5, 6]
0.2, 0.1, 0.0, 0.0, 76.0, 89.3, 0.0, 0.0; 95.06; 408.75; 2.15; [4, 5]
0.2, 0.1, 0.0, 0.0, 59.4, 72.2, 65.1, 0.0; 80.46; 346.00; 2.26; [4, 5, 6]
0.2, 0.0, 0.0, 0.1, 77.1, 88.4, 0.0, 0.0; 95.33; 409.90; 2.11; [4, 5]
0.4, 0.1, 0.0, 0.0, 57.0, 66.5, 74.0, 0.0; 86.72; 372.89; 2.29; [4, 5, 6]
0.2, 0.0, 0.0, 0.2, 77.0, 86.2, 0.0, 0.0; 95.03; 408.65; 2.22; [4, 5]
0.2, 0.0, 0.0, 0.0, 74.5, 92.1, 0.0, 0.0; 95.05; 408.72; 2.01; [4, 5]
0.4, 0.1, 0.0, 0.1, 54.8, 75.1, 67.2, 0.0; 89.84; 386.32; 2.29; [4, 5, 6]
