1.9, 0.3, 1.4, 1.7, 97.5, 93.5, 94.4, 94.7; 57.09; 1531.76; 3.71; [4, 5, 6, 7]
0.2, 0.1, 0.1, 0.0, 100.0, 0.0, 0.0, 0.0; 56.56; 1517.45; 3.72; [4]
1.2, 0.1, 0.2, 0.0, 100.0, 100.0, 0.0, 0.0; 94.93; 2546.86; 2.34; [4, 5]
1.3, 0.3, 0.1, 0.0, 100.0, 100.0, 100.0, 0.0; 86.06; 2309.11; 2.40; [4, 5, 6]
99.9, 99.9, 100.0, 1.1, 0.0, 0.0, 0.0, 0.0; 84.80; 2275.10; 2.42; [0, 1, 2]
1.3, 0.1, 0.0, 0.1, 100.0, 100.0, 0.0, 0.0; 85.57; 2295.91; 2.21; [4, 5]
1.6, 0.0, 0.0, 0.1, 99.8, 99.9, 99.8, 0.0; 84.85; 2276.50; 2.28; [4, 5, 6]
99.9, 100.0, 99.9, 1.3, 0.0, 0.0, 0.0, 0.0; 82.84; 2222.67; 2.27; [0, 1, 2]
1.2, 0.0, 0.0, 0.1, 100.0, 100.0, 0.0, 0.0; 89.98; 2414.21; 2.14; [4, 5]
1.6, 0.1, 0.0, 0.2, 100.0, 100.0, 100.0, 0.0; 82.60; 2216.11; 2.17; [4, 5, 6]
100.0, 100.0, 99.9, 1.4, 0.0, 0.0, 0.0, 0.0; 82.56; 2215.10; 2.17; [0, 1, 2]
1.4, 0.1, 0.0, 0.2, 100.0, 100.0, 0.0, 0.0; 79.61; 2135.98; 2.12; [4, 5]
1.0, 0.0, 0.0, 0.0, 100.0, 100.0, 0.0, 0.0; 79.14; 2123.33; 2.12; [4, 5]
1.1, 0.0, 0.0, 0.1, 100.0, 100.0, 0.0, 0.0; 83.19; 2231.86; 2.07; [4, 5]
1.8, 0.0, 0.0, 0.0, 79.1, 100.0, 99.1, 0.0; 83.89; 2250.64; 2.21; [4, 5, 6]
99.8, 90.3, 85.2, 2.3, 0.0, 0.0, 0.0, 0.0; 73.79; 1979.73; 2.19; [0, 1, 2]
2.1, 0.3, 0.1, 0.0, 100.0, 100.0, 0.0, 0.0; 61.25; 1643.26; 2.07; [4, 5]
2.5, 0.0, 0.0, 0.0, 100.0, 100.0, 0.0, 0.0; 45.93; 1232.38; 2.05; [4, 5]
100.0, 100.0, 99.9, 1.8, 0.0, 0.0, 0.0, 0.0; 41.69; 1118.48; 1.88; [0, 1, 2]
100.0, 0.2, 0.0, 0.1, 0.0, 0.0, 0.0, 0.0; 47.72; 1280.21; 1.77; [0]
100.0, 100.0, 0.3, 0.7, 0.0, 0.0, 0.0, 0.0; 56.34; 1511.68; 1.63; [0, 1]
100.0, 100.0, 0.6, 1.0, 0.0, 0.0, 0.0, 0.0; 63.18; 1695.25; 1.47; [0, 1]
0.8, 0.0, 0.1, 0.0, 100.0, 0.0, 0.0, 0.0; 70.46; 1890.46; 1.34; [4]
99.9, 100.0, 99.9, 1.5, 0.0, 0.0, 0.0, 0.0; 74.70; 2004.22; 1.28; [0, 1, 2]
2.1, 0.1, 0.0, 0.3, 100.0, 100.0, 0.0, 0.0; 74.81; 2007.20; 1.32; [4, 5]
2.1, 0.2, 0.2, 0.4, 99.9, 100.0, 0.0, 0.0; 65.59; 1759.67; 1.72; [4, 5]
2.1, 0.0, 0.0, 0.5, 99.9, 100.0, 0.0, 0.0; 49.21; 1320.35; 2.13; [4, 5]
99.9, 99.9, 99.8, 2.0, 0.0, 0.1, 0.0, 0.0; 39.64; 1063.45; 2.15; [0, 1, 2]
2.7, 0.2, 0.0, 0.0, 100.0, 99.9, 0.0, 0.0; 36.48; 978.85; 1.89; [4, 5]
100.0, 0.9, 0.0, 0.5, 0.0, 0.0, 0.0, 0.0; 41.32; 1108.54; 1.86; [0]
100.0, 100.0, 0.5, 1.0, 0.0, 0.0, 0.0, 0.0; 47.93; 1285.98; 1.54; [0, 1]
100.0, 100.0, 0.6, 0.9, 0.0, 0.0, 0.0, 0.0; 52.91; 1419.46; 1.37; [0, 1]
100.0, 100.0, 0.9, 0.8, 0.0, 0.0, 0.0, 0.0; 58.92; 1580.91; 1.32; [0, 1]
99.6, 99.6, 99.0, 100.0, 0.0, 0.1, 0.0, 0.0; 60.90; 1633.92; 1.24; [0, 1, 2, 3]
99.5, 100.0, 99.8, 1.8, 0.0, 0.0, 0.0, 0.0; 54.36; 1458.57; 1.23; [0, 1, 2]
100.0, 0.8, 0.0, 0.1, 0.0, 0.0, 0.0, 0.0; 50.88; 1365.17; 1.22; [0]
100.0, 100.0, 100.0, 100.0, 0.0, 0.0, 0.0, 0.0; 51.97; 1394.24; 1.27; [0, 1, 2, 3]
100.0, 0.6, 0.1, 0.3, 0.0, 0.0, 0.0, 0.0; 51.73; 1387.92; 1.27; [0]
100.0, 99.9, 0.9, 0.4, 0.0, 0.0, 0.0, 0.0; 61.79; 1657.73; 1.18; [0, 1]
1.1, 0.1, 0.1, 0.0, 100.0, 0.0, 0.0, 0.0; 71.31; 1913.36; 1.17; [4]
99.8, 99.8, 99.9, 2.0, 0.0, 0.0, 0.0, 0.0; 76.26; 2046.00; 1.19; [0, 1, 2]
1.5, 0.1, 0.0, 0.2, 99.9, 99.9, 0.0, 0.0; 76.88; 2062.61; 1.37; [4, 5]
2.5, 0.2, 0.1, 0.0, 100.0, 100.0, 0.0, 0.0; 71.25; 1911.70; 1.60; [4, 5]
2.3, 0.3, 0.0, 0.2, 100.0, 100.0, 0.0, 0.0; 58.88; 1579.73; 2.07; [4, 5]
100.0, 99.9, 100.0, 2.4, 0.0, 0.0, 0.0, 0.0; 39.63; 1063.37; 2.17; [0, 1, 2]
2.3, 0.0, 0.0, 0.4, 100.0, 100.0, 0.0, 0.0; 37.66; 1010.49; 1.92; [4, 5]
100.0, 0.8, 0.1, 0.2, 0.0, 0.0, 0.0, 0.0; 43.76; 1174.05; 1.79; [0]
100.0, 100.0, 1.0, 0.4, 0.0, 0.0, 0.0, 0.0; 50.37; 1351.54; 1.59; [0, 1]
99.9, 100.0, 0.5, 0.2, 0.0, 0.0, 0.0, 0.0; 56.84; 1525.05; 1.40; [0, 1]
100.0, 100.0, 0.6, 0.8, 0.0, 0.1, 0.0, 0.0; 65.60; 1760.10; 1.32; [0, 1]
0.9, 0.0, 0.1, 0.0, 100.0, 0.0, 0.0, 0.0; 76.76; 2059.44; 1.29; [4]
99.9, 100.0, 100.0, 1.2, 0.0, 0.0, 0.0, 0.0; 82.64; 2217.31; 1.30; [0, 1, 2]
1.2, 0.1, 0.0, 0.0, 100.0, 100.0, 0.4, 0.0; 92.47; 2480.90; 1.35; [4, 5]
1.5, 0.1, 0.0, 0.1, 99.9, 99.8, 99.9, 0.0; 99.17; 2660.86; 1.47; [4, 5, 6]
100.0, 100.0, 100.0, 1.1, 0.0, 0.1, 0.0, 0.0; 106.03; 2844.81; 1.51; [0, 1, 2]
1.8, 0.2, 0.0, 0.0, 98.8, 100.0, 99.9, 100.0; 103.62; 2780.25; 1.81; [4, 5, 6, 7]
1.0, 0.0, 0.0, 0.1, 100.0, 0.0, 0.0, 0.0; 98.62; 2645.91; 1.92; [4]
100.0, 100.0, 100.0, 1.2, 0.0, 0.0, 0.0, 0.0; 97.46; 2614.81; 2.00; [0, 1, 2]
0.5, 0.1, 0.0, 0.1, 100.0, 100.0, 0.0, 0.0; 89.58; 2403.35; 2.08; [4, 5]
1.2, 0.2, 0.0, 0.0, 99.7, 99.9, 99.8, 0.0; 86.59; 2323.26; 2.20; [4, 5, 6]
1.4, 0.0, 0.0, 0.0, 100.0, 99.8, 99.9, 0.0; 83.41; 2237.89; 2.26; [4, 5, 6]
1.4, 0.0, 0.0, 0.2, 99.8, 99.7, 100.0, 0.0; 77.84; 2088.52; 2.39; [4, 5, 6]
99.8, 99.8, 99.9, 1.0, 0.0, 0.0, 0.0, 0.0; 83.44; 2238.81; 2.23; [0, 1, 2]
1.6, 0.2, 0.0, 0.0, 100.0, 100.0, 0.0, 0.0; 80.94; 2171.52; 2.34; [4, 5]
2.2, 0.1, 0.0, 0.1, 99.0, 100.0, 83.1, 0.0; 74.14; 1989.13; 2.45; [4, 5, 6]
100.0, 100.0, 99.9, 1.2, 0.0, 0.0, 0.0, 0.0; 70.65; 1895.52; 2.42; [0, 1, 2]
0.9, 0.1, 0.0, 0.0, 100.0, 100.0, 0.0, 0.0; 74.25; 1992.24; 2.19; [4, 5]
1.4, 0.2, 0.0, 0.1, 100.0, 100.0, 0.0, 0.0; 78.94; 2117.89; 2.11; [4, 5]
5.6, 0.0, 0.0, 0.0, 100.0, 100.0, 0.0, 0.0; 83.95; 2252.35; 2.07; [4, 5]
1.2, 0.0, 0.0, 0.0, 99.8, 99.9, 99.8, 0.0; 75.18; 2017.07; 2.20; [4, 5, 6]
99.6, 100.0, 99.8, 1.8, 0.0, 0.0, 0.0, 0.0; 79.67; 2137.65; 2.24; [0, 1, 2]
0.7, 0.0, 0.0, 0.1, 100.0, 100.0, 0.0, 0.0; 84.33; 2262.54; 2.08; [4, 5]
1.3, 0.2, 0.0, 0.2, 99.9, 99.8, 100.0, 0.0; 85.80; 2301.92; 2.24; [4, 5, 6]
1.4, 0.0, 0.0, 0.3, 99.9, 99.9, 100.0, 0.0; 75.33; 2021.07; 2.37; [4, 5, 6]
100.0, 100.0, 99.9, 0.7, 0.0, 0.0, 0.0, 0.0; 74.21; 1991.08; 2.40; [0, 1, 2]
1.2, 0.1, 0.0, 0.4, 100.0, 100.0, 0.0, 0.0; 77.68; 2084.25; 2.24; [4, 5]
0.8, 0.0, 0.2, 0.1, 100.0, 100.0, 0.0, 0.0; 79.50; 2132.90; 2.17; [4, 5]
0.9, 0.0, 0.0, 0.3, 100.0, 100.0, 0.0, 0.0; 79.05; 2120.79; 2.26; [4, 5]
1.2, 0.1, 0.0, 0.2, 100.0, 100.0, 0.0, 0.0; 81.49; 2186.50; 2.26; [4, 5]
100.0, 0.3, 0.1, 0.2, 0.0, 0.0, 0.0, 0.0; 97.61; 2618.81; 2.03; [0]
2.7, 0.7, 0.0, 0.0, 99.9, 90.9, 97.1, 98.8; 100.87; 2706.26; 1.88; [4, 5, 6, 7]
0.5, 0.0, 0.1, 0.0, 100.0, 0.0, 0.0, 0.0; 98.21; 2635.10; 1.91; [4]
100.0, 100.0, 100.0, 1.2, 0.0, 0.0, 0.0, 0.0; 106.37; 2853.91; 1.89; [0, 1, 2]
1.5, 0.1, 0.0, 0.2, 99.8, 99.9, 100.0, 100.0; 106.41; 2854.93; 1.97; [4, 5, 6, 7]
0.6, 0.3, 0.2, 0.0, 100.0, 0.0, 0.0, 0.0; 101.97; 2735.97; 1.99; [4]
2.2, 0.2, 0.0, 0.0, 100.0, 100.0, 99.8, 99.9; 105.12; 2820.33; 2.29; [4, 5, 6, 7]
0.7, 0.0, 0.0, 0.1, 100.0, 0.0, 0.0, 0.0; 85.27; 2287.92; 2.48; [4]
100.0, 99.9, 100.0, 1.3, 0.0, 0.0, 0.0, 0.0; 91.38; 2451.84; 2.32; [0, 1, 2]
0.7, 0.0, 0.0, 0.4, 100.0, 100.0, 0.0, 0.0; 94.64; 2539.07; 2.15; [4, 5]
1.4, 0.3, 0.0, 0.0, 99.9, 99.9, 100.0, 0.0; 94.20; 2527.46; 2.32; [4, 5, 6]
1.5, 0.1, 0.0, 0.1, 99.9, 99.9, 100.0, 0.0; 84.56; 2268.69; 2.29; [4, 5, 6]
