Beat	Tag	Timestamp	Global_Rate	Window_Rate	Instant_Rate	Global_Accuracy	Window_Accuracy	Instant_Accuracy	Global_Power	Window_Power	Instant_Power	Instant_Latency	Window_Latency	Global_latency	total_energy
0	12	1449295538863259954	0.000000	0.000000	0.000000	1093920.000000	1093920.000000	1093920.000000	0.000000	0.000000	0.000000	0	0	0	4.403813
1	13	1449295541952302382	0.647450	0.323725	0.323725	1172553.500000	1251187.000000	1251187.000000	1.425624	1.425624	1.425624	3089042428	3089042428	3089042428	4.403813
2	14	1449295552273226445	0.223714	0.149143	0.096891	1251080.000000	1329660.000000	1408133.000000	1.420933	1.420933	1.419529	10320924063	6704983245	6704983245	19.054664
3	15	1449295555178788569	0.245165	0.183874	0.344167	1329337.250000	1407809.666667	1564109.000000	1.420571	1.420571	1.418898	2905562124	5438509538	5438509538	23.177361
4	16	1449295558319634548	0.256985	0.205588	0.318386	1408114.600000	1486663.250000	1723224.000000	1.419922	1.419922	1.416552	3140845979	4864093648	4864093648	27.626534
5	17	1449295561587398471	0.264036	0.220030	0.306020	1487414.333333	1566113.200000	1883913.000000	1.419548	1.419548	1.417324	3267763923	4544827703	4544827703	32.258013
6	18	1449295571814766477	0.212433	0.182086	0.097777	1567172.857143	1646048.333333	2045724.000000	1.416372	1.416372	1.409315	10227368006	5491917753	5491917753	46.671601
7	19	1449295574743974936	0.222961	0.195091	0.341389	1647027.125000	1726042.428571	2206007.000000	1.415921	1.415921	1.410839	2929208459	5125816426	5125816426	50.804243
8	20	1449295577783093717	0.231245	0.205551	0.329043	1727108.888889	1806257.500000	2367763.000000	1.415352	1.415352	1.408641	3039118781	4864979220	4864979220	55.085272
9	21	1449295581108253297	0.236714	0.213043	0.300737	1807420.700000	1886698.555556	2530227.000000	1.414485	1.414485	1.404330	3325159580	4693888149	4693888149	59.754892
10	22	1449295591327989889	0.209665	0.190604	0.097850	1887870.000000	1967265.000000	2692363.000000	1.411332	1.411332	1.398300	10219736592	5246472993	5246472993	74.045152
11	23	1449295594297732886	0.216472	0.198432	0.336729	1968592.583333	2048108.272727	2856541.000000	1.410962	1.410962	1.404425	2969742997	5039497539	5039497539	78.215933
12	24	1449295597354931558	0.222254	0.205157	0.327097	2049702.000000	2129350.500000	3023015.000000	1.410500	1.410500	1.402117	3057198672	4874305967	4874305967	82.502485
13	25	1449295600948961631	0.225495	0.209388	0.278239	2131330.000000	2211130.769231	3192494.000000	1.409718	1.409718	1.396991	3594030073	4775823205	4775823205	87.523312
14	26	1449295611259916829	0.207192	0.193379	0.096984	2213633.466667	2293613.000000	3365882.000000	1.407458	1.407458	1.393854	10310955198	5171189776	5171189776	101.895275
15	27	1449295614240125280	0.212267	0.199000	0.335547	2296628.812500	2376809.400000	3541559.000000	1.406971	1.406971	1.395131	2980208451	5025124355	5025124355	106.053057
16	28	1449295617314002262	0.216696	0.203950	0.325322	2379990.588235	2460370.000000	3713779.000000	1.406465	1.406465	1.394056	3073876982	4903171394	4903171394	110.338213
17	29	1449295620839017212	0.219577	0.207378	0.283687	2463637.722222	2544209.352941	3885639.000000	1.405775	1.405775	1.390415	3525014950	4822103368	4822103368	115.239449
18	30	1449295630881197795	0.206481	0.195614	0.099580	2547347.315789	2628093.277778	4054120.000000	1.403817	1.403817	1.387838	10042180583	5112107657	5112107657	129.176370
19	31	1449295633796835281	0.210674	0.200140	0.342978	2630992.650000	2711891.210526	4220254.000000	1.403438	1.403438	1.391459	2915637486	4996503964	4996503964	133.233358
20	32	1449295636743262055	0.214548	0.204332	0.339394	2714502.619048	2795531.750000	4384702.000000	1.403021	1.403021	1.389590	2946426774	4894000105	4894000105	137.327684
21	33	1449295640234867243	0.217023	0.207159	0.286401	2797889.772727	2879031.190476	4549020.000000	1.402399	1.402399	1.384963	3491605188	4827219394	4827219394	142.163429
22	34	1449295650055120088	0.206850	0.197856	0.101830	2881087.086957	2962321.954545	4711428.000000	1.400614	1.400614	1.382187	9820252845	5054175460	5054175460	155.736854
23	35	1449295652911683719	0.210437	0.201669	0.350071	2964161.291667	3045476.130435	4874868.000000	1.400295	1.400295	1.387901	2856563631	4958627120	4958627120	159.701481
24	36	1449295655974753405	0.213472	0.204933	0.326470	3047321.320000	3128713.041667	5043162.000000	1.399940	1.399940	1.386703	3063069686	4879645560	4879645560	163.949048
25	37	1449295659434831243	0.215640	0.207346	0.289011	3130526.846154	3211991.120000	5210665.000000	1.399493	1.399493	1.384369	3460077838	4822862851	4822862851	168.739071
26	38	1449295669161374916	0.207217	0.199542	0.102811	3213770.222222	3295302.923077	5378098.000000	1.398361	1.398361	1.384322	9726543673	5011465960	5011465960	182.203742
27	39	1449295671945166441	0.210397	0.202883	0.359222	3297042.750000	3378639.888889	5545401.000000	1.398174	1.398174	1.389441	2783791525	4928959499	4928959499	186.071657
28	40	1449295674910853628	0.213161	0.205810	0.337190	3380329.931034	3461987.428571	5712371.000000	1.397922	1.397922	1.386593	2965687187	4858842631	4858842631	190.183858
29	41	1449295678453900801	0.214914	0.207750	0.282243	3463639.400000	3545353.862069	5879614.000000	1.397541	1.397541	1.382927	3543047173	4813470374	4813470374	195.083633
30	42	1449295687996254761	0.207868	0.201163	0.104796	3546936.064516	3628703.266667	6045836.000000	1.396405	1.396405	1.379787	9542353960	4971099826	4971099826	208.250044
31	43	1449295690730088034	0.210711	0.201643	0.365787	3630200.750000	3794043.900000	6211406.000000	1.396247	1.395637	1.387652	2733833273	4959259521	4898929938	212.043652
32	44	1449295693507403809	0.213393	0.212413	0.360060	3713408.242424	3959641.066667	6376048.000000	1.396069	1.393708	1.386300	2777315775	4707805911	4832629495	215.893845
33	45	1449295697118357441	0.214843	0.211358	0.276935	3796508.882353	4125465.100000	6538830.000000	1.395803	1.392956	1.384429	3610953632	4731318962	4795609014	220.892953
34	46	1449295706506070486	0.208777	0.202448	0.106522	3879480.914286	4291375.300000	6700530.000000	1.395163	1.391913	1.384381	9387713045	4939547865	4930670898	233.889126
35	47	1449295709170427437	0.211383	0.203275	0.375325	3962268.583333	4457239.433333	6859837.000000	1.395045	1.391272	1.387590	2664356951	4919434299	4865919070	237.586160
36	48	1449295711962146824	0.213751	0.214060	0.358202	4044917.000000	4623057.300000	7020260.000000	1.394851	1.389791	1.382999	2791719387	4671579345	4808302413	241.447105
37	49	1449295715664127684	0.214931	0.212887	0.270126	4127465.131579	4788915.266667	7181746.000000	1.394552	1.389111	1.380574	3701980860	4697338426	4778401830	246.557965
38	50	1449295724931080305	0.209601	0.203876	0.107910	4209843.230769	4954663.533333	7340211.000000	1.393872	1.388190	1.380895	9266952621	4904932887	4896521588	259.354652
39	51	1449295727640560241	0.211890	0.204733	0.369075	4292028.675000	5120231.333333	7497261.000000	1.393803	1.387841	1.389117	2709479936	4884410232	4840443597	263.118438
40	52	1449295730335185841	0.214131	0.215816	0.371109	4373984.414634	5285559.700000	7652214.000000	1.393763	1.387132	1.390953	2694625600	4633573199	4786798147	266.866536
41	53	1449295734048254109	0.215180	0.214668	0.269319	4455709.214286	5450555.866667	7806426.000000	1.393665	1.386804	1.388612	3713068268	4658350708	4760609613	272.022549
42	54	1449295743130656402	0.210508	0.205796	0.110103	4537188.697674	5615099.600000	7959327.000000	1.393231	1.386302	1.383893	9082402293	4859190829	4863509439	284.591620
43	55	1449295745740206268	0.212687	0.207195	0.383208	4618394.136364	5779024.066667	8110228.000000	1.393177	1.386084	1.388936	2609549866	4826374822	4811091774	288.216117
44	56	1449295748485069630	0.214672	0.218619	0.364317	4699394.488889	5942275.000000	8263410.000000	1.393092	1.385513	1.386746	2744863362	4574171761	4764132038	292.022546
45	57	1449295752270364761	0.215550	0.217344	0.264180	4780175.217391	6104733.300000	8415308.000000	1.392930	1.385263	1.383963	3785295131	4601007984	4742380106	297.261254
46	58	1449295761201184137	0.211390	0.208497	0.111972	4860711.085106	6266452.700000	8565361.000000	1.392557	1.384974	1.383627	8930819376	4796239397	4833433134	309.618180
47	59	1449295763827314735	0.213367	0.209807	0.380788	4940984.541667	6427392.633333	8713837.000000	1.392481	1.384859	1.386028	2626130598	4766276585	4786469250	313.258070
48	60	1449295766571550960	0.215188	0.221092	0.364400	5020995.755102	6587639.766667	8861534.000000	1.392391	1.384643	1.385092	2744236225	4523011773	4743922729	317.059089
49	61	1449295770531493959	0.215826	0.219403	0.252529	5100740.900000	6747239.733333	9008253.000000	1.392221	1.384433	1.382413	3959942999	4557821956	4727923142	322.533364
50	62	1449295779365965015	0.212056	0.210345	0.113193	5180255.470588	6906282.466667	9155984.000000	1.391783	1.384070	1.380296	8834471056	4754090099	4810054101	334.727550
51	63	1449295781956503532	0.213910	0.211683	0.386020	5259545.326923	7064759.400000	9303328.000000	1.391727	1.384093	1.386500	2590538517	4724054543	4766534187	338.319332
52	64	1449295784720928227	0.215572	0.222774	0.361739	5338620.811321	7222730.000000	9450546.000000	1.391657	1.384261	1.385519	2764424695	4488860271	4728032082	342.149495
53	65	1449295788776578855	0.216075	0.220808	0.246570	5417485.222222	7380144.366667	9597299.000000	1.391580	1.384264	1.386930	4055650628	4528829838	4715345639	347.774396
54	66	1449295797410382426	0.212727	0.212111	0.115824	5496124.000000	7536792.900000	9742618.000000	1.391365	1.384265	1.385150	8633803571	4714520968	4787909675	359.733509
55	67	1449295800035859290	0.214418	0.213370	0.380883	5574564.464286	7692730.400000	9888790.000000	1.391320	1.384312	1.386866	2625476864	4686700936	4748592715	363.374693
56	68	1449295802838261323	0.215930	0.224422	0.356837	5652849.456140	7848020.766667	10036809.000000	1.391231	1.384283	1.382970	2802402033	4455896215	4713839310	367.250330
57	69	1449295807026621017	0.216286	0.222088	0.238757	5730996.741379	8002687.133333	10185392.000000	1.391055	1.384041	1.379904	4188359694	4502715154	4704620369	373.029862
58	70	1449295815555132421	0.213234	0.213304	0.117254	5808988.627119	8156692.033333	10332518.000000	1.390719	1.383752	1.380166	8528511404	4688142628	4770549525	384.800623
59	71	1449295818246991252	0.214758	0.214603	0.371491	5886831.233333	8310023.066667	10479545.000000	1.390625	1.383718	1.380921	2691858831	4659769683	4735317479	388.517867
60	72	1449295821021052975	0.216191	0.225522	0.360482	5964536.081967	8462722.766667	10626827.000000	1.390529	1.383942	1.380923	2774061723	4434159942	4702629883	392.348632
61	73	1449295825281354403	0.216467	0.222963	0.234725	6042099.838710	8614792.200000	10773489.000000	1.390361	1.383718	1.379249	4260301428	4485042214	4695378597	398.224647
62	74	1449295833697190246	0.213680	0.213996	0.118824	6119521.126984	8766245.300000	10919641.000000	1.390219	1.383766	1.385379	8415835843	4672992883	4755385972	409.883769
63	75	1449295836353559913	0.215133	0.215463	0.376454	6196823.125000	8917179.266667	11066849.000000	1.390188	1.383806	1.386715	2656369667	4641173417	4722068253	413.567398
64	76	1449295839131884235	0.216473	0.226200	0.359929	6273999.830769	9067605.233333	11213309.000000	1.390162	1.383841	1.387420	2778324322	4420860459	4691697254	417.422102
65	77	1449295843601970302	0.216579	0.223162	0.223709	6351112.848485	9217725.966667	11363459.000000	1.390087	1.383806	1.385025	4470086067	4481051429	4688287851	423.613284
66	78	1449295852085083495	0.213906	0.214098	0.117881	6428180.746269	9367539.366667	11514662.000000	1.389895	1.383772	1.382989	8483113193	4670764556	4745785205	435.345336
67	79	1449295854768150948	0.215255	0.215666	0.372708	6505139.426471	9516860.200000	11661371.000000	1.389823	1.383812	1.381430	2683067453	4636800775	4714998373	439.051806
68	80	1449295857325624461	0.216666	0.226595	0.391011	6581965.260870	9665723.900000	11806122.000000	1.389758	1.383977	1.381751	2557473513	4413151472	4683270066	442.585597
69	81	1449295859434549734	0.218360	0.227628	0.474175	6658892.528571	9814711.000000	11966874.000000	1.389798	1.384061	1.395832	2108925273	4393132984	4645960721	445.529302
70	82	1449295859571897598	0.221385	0.232132	7.280783	6739515.492958	9972407.966667	12383123.000000	1.389799	1.383925	1.392183	137347864	4307890393	4581551966	445.720515
71	83	1449295859818814278	0.224330	0.238530	4.049949	6818147.083333	10125560.100000	12400990.000000	1.389803	1.383809	1.395258	246916680	4192352007	4520500765	446.065028
72	84	1449295860184935830	0.227187	0.256291	2.731333	6894865.986301	10274203.433333	12418627.000000	1.389855	1.383964	1.435383	366121552	3901809315	4462801053	446.590552
73	85	1449295863182581516	0.228170	0.255444	0.333595	6969778.500000	10418475.566667	12438392.000000	1.389995	1.384389	1.404944	2997645686	3914745842	4442730432	450.802077
74	86	1449295864813019259	0.230097	0.257892	0.613332	7042978.000000	10558353.266667	12459741.000000	1.390056	1.384585	1.402323	1630437743	3877598321	4404726477	453.088478
75	87	1449295866562988330	0.231920	0.262484	0.571439	7114523.276316	10693856.966667	12480419.000000	1.390336	1.385490	1.442373	1749969071	3809754119	4369329711	455.612587
76	88	1449295867717699619	0.234146	0.281646	0.866017	7184609.870130	10825384.633333	12511191.000000	1.390378	1.385831	1.402499	1154711289	3550550516	4327032100	457.232069
77	89	1449295870548433269	0.235163	0.281107	0.353265	7253348.589744	10953131.066667	12546230.000000	1.390445	1.386155	1.398231	2830733650	3557370618	4307599653	461.190090
78	90	1449295872236201972	0.236972	0.283917	0.592498	7320796.265823	11077137.100000	12581715.000000	1.390476	1.386347	1.396471	1687768703	3522155034	4274012077	463.547010
79	91	1449295874091897992	0.238643	0.289686	0.538881	7387085.300000	11197659.300000	12623919.000000	1.390524	1.386729	1.399217	1855696020	3452013469	4243400481	466.143531
80	92	1449295875341489844	0.240729	0.312580	0.800261	7452214.876543	11314545.866667	12662581.000000	1.390558	1.387489	1.399691	1249591852	3199184162	4205977873	467.892573
81	93	1449295877970315516	0.241812	0.312455	0.380398	7516185.487805	11427695.100000	12697805.000000	1.390616	1.387804	1.398016	2628825672	3200460401	4186506858	471.567712
82	94	1449295879925813585	0.243357	0.315110	0.511379	7579173.975904	11537484.566667	12744230.000000	1.390648	1.388042	1.396146	1955498069	3173496180	4159299434	474.297872
83	95	1449295882181556847	0.244671	0.321182	0.443313	7641280.190476	11644111.133333	12796096.000000	1.390672	1.388243	1.394351	2255743262	3113499268	4136365022	477.443170
84	96	1449295883618379835	0.246552	0.347996	0.695980	7702553.858824	11747675.266667	12849542.000000	1.390707	1.388732	1.398999	1436822988	2873599915	4104227617	479.453283
85	97	1449295886312629233	0.247518	0.347718	0.371161	7763088.162791	11848332.400000	12908504.000000	1.390731	1.388947	1.393797	2694249398	2875892333	4087639638	483.208521
86	98	1449295888040599314	0.249157	0.352103	0.578714	7822871.402299	11945913.100000	12964230.000000	1.390742	1.389227	1.393055	1727970081	2840077934	4060201620	485.615679
87	99	1449295890002698650	0.250613	0.361550	0.509658	7881759.181818	12039899.900000	13004996.000000	1.390756	1.389791	1.393207	1962099336	2765869256	4036085502	488.349289
88	100	1449295891345924983	0.252495	0.395826	0.744476	7939782.056180	12130342.466667	13045795.000000	1.390770	1.390957	1.394437	1343226333	2526359754	4005484829	490.222333
89	101	1449295894178910441	0.253296	0.395091	0.352985	7997043.477778	12217467.966667	13093310.000000	1.390784	1.391372	1.392559	2832985458	2531063975	3992310679	494.167432
90	102	1449295896176436757	0.254679	0.399173	0.500619	8053684.373626	12301619.233333	13151365.000000	1.390800	1.391818	1.393619	1997526316	2505179461	3970146408	496.951222
91	103	1449295898596553878	0.255745	0.409192	0.413203	8109770.228261	12382955.700000	13213583.000000	1.390838	1.392700	1.396425	2420117121	2443839984	3953113120	500.330735
92	104	1449295900384693784	0.257246	0.449859	0.559240	8165360.483871	12461623.133333	13279664.000000	1.390877	1.393788	1.398809	1788139906	2222916786	3929580802	502.832001
93	105	1449295903170963450	0.258024	0.448985	0.358903	8220492.936170	12537655.200000	13347811.000000	1.390930	1.394235	1.397769	2786269666	2227246786	3917287134	506.726562
94	106	1449295905003722686	0.259463	0.455430	0.545625	8275154.231579	12610988.766667	13413316.000000	1.390960	1.394597	1.396928	1832759236	2195727950	3895111305	509.286794
95	107	1449295907393697594	0.260494	0.470280	0.418414	8329304.781250	12681327.033333	13473607.000000	1.391008	1.395408	1.398339	2389974908	2126390912	3879267764	512.628789
96	108	1449295909202559728	0.261922	0.525233	0.552834	8382999.680412	12748761.966667	13537710.000000	1.391044	1.397348	1.398409	1808862134	1903915877	3857701039	515.158318
97	109	1449295911968916861	0.262660	0.524468	0.361486	8436250.816327	12813436.633333	13601611.000000	1.391089	1.398081	1.397063	2766357133	1906692200	3846450071	519.023092
98	110	1449295913516817731	0.264244	0.533891	0.646036	8488976.070707	12875100.933333	13656051.000000	1.391122	1.398851	1.399053	1547900870	1873039778	3822995487	521.188688
99	111	1449295915601482623	0.265436	0.534122	0.479693	8541110.780000	12932953.366667	13702447.000000	1.391155	1.398903	1.397211	2084664892	1872231098	3805436592	524.101406
100	112	1449295917332759764	0.266864	0.519383	0.577608	8592680.673267	12978504.933333	13749670.000000	1.391178	1.398833	1.396035	1731277141	1925362074	3784694998	526.518328
101	113	1449295920448513068	0.267306	0.494807	0.320950	8643805.705882	13025386.400000	13807434.000000	1.391201	1.398599	1.393989	3115753304	2020989961	3778071813	530.861653
102	114	1449295922176825174	0.268710	0.483934	0.578599	8694498.893204	13073605.633333	13865204.000000	1.391232	1.398367	1.398081	1728312106	2066396313	3757976129	533.277974
103	115	1449295924174595890	0.269912	0.491868	0.500558	8744765.548077	13123066.933333	13922231.000000	1.391267	1.398031	1.397958	1997770716	2033067148	3740886756	536.070774
104	116	1449295925688524768	0.271440	0.492809	0.660533	8794571.476190	13173555.166667	13974388.000000	1.391300	1.397959	1.399795	1513928878	2029183519	3719473700	538.189963
105	117	1449295928819991728	0.271825	0.481874	0.319339	8843922.424528	13225066.933333	14025772.000000	1.391336	1.396602	1.395791	3131466960	2075233449	3713873635	542.560836
106	118	1449295930424926638	0.273265	0.478414	0.623078	8892816.364486	13277213.033333	14075574.000000	1.391373	1.396592	1.400458	1604934910	2090240903	3693977987	544.808480
107	119	1449295932557807842	0.274324	0.483798	0.468849	8941284.370370	13329917.400000	14127361.000000	1.391406	1.396546	1.397444	2132881204	2066979155	3679388298	547.789063
108	120	1449295934246853220	0.275682	0.483788	0.592050	8989341.073394	13383175.733333	14179465.000000	1.391567	1.397434	1.429052	1689045378	2067021711	3660959196	550.202796
109	121	1449295937330498933	0.276058	0.474394	0.324291	9037003.236364	13436784.400000	14232179.000000	1.391628	1.397477	1.399384	3083645713	2107953367	3655662742	554.518000
110	122	1449295939104729984	0.277333	0.470491	0.563624	9084292.306306	13490901.366667	14286090.000000	1.391647	1.397390	1.395924	1774231051	2125441341	3638558818	556.994691
111	123	1449295941146868148	0.278411	0.474860	0.489683	9131239.232143	13545719.466667	14342348.000000	1.391674	1.397354	1.397080	2042138164	2105885091	3624176650	559.847722
112	124	1449295943333318944	0.279378	0.473130	0.457362	9177973.238938	13601317.866667	14412182.000000	1.391688	1.397283	1.394225	2186450796	2113583516	3611339812	562.896126
113	125	1449295946896346414	0.279389	0.463573	0.280660	9224508.447368	13657547.566667	14482987.000000	1.391686	1.397067	1.391502	3563027470	2157159656	3610912269	567.854087
114	126	1449295948781260104	0.280544	0.460385	0.530528	9270872.486957	13714441.933333	14556373.000000	1.391680	1.396828	1.390261	1884913690	2172096013	3595771931	570.474608
115	127	1449295950595634326	0.281736	0.466686	0.551154	9317025.775862	13771646.933333	14624654.000000	1.391699	1.396933	1.396064	1814374222	2142766840	3580281516	573.007590
116	128	1449295952673441633	0.282738	0.464160	0.481277	9362962.658120	13829227.300000	14691641.000000	1.391724	1.397029	1.396697	2077807307	2154428081	3567329152	575.909657
117	129	1449295956214582906	0.282735	0.453091	0.282395	9408703.898305	13887741.733333	14760429.000000	1.391754	1.397049	1.395273	3541141273	2207062812	3567105324	580.850516
118	130	1449295958160459335	0.283808	0.449004	0.513907	9454246.487395	13947157.633333	14828272.000000	1.391774	1.397070	1.395984	1945876429	2227151148	3553366096	583.566929
119	131	1449295959916238344	0.285000	0.456362	0.569548	9499607.283333	14007298.700000	14897542.000000	1.391810	1.397352	1.400355	1755779009	2191244266	3538260322	586.025642
120	132	1449295961846071816	0.286064	0.456832	0.518179	9544754.173554	14067665.900000	14962381.000000	1.391859	1.397619	1.402572	1929833472	2188987838	3524856765	588.732372
121	133	1449295965381359097	0.286037	0.449204	0.282862	9589680.860656	14128073.466667	15025810.000000	1.391921	1.397752	1.399309	3535287281	2226160177	3524942968	593.679333
122	134	1449295967271039139	0.287110	0.448522	0.529190	9634353.162602	14188230.466667	15084374.000000	1.391944	1.397708	1.397181	1889680042	2229544848	3511539173	596.319558
123	135	1449295969107586247	0.288208	0.454982	0.544500	9678797.475806	14248151.700000	15145448.000000	1.391968	1.397699	1.397496	1836547108	2197887429	3497921351	598.886125
124	136	1449295970978894173	0.289274	0.454717	0.534386	9723046.032000	14308036.733333	15209867.000000	1.391999	1.397765	1.399255	1871307926	2199172385	3484803501	601.504562
125	137	1449295974306055537	0.289361	0.448348	0.300557	9767045.150794	14367814.333333	15266935.000000	1.392041	1.397727	1.397428	3327161364	2230411933	3483542364	606.154032
126	138	1449295975852050594	0.290625	0.450116	0.646833	9810753.748031	14427158.566667	15318037.000000	1.392060	1.397701	1.397403	1545995057	2221649697	3468165005	608.314410
127	139	1449295977584466453	0.291757	0.457209	0.577229	9854162.953125	14486009.266667	15367132.000000	1.392087	1.397765	1.399091	1732415859	2187184988	3454497688	610.738218
128	140	1449295979453440256	0.292789	0.454982	0.535053	9897298.837209	14544763.966667	15418692.000000	1.392124	1.397818	1.400709	1868973803	2197887419	3442110783	613.356107
129	141	1449295983049115473	0.292670	0.444789	0.278112	9940169.946154	14603700.500000	15470543.000000	1.392146	1.397676	1.394803	3595675217	2248254430	3443301205	618.371365
130	142	1449295984714904352	0.293820	0.445222	0.600316	9982819.030534	14662951.500000	15527200.000000	1.392144	1.397574	1.391838	1665788879	2246071487	3429628033	620.689874
131	143	1449295986636594917	0.294792	0.453254	0.520375	10025286.522727	14722321.300000	15588528.000000	1.392143	1.397573	1.391717	1921690565	2206269396	3418117060	623.364323
132	144	1449295988979000616	0.295480	0.449087	0.426912	10067600.496241	14781916.000000	15653045.000000	1.392148	1.397408	1.393240	2342405699	2226739182	3409967732	626.627857
133	145	1449295993112189999	0.294992	0.435176	0.241944	10109873.014925	14842245.566667	15732118.000000	1.392152	1.397101	1.392559	4133189383	2297919804	3415405489	632.383567
134	146	1449295995133535609	0.295877	0.431996	0.494720	10152141.592593	14903637.000000	15816131.000000	1.392153	1.396905	1.392389	2021345610	2314833696	3405002057	635.198068
135	147	1449295996940063247	0.296893	0.440399	0.553548	10194336.455882	14965799.366667	15890643.000000	1.392168	1.396929	1.395864	1806527638	2270669051	3393161505	637.719734
136	148	1449295998784950734	0.297877	0.438853	0.542038	10236372.291971	15028388.433333	15953246.000000	1.392180	1.396800	1.395234	1844887487	2278667470	3381777138	640.293784
137	149	1449296002527583804	0.297629	0.428757	0.267192	10278230.123188	15091234.833333	16012753.000000	1.392196	1.396642	1.394206	3742633070	2332325865	3384411122	645.511787
138	150	1449296004378368521	0.298594	0.427768	0.540311	10319908.618705	15154304.033333	16071541.000000	1.392207	1.395812	1.394773	1850784717	2337717176	3373297888	648.093212
139	151	1449296006200476402	0.299570	0.435603	0.548815	10361430.014286	15217661.533333	16132904.000000	1.392217	1.395630	1.394994	1822107881	2295665915	3362138247	650.635041
140	152	1449296007852191019	0.300647	0.436380	0.605431	10402794.234043	15281251.366667	16193785.000000	1.392236	1.395670	1.397595	1651714617	2291582033	3349920936	652.943470
141	153	1449296011232594197	0.300612	0.428047	0.295823	10443915.929577	15344575.600000	16242075.000000	1.392255	1.395591	1.394882	3380403178	2336190866	3350137122	657.658734
142	154	1449296012886270890	0.301673	0.431326	0.604713	10484793.272727	15407148.733333	16289376.000000	1.392263	1.395609	1.394557	1653676693	2318431729	3338190217	659.964880
143	155	1449296014539028293	0.302727	0.443507	0.605049	10525416.805556	15468868.566667	16334582.000000	1.392283	1.395883	1.397934	1652757403	2254756060	3326403974	662.275325
144	156	1449296016047205483	0.303866	0.445991	0.663052	10565787.468966	15529628.233333	16379163.000000	1.392296	1.396048	1.396228	1508177190	2242198177	3313777399	664.381084
145	157	1449296019119228160	0.304005	0.437805	0.325518	10605875.705479	15589428.766667	16418670.000000	1.392316	1.396024	1.395528	3072022677	2284119792	3312110125	668.668176
146	158	1449296020694694406	0.305086	0.441039	0.634733	10645691.278912	15648332.900000	16458765.000000	1.392321	1.395951	1.393772	1575466246	2267375090	3300215304	670.864017
147	159	1449296022356901278	0.306105	0.453567	0.601610	10685229.310811	15706229.266667	16497320.000000	1.392333	1.395986	1.395874	1662206872	2204743943	3289072389	673.184248
148	160	1449296023910952042	0.307186	0.456270	0.643480	10724523.859060	15763290.766667	16540117.000000	1.392344	1.395981	1.395767	1554050764	2191683088	3277349270	675.353342
149	161	1449296026868320875	0.307374	0.448082	0.338138	10763540.726667	15819274.500000	16577054.000000	1.392371	1.395898	1.396717	2957368833	2231736083	3275201751	679.483948
150	162	1449296028455388959	0.308420	0.450387	0.630093	10802294.437086	15874373.500000	16615351.000000	1.392388	1.395750	1.397764	1587068084	2220310570	3263947526	681.702294
151	163	1449296030394075661	0.309238	0.461448	0.515813	10840840.401316	15928889.200000	16661281.000000	1.392418	1.395685	1.400071	1938686702	2167090551	3255170964	684.416593
152	164	1449296031936698455	0.310299	0.463925	0.648247	10879178.764706	15982963.733333	16706610.000000	1.392438	1.395710	1.398563	1542622794	2155521976	3243904200	686.574048
153	165	1449296034785635924	0.310532	0.456774	0.351008	10917279.538961	16036338.733333	16746698.000000	1.392489	1.395903	1.401327	2848937469	2189268322	3241322718	690.566342
154	166	1449296035978787175	0.311799	0.461539	0.838117	10955071.787097	16088512.433333	16775078.000000	1.392508	1.395891	1.400460	1193151251	2166663100	3228022904	692.237303
155	167	1449296037672633158	0.312745	0.473436	0.590372	10992543.153846	16139634.766667	16800605.000000	1.392547	1.396031	1.404166	1693845983	2112219254	3218124988	694.615743
156	168	1449296039162893723	0.313812	0.473852	0.671024	11029709.108280	16189953.466667	16827598.000000	1.392586	1.396223	1.405607	1490260565	2110361438	3207048934	696.710464
157	169	1449296041970030057	0.314049	0.465943	0.356235	11066575.215190	16239534.200000	16854554.000000	1.392647	1.396463	1.403500	2807136334	2146185454	3204501720	700.650279
158	170	1449296043133788514	0.315307	0.471103	0.859285	11103152.283019	16288322.100000	16882329.000000	1.392674	1.396484	1.404425	1163758457	2122678276	3191585623	702.284690
159	171	1449296044670608902	0.316326	0.486843	0.650694	11139420.906250	16336175.066667	16906132.000000	1.392707	1.396754	1.403385	1536820388	2054049782	3181178295	704.441440
160	172	1449296046039110189	0.317444	0.489203	0.730726	11175364.378882	16382812.400000	16926320.000000	1.392734	1.397017	1.402560	1368501287	2044140196	3169849063	706.360846
161	173	1449296048863375593	0.317647	0.482108	0.354074	11210995.623457	16428115.666667	16947626.000000	1.392789	1.397440	1.402720	2824265404	2074226024	3167702581	710.322499
162	174	1449296049950968600	0.318928	0.492029	0.919462	11246315.834356	16471953.833333	16968190.000000	1.392816	1.397745	1.405523	1087593007	2032398935	3154862399	711.851137
163	175	1449296051507165597	0.319910	0.513743	0.642592	11281332.798780	16513853.166667	16989098.000000	1.392850	1.398280	1.404049	1556196997	1946499189	3145054635	714.036114
164	176	1449296052816602133	0.321041	0.520083	0.763687	11316045.333333	16553612.166667	17008901.000000	1.392863	1.398474	1.397737	1309436536	1922768886	3133861842	715.866362
165	177	1449296055369545061	0.321390	0.513439	0.391705	11350462.873494	16591569.300000	17029357.000000	1.392846	1.398167	1.389580	2552942928	1947649396	3130341121	719.413881
166	178	1449296056254138482	0.322773	0.522019	1.130463	11384583.425150	16628080.933333	17048595.000000	1.392843	1.398148	1.390854	884593421	1915639594	3116812521	720.644221
167	179	1449296056638091589	0.324465	0.554421	2.604485	11422030.166667	16683510.366667	17675636.000000	1.392844	1.398394	1.394327	383953107	1803683595	3100448093	721.179577
168	180	1449296057023123567	0.326154	0.569857	2.597187	11459179.869822	16737803.333333	17700330.000000	1.392859	1.398631	1.413410	385031978	1754825171	3084284902	721.723785
169	181	1449296058794505360	0.326966	0.570407	0.564531	11496052.947059	16790959.966667	17727603.000000	1.392914	1.399105	1.408983	1771381793	1753134301	3076516245	724.219632
170	182	1449296060888549892	0.327570	0.565650	0.477545	11532669.204678	16843081.566667	17757433.000000	1.392962	1.399375	1.404736	2094044532	1767878632	3070736999	727.161212
171	183	1449296062579991871	0.328422	0.584256	0.591212	11569040.302326	16894629.000000	17788498.000000	1.392989	1.399736	1.401368	1691441979	1711579926	3062670946	729.531545
172	184	1449296064583092037	0.329073	0.580306	0.499226	11605186.976879	16945730.300000	17822415.000000	1.393014	1.399893	1.399497	2003100166	1723227375	3056510651	732.334877
173	185	1449296066428887029	0.329817	0.578148	0.541772	11641136.959770	16996593.700000	17860484.000000	1.393043	1.400007	1.401359	1845794992	1729661961	3049512295	734.921498
174	186	1449296068250441965	0.330571	0.574677	0.548982	11676863.160000	17047062.333333	17893222.000000	1.393077	1.400221	1.403004	1821554936	1740107885	3042455069	737.477147
175	187	1449296069779368740	0.331502	0.592182	0.654054	11712356.772727	17097231.300000	17923739.000000	1.393104	1.400577	1.402580	1528926775	1688671355	3033806335	739.621589
176	188	1449296071703465463	0.332182	0.588134	0.519724	11747606.672316	17146992.100000	17951589.000000	1.393141	1.400887	1.403234	1924096723	1700292371	3027501167	742.321547
177	189	1449296073470261095	0.332955	0.586931	0.565996	11782598.780899	17196288.166667	17976202.000000	1.393176	1.401148	1.403706	1766795632	1703778663	3020378537	744.801608
178	190	1449296075232231532	0.333725	0.584553	0.567546	11817346.486034	17245032.200000	18002438.000000	1.393210	1.401389	1.403447	1761970437	1710709318	3013308829	747.274440
179	191	1449296076974333608	0.334503	0.598731	0.574019	11851881.327778	17293584.333333	18033618.000000	1.393244	1.401750	1.403838	1742102076	1670200426	3006207115	749.720069
180	192	1449296079133777151	0.335017	0.591968	0.463082	11886227.138122	17342021.733333	18068473.000000	1.393278	1.401879	1.401835	2159443543	1689279608	3001502873	752.747253
181	193	1449296081079687389	0.335659	0.591884	0.513898	11920388.939560	17390101.533333	18103675.000000	1.393315	1.402007	1.403418	1945910238	1689520392	2995670869	755.478178
182	194	1449296082473068507	0.336639	0.593632	0.717679	11954340.677596	17437666.433333	18133557.000000	1.393341	1.402151	1.403410	1393381118	1684545670	2986867079	757.433662
183	195	1449296083998234454	0.337531	0.609600	0.655666	11988056.586957	17484712.100000	18158068.000000	1.393368	1.402231	1.403201	1525165947	1640419952	2978879642	759.573776
184	196	1449296086247901317	0.337971	0.596788	0.444510	12021568.270270	17531800.100000	18187718.000000	1.393394	1.402160	1.399713	2249666863	1675637139	2974916529	762.722665
185	197	1449296088267683422	0.338548	0.592943	0.495103	12054892.376344	17579108.333333	18219852.000000	1.393439	1.402230	1.405590	2019782105	1686501677	2969753640	765.561650
186	198	1449296089657906464	0.339509	0.594118	0.719309	12088034.010695	17626601.000000	18252378.000000	1.393464	1.402160	1.403309	1390223042	1683167093	2961261540	767.512563
187	199	1449296091111015323	0.340427	0.610488	0.688180	12120974.898936	17674146.566667	18280921.000000	1.393496	1.402188	1.405679	1453108859	1638032843	2953196552	769.555168
188	200	1449296093476431890	0.340778	0.595916	0.422759	12153722.021164	17721741.633333	18310181.000000	1.393539	1.402194	1.403425	2365416567	1678088113	2950070063	772.874852
189	201	1449296095494360372	0.341339	0.590275	0.495558	12186275.847368	17769502.200000	18338949.000000	1.393569	1.402143	1.401805	2017928482	1694125049	2945138097	775.703595
190	202	1449296096673098603	0.342411	0.592487	0.848365	12218618.528796	17817415.800000	18363728.000000	1.393590	1.402165	1.403573	1178738231	1687799614	2935841256	777.358040
191	203	1449296097903681184	0.343446	0.611742	0.812623	12250743.625000	17865382.833333	18386637.000000	1.393616	1.402220	1.405629	1230582581	1634676853	2926913200	779.087782
192	204	1449296100313911367	0.343752	0.595676	0.414898	12282659.787565	17913461.933333	18410563.000000	1.393665	1.402280	1.404968	2410230183	1678764759	2924222142	782.474078
193	205	1449296102398730236	0.344255	0.589489	0.479658	12314373.159794	17961660.466667	18435054.000000	1.393705	1.402313	1.404420	2084818869	1696385488	2919872903	785.402039
194	206	1449296103582122576	0.345305	0.590952	0.845028	12345884.425641	18009999.433333	18459070.000000	1.393731	1.402527	1.406390	1183392340	1692184015	2910921972	787.066350
195	207	1449296104806131591	0.346325	0.606838	0.816987	12377198.433673	18058468.533333	18483430.000000	1.393758	1.403284	1.406106	1224009015	1647886218	2902271136	788.787436
196	208	1449296107200541815	0.346625	0.588854	0.417639	12408322.233503	18107134.933333	18508587.000000	1.393804	1.403559	1.404555	2394410224	1698213445	2899680009	792.150517
197	209	1449296109225559228	0.347148	0.570478	0.493823	12439244.313131	18135643.533333	18530894.000000	1.393838	1.403622	1.403434	2025017413	1752915589	2895240097	794.992494
198	210	1449296110342151342	0.348219	0.562651	0.895582	12469970.497487	18164091.033333	18553755.000000	1.393862	1.403604	1.406162	1116592114	1777300927	2886257027	796.562603
199	211	1449296111567065310	0.349221	0.568477	0.816384	12500505.880000	18192405.833333	18577047.000000	1.393886	1.403460	1.405157	1224913968	1759085333	2877908569	798.283800
200	212	1449296113979562520	0.349495	0.565067	0.414508	12530856.029851	18220520.933333	18600886.000000	1.393926	1.403404	1.403339	2412497210	1769700422	2875581512	801.669351
201	213	1449296116048479052	0.349974	0.561078	0.483345	12561025.896040	18248409.966667	18625169.000000	1.393965	1.403532	1.405043	2068916532	1782282907	2871568254	804.576267
202	214	1449296117184939982	0.351016	0.570322	0.879925	12591016.729064	18275968.300000	18649165.000000	1.393987	1.403714	1.404845	1136460930	1753394933	2862978614	806.172817
203	215	1449296118351736740	0.352035	0.577780	0.857047	12620828.426471	18303038.933333	18672603.000000	1.394014	1.403883	1.407531	1166796758	1730761659	2854623038	807.815120
204	216	1449296120810999560	0.352265	0.570770	0.406626	12650464.043902	18329802.533333	18696130.000000	1.394057	1.403930	1.404225	2459262820	1752018589	2852684998	811.268479
205	217	1449296122997494625	0.352659	0.563718	0.457353	12679936.679612	18356405.466667	18721827.000000	1.394104	1.404072	1.406445	2186495065	1773937532	2849435291	814.343663
206	218	1449296124070725652	0.353721	0.572877	0.931766	12709239.497585	18382873.166667	18745620.000000	1.394131	1.404200	1.408845	1073231027	1745575342	2840812940	815.855679
207	219	1449296125239191320	0.354721	0.579498	0.855823	12738365.336538	18409246.900000	18767414.000000	1.394150	1.404204	1.403625	1168465668	1725631010	2832733967	817.495767
208	220	1449296127740306348	0.354913	0.571341	0.399822	12767332.095694	18435579.566667	18792418.000000	1.394185	1.404150	1.402527	2501115028	1750269163	2831139646	821.003649
209	221	1449296130045386899	0.355220	0.565280	0.433824	12796157.380952	18461813.700000	18820642.000000	1.394216	1.404076	1.402206	2305080551	1769035112	2828622616	824.235847
210	222	1449296131175096927	0.356231	0.576465	0.885183	12824855.715640	18487914.800000	18851506.000000	1.394235	1.404169	1.404079	1129710028	1734710661	2820532557	825.822049
211	223	1449296132356957055	0.357207	0.585055	0.846124	12853425.424528	18513846.766667	18881634.000000	1.394256	1.404210	1.404701	1181860128	1709242324	2812766336	827.482209
212	224	1449296134895309221	0.357363	0.572276	0.393956	12881874.727700	18539832.433333	18913127.000000	1.394286	1.404091	1.401325	2538352166	1747408025	2811471930	831.039265
213	225	1449296137274460637	0.357614	0.563103	0.420318	12910209.537383	18566080.966667	18945524.000000	1.394318	1.404036	1.402293	2379151416	1775874208	2809442256	834.375532
214	226	1449296138464819029	0.358571	0.574526	0.840083	12938436.265116	18592455.566667	18978956.000000	1.394338	1.404230	1.404358	1190358392	1740563926	2801876444	836.047222
215	227	1449296139725905800	0.359483	0.582997	0.792967	12966561.902778	18618912.966667	19013574.000000	1.394355	1.404127	1.402216	1261086771	1715274081	2794709980	837.815538
216	228	1449296142200428687	0.359666	0.570966	0.404118	12994581.216590	18645392.133333	19046753.000000	1.394376	1.403937	1.399630	2474522887	1751417409	2793227633	841.278956
217	229	1449296144646771821	0.359865	0.560373	0.408773	13022501.256881	18672066.433333	19081150.000000	1.394401	1.403738	1.400622	2446343134	1784525219	2791629086	844.705357
218	230	1449296146016846858	0.360700	0.570989	0.729887	13050330.273973	18698962.266667	19117056.000000	1.394416	1.403680	1.400964	1370075037	1751347168	2785108196	846.624782
219	231	1449296147396242743	0.361525	0.578014	0.724955	13078067.000000	18726077.633333	19152410.000000	1.394441	1.403795	1.405265	1379395885	1730062748	2778689419	848.563199
220	232	1449296149646345233	0.361831	0.566324	0.444424	13105694.597285	18753412.233333	19183766.000000	1.394472	1.403761	1.402866	2250102490	1765774890	2776286751	851.719792
221	233	1449296151975466743	0.362087	0.554818	0.429346	13133210.306306	18780997.066667	19214182.000000	1.394510	1.403755	1.404620	2329121510	1802392854	2774263379	854.991322
222	234	1449296153336978260	0.362912	0.565791	0.734478	13160619.260090	18808825.200000	19245407.000000	1.394533	1.403724	1.404684	1361511517	1767435565	2767899632	856.903815
223	235	1449296154771869857	0.363690	0.572813	0.696917	13187924.928571	18836893.033333	19277089.000000	1.394566	1.403828	1.408545	1434891597	1745771322	2761922017	858.924924
224	236	1449296157141208038	0.363914	0.560129	0.422059	13215139.848889	18865300.100000	19311282.000000	1.394603	1.403789	1.404221	2369338181	1785302850	2760169411	862.251999
225	237	1449296159610008722	0.364078	0.547407	0.405055	13242278.154867	18894132.333333	19348397.000000	1.394637	1.403709	1.403171	2468800684	1826795906	2758874438	865.716149
226	238	1449296161120202640	0.364801	0.556383	0.662167	13269348.374449	18923420.033333	19387218.000000	1.394657	1.403658	1.403202	1510193918	1797322029	2753349303	867.835256
227	239	1449296162565464037	0.365559	0.562431	0.691916	13296341.078947	18953179.733333	19423685.000000	1.394690	1.403799	1.408581	1445261397	1777996828	2747586802	869.871023
228	240	1449296164600319683	0.365968	0.552912	0.491435	13323226.812227	18983160.366667	19453174.000000	1.394713	1.403684	1.402005	2034855646	1808605612	2744460788	872.723901
229	241	1449296167067021993	0.366123	0.540541	0.405400	13350017.900000	19013431.366667	19485177.000000	1.394751	1.403679	1.404309	2466702310	1849998557	2743247869	876.187913
230	242	1449296168611510308	0.366813	0.549129	0.647464	13376725.181818	19044048.500000	19519400.000000	1.394766	1.403611	1.400754	1544488315	1821064927	2738035871	878.351361
231	243	1449296170114929659	0.367524	0.554873	0.665150	13403355.952586	19075045.000000	19555064.000000	1.394789	1.403581	1.404497	1503419351	1802215021	2732691210	880.462909
232	244	1449296172167020251	0.367912	0.545632	0.487308	13429909.317597	19106415.833333	19590290.000000	1.394808	1.403444	1.400619	2052090592	1832736009	2729757587	883.337106
233	245	1449296174877000643	0.367917	0.530736	0.369006	13456404.940171	19138325.233333	19629885.000000	1.394826	1.403144	1.398939	2709980392	1884175463	2729672706	887.128204
234	246	1449296176692545043	0.368437	0.536850	0.550799	13482857.208511	19170877.166667	19672688.000000	1.394841	1.403008	1.400425	1815544400	1862718182	2725766175	889.670738
235	247	1449296178387862417	0.369024	0.541610	0.589860	13509278.826271	19204094.900000	19718359.000000	1.394853	1.402759	1.399303	1695317374	1846345593	2721381287	892.043001
236	248	1449296180475189694	0.369382	0.531873	0.479082	13535665.291139	19238003.266667	19762871.000000	1.394863	1.402457	1.397728	2087327277	1880148801	2718694617	894.960517
237	249	1449296183226319002	0.369357	0.517356	0.363487	13562014.386555	19272647.800000	19806750.000000	1.394870	1.402158	1.396650	2751129308	1932904256	2718831472	898.802883
238	250	1449296185371399193	0.369678	0.520552	0.466183	13588357.033473	19308164.100000	19857907.000000	1.394872	1.401895	1.395526	2145080191	1921036429	2716420753	901.796397
239	251	1449296187616086426	0.369941	0.521098	0.445496	13614741.625000	19344831.333333	19920659.000000	1.394884	1.401742	1.398300	2244687233	1919023318	2714446972	904.935143
240	252	1449296191969883115	0.369006	0.493463	0.229685	13641367.091286	19384163.766667	20031479.000000	1.394899	1.401371	1.397160	4353796689	2026492874	2721277596	911.018094
241	253	1449296194937878535	0.368860	0.479379	0.336928	13668302.165289	19426764.466667	20159655.000000	1.394910	1.401107	1.397122	2967995420	2086030717	2722301321	915.164747
242	254	1449296197249102486	0.369084	0.481126	0.432671	13695526.641975	19472455.233333	20283850.000000	1.394912	1.400898	1.395711	2311223951	2078459777	2720602655	918.390549
243	255	1449296199725438872	0.369215	0.480377	0.403822	13723017.487705	19521047.533333	20403293.000000	1.394917	1.400660	1.396236	2476336386	2081699276	2719597444	921.848100
244	256	1449296203617458599	0.368557	0.460457	0.256936	13750755.861224	19572379.633333	20518919.000000	1.394911	1.400184	1.393821	3892019727	2171754653	2724402453	927.272878
245	257	1449296206397924430	0.368520	0.449964	0.359652	13778723.821138	19626289.633333	20630874.000000	1.394908	1.399896	1.394219	2780465831	2222400622	2724631283	931.149456
246	258	1449296208669862905	0.368763	0.451335	0.440153	13806895.323887	19682634.033333	20737085.000000	1.394904	1.399697	1.393785	2271938475	2215647808	2722791068	934.316050
247	259	1449296211140255843	0.368896	0.451172	0.404794	13835257.971774	19741290.100000	20840832.000000	1.394908	1.399523	1.395916	2470392938	2216449468	2721769214	937.764512
248	260	1449296214641471196	0.368464	0.437161	0.285615	13863825.220884	19802338.333333	20948503.000000	1.394915	1.399328	1.396257	3501215353	2287487479	2724912142	942.653108
249	261	1449296217305100401	0.368491	0.429130	0.375428	13892575.632000	19865638.933333	21051428.000000	1.394923	1.399119	1.396942	2663629205	2330295257	2724666025	946.374043
250	262	1449296219830952880	0.368593	0.427444	0.395906	13921493.581673	19931212.766667	21150981.000000	1.394932	1.398939	1.397453	2525852479	2339486923	2723870771	949.903804
251	263	1449296222343834770	0.368701	0.426328	0.397949	13950592.861111	19999223.766667	21254512.000000	1.394947	1.398754	1.399015	2512881890	2345612269	2723030178	953.419364
252	264	1449296225241336580	0.368602	0.417221	0.345125	13979820.256917	20069214.333333	21345124.000000	1.394977	1.398772	1.401978	2897501810	2396811945	2723722526	957.481597
253	265	1449296227654600841	0.368762	0.411620	0.414377	14009154.098425	20140998.566667	21430616.000000	1.395008	1.398749	1.403904	2413264261	2429424368	2722495418	960.869589
254	266	1449296230118567035	0.368894	0.411086	0.405850	14038589.639216	20214463.066667	21515217.000000	1.395020	1.398553	1.398191	2463966194	2432578635	2721477586	964.314684
255	267	1449296232426817849	0.369108	0.411993	0.433228	14068101.156250	20289301.100000	21593538.000000	1.395038	1.398457	1.400465	2308250814	2427226972	2719857089	967.547307
256	268	1449296234963701036	0.369200	0.406265	0.394184	14097657.330739	20365195.100000	21664038.000000	1.395044	1.398301	1.396750	2536883187	2461449947	2719142347	971.090700
257	269	1449296237227289435	0.369435	0.401812	0.441776	14127248.763566	20442147.166667	21732247.000000	1.395054	1.398097	1.398136	2263588399	2488727514	2717369764	974.255504
258	270	1449296239772991135	0.369520	0.399081	0.392819	14156893.791506	20520551.733333	21805311.000000	1.395058	1.397922	1.396042	2545701700	2505755716	2716704384	977.809411
259	271	1449296242159760964	0.369688	0.399506	0.418976	14186582.603846	20600245.333333	21875985.000000	1.395069	1.397729	1.398452	2386769829	2503091300	2715430505	981.147193
260	272	1449296244133160998	0.370071	0.397237	0.506740	14216282.747126	20680876.000000	21938320.000000	1.395079	1.397686	1.398462	1973400034	2517388358	2712576542	983.906918
261	273	1449296246119127869	0.370446	0.394715	0.503533	14245960.328244	20762100.833333	21991809.000000	1.395093	1.397616	1.400157	1985966871	2533473275	2709792597	986.687582
262	274	1449296248337595768	0.370697	0.393853	0.450762	14275596.577947	20843767.633333	22040294.000000	1.395112	1.397643	1.401319	2218467899	2539019185	2707917312	989.796365
263	275	1449296250339047425	0.371060	0.397551	0.499637	14305158.170455	20925433.366667	22079857.000000	1.395131	1.397707	1.401804	2001451657	2515401561	2705231131	992.602008
264	276	1449296252177111183	0.371505	0.397432	0.544051	14334663.000000	21007141.700000	22123938.000000	1.395147	1.397725	1.401165	1838063758	2516152206	2701946406	995.177440
265	277	1449296254096776327	0.371907	0.396255	0.520924	14364112.578947	21088804.766667	22168251.000000	1.395170	1.397848	1.403961	1919665144	2523630465	2698994401	997.872575
266	278	1449296256332152714	0.372142	0.395481	0.447352	14393508.307116	21170468.133333	22212772.000000	1.395196	1.398019	1.403520	2235376387	2528565436	2697251476	1001.009969
267	279	1449296258332909077	0.372497	0.399432	0.499811	14422850.541045	21252150.700000	22257227.000000	1.395223	1.398245	1.404650	2000756363	2503553004	2694642880	1003.820333
268	280	1449296260009167387	0.373017	0.401941	0.596567	14452129.256506	21333514.633333	22298825.000000	1.395247	1.398487	1.405518	1676258310	2487925608	2690842938	1006.176343
269	281	1449296261725014331	0.373515	0.404810	0.582803	14481329.188889	21414029.700000	22336111.000000	1.395274	1.398690	1.406999	1715846944	2470297599	2687218417	1008.590537
270	282	1449296263786667514	0.373833	0.417730	0.485048	14510444.442804	21492032.500000	22371563.000000	1.395302	1.398965	1.405040	2061653183	2393892815	2684901509	1011.487244
271	283	1449296265574439204	0.374289	0.424709	0.559356	14539453.338235	21566739.466667	22400864.000000	1.395333	1.399265	1.407750	1787771690	2354552024	2681591067	1014.003979
272	284	1449296267224686712	0.374814	0.428721	0.605970	14568358.934066	21638300.500000	22430681.000000	1.395355	1.399516	1.404944	1650247508	2332519476	2677799363	1016.322484
273	285	1449296268848887088	0.375350	0.434006	0.615688	14597150.240876	21706763.300000	22457177.000000	1.395380	1.399800	1.406602	1624200376	2304114942	2673940026	1018.607087
274	286	1449296270711419057	0.375761	0.447134	0.536904	14625812.960000	21772112.600000	22479398.000000	1.395400	1.400245	1.403343	1862531969	2236465350	2670978682	1021.220859
275	287	1449296272440220750	0.376239	0.454254	0.578435	14654346.608696	21834453.466667	22501100.000000	1.395422	1.400616	1.404710	1728801693	2201409879	2667552584	1023.649324
276	288	1449296274111091945	0.376744	0.458427	0.598490	14682763.732852	21894080.300000	22525890.000000	1.395441	1.400937	1.403925	1670871195	2181374303	2663941420	1025.995101
277	289	1449296275723477894	0.377276	0.464517	0.620199	14711055.978417	21950986.166667	22548008.000000	1.395461	1.401220	1.404569	1612385949	2152774070	2660145191	1028.259808
278	290	1449296277701105232	0.377620	0.475740	0.505656	14739237.845878	22005162.633333	22573797.000000	1.395486	1.401604	1.404678	1977627338	2101987803	2657690090	1031.037736
279	291	1449296279519861867	0.378043	0.482201	0.549826	14767322.371429	22056878.533333	22602905.000000	1.395509	1.401906	1.405097	1818756635	2073825384	2654683160	1033.593266
280	292	1449296281214552281	0.378527	0.488730	0.590078	14795308.740214	22106228.900000	22631492.000000	1.395529	1.402146	1.403992	1694690414	2046119982	2651254615	1035.972597
281	293	1449296282869924017	0.379029	0.495654	0.604094	14823199.343972	22153093.800000	22660459.000000	1.395555	1.402423	1.407490	1655371736	2017536310	2647710548	1038.302516
282	294	1449296284763514514	0.379407	0.504014	0.528097	14850986.957597	22197826.133333	22687094.000000	1.395574	1.402456	1.402801	1893590497	1984072600	2645036363	1040.958847
283	295	1449296286583895641	0.379821	0.509085	0.549336	14878673.926056	22240608.466667	22714086.000000	1.395599	1.402500	1.405804	1820381127	1964309828	2642122387	1043.517947
284	296	1449296288226375580	0.380323	0.516282	0.608835	14906259.519298	22281453.500000	22740568.000000	1.395621	1.402775	1.405758	1642479939	1936926953	2638602519	1045.826876
285	297	1449296289995329898	0.380759	0.521118	0.565306	14933751.601399	22320635.400000	22768995.000000	1.395643	1.402929	1.404767	1768954318	1918950403	2635551122	1048.311845
286	298	1449296291815490148	0.381166	0.527688	0.549402	14961142.020906	22358327.533333	22794802.000000	1.395661	1.403222	1.403483	1820160250	1895059639	2632700105	1050.866409
287	299	1449296293664910311	0.381557	0.531560	0.540710	14988438.670139	22394671.866667	22822577.000000	1.395680	1.403427	1.403223	1849420163	1881254031	2629970907	1053.461557
288	300	1449296295326060151	0.382041	0.540024	0.601993	15015640.107266	22429483.300000	22849654.000000	1.395697	1.403768	1.403515	1661149840	1851768969	2626606945	1055.793006
289	301	1449296297163851805	0.382434	0.545414	0.544131	15042754.131034	22462907.366667	22878707.000000	1.395712	1.403932	1.401793	1837791654	1833469696	2623877480	1058.369209
290	302	1449296298991183864	0.382830	0.546866	0.547246	15069781.841924	22495223.966667	22907818.000000	1.395728	1.404082	1.402506	1827332059	1828600763	2621130772	1060.932054
291	303	1449296300884406855	0.383191	0.547792	0.528200	15096723.989726	22526726.633333	22936889.000000	1.395746	1.404176	1.402683	1893222991	1825509301	2618629370	1063.587646
292	304	1449296302479860384	0.383700	0.554096	0.626781	15123571.266212	22557482.700000	22962976.000000	1.395759	1.404232	1.402122	1595453529	1804742156	2615125343	1065.824667
293	305	1449296304194985270	0.384147	0.557042	0.583048	15150301.585034	22587563.633333	22982285.000000	1.395774	1.404270	1.402604	1715124886	1795197930	2612053670	1068.230308
294	306	1449296305981400279	0.384556	0.557576	0.559780	15176922.396610	22616880.400000	23003441.000000	1.395790	1.404312	1.402329	1786415009	1793476305	2609245375	1070.735449
295	307	1449296307877340883	0.384908	0.557822	0.527443	15203438.408784	22645460.766667	23025662.000000	1.395811	1.404325	1.404336	1895940604	1792685487	2606827392	1073.397987
296	308	1449296309608365261	0.385341	0.563103	0.577693	15229861.693603	22673406.833333	23051154.000000	1.395829	1.404344	1.403858	1731024378	1775873753	2603868599	1075.828100
297	309	1449296311559462326	0.385663	0.563628	0.512532	15256201.234899	22700800.766667	23079045.000000	1.395856	1.404423	1.406818	1951097065	1774218443	2601670715	1078.572939
298	310	1449296313589908866	0.385943	0.559903	0.492503	15282468.468227	22727843.400000	23110104.000000	1.395879	1.404391	1.404464	2030446540	1786024717	2599753855	1081.424628
299	311	1449296315382623936	0.386339	0.559101	0.557813	15308656.136667	22754598.666667	23138769.000000	1.395901	1.404337	1.405297	1792715070	1788586988	2597054729	1083.943925
300	312	1449296316877312880	0.386882	0.565071	0.669036	15334753.159468	22781008.566667	23163860.000000	1.395915	1.404286	1.403486	1494688944	1769688180	2593380176	1086.041701
301	313	1449296318857889855	0.387182	0.563027	0.504903	15360765.387417	22807327.966667	23190446.000000	1.395942	1.404253	1.406515	1980576975	1776115023	2591344285	1088.827412
302	314	1449296320943212604	0.387428	0.558467	0.479542	15386699.504950	22833598.700000	23218803.000000	1.395958	1.404146	1.402045	2085322749	1790617531	2589668717	1091.751129
303	315	1449296322852864827	0.387760	0.555515	0.523656	15412570.828947	22860078.866667	23251582.000000	1.395971	1.403966	1.401143	1909652223	1800132593	2587424438	1094.426825
304	316	1449296324493011133	0.388224	0.557812	0.609702	15438383.029508	22886942.000000	23285292.000000	1.395960	1.403576	1.390493	1640146306	1792719738	2584308392	1096.707437
305	317	1449296326400330236	0.388553	0.555966	0.524296	15464142.441176	22914264.100000	23320763.000000	1.395935	1.402914	1.385868	1907319103	1798670318	2582088755	1099.350730
306	318	1449296326850204414	0.389600	0.568838	2.222844	15490577.061889	22949386.800000	23579571.000000	1.395927	1.402701	1.381631	449874178	1757970417	2575120733	1099.972290
307	319	1449296329533547110	0.389543	0.557516	0.372670	15517371.879870	22989232.566667	23743381.000000	1.395872	1.401493	1.379606	2683342696	1793668975	2575473248	1103.674245
308	320	1449296334237621570	0.388496	0.530631	0.212582	15544507.974110	23033520.166667	23902425.000000	1.395763	1.399387	1.377522	4704074460	1884550546	2582384290	1110.154211
309	321	1449296339781855677	0.387056	0.497826	0.180368	15571984.877419	23082168.266667	24062348.000000	1.395668	1.397614	1.381992	5544234107	2008733128	2591969565	1117.816296
310	322	1449296344633803981	0.385966	0.473042	0.206103	15599798.234727	23135183.166667	24221939.000000	1.395611	1.396578	1.386291	4851948304	2113975058	2599259819	1124.542510
311	323	1449296350155510348	0.384572	0.445861	0.181103	15627946.134615	23192565.966667	24381943.000000	1.395541	1.395386	1.385323	5521706367	2242852879	2608656753	1132.191857
312	324	1449296354577198949	0.383713	0.429715	0.226158	15656429.779553	23254440.400000	24543327.000000	1.395513	1.394860	1.390269	4421688601	2327122816	2614467753	1138.339193
313	325	1449296360174029165	0.382316	0.407663	0.178673	15685243.414013	23320767.900000	24703911.000000	1.395441	1.393842	1.385035	5596830216	2453004453	2623996067	1146.090999
314	326	1449296364967598908	0.381308	0.390924	0.208613	15714387.107937	23391599.200000	24865507.000000	1.395377	1.392998	1.384409	4793569743	2558040780	2630905538	1152.727261
315	327	1449296370436144821	0.380003	0.372945	0.182864	15743862.686709	23466921.700000	25028670.000000	1.395303	1.392130	1.384037	5468545913	2681360500	2639913920	1160.295930
316	328	1449296374968302281	0.379139	0.360782	0.220645	15773677.435331	23546932.900000	25195138.000000	1.395246	1.391484	1.384826	4532157460	2771760407	2645902032	1166.572178
317	329	1449296380588981315	0.377795	0.345129	0.177914	15803828.525157	23631571.133333	25361724.000000	1.395154	1.390589	1.381517	5620679034	2897469036	2655286187	1174.337243
318	330	1449296385256603239	0.376893	0.333591	0.214242	15834312.420063	23720855.700000	25528191.000000	1.395095	1.390027	1.384353	4667621924	2997684772	2661614287	1180.798881
319	331	1449296390789540017	0.375619	0.320425	0.180736	15865131.796875	23814782.566667	25696513.000000	1.395026	1.389467	1.384459	5532936778	3120856276	2670615298	1188.459004
320	332	1449296395257088271	0.374828	0.311637	0.223836	15896288.566978	23913403.800000	25866455.000000	1.394988	1.389146	1.387890	4467548254	3208863483	2676230713	1194.659471
321	333	1449296400923742057	0.373524	0.299882	0.176471	15927778.220497	24016706.066667	26035957.000000	1.394925	1.388670	1.385270	5666653786	3334644509	2685546673	1202.509316
322	334	1449296405527060690	0.372694	0.291129	0.217235	15959599.012384	24124803.333333	26205894.000000	1.394877	1.388341	1.385957	4603318633	3434906679	2691502486	1208.889319
323	335	1449296411009030799	0.371498	0.280862	0.182416	15991749.021605	24237933.900000	26376202.000000	1.394815	1.387940	1.384983	5481970109	3560468186	2700141705	1216.481752
324	336	1449296415481757891	0.370743	0.273972	0.223577	16024225.523077	24356039.600000	26546612.000000	1.394770	1.387629	1.386072	4472727092	3650011923	2705612647	1222.681273
325	337	1449296421264530679	0.369446	0.264580	0.172927	16057024.042945	24479068.966667	26716543.000000	1.394720	1.387327	1.387196	5782772788	3779572995	2715080833	1230.703114
326	338	1449296425794299632	0.368687	0.258207	0.220762	16090138.636086	24606880.366667	26885496.000000	1.394683	1.387085	1.387439	4529768953	3872864481	2720647360	1236.987892
327	339	1449296431277488127	0.367542	0.250589	0.182376	16123567.149390	24739401.900000	27054691.000000	1.394628	1.386700	1.385695	5483188495	3990600862	2729095499	1244.585919
328	340	1449296435766647481	0.366818	0.245546	0.222759	16157306.449848	24876525.000000	27223797.000000	1.394571	1.386274	1.383139	4489159354	4072557956	2734461547	1250.795053
329	341	1449296441675607408	0.365524	0.237543	0.169235	16191356.324242	25018358.200000	27393765.000000	1.394485	1.385784	1.381569	5908959927	4209766117	2744110478	1258.958690
330	342	1449296446027810990	0.364873	0.232287	0.229769	16225713.909366	25165020.100000	27563717.000000	1.394431	1.385492	1.383219	4352203582	4305016605	2748983487	1264.978742
331	343	1449296451482386960	0.363788	0.226203	0.183332	16260372.885542	25316421.700000	27732494.000000	1.394404	1.385360	1.389897	5454575970	4420816572	2757157483	1272.560044
332	344	1449296456102251653	0.363046	0.221961	0.216457	16295335.321321	25472557.066667	27902864.000000	1.394381	1.385251	1.389704	4619864693	4505301303	2762768047	1278.980290
333	345	1449296461983958423	0.361816	0.215624	0.170019	16330598.368263	25633277.433333	28073193.000000	1.394334	1.385111	1.387095	5881706770	4637703121	2772134229	1287.138777
334	346	1449296466164961284	0.361263	0.211757	0.239177	16366154.698507	25798500.000000	28241969.000000	1.394289	1.385025	1.384338	4181002861	4722398340	2776352399	1292.926697
335	347	1449296471684674742	0.360198	0.206492	0.181169	16401999.145833	25968137.533333	28409889.000000	1.394227	1.384967	1.383788	5519713458	4842811485	2784541536	1300.564812
336	348	1449296476279136988	0.359499	0.200764	0.217653	16438125.252226	26134701.733333	28576497.000000	1.394186	1.385008	1.385952	4594462246	4980964421	2789928205	1306.932516
337	349	1449296482250370588	0.358283	0.196442	0.167470	16474528.177515	26301332.833333	28742314.000000	1.394153	1.385257	1.388966	5971233600	5090560785	2799368280	1315.226357
338	350	1449296486283055328	0.357814	0.197309	0.247974	16511206.474926	26468201.033333	28908471.000000	1.394135	1.385616	1.389765	4032684740	5068181127	2803017146	1320.830840
339	351	1449296491785114728	0.356797	0.197364	0.181750	16548158.285294	26635283.500000	29074822.000000	1.394082	1.385725	1.384968	5502059400	5066775304	2810978922	1328.451016
340	352	1449296496395625821	0.356124	0.197678	0.216896	16585378.580645	26802561.500000	29240279.000000	1.394055	1.385794	1.388594	4610511093	5058727397	2816271664	1334.853142
341	353	1449296502467236467	0.354918	0.196964	0.164701	16622867.473684	26970049.400000	29406580.000000	1.394002	1.385801	1.385549	6071610646	5077057540	2825818112	1343.265654
342	354	1449296506322260635	0.354537	0.197700	0.259402	16660620.551020	27137677.600000	29572173.000000	1.393964	1.385641	1.384628	3855024168	5058168725	2828827487	1348.603429
343	355	1449296511731695452	0.353594	0.197944	0.184862	16698635.250000	27305469.800000	29737677.000000	1.393921	1.385679	1.386075	5409434817	5051922211	2836351123	1356.101311
344	356	1449296516330494473	0.352953	0.198199	0.217448	16736905.750725	27473351.500000	29901958.000000	1.393892	1.385783	1.387756	4598799021	5045429853	2841474518	1362.483323
345	357	1449296522544359291	0.351740	0.197228	0.160930	16775428.416185	27641254.100000	30065748.000000	1.393846	1.385884	1.386732	6213864818	5070273817	2851249563	1371.100289
346	358	1449296526241648078	0.351436	0.198316	0.270468	16814198.570605	27809038.566667	30228672.000000	1.393816	1.385914	1.385816	3697288787	5042444861	2853694763	1376.224051
347	359	1449296531677854247	0.350519	0.198559	0.183952	16853212.350575	27976680.900000	30390994.000000	1.393774	1.386084	1.386075	5436206169	5036295766	2861137159	1383.759039
348	360	1449296536264663158	0.349909	0.198665	0.218016	16892466.595989	28144172.666667	30552944.000000	1.393740	1.386148	1.386452	4586808911	5033601999	2866095986	1390.118428
349	361	1449296542556417962	0.348712	0.197672	0.158938	16931959.725714	28311457.633333	30715062.000000	1.393694	1.386217	1.386324	6291754804	5058895934	2875911627	1398.840838
350	362	1449296546203832089	0.348442	0.198746	0.274167	16971687.205128	28478452.633333	30876305.000000	1.393681	1.386261	1.390097	3647414127	5031558129	2878115920	1403.911096
351	363	1449296551611666484	0.347569	0.199087	0.184917	17011648.107955	28645184.900000	31037925.000000	1.393644	1.386318	1.386804	5407834395	5022930816	2885323095	1411.410704
352	364	1449296556238738336	0.346971	0.199056	0.216119	17051838.688385	28811619.200000	31198923.000000	1.393608	1.386312	1.385773	4627071852	5023722590	2890271245	1417.822775
353	365	1449296562712175649	0.345754	0.197755	0.154477	17092257.567797	28977749.866667	31360122.000000	1.393563	1.386365	1.386419	6473437313	5056771497	2900421857	1426.797674
354	366	1449296566228054611	0.345544	0.199010	0.284424	17132899.923944	29143539.266667	31520294.000000	1.393536	1.386357	1.385649	3515878962	5024876559	2902160436	1431.669447
355	367	1449296571714436772	0.344677	0.199402	0.182269	17173763.682584	29309001.100000	31680398.000000	1.393493	1.386296	1.385566	5486382161	5014996872	2909439934	1439.271189
356	368	1449296576319122018	0.344111	0.199303	0.217170	17214844.128852	29474134.000000	31839483.000000	1.393446	1.386153	1.382740	4604685246	5017494082	2914201859	1445.638272
357	369	1449296582848604814	0.342917	0.197927	0.153151	17256141.564246	29638955.166667	31999326.000000	1.393376	1.386004	1.382317	6529482796	5052370559	2924328697	1454.664087
358	370	1449296586349337497	0.342725	0.199226	0.285654	17297652.465181	29803447.100000	32158555.000000	1.393359	1.386143	1.388292	3500732683	5019423003	2925938764	1459.524125
359	371	1449296591733911354	0.341922	0.199922	0.185716	17339369.747222	29967517.400000	32315874.000000	1.393327	1.386356	1.387080	5384573857	5001943468	2932787329	1466.992957
360	372	1449296596312517657	0.341388	0.199621	0.218407	17381287.819945	30131119.966667	32471794.000000	1.393293	1.386422	1.385519	4578606303	5009490226	2937359049	1473.336704
361	373	1449296602903754888	0.340213	0.198123	0.151717	17423404.941989	30294293.033333	32627686.000000	1.393248	1.386277	1.385981	6591237231	5047378934	2947480595	1482.472034
362	374	1449296606294317608	0.340069	0.199744	0.294936	17465711.707989	30456889.600000	32780761.000000	1.393219	1.386122	1.384063	3390562720	5006402202	2948704579	1487.164787
363	375	1449296611636360424	0.339308	0.200465	0.187194	17508203.010989	30618868.033333	32932546.000000	1.393162	1.385931	1.381852	5342042816	4988413403	2955297797	1494.546702
364	376	1449296616141475967	0.338817	0.200031	0.221970	17550879.460274	30780305.966667	33085107.000000	1.393118	1.385880	1.382747	4505115543	4999217159	2959555538	1500.776135
365	377	1449296622697650507	0.337690	0.198658	0.152528	17593734.631148	30941172.066667	33235872.000000	1.393094	1.386095	1.389078	6556174540	5033765862	2969409289	1509.883169
366	378	1449296625966559748	0.337594	0.200418	0.305912	17636762.506812	31101454.333333	33384965.000000	1.393078	1.386133	1.387629	3268909241	4989580762	2970227595	1514.419202
367	379	1449296631183756201	0.336897	0.201432	0.191674	17679957.125000	31261123.266667	33532382.000000	1.393045	1.386023	1.386232	5217196453	4964446190	2976350126	1521.651447
368	380	1449296635590165208	0.336456	0.200928	0.226942	17723312.693767	31420112.966667	33678162.000000	1.393004	1.385832	1.382968	4406409007	4976903666	2980236155	1527.745371
369	381	1449296642142223367	0.335364	0.199525	0.152624	17766828.732432	31578427.133333	33824247.000000	1.392949	1.385770	1.383679	6552058159	5011903624	2989915890	1536.811316
370	382	1449296645227100183	0.335333	0.201570	0.324162	17810506.970350	31736133.000000	33971455.000000	1.392931	1.385697	1.386510	3084876816	4961049148	2990172541	1541.088527
371	383	1449296650380045104	0.334678	0.202822	0.194064	17854343.526882	31893170.533333	34117706.000000	1.392886	1.385619	1.383275	5152944921	4930426957	2996002116	1548.216468
372	384	1449296653617141498	0.334603	0.203673	0.308919	17898335.482574	32049542.866667	34263343.000000	1.392873	1.385705	1.388360	3237096394	4909829365	2996650219	1552.710724
373	385	1449296657559841790	0.334318	0.205722	0.253633	17942476.868984	32205194.100000	34407214.000000	1.392861	1.385792	1.389437	3942700292	4860938215	2999186546	1558.188857
374	386	1449296657856193654	0.335123	0.211976	3.374367	17987538.933333	32369820.533333	34840751.000000	1.392858	1.385723	1.383272	296351864	4717523310	2991959715	1558.598792
375	387	1449296658289341100	0.335886	0.221003	2.308683	18032987.002660	32536829.366667	35076013.000000	1.392864	1.385743	1.406265	433147446	4524832731	2985136216	1559.207912
376	388	1449296659748485176	0.336341	0.224708	0.685333	18078821.984085	32706299.466667	35312775.000000	1.392869	1.385862	1.396843	1459144076	4450227907	2981077726	1561.246107
377	389	1449296668443726407	0.334638	0.219353	0.115005	18125044.029101	32878291.500000	35550755.000000	1.392818	1.385881	1.386296	8695241231	4558862409	2996234659	1573.300287
378	390	1449296673086429625	0.334149	0.219263	0.215392	18171654.013193	33052867.633333	35790228.000000	1.392803	1.385974	1.389184	4642703218	4560725552	3000590395	1579.749854
379	391	1449296677989190273	0.333589	0.221512	0.203967	18218650.178947	33230038.800000	36030197.000000	1.392779	1.386003	1.387234	4902760648	4514425746	3005609314	1586.551133
380	392	1449296680994378670	0.333587	0.222568	0.332758	18266036.188976	33409919.300000	36272720.000000	1.392764	1.385911	1.386831	3005188397	4493018222	3005608207	1590.718822
381	393	1449296687511289066	0.332565	0.220751	0.153447	18313816.465969	33592591.866667	36518102.000000	1.392773	1.386280	1.394344	6516910396	4529987422	3014824223	1599.805635
382	394	1449296692062547152	0.332120	0.220874	0.219719	18361976.942559	33777937.066667	36759279.000000	1.392756	1.386369	1.388422	4551258086	4527460296	3018846301	1606.124701
383	395	1449296697201715956	0.331509	0.223066	0.194584	18410511.908854	33965913.133333	36999404.000000	1.392733	1.386420	1.387756	5139168804	4482984679	3024382391	1613.256615
384	396	1449296700124736381	0.331536	0.224053	0.342112	18459418.018182	34156548.800000	37239364.000000	1.392720	1.386460	1.387334	2923020425	4463222728	3024118428	1617.311820
385	397	1449296706392033514	0.330613	0.222754	0.159558	18508678.888601	34349672.666667	37474114.000000	1.392685	1.386484	1.386199	6267297133	4489253227	3032542268	1625.999539
386	398	1449296711087484874	0.330142	0.222604	0.212972	18558295.692506	34545369.300000	37710382.000000	1.392669	1.386692	1.388772	4695451360	4492278764	3036850323	1632.520450
387	399	1449296716342236886	0.329518	0.224730	0.190304	18608276.716495	34743756.200000	37950933.000000	1.392638	1.386871	1.385809	5254752012	4449787738	3042581335	1639.802532
388	400	1449296719253889894	0.329552	0.225726	0.343448	18658618.359897	34944843.566667	38191176.000000	1.392622	1.386815	1.386042	2911653008	4430151749	3042243891	1643.838205
389	401	1449296725740313082	0.328593	0.223870	0.154168	18709341.130769	35148997.733333	38440499.000000	1.392597	1.386858	1.387919	6486423188	4466880060	3051097822	1652.840838
390	402	1449296730079894095	0.328236	0.224270	0.230437	18760439.498721	35356231.366667	38688803.000000	1.392580	1.386944	1.388074	4339581013	4458912550	3054401626	1658.864497
391	403	1449296735284527339	0.327644	0.226619	0.192136	18811909.772959	35566534.733333	38936787.000000	1.392566	1.387090	1.389447	5204633244	4412692417	3059900939	1666.096061
392	404	1449296738177159490	0.327687	0.227475	0.345706	18863745.521628	35779954.666667	39183359.000000	1.392559	1.387223	1.389619	2892632151	4396094731	3059474233	1670.115718
393	405	1449296744404252775	0.326824	0.225958	0.160589	18915939.157360	35996471.066667	39428038.000000	1.392538	1.387501	1.388531	6227093285	4425596414	3067534332	1678.762228
394	406	1449296748457491754	0.326556	0.226730	0.246716	18968473.091139	36215862.266667	39666843.000000	1.392518	1.387631	1.386480	4053238979	4410533861	3070036121	1684.381965
395	407	1449296754119797331	0.325857	0.228272	0.176607	19021347.295455	36438221.800000	39906658.000000	1.392495	1.387554	1.387512	5662305577	4380738229	3076598828	1692.238484
396	408	1449296756980774820	0.325913	0.228983	0.349531	19074559.241814	36663605.966667	40146490.000000	1.392489	1.387604	1.389916	2860977489	4367140504	3076054330	1696.215002
397	409	1449296762675356013	0.325213	0.228151	0.175606	19128095.570352	36891927.166667	40382018.000000	1.392460	1.387599	1.386231	5694581193	4383053329	3082650116	1704.109005
398	410	1449296766774265777	0.324942	0.228686	0.243967	19181961.889724	37123347.000000	40620757.000000	1.392441	1.387735	1.386985	4098909764	4372803354	3085203532	1709.794131
399	411	1449296772163331618	0.324333	0.230732	0.185561	19236152.937500	37357818.133333	40858381.000000	1.392423	1.387964	1.388339	5389065841	4334036944	3090977623	1717.275979
400	412	1449296775222918315	0.324339	0.230777	0.326842	19290665.708229	37595295.433333	41095774.000000	1.392422	1.388092	1.391925	3059586697	4333193940	3090899145	1721.534694
401	413	1449296781055494244	0.323621	0.229576	0.171451	19345503.708955	37835889.966667	41335542.000000	1.392421	1.388461	1.392110	5832575929	4355848307	3097736245	1729.654282
402	414	1449296785097230643	0.323374	0.228171	0.247418	19400678.848635	38079814.700000	41581085.000000	1.392411	1.388495	1.389483	4041736399	4382669640	3100084504	1735.270208
403	415	1449296790764402787	0.322709	0.225218	0.176455	19456181.514851	38327032.766667	41823756.000000	1.392390	1.388431	1.387638	5667172144	4440152035	3106454448	1743.134193
404	416	1449296794292012970	0.322599	0.219884	0.283478	19512013.486420	38567945.400000	42068130.000000	1.392375	1.388409	1.387144	3527610183	4547860646	3107496913	1748.027498
405	417	1449296799613300439	0.322031	0.212278	0.187924	19568184.827586	38809330.900000	42317578.000000	1.392371	1.388471	1.391514	5321287469	4710798646	3112963062	1755.432144
406	418	1449296803625607205	0.321800	0.208511	0.249233	19624691.444717	39051117.666667	42566378.000000	1.392359	1.388389	1.388569	4012306766	4795904069	3115178195	1761.003508
407	419	1449296809430233334	0.321116	0.212786	0.172276	19681541.789216	39293413.566667	42819632.000000	1.392347	1.388570	1.389652	5804626129	4699550232	3121786175	1769.069921
408	420	1449296812845447696	0.321041	0.214655	0.292807	19738732.281174	39536154.400000	43072453.000000	1.392335	1.388536	1.388029	3415214362	4658633937	3122505362	1773.810337
409	421	1449296818450957535	0.320416	0.213581	0.178396	19796256.841463	39779274.566667	43323802.000000	1.392318	1.388577	1.388422	5605509839	4682058910	3128576277	1781.593148
410	422	1449296822551563906	0.320171	0.211928	0.243866	19854126.868613	40022878.500000	43580838.000000	1.392308	1.388635	1.389275	4100606371	4718572843	3130947082	1787.290018
411	423	1449296828380023395	0.319500	0.212964	0.171572	19912350.927184	40267023.066667	43842439.000000	1.392289	1.388346	1.388036	5828459489	4695624479	3137510373	1795.380128
412	424	1449296832004515515	0.319377	0.214375	0.275901	19970914.394673	40511682.533333	44099063.000000	1.392276	1.388324	1.387597	3624492120	4664732281	3138692367	1800.409464
413	425	1449296837889836020	0.318700	0.213238	0.169914	20029816.384058	40756913.666667	44356338.000000	1.392256	1.388324	1.387826	5885320505	4689604005	3145342799	1808.577265
414	426	1449296841500285407	0.318585	0.212201	0.276974	20089056.867470	41002755.433333	44614617.000000	1.392244	1.388336	1.388018	3610449387	4712518303	3146466245	1813.588633
415	427	1449296847376818909	0.317918	0.212789	0.170168	20148619.562500	41249189.566667	44867138.000000	1.392234	1.388504	1.390084	5876533502	4699492849	3153044720	1821.757506
416	428	1449296851033589261	0.317794	0.214368	0.273465	20208506.129496	41496220.766667	45121318.000000	1.392236	1.388608	1.392826	3656770352	4664870149	3154255599	1826.850749
417	429	1449296856781175735	0.317167	0.213616	0.173986	20268701.088517	41743522.966667	45369999.000000	1.392224	1.388751	1.389534	5747586474	4681297964	3160474618	1834.837219
418	430	1449296860330062398	0.317072	0.212651	0.281779	20329189.579952	41990929.733333	45613379.000000	1.392221	1.388861	1.390908	3548886663	4702539086	3161403833	1839.773395
419	431	1449296866546229511	0.316341	0.213059	0.160871	20389980.935714	42238298.400000	45861559.000000	1.392195	1.388812	1.386777	6216167113	4693530550	3168694438	1848.393831
420	432	1449296870052654837	0.316259	0.214327	0.285191	20451077.315914	42485723.533333	46111557.000000	1.392201	1.388974	1.394357	3506425326	4665758694	3169498559	1853.283040
421	433	1449296875955138627	0.315610	0.213264	0.169420	20512476.725118	42733218.233333	46361628.000000	1.392191	1.388996	1.389915	5902483790	4689020379	3175990210	1861.486988
422	434	1449296879195397494	0.315593	0.212738	0.308617	20574173.725768	42980783.200000	46610308.000000	1.392193	1.389075	1.392972	3240258867	4700607936	3176142506	1866.000577
423	435	1449296885090491446	0.314954	0.213240	0.169633	20636152.853774	43228292.733333	46853324.000000	1.392197	1.389274	1.393256	5895093952	4689541291	3182570287	1874.213951
424	436	1449296888585455270	0.314880	0.214090	0.286126	20698414.430588	43475975.400000	47097323.000000	1.392195	1.389407	1.391373	3494963824	4670932120	3183307064	1879.076749
425	437	1449296894619453720	0.314216	0.213524	0.165728	20760960.551643	43723855.533333	47343062.000000	1.392170	1.389359	1.386519	6033998450	4683321882	3190014573	1887.443001
426	438	1449296897653957150	0.314250	0.213260	0.329543	20823792.639344	43971981.266667	47590262.000000	1.392155	1.389268	1.385647	3034503430	4689106080	3189649523	1891.647752
427	439	1449296903447409618	0.313649	0.213110	0.172609	20886898.824766	44220355.333333	47833240.000000	1.392138	1.389338	1.387991	5793452468	4692401789	3195747423	1899.689013
428	440	1449296907001434575	0.313565	0.213939	0.281371	20950284.104895	44468969.566667	48079184.000000	1.392135	1.389448	1.390964	3554024957	4674238962	3196584520	1904.632535
429	441	1449296913238960145	0.312869	0.212652	0.160320	21013952.446512	44717945.900000	48327671.000000	1.392125	1.389518	1.390059	6237525570	4702520953	3203672960	1913.303063
430	442	1449296916200633257	0.312923	0.212800	0.337647	21077900.665893	44967274.600000	48575635.000000	1.392123	1.389502	1.391242	2961673112	4699257167	3203110170	1917.423468
431	443	1449296921992370643	0.312335	0.212861	0.172660	21142131.064815	45216937.633333	48825433.000000	1.392119	1.389455	1.390981	5791737386	4697895882	3209116266	1925.479667
432	444	1449296925702112221	0.312221	0.213364	0.269561	21206646.951501	45466818.466667	49077510.000000	1.392104	1.389384	1.386819	3709741578	4686829388	3210275120	1930.624407
433	445	1449296931909429353	0.311547	0.212547	0.161100	21271450.046083	45717066.266667	49331190.000000	1.392085	1.389382	1.387732	6207317132	4704834221	3217196696	1939.238501
434	446	1449296934938690956	0.311588	0.213300	0.330113	21336544.963218	45967719.900000	49587739.000000	1.392078	1.389425	1.388799	3029261603	4688222601	3216763665	1943.445535
435	447	1449296940620248173	0.311038	0.212755	0.176008	21401924.839450	46218539.666667	49842171.000000	1.392077	1.389443	1.391812	5681557217	4700231593	3222429857	1951.353195
436	448	1449296944420027935	0.310909	0.213077	0.263173	21467592.867277	46469622.166667	50098853.000000	1.392069	1.389463	1.389285	3799779762	4693147360	3223754055	1956.632172
437	449	1449296950798228756	0.310213	0.212212	0.156784	21533550.123288	46720863.466667	50356871.000000	1.392032	1.389207	1.383962	6378200821	4712266517	3230972468	1965.459362
438	450	1449296954717411357	0.310060	0.211458	0.255155	21599815.646925	46972585.533333	50624115.000000	1.392012	1.389107	1.384557	3919182601	4729065459	3232543724	1970.885694
439	451	1449296961889186930	0.309200	0.209149	0.139435	21666444.147727	47225670.666667	50916356.000000	1.391964	1.388807	1.382576	7171775573	4781274317	3241516917	1980.801221
440	452	1449296966667879514	0.308866	0.208165	0.209262	21733487.419501	47480726.966667	51232527.000000	1.391925	1.388506	1.380121	4778692584	4803877190	3245010499	1987.396397
441	453	1449296973464536616	0.308100	0.206776	0.147131	21800983.052036	47738197.566667	51566557.000000	1.391860	1.388050	1.378364	6796657102	4836150444	3253064119	1996.764661
442	454	1449296977296866003	0.307974	0.206480	0.260938	21868945.273138	47998503.700000	51908247.000000	1.391825	1.387810	1.378512	3832329387	4843078352	3254374674	2002.047575
443	455	1449296984837282544	0.307059	0.204155	0.132619	21937368.740991	48261591.266667	52248965.000000	1.391767	1.387448	1.380780	7540416541	4898248220	3264049712	2012.459234
444	456	1449296989616023500	0.306737	0.202544	0.209260	22006231.507865	48527147.366667	52581300.000000	1.391732	1.387231	1.381148	4778740956	4937191273	3267461179	2019.059384
445	457	1449296994983399059	0.306293	0.203243	0.186311	22075510.291480	48795061.733333	52904569.000000	1.391694	1.386901	1.381269	5367375559	4920219341	3272180087	2026.473174
446	458	1449296997163362487	0.306521	0.205297	0.458723	22145191.413870	49065116.866667	53222972.000000	1.391686	1.386746	1.386477	2179963428	4870992443	3269731171	2029.495643
447	459	1449296997500034592	0.307136	0.213191	2.970249	22215464.698661	49340371.000000	53627623.000000	1.391684	1.386626	1.384097	336672105	4690628631	3263169518	2029.961630
448	460	1449296997947297818	0.307727	0.217996	2.235820	22286120.583519	49617923.600000	53939957.000000	1.391685	1.386543	1.395030	447263226	4587241183	3256884013	2030.585576
449	461	1449297004076815112	0.307122	0.218133	0.163145	22357145.957778	49897456.266667	54247539.000000	1.391634	1.386220	1.379531	6129517294	4584352856	3263281860	2039.041435
450	462	1449297011082568423	0.306340	0.212721	0.142740	22428534.026608	50178843.200000	54553165.000000	1.391562	1.385533	1.376471	7005753311	4700997122	3271598463	2048.684654
451	463	1449297016685483478	0.305855	0.213174	0.178479	22500279.615044	50462040.266667	54857540.000000	1.391527	1.385219	1.382249	5602915055	4691011498	3276767679	2056.429280
452	464	1449297022760782726	0.305277	0.208964	0.164601	22572410.333333	50747546.500000	55175495.000000	1.391496	1.384989	1.383929	6075299248	4785512844	3282959121	2064.837063
453	465	1449297027118165038	0.305055	0.211226	0.229496	22644944.566079	51035867.433333	55502952.000000	1.391480	1.384679	1.386072	4357382312	4734255790	3285330916	2070.876708
454	466	1449297034492687268	0.304220	0.205610	0.135602	22717856.114286	51326613.300000	55819699.000000	1.391438	1.384430	1.382931	7374522230	4863574403	3294337945	2081.075162
455	467	1449297040286940787	0.303712	0.205949	0.172585	22791191.973684	51620478.166667	56159008.000000	1.391417	1.384410	1.386080	5794253519	4855582905	3299832265	2089.106460
456	468	1449297046757320274	0.303072	0.201203	0.154550	22865015.512035	51918421.066667	56528549.000000	1.391382	1.384331	1.383170	6470379487	4970112107	3306785220	2098.056095
457	469	1449297051269283687	0.302829	0.202947	0.221633	22939366.063319	52221232.000000	56917568.000000	1.391369	1.384273	1.387158	4511963413	4927395805	3309422371	2104.314900
458	470	1449297058872032526	0.301972	0.197537	0.131531	23014258.392157	52529090.700000	57314945.000000	1.391352	1.384301	1.387948	7602748839	5062353268	3318796446	2114.867123
459	471	1449297064494017972	0.301515	0.198340	0.177873	23089702.376087	52842118.033333	57718491.000000	1.391336	1.384163	1.386989	5621985446	5041835263	3323814287	2122.664756
460	472	1449297070831559830	0.300920	0.194010	0.157790	23165713.125813	53160618.800000	58130658.000000	1.391303	1.383997	1.383414	6337541858	5154364221	3330365869	2131.432203
461	473	1449297075339009085	0.300688	0.195635	0.221855	23242303.084416	53484780.166667	58550274.000000	1.391281	1.383728	1.383818	4507449255	5111554617	3332919195	2137.669693
462	474	1449297082776955318	0.299887	0.190992	0.134446	23319472.347732	53814585.566667	58971672.000000	1.391243	1.383639	1.383395	7437946233	5235828106	3341804535	2147.959309
463	475	1449297088138930731	0.299495	0.192025	0.186498	23397209.730603	54149866.500000	59389618.000000	1.391232	1.383630	1.388112	5361975413	5207650048	3346167755	2155.402333
464	476	1449297094075912379	0.298994	0.188517	0.168436	23475483.513978	54490092.500000	59794519.000000	1.391221	1.383705	1.388268	5936981648	5304574050	3351751406	2163.644452
465	477	1449297098051593748	0.298873	0.190559	0.251529	23554247.502146	54834670.200000	60179502.000000	1.391215	1.383541	1.388825	3975681369	5247711522	3353093190	2169.165979
466	478	1449297104562394284	0.298269	0.187333	0.153591	23633473.638116	55183136.866667	60552853.000000	1.391242	1.383981	1.397702	6510800536	5338078881	3359869386	2178.266141
467	479	1449297109252165679	0.298015	0.189329	0.213230	23713146.322650	55535250.833333	60920290.000000	1.391232	1.384100	1.387989	4689771395	5281797900	3362717142	2184.775493
468	480	1449297114720535413	0.297616	0.187496	0.182870	23793253.803838	55890565.500000	61283555.000000	1.391228	1.384288	1.389912	5468369734	5333437471	3367216400	2192.376046
469	481	1449297118545398727	0.297528	0.191502	0.261447	23873796.917021	56248304.200000	61648517.000000	1.391222	1.384479	1.388901	3824863314	5221873729	3368192193	2197.688401
470	482	1449297124848330906	0.296976	0.189657	0.158656	23954768.157113	56607595.000000	62011251.000000	1.391225	1.384905	1.391884	6302932179	5272681716	3374436321	2206.461353
471	483	1449297129611672800	0.296716	0.192126	0.209937	24036165.052966	56967846.533333	62374103.000000	1.391230	1.385438	1.393020	4763341894	5204904543	3377385165	2213.096785
472	484	1449297135027036281	0.296336	0.190198	0.184660	24117984.226216	57328792.766667	62736634.000000	1.391237	1.385880	1.393430	5415363481	5257672347	3381702915	2220.642717
473	485	1449297138986351625	0.296227	0.194617	0.252569	24200223.318565	57690471.066667	63099314.000000	1.391234	1.386228	1.389694	3959315344	5138302307	3382924083	2226.144953
474	486	1449297144948586887	0.295750	0.193134	0.167722	24282879.646316	58053160.366667	63461979.000000	1.391223	1.386470	1.388462	5962235262	5177752117	3388365668	2234.423292
475	487	1449297149677338407	0.295503	0.193931	0.211472	24365943.392857	58417048.833333	63821223.000000	1.391213	1.386686	1.387635	4728751520	5156464649	3391187533	2240.985071
476	488	1449297155125986394	0.295125	0.189918	0.183532	24449413.062893	58782315.633333	64180976.000000	1.391211	1.386828	1.390737	5448647987	5265420801	3395509929	2248.562708
477	489	1449297159163677438	0.295007	0.185570	0.247666	24533285.098326	59146069.733333	64540246.000000	1.391220	1.387030	1.394673	4037691044	5388788099	3396856221	2254.193968
478	490	1449297165121486872	0.294541	0.179454	0.167847	24617555.853862	59511370.400000	64898977.000000	1.391232	1.387278	1.394580	5957809434	5572472972	3402213863	2262.502612
479	491	1449297169616886239	0.294342	0.181225	0.222450	24702223.327083	59878383.866667	65257943.000000	1.391234	1.387686	1.391749	4495399367	5518002374	3404496088	2268.759081
480	492	1449297175222311689	0.293945	0.182771	0.178399	24787277.752599	60247058.433333	65613402.000000	1.391232	1.388273	1.390867	5605425450	5471324779	3409081357	2276.555480
481	493	1449297179334698817	0.293818	0.184446	0.243168	24872717.919087	60617455.033333	65969438.000000	1.391237	1.388607	1.393260	4112387128	5421640514	3410543531	2282.285106
482	494	1449297185127963219	0.293391	0.184766	0.172614	24958545.204969	60989181.766667	66327297.000000	1.391250	1.389009	1.394963	5793264402	5412239353	3415486936	2290.366498
483	495	1449297189556937291	0.293210	0.184685	0.225786	25044757.735537	61361930.366667	66685410.000000	1.391256	1.389205	1.393307	4428974072	5414625745	3417585253	2296.537418
484	496	1449297195233139364	0.292809	0.186636	0.176174	25131345.575258	61735935.733333	67039860.000000	1.391256	1.389562	1.391175	5676202073	5358015073	3422251816	2304.434009
485	497	1449297199653437315	0.292632	0.188245	0.226229	25218312.810700	62110549.533333	67397422.000000	1.391253	1.389710	1.390324	4420297951	5312216555	3424309644	2310.579654
486	498	1449297205736727691	0.292164	0.188704	0.164385	25305665.767967	62484904.666667	67759203.000000	1.391240	1.389895	1.387583	6083290376	5299313584	3429780797	2319.020724
487	499	1449297210222571386	0.291978	0.188735	0.222924	25393404.293033	62858387.933333	68122066.000000	1.391241	1.390024	1.391714	4485843695	5298442927	3431949304	2325.263738
488	500	1449297216007869446	0.291567	0.190918	0.172852	25481526.783231	63230733.166667	68485302.000000	1.391243	1.390192	1.391872	5785298060	5237861234	3436771740	2333.316134
489	501	1449297220589067479	0.291367	0.192191	0.218284	25570031.261224	63601740.833333	68848721.000000	1.391244	1.390342	1.391379	4581198033	5203168321	3439112080	2339.690318
490	502	1449297226416913248	0.290954	0.192820	0.171590	25658914.883910	63971115.233333	69211890.000000	1.391235	1.390561	1.388658	5827845769	5186178451	3443987047	2347.783203
491	503	1449297230987245623	0.290759	0.192742	0.218802	25748180.615854	64338694.600000	69577655.000000	1.391233	1.390762	1.390731	4570332375	5188274555	3446281029	2354.139306
492	504	1449297236727891327	0.290365	0.194867	0.174196	25837835.064909	64704566.333333	69947824.000000	1.391219	1.390974	1.386897	5740645704	5131697870	3450944372	2362.100992
493	505	1449297241384689269	0.290158	0.195764	0.214740	25927872.542510	65068790.700000	70316349.000000	1.391215	1.391046	1.390050	4656797942	5108191955	3453390323	2368.574175
494	506	1449297247117713926	0.289769	0.196025	0.174428	26018293.212121	65431843.533333	70686104.000000	1.391218	1.391185	1.391879	5733024657	5101393388	3458004967	2376.553850
495	507	1449297251603127593	0.289594	0.195374	0.222945	26109090.471774	65794317.933333	71053734.000000	1.391220	1.391267	1.391904	4485413667	5118384464	3460080540	2382.797116
496	508	1449297257393763757	0.289201	0.196295	0.172693	26200262.700201	66156612.433333	71421688.000000	1.391216	1.390954	1.390245	5790636164	5094378985	3464779241	2390.847517
497	509	1449297262165094722	0.288980	0.196190	0.209585	26291817.333333	66519085.100000	71794470.000000	1.391215	1.391045	1.390948	4771330965	5097097637	3467408118	2397.484192
498	510	1449297267642777404	0.288643	0.196178	0.182559	26383748.987976	66881823.700000	72165713.000000	1.391221	1.391152	1.392924	5477682682	5097408068	3471444814	2405.114188
499	511	1449297272093885160	0.288479	0.195378	0.224663	26476051.940000	67244713.966667	72535225.000000	1.391224	1.391245	1.392405	4451107756	5118282883	3473408066	2411.311931
500	512	1449297277773262338	0.288112	0.196175	0.176076	26568717.091816	67607715.366667	72901293.000000	1.391233	1.391323	1.394061	5679377178	5097497716	3477820004	2419.229327
