3.2, 0.8, 2.6, 1.1, 90.9, 92.2, 98.8, 76.3; 28.34; 760.40; 3.66; [4, 5, 6, 7]
99.7, 99.3, 99.4, 99.7, 0.0, 0.1, 0.0, 0.0; 59.07; 1584.75; 2.53; [0, 1, 2, 3]
1.3, 0.1, 0.0, 0.0, 100.0, 100.0, 0.0, 0.0; 74.69; 2004.01; 2.14; [4, 5]
1.2, 0.4, 0.0, 0.1, 100.0, 100.0, 0.0, 0.0; 78.35; 2102.06; 2.15; [4, 5]
0.9, 0.2, 0.0, 0.0, 100.0, 100.0, 0.0, 0.0; 81.46; 2185.58; 2.16; [4, 5]
99.9, 99.9, 99.9, 1.1, 0.0, 0.0, 0.0, 0.0; 86.11; 2310.28; 2.05; [0, 1, 2]
