0.2, 0.0, 0.0, 1.3, 100.0, 100.0, 99.9, 100.0; 64.69; 2959.79; 3.04; [4, 5, 6, 7]
0.3, 0.1, 0.1, 0.0, 98.9, 86.0, 84.6, 0.0; 97.95; 4481.17; 2.41; [4, 5, 6]
96.7, 92.0, 98.6, 90.6, 0.0, 0.0, 0.0, 0.0; 82.95; 3794.83; 1.77; [0, 1, 2, 3]
84.8, 97.3, 93.7, 0.2, 0.0, 0.0, 0.0, 0.0; 98.79; 4519.50; 1.23; [0, 1, 2]
84.8, 90.0, 95.0, 0.4, 0.0, 0.0, 0.0, 0.0; 100.17; 4582.62; 1.12; [0, 1, 2]
92.6, 90.3, 98.8, 91.5, 0.0, 0.0, 0.0, 0.0; 96.84; 4430.43; 1.28; [0, 1, 2, 3]
98.2, 99.2, 73.5, 0.4, 0.0, 0.0, 0.0, 0.0; 98.43; 4503.20; 1.29; [0, 1, 2]
0.2, 0.1, 0.0, 0.0, 100.0, 95.3, 0.0, 0.0; 126.51; 5787.64; 1.72; [4, 5]
97.7, 89.2, 98.6, 90.5, 0.0, 0.0, 0.0, 0.0; 127.49; 5832.62; 1.73; [0, 1, 2, 3]
95.7, 94.8, 97.3, 97.5, 0.0, 0.0, 0.0, 0.0; 68.53; 3135.04; 1.30; [0, 1, 2, 3]
100.0, 76.7, 93.6, 0.4, 0.0, 0.0, 0.0, 0.0; 99.39; 4547.28; 1.17; [0, 1, 2]
90.7, 92.0, 97.7, 97.4, 0.0, 0.0, 0.0, 0.0; 80.01; 3660.33; 1.30; [0, 1, 2, 3]
100.0, 81.6, 95.5, 0.6, 0.0, 0.0, 0.0, 0.0; 98.88; 4523.92; 1.24; [0, 1, 2]
83.2, 85.2, 98.6, 97.4, 0.0, 0.0, 0.0, 0.0; 94.68; 4331.82; 1.31; [0, 1, 2, 3]
0.2, 0.0, 0.0, 0.0, 98.1, 97.0, 98.0, 98.5; 67.72; 3098.34; 2.99; [4, 5, 6, 7]
0.3, 0.0, 0.0, 0.1, 100.0, 0.1, 0.0, 0.0; 66.66; 3049.89; 3.00; [4]
0.3, 0.0, 0.0, 0.0, 97.3, 98.2, 97.3, 96.4; 204.30; 9346.69; 2.97; [4, 5, 6, 7]
96.9, 97.2, 98.7, 97.1, 0.0, 0.0, 0.0, 0.0; 68.90; 3152.31; 1.79; [0, 1, 2, 3]
91.8, 89.5, 91.9, 0.4, 0.0, 0.0, 0.0, 0.0; 99.59; 4556.46; 1.22; [0, 1, 2]
85.6, 96.9, 87.3, 98.6, 0.0, 0.0, 0.0, 0.0; 89.90; 4112.97; 1.29; [0, 1, 2, 3]
0.4, 0.0, 0.0, 0.0, 97.1, 97.1, 97.9, 99.2; 67.73; 3098.52; 2.97; [4, 5, 6, 7]
0.4, 0.1, 0.0, 0.0, 99.8, 99.8, 71.0, 0.0; 97.13; 4443.57; 2.92; [4, 5, 6]
97.4, 96.2, 94.5, 95.7, 0.0, 0.1, 0.0, 0.0; 76.18; 3485.40; 1.68; [0, 1, 2, 3]
98.9, 99.6, 76.4, 0.5, 0.0, 0.0, 0.0, 0.0; 97.86; 4477.31; 1.20; [0, 1, 2]
90.8, 98.7, 86.8, 94.5, 0.0, 0.0, 0.0, 0.0; 88.23; 4036.61; 1.29; [0, 1, 2, 3]
0.6, 0.0, 0.0, 0.1, 97.8, 98.1, 97.1, 98.1; 67.74; 3098.88; 2.97; [4, 5, 6, 7]
0.3, 0.0, 0.0, 0.0, 91.3, 77.3, 99.9, 0.0; 97.94; 4480.75; 2.91; [4, 5, 6]
97.6, 95.8, 97.7, 97.2, 0.0, 0.0, 0.0, 0.0; 73.25; 3351.41; 1.57; [0, 1, 2, 3]
0.2, 0.1, 0.0, 0.0, 86.5, 88.9, 100.0, 0.0; 97.34; 4453.38; 2.25; [4, 5, 6]
97.7, 94.6, 86.7, 87.3, 0.0, 0.0, 0.0, 0.0; 93.32; 4269.43; 1.89; [0, 1, 2, 3]
0.3, 0.0, 0.0, 0.0, 98.1, 97.3, 98.1, 98.7; 67.23; 3075.76; 2.96; [4, 5, 6, 7]
0.2, 0.0, 0.0, 0.1, 99.9, 100.0, 71.8, 0.0; 97.01; 4438.05; 2.88; [4, 5, 6]
95.6, 95.2, 96.2, 98.6, 0.0, 0.0, 0.0, 0.0; 75.51; 3454.65; 1.75; [0, 1, 2, 3]
94.5, 90.9, 91.3, 0.7, 0.0, 0.0, 0.0, 0.0; 98.09; 4487.58; 1.20; [0, 1, 2]
89.8, 98.7, 86.8, 94.3, 0.0, 0.1, 0.0, 0.0; 89.41; 4090.55; 1.28; [0, 1, 2, 3]
100.0, 99.6, 76.6, 0.7, 0.0, 0.0, 0.0, 0.0; 97.33; 4452.67; 1.28; [0, 1, 2]
97.7, 98.6, 91.9, 93.0, 0.0, 0.0, 0.0, 0.0; 95.36; 4362.77; 1.29; [0, 1, 2, 3]
0.2, 0.1, 0.0, 0.0, 97.4, 97.2, 98.2, 99.1; 68.11; 3115.82; 2.98; [4, 5, 6, 7]
0.2, 0.0, 0.0, 0.0, 89.1, 97.9, 84.6, 0.0; 97.70; 4469.69; 2.52; [4, 5, 6]
87.7, 95.9, 86.0, 96.9, 0.0, 0.1, 0.0, 0.0; 90.98; 4162.18; 1.93; [0, 1, 2, 3]
0.2, 0.0, 0.0, 0.1, 98.5, 98.1, 98.5, 97.7; 66.93; 3061.92; 2.97; [4, 5, 6, 7]
0.5, 0.0, 0.0, 0.1, 99.5, 100.0, 69.8, 0.0; 96.98; 4436.87; 2.88; [4, 5, 6]
97.8, 96.9, 98.2, 95.6, 0.0, 0.0, 0.0, 0.0; 72.65; 3323.74; 1.60; [0, 1, 2, 3]
98.0, 77.9, 99.9, 0.4, 0.0, 0.0, 0.0, 0.0; 97.92; 4479.75; 1.20; [0, 1, 2]
86.4, 88.0, 97.0, 98.8, 0.0, 0.1, 0.0, 0.0; 88.47; 4047.29; 1.29; [0, 1, 2, 3]
0.6, 0.1, 0.0, 0.0, 97.2, 97.2, 97.9, 99.1; 67.61; 3093.35; 2.96; [4, 5, 6, 7]
0.1, 0.0, 0.0, 0.0, 97.8, 99.8, 68.7, 0.0; 97.90; 4479.09; 2.89; [4, 5, 6]
97.4, 95.6, 96.9, 98.1, 0.0, 0.0, 0.0, 0.0; 72.51; 3317.32; 1.60; [0, 1, 2, 3]
93.2, 90.6, 90.5, 0.4, 0.0, 0.0, 0.0, 0.0; 99.56; 4555.09; 1.20; [0, 1, 2]
87.4, 96.5, 87.6, 97.1, 0.0, 0.0, 0.0, 0.0; 88.78; 4061.48; 1.29; [0, 1, 2, 3]
0.3, 0.1, 0.0, 0.0, 98.1, 97.7, 98.2, 98.3; 67.19; 3073.86; 2.97; [4, 5, 6, 7]
0.3, 0.0, 0.0, 0.0, 100.0, 71.6, 99.9, 0.0; 97.00; 4437.59; 2.91; [4, 5, 6]
100.0, 95.8, 0.4, 0.2, 0.0, 0.0, 0.0, 0.0; 128.42; 5875.39; 1.31; [0, 1]
0.3, 0.1, 0.1, 0.1, 98.0, 98.4, 97.9, 98.1; 114.41; 5234.24; 2.96; [4, 5, 6, 7]
97.7, 97.3, 98.6, 96.4, 0.0, 0.0, 0.0, 0.0; 68.43; 3130.74; 2.76; [0, 1, 2, 3]
100.0, 76.4, 99.9, 0.6, 0.0, 0.0, 0.0, 0.0; 97.90; 4478.83; 1.20; [0, 1, 2]
87.6, 86.5, 97.8, 97.0, 0.0, 0.1, 0.0, 0.0; 87.92; 4022.31; 1.28; [0, 1, 2, 3]
0.4, 0.0, 0.0, 0.0, 98.0, 98.0, 96.9, 97.9; 67.77; 3100.70; 2.96; [4, 5, 6, 7]
0.3, 0.0, 0.0, 0.1, 99.3, 70.4, 99.9, 0.0; 97.91; 4479.16; 2.91; [4, 5, 6]
97.5, 98.6, 97.3, 96.0, 0.0, 0.0, 0.0, 0.0; 72.00; 3294.07; 1.61; [0, 1, 2, 3]
100.0, 96.0, 78.3, 0.6, 0.0, 0.0, 0.0, 0.0; 98.27; 4496.07; 1.20; [0, 1, 2]
0.3, 0.0, 0.0, 0.0, 99.8, 88.7, 0.0, 0.0; 130.82; 5985.09; 1.77; [4, 5]
96.9, 97.2, 92.3, 97.5, 0.0, 0.0, 0.0, 0.0; 82.83; 3789.43; 1.53; [0, 1, 2, 3]
97.6, 99.9, 78.1, 0.4, 0.0, 0.0, 0.0, 0.0; 98.30; 4497.14; 1.19; [0, 1, 2]
94.4, 88.2, 98.7, 91.0, 0.0, 0.0, 0.0, 0.0; 86.52; 3958.46; 1.29; [0, 1, 2, 3]
99.5, 85.5, 90.4, 0.3, 0.0, 0.0, 0.0, 0.0; 98.72; 4516.57; 1.27; [0, 1, 2]
97.6, 98.7, 88.1, 89.0, 0.0, 0.0, 0.0, 0.0; 95.31; 4360.30; 1.30; [0, 1, 2, 3]
94.8, 99.9, 72.7, 0.5, 0.0, 0.0, 0.0, 0.0; 99.46; 4550.08; 1.32; [0, 1, 2]
95.3, 95.9, 94.7, 97.1, 0.0, 0.0, 0.0, 0.0; 73.33; 3354.95; 1.31; [0, 1, 2, 3]
86.1, 93.0, 94.8, 0.4, 0.0, 0.0, 0.0, 0.0; 99.49; 4551.84; 1.23; [0, 1, 2]
85.8, 97.0, 87.0, 98.7, 0.0, 0.1, 0.0, 0.0; 89.21; 4081.55; 1.31; [0, 1, 2, 3]
99.7, 95.2, 87.1, 0.5, 0.0, 0.0, 0.0, 0.0; 96.95; 4435.29; 1.29; [0, 1, 2]
90.8, 98.2, 91.2, 88.5, 0.0, 0.0, 0.0, 0.0; 96.45; 4412.76; 1.30; [0, 1, 2, 3]
86.1, 97.5, 84.4, 0.5, 0.0, 0.0, 0.0, 0.0; 99.36; 4545.58; 1.32; [0, 1, 2]
94.0, 94.3, 95.9, 98.7, 0.0, 0.0, 0.0, 0.0; 74.43; 3405.18; 1.30; [0, 1, 2, 3]
79.8, 100.0, 96.1, 0.4, 0.0, 0.0, 0.0, 0.0; 97.68; 4469.01; 1.23; [0, 1, 2]
86.5, 97.1, 86.4, 98.7, 0.0, 0.1, 0.0, 0.0; 90.01; 4117.98; 1.30; [0, 1, 2, 3]
88.6, 99.8, 92.1, 0.5, 0.0, 0.0, 0.0, 0.0; 98.30; 4497.10; 1.28; [0, 1, 2]
90.9, 98.5, 88.8, 88.9, 0.0, 0.0, 0.0, 0.0; 98.88; 4523.82; 1.30; [0, 1, 2, 3]
73.6, 96.2, 100.0, 0.4, 0.0, 0.1, 0.0, 0.0; 99.38; 4546.59; 1.31; [0, 1, 2]
0.3, 0.1, 0.0, 0.0, 94.0, 95.1, 98.6, 98.1; 73.66; 3369.80; 2.98; [4, 5, 6, 7]
0.2, 0.1, 0.0, 0.0, 99.3, 99.9, 79.3, 0.0; 96.45; 4412.61; 2.66; [4, 5, 6]
97.6, 82.8, 84.5, 98.6, 0.0, 0.0, 0.0, 0.0; 96.51; 4415.53; 2.06; [0, 1, 2, 3]
86.6, 91.5, 100.0, 0.7, 0.0, 0.0, 0.0, 0.0; 96.81; 4429.25; 1.31; [0, 1, 2]
0.5, 0.0, 0.0, 0.0, 97.2, 95.6, 97.4, 96.5; 93.83; 4292.53; 2.99; [4, 5, 6, 7]
97.8, 96.6, 97.0, 97.9, 0.0, 0.0, 0.0, 0.0; 68.96; 3154.77; 1.94; [0, 1, 2, 3]
99.9, 78.8, 99.9, 0.4, 0.0, 0.0, 0.0, 0.0; 97.72; 4470.90; 1.25; [0, 1, 2]
0.1, 0.2, 0.0, 0.0, 82.8, 99.1, 98.1, 84.2; 95.17; 4353.96; 2.96; [4, 5, 6, 7]
96.6, 98.6, 95.7, 97.0, 0.0, 0.0, 0.0, 0.0; 69.20; 3165.96; 2.74; [0, 1, 2, 3]
97.7, 99.9, 81.1, 0.3, 0.0, 0.0, 0.0, 0.0; 97.66; 4467.84; 1.30; [0, 1, 2]
0.3, 0.0, 0.0, 0.1, 97.5, 92.6, 93.1, 99.1; 76.92; 3519.29; 2.97; [4, 5, 6, 7]
100.0, 0.4, 0.3, 0.1, 0.0, 0.0, 0.0, 0.0; 168.86; 7725.14; 1.40; [0]
0.2, 0.1, 0.0, 0.0, 98.7, 97.6, 98.5, 98.1; 121.71; 5568.06; 2.97; [4, 5, 6, 7]
97.3, 96.7, 97.0, 96.8, 0.0, 0.0, 0.0, 0.0; 68.99; 3156.22; 2.46; [0, 1, 2, 3]
88.9, 84.0, 99.9, 0.4, 0.0, 0.0, 0.0, 0.0; 97.02; 4438.69; 1.31; [0, 1, 2]
0.2, 0.1, 0.0, 0.0, 97.2, 97.6, 98.7, 96.8; 94.62; 4328.77; 2.97; [4, 5, 6, 7]
97.5, 96.3, 98.4, 96.6, 0.0, 0.0, 0.0, 0.0; 68.86; 3150.55; 1.93; [0, 1, 2, 3]
97.5, 79.8, 99.8, 0.3, 0.0, 0.0, 0.0, 0.0; 97.76; 4472.61; 1.24; [0, 1, 2]
0.4, 0.0, 0.0, 0.1, 85.4, 91.3, 90.7, 98.1; 95.02; 4347.38; 2.95; [4, 5, 6, 7]
97.0, 96.1, 98.6, 97.8, 0.0, 0.0, 0.0, 0.0; 68.37; 3127.79; 2.70; [0, 1, 2, 3]
88.6, 87.4, 92.0, 0.5, 0.0, 0.0, 0.0, 0.0; 99.85; 4567.96; 1.29; [0, 1, 2]
0.2, 0.1, 0.0, 0.0, 97.4, 93.7, 94.4, 99.1; 74.59; 3412.50; 2.96; [4, 5, 6, 7]
0.3, 0.0, 0.0, 0.0, 99.8, 99.6, 79.0, 0.0; 96.47; 4413.49; 2.63; [4, 5, 6]
97.9, 85.3, 97.3, 85.8, 0.0, 0.0, 0.0, 0.0; 95.63; 4375.20; 2.00; [0, 1, 2, 3]
100.0, 91.0, 87.6, 0.6, 0.0, 0.0, 0.0, 0.0; 92.35; 4224.81; 1.30; [0, 1, 2]
0.3, 0.1, 0.0, 0.0, 98.1, 98.1, 98.2, 98.2; 94.69; 4331.92; 2.97; [4, 5, 6, 7]
97.6, 95.9, 96.7, 97.3, 0.0, 0.0, 0.0, 0.0; 69.69; 3188.50; 2.02; [0, 1, 2, 3]
99.9, 99.9, 0.2, 0.2, 0.0, 0.0, 0.0, 0.0; 132.01; 6039.31; 1.13; [0, 1]
0.3, 0.0, 0.0, 0.0, 97.5, 98.4, 97.4, 99.1; 73.62; 3367.90; 2.97; [4, 5, 6, 7]
0.3, 0.1, 0.1, 0.0, 91.2, 96.1, 89.4, 0.0; 97.59; 4464.86; 2.64; [4, 5, 6]
97.7, 95.5, 86.2, 85.0, 0.0, 0.0, 0.0, 0.0; 95.11; 4351.34; 2.00; [0, 1, 2, 3]
99.8, 75.1, 99.8, 0.3, 0.0, 0.0, 0.0, 0.0; 97.30; 4451.44; 1.29; [0, 1, 2]
0.4, 0.1, 0.0, 0.0, 97.8, 93.8, 98.2, 94.9; 93.80; 4291.27; 2.98; [4, 5, 6, 7]
96.8, 96.9, 98.5, 96.9, 0.0, 0.0, 0.0, 0.0; 69.34; 3172.50; 1.86; [0, 1, 2, 3]
87.0, 89.8, 97.0, 0.5, 0.0, 0.0, 0.0, 0.0; 99.02; 4530.36; 1.22; [0, 1, 2]
0.2, 0.0, 0.0, 0.1, 84.9, 99.1, 98.0, 86.1; 91.23; 4173.57; 2.96; [4, 5, 6, 7]
97.8, 98.0, 96.7, 96.9, 0.0, 0.0, 0.0, 0.0; 68.99; 3156.11; 2.59; [0, 1, 2, 3]
99.1, 97.4, 72.6, 0.3, 0.0, 0.0, 0.0, 0.0; 98.29; 4496.86; 1.31; [0, 1, 2]
0.2, 0.1, 0.0, 0.0, 97.4, 96.0, 96.0, 98.2; 71.59; 3275.28; 2.97; [4, 5, 6, 7]
0.2, 0.1, 0.0, 0.0, 99.2, 79.1, 99.9, 0.0; 96.40; 4410.14; 2.61; [4, 5, 6]
97.6, 98.7, 85.1, 85.8, 0.0, 0.0, 0.0, 0.0; 93.38; 4272.31; 1.96; [0, 1, 2, 3]
98.4, 99.9, 74.1, 0.4, 0.0, 0.0, 0.0, 0.0; 97.23; 4448.35; 1.29; [0, 1, 2]
0.4, 0.0, 0.0, 0.0, 98.1, 95.3, 97.2, 95.3; 93.54; 4279.55; 2.96; [4, 5, 6, 7]
96.3, 96.6, 97.4, 98.0, 0.0, 0.0, 0.0, 0.0; 69.91; 3198.61; 1.77; [0, 1, 2, 3]
94.5, 86.1, 96.3, 0.4, 0.0, 0.1, 0.0, 0.0; 99.00; 4529.28; 1.23; [0, 1, 2]
0.1, 0.0, 0.0, 0.0, 97.9, 84.2, 85.4, 99.1; 92.57; 4235.06; 2.94; [4, 5, 6, 7]
97.6, 97.6, 96.0, 97.0, 0.0, 0.0, 0.0, 0.0; 69.02; 3157.52; 2.49; [0, 1, 2, 3]
0.2, 0.0, 0.0, 0.0, 99.0, 99.7, 0.0, 0.0; 128.51; 5879.46; 1.80; [4, 5]
97.0, 97.2, 98.5, 83.0, 0.0, 0.0, 0.0, 0.0; 112.46; 5145.12; 1.64; [0, 1, 2, 3]
96.8, 98.7, 97.4, 96.1, 0.0, 0.0, 0.0, 0.0; 68.38; 3128.39; 1.29; [0, 1, 2, 3]
97.1, 90.9, 82.4, 0.4, 0.0, 0.0, 0.0, 0.0; 97.09; 4441.76; 1.30; [0, 1, 2]
0.3, 0.1, 0.0, 0.0, 98.3, 97.5, 98.2, 98.3; 94.86; 4339.94; 2.96; [4, 5, 6, 7]
97.7, 97.6, 97.0, 96.7, 0.0, 0.0, 0.0, 0.0; 68.94; 3154.05; 2.01; [0, 1, 2, 3]
96.8, 99.9, 82.6, 0.6, 0.0, 0.0, 0.0, 0.0; 97.52; 4461.44; 1.24; [0, 1, 2]
0.1, 0.0, 0.0, 0.1, 99.1, 85.1, 98.2, 86.5; 94.92; 4342.72; 2.93; [4, 5, 6, 7]
95.2, 98.7, 95.9, 95.4, 0.0, 0.0, 0.0, 0.0; 70.33; 3217.73; 2.79; [0, 1, 2, 3]
73.5, 99.9, 100.0, 0.5, 0.0, 0.0, 0.0, 0.0; 98.06; 4486.19; 1.27; [0, 1, 2]
0.3, 0.0, 0.0, 0.0, 93.3, 98.6, 92.6, 98.2; 76.88; 3517.12; 2.94; [4, 5, 6, 7]
0.1, 0.2, 0.0, 0.0, 92.0, 84.6, 100.0, 0.0; 97.40; 4455.98; 2.62; [4, 5, 6]
97.4, 98.6, 84.1, 85.6, 0.0, 0.0, 0.0, 0.0; 95.78; 4381.94; 1.99; [0, 1, 2, 3]
85.5, 84.6, 97.9, 0.4, 0.0, 0.0, 0.0, 0.0; 101.12; 4626.13; 1.29; [0, 1, 2]
96.4, 96.3, 96.1, 94.9, 0.0, 0.0, 0.0, 0.0; 93.87; 4294.38; 1.28; [0, 1, 2, 3]
0.5, 0.1, 0.0, 0.0, 87.3, 98.3, 88.6, 88.3; 67.00; 3065.18; 2.94; [4, 5, 6, 7]
