1.6, 2.8, 1.4, 1.4, 85.5, 83.9, 86.1, 97.2; 88.17; 339.81; 3.02; [4, 5, 6, 7]
100.0, 0.0, 0.0, 0.2, 0.0, 0.0, 0.0, 0.0; 100.00; 430.90; 2.94; [0]
0.2, 0.0, 0.0, 0.0, 100.0, 0.0, 0.0, 0.0; 100.00; 639.22; 2.05; [4]
100.0, 0.2, 0.2, 0.0, 0.0, 0.0, 0.0, 0.0; 100.00; 763.44; 1.80; [0]
0.0, 0.2, 0.0, 0.0, 98.5, 89.6, 89.7, 0.0; 92.60; 775.47; 1.64; [4, 5, 6]
0.4, 0.0, 0.0, 0.0, 100.0, 0.0, 0.0, 0.0; 100.00; 859.24; 1.62; [4]
0.4, 0.0, 0.0, 0.0, 96.6, 98.3, 0.0, 0.0; 97.45; 916.13; 1.56; [4, 5]
0.0, 0.2, 0.0, 0.0, 97.2, 97.8, 0.0, 0.0; 97.50; 799.76; 1.88; [4, 5]
86.4, 87.8, 91.3, 0.2, 0.0, 0.0, 0.0, 0.0; 88.50; 716.13; 1.89; [0, 1, 2]
100.0, 0.2, 0.4, 0.4, 0.0, 0.0, 0.0, 0.0; 100.00; 830.84; 1.67; [0]
1.1, 0.0, 0.0, 0.0, 96.0, 91.7, 89.3, 0.0; 92.33; 854.29; 1.57; [4, 5, 6]
93.8, 85.6, 84.2, 92.9, 0.0, 0.0, 0.0, 0.0; 89.12; 725.93; 1.59; [0, 1, 2, 3]
96.0, 96.6, 0.2, 0.2, 0.0, 0.2, 0.0, 0.0; 96.30; 755.32; 1.45; [0, 1]
0.0, 0.0, 0.0, 0.0, 100.0, 0.0, 0.0, 0.0; 100.00; 799.21; 1.38; [4]
100.0, 0.2, 0.2, 0.6, 0.0, 0.0, 0.0, 0.0; 100.00; 809.61; 1.42; [0]
0.2, 0.2, 0.0, 0.0, 100.0, 0.0, 0.0, 0.0; 100.00; 900.93; 1.36; [4]
0.0, 0.0, 0.0, 0.0, 100.0, 0.0, 0.0, 0.0; 100.00; 988.94; 1.29; [4]
96.8, 97.7, 0.2, 0.0, 0.0, 0.0, 0.0, 0.0; 97.25; 1092.58; 1.23; [0, 1]
100.0, 0.0, 0.0, 0.2, 0.0, 0.0, 0.0, 0.0; 100.00; 1172.08; 1.14; [0]
93.4, 89.9, 91.6, 0.8, 0.0, 0.0, 0.0, 0.0; 91.63; 1243.20; 1.11; [0, 1, 2]
83.7, 87.7, 98.5, 76.2, 0.0, 0.0, 0.0, 0.0; 86.52; 1205.88; 1.11; [0, 1, 2, 3]
94.1, 88.3, 87.9, 0.4, 0.0, 0.0, 0.0, 0.0; 90.10; 1009.90; 1.13; [0, 1, 2]
0.4, 0.0, 0.0, 0.0, 100.0, 0.0, 0.0, 0.0; 100.00; 948.05; 1.09; [4]
92.1, 96.2, 89.8, 0.4, 0.0, 0.0, 0.0, 0.0; 92.70; 932.00; 1.17; [0, 1, 2]
0.2, 0.0, 0.0, 0.0, 96.6, 97.9, 0.0, 0.0; 97.25; 799.54; 1.30; [4, 5]
0.7, 0.0, 0.0, 0.0, 96.1, 90.0, 94.2, 0.0; 93.43; 782.08; 1.56; [4, 5, 6]
96.6, 69.4, 69.0, 88.8, 0.0, 0.2, 0.0, 0.0; 80.95; 707.64; 1.66; [0, 1, 2, 3]
0.4, 0.0, 0.0, 0.0, 98.9, 89.3, 91.1, 0.0; 93.10; 626.28; 1.95; [4, 5, 6]
0.0, 0.0, 0.2, 0.0, 95.6, 99.8, 0.0, 0.0; 97.70; 550.88; 2.00; [4, 5]
0.5, 0.0, 0.0, 0.0, 98.9, 89.2, 88.5, 0.0; 92.20; 567.67; 2.07; [4, 5, 6]
0.2, 0.0, 0.0, 0.0, 96.4, 97.4, 0.0, 0.0; 96.90; 569.95; 2.19; [4, 5]
0.5, 0.0, 0.0, 0.0, 88.4, 83.3, 86.8, 94.1; 88.15; 581.45; 2.27; [4, 5, 6, 7]
0.0, 0.0, 0.2, 0.0, 93.6, 88.3, 95.1, 0.0; 92.33; 481.39; 2.36; [4, 5, 6]
100.0, 0.4, 0.2, 0.2, 0.0, 0.0, 0.0, 0.0; 100.00; 546.68; 2.37; [0]
0.2, 0.4, 0.0, 0.0, 95.7, 97.0, 0.0, 0.0; 96.35; 601.38; 2.02; [4, 5]
96.9, 94.8, 0.2, 0.7, 0.0, 0.2, 0.0, 0.0; 95.85; 698.70; 1.93; [0, 1]
100.0, 0.2, 0.2, 0.2, 0.0, 0.0, 0.0, 0.0; 100.00; 845.68; 1.67; [0]
90.0, 88.5, 91.9, 0.4, 0.0, 0.0, 0.0, 0.0; 90.13; 942.70; 1.47; [0, 1, 2]
0.0, 0.0, 0.2, 0.0, 86.4, 81.9, 86.8, 97.9; 88.25; 945.97; 1.44; [4, 5, 6, 7]
0.4, 0.0, 0.0, 0.0, 100.0, 0.0, 0.0, 0.0; 100.00; 784.04; 1.48; [4]
87.0, 93.2, 89.6, 85.3, 0.0, 0.0, 0.0, 0.0; 88.77; 778.86; 1.65; [0, 1, 2, 3]
0.0, 0.0, 0.0, 0.0, 87.3, 76.7, 85.4, 97.9; 86.83; 588.14; 1.87; [4, 5, 6, 7]
98.3, 94.4, 0.0, 0.4, 0.0, 0.0, 0.0, 0.0; 96.35; 626.26; 1.87; [0, 1]
0.4, 0.2, 0.2, 0.0, 80.5, 75.9, 88.2, 86.0; 82.65; 633.94; 2.10; [4, 5, 6, 7]
0.0, 0.0, 0.2, 0.0, 91.5, 91.1, 92.3, 0.0; 91.63; 521.26; 2.16; [4, 5, 6]
96.2, 91.6, 92.2, 0.9, 0.0, 0.0, 0.0, 0.0; 93.33; 552.43; 2.08; [0, 1, 2]
94.5, 94.1, 0.0, 0.2, 0.0, 0.0, 0.0, 0.0; 94.30; 592.03; 2.06; [0, 1]
0.0, 0.0, 0.0, 0.0, 95.3, 98.7, 0.0, 0.0; 97.00; 673.10; 1.73; [4, 5]
100.0, 0.0, 0.0, 0.2, 0.0, 0.0, 0.0, 0.0; 100.00; 785.97; 1.63; [0]
0.4, 0.0, 0.0, 0.0, 94.7, 95.7, 0.0, 0.0; 95.20; 863.01; 1.43; [4, 5]
0.4, 0.0, 0.0, 0.0, 97.2, 98.2, 0.0, 0.0; 97.70; 878.78; 1.43; [4, 5]
0.2, 0.0, 0.2, 0.0, 87.4, 80.2, 85.9, 96.5; 87.50; 859.02; 1.77; [4, 5, 6, 7]
96.8, 97.2, 0.2, 0.2, 0.0, 0.2, 0.0, 0.0; 97.00; 599.68; 1.99; [0, 1]
0.6, 0.0, 0.0, 0.0, 100.0, 0.0, 0.0, 0.0; 100.00; 662.66; 1.88; [4]
0.2, 0.0, 0.0, 0.0, 95.1, 96.6, 0.0, 0.0; 95.85; 685.33; 1.73; [4, 5]
92.2, 85.9, 84.9, 94.8, 0.0, 0.0, 0.0, 0.0; 89.45; 730.94; 1.73; [0, 1, 2, 3]
89.4, 96.0, 87.2, 0.2, 0.0, 0.0, 0.0, 0.0; 90.87; 828.63; 1.54; [0, 1, 2]
0.0, 0.0, 0.0, 0.0, 97.2, 96.6, 0.0, 0.0; 96.90; 836.52; 1.46; [4, 5]
0.4, 0.0, 0.0, 0.0, 100.0, 0.0, 0.0, 0.0; 100.00; 745.47; 1.50; [4]
0.2, 0.0, 0.0, 0.0, 100.0, 0.0, 0.0, 0.0; 100.00; 811.41; 1.45; [4]
94.3, 86.3, 92.1, 91.7, 0.0, 0.0, 0.0, 0.0; 91.10; 824.44; 1.36; [0, 1, 2, 3]
91.2, 88.4, 88.2, 87.6, 0.0, 0.0, 0.0, 0.0; 88.85; 811.52; 1.38; [0, 1, 2, 3]
100.0, 0.2, 0.2, 0.4, 0.0, 0.0, 0.0, 0.0; 100.00; 840.02; 1.34; [0]
0.0, 0.0, 0.0, 0.0, 86.4, 76.3, 87.2, 97.5; 86.85; 875.82; 1.43; [4, 5, 6, 7]
0.2, 0.2, 0.0, 0.0, 97.0, 97.8, 0.0, 0.0; 97.40; 622.40; 1.65; [4, 5]
0.4, 0.0, 0.0, 0.0, 100.0, 0.0, 0.0, 0.0; 100.00; 699.82; 1.69; [4]
0.0, 0.2, 0.0, 0.0, 98.9, 90.7, 88.9, 0.0; 92.83; 702.59; 2.05; [4, 5, 6]
0.4, 0.0, 0.0, 0.0, 100.0, 0.0, 0.0, 0.0; 100.00; 674.56; 2.02; [4]
1.3, 0.4, 0.0, 0.0, 86.4, 86.6, 86.4, 98.7; 89.52; 711.17; 1.98; [4, 5, 6, 7]
100.0, 0.6, 0.2, 0.2, 0.0, 0.0, 0.0, 0.0; 100.00; 599.29; 2.10; [0]
0.2, 0.0, 0.0, 0.0, 87.8, 86.0, 84.9, 97.2; 88.98; 643.18; 2.09; [4, 5, 6, 7]
87.5, 85.3, 93.8, 76.5, 0.0, 0.0, 0.0, 0.0; 85.78; 558.25; 2.17; [0, 1, 2, 3]
0.2, 0.0, 0.0, 0.0, 100.0, 0.0, 0.0, 0.0; 100.00; 670.63; 1.82; [4]
96.2, 96.8, 0.4, 0.2, 0.0, 0.0, 0.0, 0.0; 96.50; 702.56; 1.63; [0, 1]
94.8, 94.6, 0.2, 0.2, 0.0, 0.0, 0.0, 0.0; 94.70; 759.35; 1.58; [0, 1]
0.2, 0.0, 0.0, 0.0, 85.3, 82.0, 87.3, 93.4; 87.00; 782.08; 1.41; [4, 5, 6, 7]
0.2, 0.0, 0.2, 0.0, 100.0, 0.0, 0.0, 0.0; 100.00; 798.99; 1.50; [4]
91.1, 94.9, 90.2, 0.2, 0.0, 0.0, 0.0, 0.0; 92.07; 797.78; 1.50; [0, 1, 2]
94.2, 90.8, 91.0, 1.0, 0.0, 0.0, 0.0, 0.0; 92.00; 724.08; 1.59; [0, 1, 2]
0.2, 0.0, 0.0, 0.0, 98.1, 89.8, 89.6, 0.0; 92.50; 695.53; 1.59; [4, 5, 6]
93.8, 92.5, 87.7, 0.4, 0.0, 0.0, 0.0, 0.0; 91.33; 733.00; 1.56; [0, 1, 2]
94.3, 96.8, 0.0, 0.4, 0.0, 0.0, 0.0, 0.0; 95.55; 727.55; 1.43; [0, 1]
87.9, 88.7, 74.0, 72.2, 0.0, 0.4, 0.0, 0.0; 80.70; 751.68; 1.40; [0, 1, 2, 3]
0.4, 0.2, 0.0, 0.2, 96.6, 96.8, 0.0, 0.0; 96.70; 733.49; 1.45; [4, 5]
100.0, 0.0, 0.7, 0.0, 0.0, 0.2, 0.0, 0.0; 100.00; 854.09; 1.42; [0]
91.1, 72.3, 91.1, 88.6, 0.0, 0.0, 0.0, 0.0; 85.77; 890.81; 1.28; [0, 1, 2, 3]
0.2, 0.2, 0.0, 0.0, 86.3, 88.0, 88.0, 98.3; 90.15; 848.27; 1.64; [4, 5, 6, 7]
0.8, 0.0, 0.0, 0.0, 84.6, 80.1, 87.6, 97.8; 87.52; 611.75; 2.53; [4, 5, 6, 7]
83.6, 85.1, 90.5, 88.1, 0.0, 0.0, 0.0, 0.0; 86.82; 416.22; 2.72; [0, 1, 2, 3]
89.4, 92.6, 91.2, 92.0, 0.0, 0.0, 0.0, 0.0; 91.30; 486.79; 2.23; [0, 1, 2, 3]
0.0, 0.2, 0.0, 0.2, 96.8, 97.9, 0.0, 0.0; 97.35; 562.01; 1.79; [4, 5]
97.2, 94.6, 0.2, 0.0, 0.0, 0.0, 0.0, 0.0; 95.90; 664.02; 1.65; [0, 1]
0.2, 0.0, 0.0, 0.0, 96.0, 89.2, 90.6, 0.0; 91.93; 704.50; 1.53; [4, 5, 6]
0.2, 0.2, 0.0, 0.0, 100.0, 87.8, 89.0, 0.0; 92.27; 661.35; 1.85; [4, 5, 6]
0.2, 0.0, 0.0, 0.0, 84.5, 83.2, 88.2, 94.3; 87.55; 599.68; 2.47; [4, 5, 6, 7]
88.6, 97.0, 90.4, 0.4, 0.0, 0.0, 0.0, 0.0; 92.00; 481.92; 2.49; [0, 1, 2]
100.0, 0.0, 0.0, 0.4, 0.0, 0.0, 0.0, 0.0; 100.00; 565.20; 2.03; [0]
93.3, 73.0, 84.5, 93.9, 0.0, 0.0, 0.0, 0.0; 86.18; 659.14; 1.74; [0, 1, 2, 3]
0.6, 0.2, 0.0, 0.0, 92.1, 92.3, 93.4, 0.0; 92.60; 693.73; 1.48; [4, 5, 6]
98.1, 95.8, 0.2, 0.4, 0.0, 0.0, 0.0, 0.0; 96.95; 792.85; 1.44; [0, 1]
95.2, 95.0, 0.4, 0.2, 0.0, 0.0, 0.0, 0.0; 95.10; 855.56; 1.29; [0, 1]
0.2, 0.0, 0.0, 0.0, 97.7, 97.2, 0.0, 0.0; 97.45; 852.29; 1.45; [4, 5]
88.5, 90.6, 85.4, 67.8, 0.0, 0.0, 0.0, 0.0; 83.08; 778.84; 1.49; [0, 1, 2, 3]
100.0, 0.2, 0.0, 0.2, 0.0, 0.0, 0.0, 0.0; 100.00; 881.54; 1.42; [0]
100.0, 0.2, 0.0, 0.2, 0.0, 0.2, 0.0, 0.0; 100.00; 985.11; 1.26; [0]
96.8, 96.8, 0.2, 0.4, 0.0, 0.0, 0.0, 0.0; 96.80; 1092.28; 1.17; [0, 1]
89.8, 94.5, 91.5, 0.2, 0.0, 0.0, 0.0, 0.0; 91.93; 1088.65; 1.12; [0, 1, 2]
0.4, 0.2, 0.0, 0.0, 86.8, 84.1, 87.4, 97.0; 88.82; 1004.17; 1.23; [4, 5, 6, 7]
0.4, 0.0, 0.0, 0.0, 96.6, 97.2, 0.0, 0.0; 96.90; 848.62; 1.69; [4, 5]
90.0, 87.5, 90.7, 0.7, 0.0, 0.0, 0.0, 0.0; 89.40; 597.67; 1.83; [0, 1, 2]
0.2, 0.0, 0.0, 0.0, 100.0, 0.0, 0.0, 0.0; 100.00; 631.33; 1.85; [4]
0.2, 0.0, 0.0, 0.2, 85.5, 89.1, 88.5, 96.2; 89.83; 645.29; 1.77; [4, 5, 6, 7]
0.2, 0.0, 0.0, 0.0, 85.2, 85.8, 88.8, 95.8; 88.90; 617.48; 2.40; [4, 5, 6, 7]
89.8, 92.4, 98.3, 0.2, 0.0, 0.2, 0.0, 0.0; 93.50; 418.98; 2.72; [0, 1, 2]
91.3, 88.6, 91.2, 0.2, 0.0, 0.0, 0.0, 0.0; 90.37; 527.56; 2.28; [0, 1, 2]
0.6, 0.0, 0.0, 0.0, 89.6, 90.3, 95.6, 0.0; 91.83; 575.05; 1.80; [4, 5, 6]
96.8, 93.3, 0.6, 0.2, 0.0, 0.0, 0.0, 0.0; 95.05; 686.16; 1.72; [0, 1]
92.4, 88.4, 93.4, 0.4, 0.0, 0.0, 0.0, 0.0; 91.40; 742.48; 1.47; [0, 1, 2]
87.7, 90.9, 91.1, 78.2, 0.0, 0.0, 0.0, 0.0; 86.98; 741.57; 1.38; [0, 1, 2, 3]
0.0, 0.0, 0.0, 0.0, 100.0, 0.0, 0.0, 0.0; 100.00; 756.47; 1.40; [4]
0.4, 0.0, 0.0, 0.0, 98.9, 89.8, 89.1, 0.0; 92.60; 781.96; 1.41; [4, 5, 6]
0.0, 0.0, 0.0, 0.0, 84.7, 77.8, 87.4, 98.4; 87.08; 678.78; 1.98; [4, 5, 6, 7]
0.4, 0.0, 0.0, 0.0, 84.9, 86.7, 87.6, 98.4; 89.40; 520.14; 2.72; [4, 5, 6, 7]
0.0, 0.2, 0.0, 0.2, 87.0, 86.8, 88.5, 97.4; 89.93; 362.26; 2.88; [4, 5, 6, 7]
0.8, 0.2, 0.0, 0.0, 85.3, 85.1, 84.7, 99.2; 88.57; 344.67; 2.88; [4, 5, 6, 7]
0.2, 0.0, 0.0, 0.0, 85.8, 86.1, 85.6, 99.0; 89.12; 348.43; 2.88; [4, 5, 6, 7]
0.4, 0.0, 0.0, 0.0, 85.3, 89.6, 87.0, 97.6; 89.88; 348.06; 2.89; [4, 5, 6, 7]
0.4, 0.0, 0.0, 0.0, 86.4, 87.2, 90.0, 96.2; 89.95; 343.90; 2.90; [4, 5, 6, 7]
