1.6, 2.0, 3.2, 0.2, 0.6, 1.0, 4.8, 1.4; 1.95; 34.17; 1.05; [4, 5, 6, 7]
1.6, 2.0, 3.2, 0.2, 0.6, 1.0, 4.8, 1.4; 1.60; 94.42; 1.07; [0]
1.6, 2.0, 3.2, 0.2, 0.6, 1.0, 4.8, 1.4; 0.80; 76.55; 1.50; [4, 5]
1.6, 2.0, 3.2, 0.2, 0.6, 1.0, 4.8, 1.4; 0.80; 40.00; 1.47; [4, 5]
1.6, 2.0, 3.2, 0.2, 0.6, 1.0, 4.8, 1.4; 0.60; 44.53; 1.56; [4]
1.6, 2.0, 3.2, 0.2, 0.6, 1.0, 4.8, 1.4; 1.75; 46.55; 1.46; [0, 1, 2, 3]
1.6, 2.0, 3.2, 0.2, 0.6, 1.0, 4.8, 1.4; 0.60; 48.73; 1.45; [4]
1.6, 2.0, 3.2, 0.2, 0.6, 1.0, 4.8, 1.4; 0.80; 44.00; 1.59; [4, 5]
1.6, 2.0, 3.2, 0.2, 0.6, 1.0, 4.8, 1.4; 1.80; 40.20; 1.44; [0, 1]
1.6, 2.0, 3.2, 0.2, 0.6, 1.0, 4.8, 1.4; 1.75; 40.00; 1.20; [0, 1, 2, 3]
1.6, 2.0, 3.2, 0.2, 0.6, 1.0, 4.8, 1.4; 0.80; 40.00; 1.41; [4, 5]
1.6, 2.0, 3.2, 0.2, 0.6, 1.0, 4.8, 1.4; 1.80; 41.83; 1.49; [0, 1]
1.6, 2.0, 3.2, 0.2, 0.6, 1.0, 4.8, 1.4; 2.27; 41.79; 1.24; [0, 1, 2]
1.6, 2.0, 3.2, 0.2, 0.6, 1.0, 4.8, 1.4; 1.95; 40.00; 1.47; [4, 5, 6, 7]
1.6, 2.0, 3.2, 0.2, 0.6, 1.0, 4.8, 1.4; 1.80; 43.95; 1.56; [0, 1]
1.6, 2.0, 3.2, 0.2, 0.6, 1.0, 4.8, 1.4; 2.27; 43.48; 1.19; [0, 1, 2]
1.6, 2.0, 3.2, 0.2, 0.6, 1.0, 4.8, 1.4; 2.27; 40.00; 1.05; [0, 1, 2]
1.6, 2.0, 3.2, 0.2, 0.6, 1.0, 4.8, 1.4; 1.95; 40.00; 1.47; [4, 5, 6, 7]
1.6, 2.0, 3.2, 0.2, 0.6, 1.0, 4.8, 1.4; 1.60; 88.26; 1.43; [0]
1.6, 2.0, 3.2, 0.2, 0.6, 1.0, 4.8, 1.4; 2.27; 81.41; 1.14; [0, 1, 2]
1.6, 2.0, 3.2, 0.2, 0.6, 1.0, 4.8, 1.4; 1.95; 40.00; 1.48; [4, 5, 6, 7]
1.6, 2.0, 3.2, 0.2, 0.6, 1.0, 4.8, 1.4; 1.80; 43.52; 1.55; [0, 1]
1.6, 2.0, 3.2, 0.2, 0.6, 1.0, 4.8, 1.4; 1.95; 41.80; 1.58; [4, 5, 6, 7]
1.6, 2.0, 3.2, 0.2, 0.6, 1.0, 4.8, 1.4; 1.80; 43.20; 1.39; [0, 1]
1.6, 2.0, 3.2, 0.2, 0.6, 1.0, 4.8, 1.4; 1.80; 45.50; 1.05; [0, 1]
1.6, 2.0, 3.2, 0.2, 0.6, 1.0, 4.8, 1.4; 0.60; 45.30; 1.42; [4]
1.6, 2.0, 3.2, 0.2, 0.6, 1.0, 4.8, 1.4; 1.60; 84.87; 1.43; [0]
1.6, 2.0, 3.2, 0.2, 0.6, 1.0, 4.8, 1.4; 2.27; 75.97; 1.11; [0, 1, 2]
1.6, 2.0, 3.2, 0.2, 0.6, 1.0, 4.8, 1.4; 0.80; 40.00; 1.42; [4, 5]
1.6, 2.0, 3.2, 0.2, 0.6, 1.0, 4.8, 1.4; 1.75; 40.00; 1.45; [0, 1, 2, 3]
1.6, 2.0, 3.2, 0.2, 0.6, 1.0, 4.8, 1.4; 2.27; 40.00; 1.18; [0, 1, 2]
1.6, 2.0, 3.2, 0.2, 0.6, 1.0, 4.8, 1.4; 0.60; 46.69; 1.40; [4]
1.6, 2.0, 3.2, 0.2, 0.6, 1.0, 4.8, 1.4; 1.95; 40.00; 1.58; [4, 5, 6, 7]
1.6, 2.0, 3.2, 0.2, 0.6, 1.0, 4.8, 1.4; 2.13; 40.00; 1.52; [4, 5, 6]
1.6, 2.0, 3.2, 0.2, 0.6, 1.0, 4.8, 1.4; 0.80; 40.00; 1.65; [4, 5]
1.6, 2.0, 3.2, 0.2, 0.6, 1.0, 4.8, 1.4; 1.60; 91.65; 1.36; [0]
1.6, 2.0, 3.2, 0.2, 0.6, 1.0, 4.8, 1.4; 1.60; 92.29; 0.86; [0]
1.6, 2.0, 3.2, 0.2, 0.6, 1.0, 4.8, 1.4; 0.80; 70.15; 1.46; [4, 5]
1.6, 2.0, 3.2, 0.2, 0.6, 1.0, 4.8, 1.4; 2.27; 40.00; 1.28; [0, 1, 2]
1.6, 2.0, 3.2, 0.2, 0.6, 1.0, 4.8, 1.4; 1.95; 40.00; 1.42; [4, 5, 6, 7]
1.6, 2.0, 3.2, 0.2, 0.6, 1.0, 4.8, 1.4; 2.13; 40.00; 1.44; [4, 5, 6]
1.6, 2.0, 3.2, 0.2, 0.6, 1.0, 4.8, 1.4; 2.27; 40.00; 1.45; [0, 1, 2]
1.6, 2.0, 3.2, 0.2, 0.6, 1.0, 4.8, 1.4; 1.60; 94.25; 1.14; [0]
1.6, 2.0, 3.2, 0.2, 0.6, 1.0, 4.8, 1.4; 2.13; 88.45; 1.45; [4, 5, 6]
1.6, 2.0, 3.2, 0.2, 0.6, 1.0, 4.8, 1.4; 1.60; 81.82; 1.26; [0]
1.6, 2.0, 3.2, 0.2, 0.6, 1.0, 4.8, 1.4; 0.60; 76.38; 1.38; [4]
1.6, 2.0, 3.2, 0.2, 0.6, 1.0, 4.8, 1.4; 0.60; 44.23; 1.40; [4]
1.6, 2.0, 3.2, 0.2, 0.6, 1.0, 4.8, 1.4; 1.80; 40.00; 1.45; [0, 1]
1.6, 2.0, 3.2, 0.2, 0.6, 1.0, 4.8, 1.4; 2.27; 40.00; 1.17; [0, 1, 2]
1.6, 2.0, 3.2, 0.2, 0.6, 1.0, 4.8, 1.4; 1.75; 40.00; 1.21; [0, 1, 2, 3]
1.6, 2.0, 3.2, 0.2, 0.6, 1.0, 4.8, 1.4; 2.27; 40.00; 1.23; [0, 1, 2]
1.6, 2.0, 3.2, 0.2, 0.6, 1.0, 4.8, 1.4; 1.75; 40.00; 1.17; [0, 1, 2, 3]
1.6, 2.0, 3.2, 0.2, 0.6, 1.0, 4.8, 1.4; 0.80; 40.00; 1.58; [4, 5]
1.6, 2.0, 3.2, 0.2, 0.6, 1.0, 4.8, 1.4; 2.13; 40.00; 1.65; [4, 5, 6]
1.6, 2.0, 3.2, 0.2, 0.6, 1.0, 4.8, 1.4; 1.60; 88.71; 1.57; [0]
1.6, 2.0, 3.2, 0.2, 0.6, 1.0, 4.8, 1.4; 1.80; 80.31; 1.09; [0, 1]
1.6, 2.0, 3.2, 0.2, 0.6, 1.0, 4.8, 1.4; 1.95; 41.55; 1.55; [4, 5, 6, 7]
1.6, 2.0, 3.2, 0.2, 0.6, 1.0, 4.8, 1.4; 2.27; 40.00; 1.51; [0, 1, 2]
1.6, 2.0, 3.2, 0.2, 0.6, 1.0, 4.8, 1.4; 0.80; 40.00; 1.47; [4, 5]
