Total Violations:  56
Total Jobs:  988
<<<<<<< HEAD
Violation Ratio:  5.668016194331984%
=======
Violation Ratio:  5.66801619433%
>>>>>>> 5d07200b22786ce931e1e444b56379d7a10d9e86
Energy Spent:  2709.050729