3.7, 1.1, 3.0, 2.2, 88.2, 96.5, 73.0, 89.5; 27.93; 749.49; 3.65; [4, 5, 6, 7]
99.7, 99.3, 100.0, 100.0, 0.0, 0.0, 0.0, 0.0; 88.28; 2368.59; 2.38; [0, 1, 2, 3]
1.6, 0.3, 0.0, 0.0, 100.0, 0.0, 0.1, 0.0; 109.36; 2934.01; 1.74; [4]
100.0, 0.4, 0.7, 0.2, 0.0, 0.0, 0.0, 0.0; 122.79; 3294.56; 1.55; [0]
100.0, 100.0, 0.3, 0.1, 0.0, 0.0, 0.0, 0.0; 132.17; 3546.05; 1.44; [0, 1]
1.7, 0.1, 0.0, 0.1, 100.0, 100.0, 99.9, 0.0; 151.49; 4064.59; 1.60; [4, 5, 6]
100.0, 100.0, 100.0, 100.0, 0.0, 0.0, 0.0, 0.0; 113.74; 3051.61; 1.66; [0, 1, 2, 3]
100.0, 100.0, 100.0, 1.0, 0.0, 0.0, 0.0, 0.0; 112.16; 3009.23; 1.64; [0, 1, 2]
1.5, 0.1, 0.0, 0.3, 100.0, 99.9, 99.9, 0.0; 106.91; 2868.35; 1.72; [4, 5, 6]
100.0, 100.0, 100.0, 100.0, 0.0, 0.1, 0.0, 0.0; 101.01; 2710.11; 1.73; [0, 1, 2, 3]
99.9, 99.8, 100.0, 0.8, 0.0, 0.0, 0.0, 0.0; 94.53; 2536.30; 1.76; [0, 1, 2]
1.4, 0.5, 0.0, 0.2, 99.9, 99.9, 100.0, 0.0; 84.60; 2269.82; 1.96; [4, 5, 6]
1.1, 0.2, 0.0, 0.0, 100.0, 100.0, 99.9, 0.0; 76.71; 2058.20; 2.17; [4, 5, 6]
100.0, 100.0, 0.6, 0.4, 0.0, 0.1, 0.0, 0.0; 74.40; 1996.05; 2.22; [0, 1]
1.0, 0.1, 0.0, 0.1, 100.0, 100.0, 0.0, 0.0; 77.23; 2072.00; 2.11; [4, 5]
1.3, 0.0, 0.0, 0.3, 100.0, 100.0, 0.0, 0.0; 80.57; 2161.71; 2.04; [4, 5]
100.0, 100.0, 100.0, 1.5, 0.0, 0.1, 0.0, 0.0; 81.52; 2187.29; 2.05; [0, 1, 2]
2.6, 0.0, 0.0, 0.5, 98.9, 73.8, 98.1, 0.0; 78.36; 2102.45; 2.08; [4, 5, 6]
99.9, 99.9, 0.9, 0.3, 0.0, 0.0, 0.0, 0.0; 58.68; 1574.33; 2.02; [0, 1]
99.9, 100.0, 99.9, 99.9, 0.0, 0.0, 0.0, 0.0; 51.65; 1385.70; 1.84; [0, 1, 2, 3]
1.9, 0.0, 0.0, 0.3, 100.0, 100.0, 0.0, 0.0; 40.72; 1092.41; 1.79; [4, 5]
1.9, 0.0, 0.1, 0.6, 100.0, 99.9, 100.0, 0.0; 43.11; 1156.52; 2.14; [4, 5, 6]
2.8, 0.0, 0.0, 0.6, 99.8, 99.8, 99.8, 0.0; 34.19; 917.30; 2.76; [4, 5, 6]
98.1, 99.9, 99.5, 94.8, 0.0, 0.0, 0.0, 0.0; 31.67; 849.75; 2.72; [0, 1, 2, 3]
99.9, 99.9, 99.6, 2.4, 0.0, 0.0, 0.0, 0.0; 36.65; 983.37; 2.36; [0, 1, 2]
100.0, 0.6, 0.1, 0.4, 0.0, 0.1, 0.0, 0.0; 46.68; 1252.36; 1.83; [0]
3.6, 1.0, 0.1, 0.1, 99.9, 99.9, 99.8, 0.0; 47.40; 1271.77; 1.64; [4, 5, 6]
3.1, 0.7, 0.0, 0.1, 99.9, 99.9, 99.7, 0.0; 36.89; 989.79; 2.96; [4, 5, 6]
100.0, 99.9, 99.7, 100.0, 0.0, 0.1, 0.0, 0.0; 25.61; 687.07; 2.96; [0, 1, 2, 3]
99.9, 99.9, 99.8, 2.2, 0.0, 0.0, 0.0, 0.0; 30.41; 815.87; 2.22; [0, 1, 2]
100.0, 0.4, 0.1, 0.3, 0.0, 0.0, 0.0, 0.0; 39.75; 1066.46; 1.75; [0]
100.0, 100.0, 99.6, 100.0, 0.0, 0.0, 0.0, 0.0; 45.40; 1218.11; 1.44; [0, 1, 2, 3]
1.7, 0.0, 0.0, 0.7, 100.0, 100.0, 0.6, 0.0; 46.36; 1243.80; 1.42; [4, 5]
2.7, 0.1, 0.0, 0.1, 100.0, 99.8, 99.9, 0.0; 45.99; 1233.83; 2.18; [4, 5, 6]
2.3, 0.1, 0.1, 0.0, 99.9, 99.7, 99.8, 0.0; 34.31; 920.49; 2.70; [4, 5, 6]
99.6, 98.7, 100.0, 98.1, 0.0, 0.0, 0.0, 0.0; 35.15; 943.04; 2.73; [0, 1, 2, 3]
99.9, 99.9, 99.9, 1.7, 0.0, 0.0, 0.0, 0.0; 38.05; 1020.81; 2.41; [0, 1, 2]
100.0, 0.3, 0.4, 0.4, 0.0, 0.0, 0.0, 0.0; 44.98; 1206.79; 1.94; [0]
4.5, 0.1, 0.0, 1.1, 100.0, 99.6, 100.0, 99.9; 46.65; 1251.65; 1.89; [4, 5, 6, 7]
1.8, 0.1, 0.0, 0.9, 100.0, 100.0, 0.4, 0.0; 31.09; 834.18; 3.11; [4, 5]
100.0, 0.3, 0.2, 0.3, 0.0, 0.0, 0.0, 0.0; 30.32; 813.49; 2.54; [0]
99.9, 99.9, 99.9, 99.9, 0.0, 0.0, 0.0, 0.0; 44.10; 1183.11; 2.22; [0, 1, 2, 3]
1.3, 0.1, 0.0, 0.0, 100.0, 100.0, 0.0, 0.0; 55.03; 1476.53; 1.98; [4, 5]
1.5, 0.0, 0.0, 0.1, 99.8, 100.0, 99.9, 0.0; 64.29; 1724.99; 2.03; [4, 5, 6]
100.0, 100.0, 0.4, 0.4, 0.0, 0.0, 0.0, 0.0; 75.56; 2027.35; 2.04; [0, 1]
0.8, 0.0, 0.0, 0.0, 100.0, 100.0, 0.0, 0.0; 83.56; 2241.92; 1.88; [4, 5]
100.0, 100.0, 99.9, 1.3, 0.0, 0.0, 0.0, 0.0; 94.64; 2539.23; 1.85; [0, 1, 2]
1.5, 0.0, 0.0, 0.0, 100.0, 100.0, 99.9, 0.0; 100.70; 2701.84; 1.86; [4, 5, 6]
100.0, 100.0, 100.0, 100.0, 0.0, 0.0, 0.0, 0.0; 93.33; 2503.91; 2.00; [0, 1, 2, 3]
1.5, 0.2, 0.0, 0.0, 100.0, 100.0, 99.9, 99.9; 88.63; 2377.94; 2.15; [4, 5, 6, 7]
0.7, 0.1, 0.1, 0.0, 100.0, 0.0, 0.0, 0.0; 85.48; 2293.43; 2.16; [4]
100.0, 100.0, 0.5, 0.2, 0.0, 0.0, 0.0, 0.0; 88.52; 2374.89; 2.01; [0, 1]
1.3, 0.0, 0.1, 0.1, 100.0, 99.9, 100.0, 0.0; 88.03; 2361.95; 2.09; [4, 5, 6]
1.7, 0.2, 0.4, 0.0, 99.9, 99.8, 99.9, 0.0; 79.63; 2136.34; 2.29; [4, 5, 6]
100.0, 100.0, 1.1, 0.3, 0.0, 0.0, 0.0, 0.0; 81.48; 2185.99; 2.23; [0, 1]
1.4, 0.0, 0.3, 0.0, 99.9, 99.0, 93.5, 0.0; 82.65; 2217.56; 2.22; [4, 5, 6]
1.8, 0.1, 0.2, 0.1, 100.0, 99.8, 100.0, 0.0; 80.13; 2149.75; 2.29; [4, 5, 6]
1.4, 0.2, 0.0, 0.2, 99.9, 99.9, 99.8, 0.0; 63.13; 1693.73; 2.55; [4, 5, 6]
100.0, 100.0, 0.4, 0.3, 0.0, 0.0, 0.0, 0.0; 65.53; 1758.29; 2.53; [0, 1]
0.9, 0.1, 0.1, 0.0, 100.0, 100.0, 0.0, 0.0; 71.85; 1927.69; 2.28; [4, 5]
1.3, 0.1, 0.1, 0.1, 100.0, 100.0, 0.0, 0.0; 71.54; 1919.31; 2.36; [4, 5]
1.0, 0.0, 0.2, 0.0, 100.0, 99.9, 0.0, 0.0; 75.49; 2025.48; 2.33; [4, 5]
0.8, 0.2, 0.0, 0.0, 100.0, 100.0, 0.0, 0.0; 79.68; 2137.85; 2.28; [4, 5]
1.3, 0.1, 0.0, 0.0, 100.0, 100.0, 0.0, 0.0; 86.05; 2308.73; 2.19; [4, 5]
100.0, 99.9, 100.0, 1.4, 0.0, 0.0, 0.0, 0.0; 91.01; 2441.91; 2.11; [0, 1, 2]
99.9, 99.9, 99.9, 0.8, 0.0, 0.0, 0.0, 0.0; 97.39; 2612.87; 1.92; [0, 1, 2]
99.9, 99.9, 100.0, 1.1, 0.0, 0.0, 0.0, 0.0; 96.47; 2588.28; 1.86; [0, 1, 2]
100.0, 100.0, 99.9, 1.4, 0.0, 0.0, 0.0, 0.0; 95.99; 2575.50; 1.80; [0, 1, 2]
100.0, 100.0, 99.9, 1.7, 0.0, 0.0, 0.0, 0.0; 98.53; 2643.63; 1.71; [0, 1, 2]
100.0, 99.9, 100.0, 0.8, 0.0, 0.0, 0.0, 0.0; 103.04; 2764.45; 1.61; [0, 1, 2]
1.5, 0.0, 0.0, 0.2, 99.9, 100.0, 99.9, 0.0; 104.42; 2801.58; 1.58; [4, 5, 6]
77.0, 97.3, 100.0, 97.4, 0.0, 0.1, 0.0, 0.0; 102.17; 2741.23; 1.59; [0, 1, 2, 3]
61.4, 98.6, 97.4, 1.0, 0.0, 0.0, 0.0, 0.0; 102.59; 2752.56; 1.51; [0, 1, 2]
100.0, 100.0, 0.4, 0.5, 0.0, 0.0, 0.0, 0.0; 99.88; 2679.90; 1.49; [0, 1]
0.8, 0.0, 0.0, 0.1, 100.0, 100.0, 100.0, 0.0; 101.84; 2732.37; 1.65; [4, 5, 6]
100.0, 100.0, 100.0, 100.0, 0.0, 0.0, 0.0, 0.0; 97.54; 2617.06; 1.73; [0, 1, 2, 3]
1.6, 0.3, 0.0, 0.2, 100.0, 100.0, 99.9, 100.0; 96.11; 2578.62; 2.08; [4, 5, 6, 7]
1.1, 0.1, 0.0, 0.0, 100.0, 0.0, 0.0, 0.0; 92.21; 2473.91; 2.07; [4]
100.0, 100.0, 0.9, 0.2, 0.0, 0.0, 0.0, 0.0; 97.81; 2624.33; 1.94; [0, 1]
100.0, 0.3, 0.2, 0.4, 0.0, 0.0, 0.0, 0.0; 101.35; 2719.14; 1.78; [0]
0.8, 0.1, 0.0, 0.0, 100.0, 0.0, 0.0, 0.0; 112.34; 3014.03; 1.71; [4]
1.6, 0.2, 0.1, 0.1, 100.0, 100.0, 99.9, 0.0; 114.06; 3060.16; 1.88; [4, 5, 6]
100.0, 99.9, 100.0, 100.0, 0.0, 0.0, 0.0, 0.0; 105.81; 2838.80; 1.97; [0, 1, 2, 3]
1.6, 0.1, 0.4, 0.0, 100.0, 99.9, 99.9, 100.0; 103.98; 2789.89; 2.02; [4, 5, 6, 7]
0.9, 0.0, 0.1, 0.0, 100.0, 0.0, 0.0, 0.0; 103.18; 2768.29; 2.01; [4]
0.8, 0.2, 0.0, 0.0, 69.1, 82.5, 99.9, 98.7; 103.94; 2788.84; 2.02; [4, 5, 6, 7]
