blackscholes-0-1-2-3
blackscholes-0-1-2
blackscholes-0-1
blackscholes-0
blackscholes-4-5-6-7
blackscholes-4-5-6
blackscholes-4-5
blackscholes-4
bodytrack-0-1-2-3
bodytrack-0-1-2
bodytrack-0-1
bodytrack-0
bodytrack-4-5-6-7
bodytrack-4-5-6
bodytrack-4-5
bodytrack-4
facesim-0-1-2-3
facesim-0-1-2
facesim-0-1
facesim-0
facesim-4-5-6-7
facesim-4-5-6
facesim-4-5
facesim-4
ferret-0-1-2-3
ferret-0-1-2
ferret-0-1
ferret-0
ferret-4-5-6-7
ferret-4-5-6
ferret-4-5
ferret-4
x264-0-1-2-3
x264-0-1-2
x264-0-1
x264-0
x264-4-5-6-7
x264-4-5-6
x264-4-5
x264-4
