4.4, 0.4, 1.8, 0.6, 0.6, 1.0, 4.2, 0.8; 1.65; 35.78; 1.05; [4, 5, 6, 7]
40.2, 29.3, 40.4, 21.0, 7.7, 5.5, 5.9, 9.1; 7.05; 40.00; 1.05; [4, 5, 6, 7]
46.3, 17.8, 34.3, 42.9, 4.7, 5.3, 5.7, 6.1; 5.45; 40.00; 1.14; [4, 5, 6, 7]
46.7, 31.4, 17.7, 44.2, 5.5, 5.1, 5.7, 5.5; 5.45; 40.00; 1.17; [4, 5, 6, 7]
42.3, 37.2, 30.5, 31.3, 5.7, 5.9, 4.5, 7.1; 5.80; 40.00; 1.13; [4, 5, 6, 7]
41.7, 32.8, 41.7, 25.8, 5.9, 5.7, 5.9, 8.4; 6.47; 40.00; 1.17; [4, 5, 6, 7]
0.4, 0.0, 0.0, 0.0, 27.6, 50.2, 19.8, 0.0; 32.53; 40.00; 1.37; [4, 5, 6]
36.2, 86.1, 66.8, 0.2, 0.0, 0.0, 0.0, 0.0; 63.03; 40.00; 1.06; [0, 1, 2]
0.2, 0.0, 0.0, 0.0, 19.3, 80.3, 0.0, 0.0; 49.80; 40.00; 1.37; [4, 5]
0.0, 0.2, 0.0, 0.0, 73.4, 22.8, 0.0, 0.0; 48.10; 40.00; 1.36; [4, 5]
0.9, 0.0, 0.0, 0.0, 99.1, 0.0, 0.0, 0.0; 99.10; 43.36; 1.38; [4]
0.0, 0.0, 0.0, 0.0, 8.9, 51.2, 48.5, 5.5; 28.52; 40.14; 1.49; [4, 5, 6, 7]
64.4, 68.7, 57.4, 23.9, 0.0, 0.0, 0.0, 0.0; 53.60; 40.00; 1.09; [0, 1, 2, 3]
81.3, 51.5, 80.5, 0.0, 0.0, 0.0, 0.0, 0.0; 71.10; 40.00; 1.08; [0, 1, 2]
100.0, 0.0, 0.2, 0.8, 0.0, 0.0, 0.0, 0.0; 100.00; 98.13; 0.98; [0]
2.1, 0.0, 0.2, 0.0, 41.6, 3.7, 43.1, 15.3; 25.93; 84.78; 1.37; [4, 5, 6, 7]
55.2, 36.4, 45.1, 52.0, 0.0, 0.0, 0.0, 0.0; 47.17; 40.00; 1.03; [0, 1, 2, 3]
1.1, 0.0, 0.0, 0.0, 96.7, 0.0, 0.0, 0.0; 96.70; 42.58; 1.34; [4]
2.1, 0.0, 0.0, 0.0, 24.6, 34.6, 19.2, 31.6; 27.50; 40.00; 1.45; [4, 5, 6, 7]
0.9, 0.2, 0.0, 0.0, 100.0, 0.0, 0.0, 0.0; 100.00; 48.78; 1.38; [4]
0.0, 0.0, 0.0, 0.0, 41.6, 2.6, 10.2, 50.2; 26.15; 46.84; 1.48; [4, 5, 6, 7]
0.4, 0.0, 0.0, 0.0, 97.7, 0.0, 0.0, 0.0; 97.70; 40.00; 1.37; [4]
0.4, 0.0, 0.0, 0.0, 39.1, 13.2, 33.0, 17.5; 25.70; 40.00; 1.42; [4, 5, 6, 7]
0.2, 0.2, 0.0, 0.0, 98.3, 0.0, 0.0, 0.0; 98.30; 45.51; 1.37; [4]
0.4, 0.0, 0.0, 0.0, 4.3, 45.2, 4.5, 47.4; 25.35; 43.60; 1.38; [4, 5, 6, 7]
0.2, 0.0, 0.0, 0.0, 91.6, 0.0, 0.0, 0.0; 91.60; 40.00; 1.30; [4]
0.4, 0.0, 0.0, 0.0, 58.4, 7.5, 0.4, 22.6; 22.23; 40.00; 1.31; [4, 5, 6, 7]
0.9, 0.2, 0.0, 0.0, 93.8, 0.0, 0.0, 0.0; 93.80; 40.00; 1.33; [4]
100.0, 0.6, 0.2, 0.4, 0.0, 0.0, 0.0, 0.0; 100.00; 87.13; 1.10; [0]
0.4, 0.2, 0.0, 0.0, 34.2, 20.6, 33.5, 26.2; 28.63; 74.32; 1.37; [4, 5, 6, 7]
0.9, 0.0, 0.0, 0.0, 100.0, 0.2, 0.0, 0.0; 100.00; 49.53; 1.36; [4]
0.0, 0.0, 0.0, 0.0, 7.4, 50.9, 13.1, 51.0; 30.60; 46.89; 1.46; [4, 5, 6, 7]
0.4, 0.0, 0.0, 0.0, 17.4, 39.6, 34.6, 13.9; 26.38; 40.00; 1.40; [4, 5, 6, 7]
0.8, 0.2, 0.0, 0.0, 11.4, 43.9, 48.1, 3.2; 26.65; 40.00; 1.37; [4, 5, 6, 7]
0.4, 0.0, 0.0, 0.0, 14.7, 15.7, 42.3, 20.2; 23.22; 40.00; 1.29; [4, 5, 6, 7]
0.4, 0.0, 0.2, 0.0, 7.2, 36.3, 40.4, 11.6; 23.88; 40.00; 1.32; [4, 5, 6, 7]
0.4, 0.0, 0.0, 0.0, 89.5, 0.0, 0.0, 0.0; 89.50; 41.63; 1.31; [4]
0.4, 0.0, 0.0, 0.0, 55.3, 37.7, 6.8, 13.1; 28.22; 40.00; 1.43; [4, 5, 6, 7]
0.0, 0.0, 0.0, 0.0, 89.6, 0.2, 0.0, 0.0; 89.60; 41.93; 1.36; [4]
0.4, 0.0, 0.0, 0.0, 13.1, 12.5, 50.3, 42.7; 29.65; 40.26; 1.47; [4, 5, 6, 7]
0.2, 0.2, 0.2, 0.0, 100.0, 0.0, 0.0, 0.0; 100.00; 47.47; 1.39; [4]
0.6, 0.0, 0.0, 0.0, 39.7, 4.0, 43.5, 0.0; 21.80; 48.99; 1.33; [4, 5, 6, 7]
0.4, 0.2, 0.0, 0.0, 96.2, 0.0, 0.0, 0.0; 96.20; 42.28; 1.36; [4]
0.2, 0.0, 0.0, 0.0, 16.0, 26.3, 26.8, 34.6; 25.92; 40.00; 1.40; [4, 5, 6, 7]
98.9, 99.6, 0.4, 0.4, 0.0, 0.2, 0.0, 0.0; 99.25; 45.04; 1.03; [0, 1]
0.2, 0.0, 0.0, 0.0, 31.1, 17.5, 15.7, 35.3; 24.90; 40.00; 1.38; [4, 5, 6, 7]
95.7, 96.1, 0.6, 0.4, 0.0, 0.0, 0.0, 0.0; 95.90; 53.06; 1.03; [0, 1]
1.1, 0.0, 0.0, 0.0, 57.4, 3.2, 15.2, 67.1; 35.72; 56.05; 1.67; [4, 5, 6, 7]
1.6, 0.0, 0.2, 0.0, 59.7, 2.6, 0.0, 56.8; 29.77; 40.00; 1.55; [4, 5, 6, 7]
1.2, 0.0, 0.2, 0.0, 60.4, 10.5, 5.3, 47.8; 31.00; 40.00; 1.55; [4, 5, 6, 7]
1.6, 0.4, 0.0, 0.0, 27.8, 17.4, 40.7, 30.7; 29.15; 40.00; 1.51; [4, 5, 6, 7]
1.6, 0.0, 0.0, 0.0, 31.5, 15.6, 31.5, 30.3; 27.22; 40.00; 1.38; [4, 5, 6, 7]
1.6, 0.0, 0.2, 0.0, 26.1, 31.9, 31.7, 24.8; 28.62; 40.00; 1.47; [4, 5, 6, 7]
1.8, 0.0, 0.0, 0.0, 31.2, 6.9, 37.2, 22.1; 24.35; 40.00; 1.35; [4, 5, 6, 7]
1.6, 0.0, 0.0, 0.0, 45.7, 15.3, 24.5, 15.8; 25.32; 40.00; 1.38; [4, 5, 6, 7]
1.0, 0.0, 0.0, 0.0, 27.8, 22.5, 32.6, 2.8; 21.43; 40.00; 1.36; [4, 5, 6, 7]
