0.2, 0.0, 0.0, 0.0, 90.8, 86.6, 87.8, 95.4; 90.15; 304.66; 3.03; [4, 5, 6, 7]
0.2, 0.0, 0.0, 0.0, 88.0, 88.6, 78.9, 95.6; 87.78; 311.37; 2.94; [4, 5, 6, 7]
0.6, 0.0, 0.0, 0.2, 85.3, 88.4, 85.2, 97.2; 89.02; 320.14; 2.92; [4, 5, 6, 7]
0.0, 0.2, 0.0, 0.4, 86.2, 86.1, 85.4, 95.8; 88.38; 324.24; 2.92; [4, 5, 6, 7]
0.0, 0.0, 0.2, 0.0, 84.9, 86.7, 86.3, 97.8; 88.93; 322.71; 2.92; [4, 5, 6, 7]
0.2, 0.0, 0.0, 0.2, 87.2, 85.7, 85.3, 99.2; 89.35; 320.96; 2.92; [4, 5, 6, 7]
0.6, 0.0, 0.0, 0.0, 88.7, 86.6, 86.8, 96.6; 89.68; 320.84; 2.93; [4, 5, 6, 7]
0.0, 0.2, 0.0, 0.0, 86.8, 87.4, 85.7, 97.6; 89.38; 321.75; 2.94; [4, 5, 6, 7]
0.0, 0.0, 0.0, 0.0, 88.0, 86.1, 86.2, 96.0; 89.08; 322.94; 2.94; [4, 5, 6, 7]
0.2, 0.2, 0.0, 0.2, 85.3, 87.2, 85.2, 98.4; 89.03; 321.32; 2.93; [4, 5, 6, 7]
0.6, 0.0, 0.0, 0.0, 85.9, 89.6, 86.7, 97.0; 89.80; 320.75; 2.93; [4, 5, 6, 7]
0.4, 0.0, 0.0, 0.0, 84.4, 88.0, 85.8, 96.6; 88.70; 323.02; 2.93; [4, 5, 6, 7]
0.2, 0.2, 0.0, 0.0, 87.3, 85.5, 87.2, 97.2; 89.30; 324.00; 2.93; [4, 5, 6, 7]
0.0, 0.0, 0.0, 0.2, 79.7, 88.2, 87.0, 95.2; 87.53; 323.67; 2.93; [4, 5, 6, 7]
93.4, 89.7, 93.6, 0.7, 0.0, 0.0, 0.0, 0.0; 92.23; 402.34; 2.91; [0, 1, 2]
0.6, 0.0, 0.0, 0.0, 87.7, 88.5, 87.0, 91.9; 88.78; 418.73; 2.25; [4, 5, 6, 7]
94.0, 92.5, 92.3, 1.3, 0.0, 0.0, 0.0, 0.0; 92.93; 494.19; 2.25; [0, 1, 2]
0.0, 0.0, 0.0, 0.2, 85.3, 89.6, 86.9, 94.9; 89.17; 511.35; 2.22; [4, 5, 6, 7]
93.3, 93.1, 87.3, 0.6, 0.0, 0.0, 0.0, 0.0; 91.23; 499.68; 2.23; [0, 1, 2]
0.4, 0.0, 0.0, 0.0, 100.0, 0.0, 0.0, 0.0; 100.00; 577.72; 1.83; [4]
0.2, 0.2, 0.0, 0.0, 79.3, 88.3, 88.7, 94.5; 87.70; 570.44; 1.88; [4, 5, 6, 7]
92.6, 91.9, 89.8, 0.2, 0.0, 0.0, 0.0, 0.0; 91.43; 598.42; 1.88; [0, 1, 2]
0.2, 0.0, 0.0, 0.0, 100.0, 0.0, 0.0, 0.0; 100.00; 642.87; 1.66; [4]
0.2, 0.0, 0.0, 0.0, 85.1, 86.0, 83.8, 98.5; 88.35; 620.49; 1.86; [4, 5, 6, 7]
0.0, 0.0, 0.0, 0.0, 96.8, 97.7, 0.0, 0.0; 97.25; 585.02; 1.87; [4, 5]
0.4, 0.2, 0.0, 0.0, 95.9, 88.3, 94.3, 0.0; 92.83; 572.20; 2.37; [4, 5, 6]
0.4, 0.0, 0.0, 0.0, 89.2, 76.9, 86.9, 87.7; 85.18; 469.22; 2.35; [4, 5, 6, 7]
0.2, 0.0, 0.0, 0.0, 85.1, 86.8, 84.7, 99.2; 88.95; 430.96; 2.79; [4, 5, 6, 7]
0.0, 0.0, 0.0, 0.0, 85.1, 87.4, 86.3, 100.0; 89.70; 334.01; 2.90; [4, 5, 6, 7]
0.6, 0.2, 0.0, 0.0, 84.7, 86.2, 86.4, 99.2; 89.12; 331.03; 2.91; [4, 5, 6, 7]
0.6, 0.2, 0.0, 0.0, 87.6, 86.2, 92.2, 91.8; 89.45; 332.75; 2.90; [4, 5, 6, 7]
0.0, 0.0, 0.0, 0.0, 89.7, 87.3, 86.2, 95.6; 89.70; 332.99; 2.91; [4, 5, 6, 7]
0.0, 0.0, 0.0, 0.2, 86.0, 86.7, 85.5, 97.6; 88.95; 328.68; 2.91; [4, 5, 6, 7]
0.2, 0.0, 0.0, 0.0, 85.3, 87.9, 88.0, 92.6; 88.45; 330.47; 2.91; [4, 5, 6, 7]
0.2, 0.2, 0.2, 0.0, 86.7, 85.3, 83.5, 98.2; 88.42; 332.28; 2.90; [4, 5, 6, 7]
0.6, 0.0, 0.0, 0.0, 87.3, 80.7, 89.6, 95.0; 88.15; 337.69; 2.88; [4, 5, 6, 7]
0.0, 0.2, 0.0, 0.0, 84.9, 87.0, 86.0, 100.0; 89.47; 337.79; 2.87; [4, 5, 6, 7]
0.8, 0.0, 0.0, 0.0, 86.9, 86.4, 85.6, 97.4; 89.07; 334.07; 2.91; [4, 5, 6, 7]
0.2, 0.0, 0.0, 0.0, 87.3, 87.1, 86.4, 95.6; 89.10; 333.39; 2.91; [4, 5, 6, 7]
0.6, 0.0, 0.2, 0.0, 88.8, 87.2, 89.8, 92.4; 89.55; 332.73; 2.91; [4, 5, 6, 7]
0.4, 0.2, 0.0, 0.0, 85.3, 87.0, 93.4, 90.0; 88.93; 331.28; 2.92; [4, 5, 6, 7]
0.2, 0.0, 0.0, 0.0, 87.2, 88.8, 86.4, 93.0; 88.85; 333.35; 2.91; [4, 5, 6, 7]
0.4, 0.0, 0.0, 0.0, 84.8, 84.9, 86.3, 98.2; 88.55; 335.81; 2.90; [4, 5, 6, 7]
0.2, 0.2, 0.0, 0.0, 86.5, 85.9, 85.3, 99.8; 89.38; 335.59; 2.90; [4, 5, 6, 7]
0.2, 0.0, 0.2, 0.0, 86.1, 85.7, 85.9, 99.4; 89.28; 333.82; 2.91; [4, 5, 6, 7]
100.0, 0.2, 0.0, 0.0, 0.0, 0.0, 0.0, 0.0; 100.00; 432.02; 2.88; [0]
0.4, 0.2, 0.0, 0.0, 87.2, 84.5, 82.9, 94.1; 87.17; 475.42; 2.23; [4, 5, 6, 7]
100.0, 0.0, 0.2, 0.2, 0.0, 0.0, 0.0, 0.0; 100.00; 568.25; 2.18; [0]
0.9, 0.0, 0.4, 1.1, 88.5, 86.0, 86.1, 97.5; 89.53; 616.19; 2.16; [4, 5, 6, 7]
100.0, 0.0, 0.6, 0.0, 0.0, 0.0, 0.0, 0.0; 100.00; 591.23; 2.18; [0]
0.0, 0.0, 0.0, 0.0, 87.3, 88.3, 86.6, 98.7; 90.22; 609.77; 2.17; [4, 5, 6, 7]
92.3, 91.0, 92.1, 0.4, 0.0, 0.0, 0.0, 0.0; 91.80; 552.68; 2.20; [0, 1, 2]
0.2, 0.0, 0.4, 0.0, 97.2, 88.3, 90.1, 0.0; 91.87; 586.04; 2.12; [4, 5, 6]
0.7, 0.0, 0.0, 0.0, 86.8, 75.2, 91.4, 82.8; 84.05; 487.78; 2.11; [4, 5, 6, 7]
86.4, 93.8, 89.7, 1.3, 0.0, 0.0, 0.0, 0.0; 89.97; 469.13; 2.17; [0, 1, 2]
92.0, 91.4, 92.8, 0.6, 0.0, 0.0, 0.0, 0.0; 92.07; 533.65; 2.03; [0, 1, 2]
88.6, 93.2, 89.7, 0.6, 0.0, 0.0, 0.0, 0.0; 90.50; 605.41; 1.71; [0, 1, 2]
89.2, 92.8, 91.2, 0.2, 0.0, 0.0, 0.0, 0.0; 91.07; 695.26; 1.42; [0, 1, 2]
0.0, 0.2, 0.0, 0.0, 100.0, 0.0, 0.0, 0.0; 100.00; 804.80; 1.22; [4]
0.2, 0.0, 0.0, 0.0, 86.0, 88.7, 88.5, 91.9; 88.78; 801.30; 1.51; [4, 5, 6, 7]
90.9, 87.4, 86.1, 84.6, 0.0, 0.0, 0.0, 0.0; 87.25; 603.43; 1.71; [0, 1, 2, 3]
0.2, 0.0, 0.0, 0.0, 86.1, 86.4, 89.0, 95.1; 89.15; 538.31; 2.18; [4, 5, 6, 7]
90.3, 90.9, 94.2, 0.4, 0.0, 0.0, 0.0, 0.0; 91.80; 492.51; 2.18; [0, 1, 2]
100.0, 0.0, 0.0, 0.0, 0.0, 0.0, 0.0, 0.0; 100.00; 574.67; 1.71; [0]
0.2, 0.0, 0.0, 0.0, 84.5, 86.4, 88.1, 97.7; 89.17; 610.51; 1.77; [4, 5, 6, 7]
88.8, 93.5, 94.2, 0.2, 0.0, 0.0, 0.0, 0.0; 92.17; 646.05; 1.77; [0, 1, 2]
100.0, 0.4, 0.2, 0.2, 0.0, 0.0, 0.0, 0.0; 100.00; 716.21; 1.47; [0]
0.2, 0.0, 0.0, 0.2, 85.5, 87.5, 86.1, 97.2; 89.08; 743.75; 1.77; [4, 5, 6, 7]
84.8, 92.6, 80.4, 84.2, 0.0, 0.0, 0.0, 0.0; 85.50; 620.67; 1.78; [0, 1, 2, 3]
0.2, 0.0, 0.0, 0.0, 89.6, 84.8, 84.9, 96.2; 88.87; 603.64; 2.23; [4, 5, 6, 7]
100.0, 0.4, 0.0, 0.4, 0.0, 0.0, 0.0, 0.0; 100.00; 514.90; 2.22; [0]
0.2, 0.2, 0.0, 0.0, 88.3, 85.9, 84.3, 96.0; 88.62; 548.60; 2.17; [4, 5, 6, 7]
0.2, 0.0, 0.0, 0.0, 88.8, 78.8, 85.7, 98.8; 88.03; 475.66; 2.23; [4, 5, 6, 7]
1.0, 0.2, 0.0, 0.0, 85.4, 84.1, 87.6, 95.8; 88.23; 347.65; 2.86; [4, 5, 6, 7]
0.8, 0.0, 0.0, 0.0, 86.3, 87.6, 86.5, 97.0; 89.35; 339.30; 2.89; [4, 5, 6, 7]
0.0, 0.0, 0.0, 0.0, 85.1, 87.0, 86.5, 99.2; 89.45; 337.43; 2.90; [4, 5, 6, 7]
0.2, 0.0, 0.2, 0.0, 87.6, 87.7, 85.8, 98.2; 89.83; 333.60; 2.91; [4, 5, 6, 7]
0.4, 0.2, 0.0, 0.0, 83.4, 85.2, 85.4, 98.8; 88.20; 337.47; 2.91; [4, 5, 6, 7]
0.4, 0.0, 0.0, 0.0, 87.4, 86.2, 85.6, 98.0; 89.30; 338.42; 2.90; [4, 5, 6, 7]
0.2, 0.0, 0.0, 0.0, 86.7, 87.1, 90.4, 95.2; 89.85; 336.55; 2.91; [4, 5, 6, 7]
