Results normalized to results/baselines/x264-4,5,6,7-native.log
Total Time x Total Energy:  1.38905808427
Total Violation x Total Energy:  16.0843974799
<<<<<<< HEAD
MAPE:  56.283416921356675
=======
MAPE:  56.2834169214
>>>>>>> 5d07200b22786ce931e1e444b56379d7a10d9e86
