63.1585305238 331.58228525 0.601636948052 1.83065023025
84.7076380857 444.71509995 0.610475844156 0.0627710817735
86.4304267619 453.7597405 0.608669246753 -0.145477238732
86.985977819 456.67638355 0.611610681818 0.195881893691
104.804803152 550.22521655 0.607534051948 0.061364252657
67.0234822667 351.8732819 0.597544142857 -7.06491976067
87.1722901714 457.6545234 0.617156954545 -0.0188273031195
87.8647794286 461.290092 0.607835045455 0.0161427115378
92.1856338095 483.9745775 0.623672142857 0.129768603691
103.749007638 544.6822901 0.607593318182 -4.0121086297
65.6083839048 344.4440155 0.609375363636 4.41364111509
88.6690660571 465.5125968 0.620891805195 -2.28299058421
77.011652419 404.3111752 0.607448974026 1.23016559963
88.6093925714 465.199311 0.627557012987 -0.208002717217
88.5899227238 465.0970943 0.607416558442 1.74933991455
89.3358122095 469.0130141 0.625372824675 -0.535655925276
76.8250338762 403.33142785 0.612186461039 -0.673256765482
90.4429666667 474.825575 0.621233246753 0.526372048341
103.086342924 541.20330035 0.607644779221 -0.472786388877
65.9764844762 346.3765435 0.604577103896 0.642743375932
90.9509013333 477.492232 0.630553311688 -0.0533473833621
108.926688924 571.86511685 0.60602938961 0.176279934964
66.6372348571 349.845483 0.603648181818 0.22613198861
88.8483890476 466.4540425 0.617795805195 -6.38278342653
107.707591276 565.4648542 0.601965298701 0.196968752948
66.0815724381 346.9282553 0.604822402597 -3.54702922521
90.5875564762 475.5846715 0.628824935065 4.02004582871
106.4439112 558.8305338 0.611869805195 -1.9370764533
65.6459804952 344.6413976 0.600730662338 0.870159388125
85.8690320286 450.81241815 0.619191590909 0.498104746612
77.8184292952 408.5467538 0.602543142857 0.153663129303
90.481385381 475.02727325 0.632798798701 0.294994207023
90.8972659048 477.210646 0.607701506494 1.92830773151
120.58980659 633.0964846 -2.8361713963 -1.73562576883
138.801941943 728.7101952 -5.1992687704 -1.51634275082
110.50276461 580.1395142 1 2.02716419982
66.336073219 348.2643844 0.604324753247 0.802286613367
92.6102201905 486.203656 0.631274285714 1.21621838198
108.036402933 567.1911154 1 -6.09443374624
67.5461475238 354.6172745 0.606620883117 -3.37612636679
87.2671587619 458.1525835 0.625820909091 -2.99061190854
108.760181076 570.99095065 0.608694175325 0.659643963794
66.6718898857 350.0274219 0.607328376623 1.33698832931
116.073381419 609.38525245 0.641945266234 2.23988381398
89.439121581 469.5553883 1 1.05656879107
90.0471505714 472.7475405 0.611640649351 -3.67823488489
106.317691352 558.1678796 0.616604681818 1.03068723712
136.449517686 716.35996785 -3.22969984592 -0.758347752707
157.988953381 829.44200525 -8.95636345082 -4.54775109325
108.312216895 568.6391387 1 2.14726278889
66.7078551238 350.2162394 0.606428064935 1.81098891868
92.3488221905 484.8313165 0.627173961039 -1.57587443611
87.37478 458.717595 0.60944111039 1.31823449775
233.348869676 1225.0815658 -4.3890242559 -0.298947401266
96.636712 507.342738 1 3.13365358491
90.1954943333 473.52634525 0.634755636364 -0.118539572873
89.0337076476 467.42696515 0.613179188312 0.461969089315
90.526437619 475.2637975 0.624083571429 0.209503312799
88.8104572762 466.2549007 0.612122818182 0.303570701943
91.2683917143 479.1590565 0.623940714286 0.256750910942
100.743511638 528.9034361 0.606715298701 0.188340375221
68.3226893905 358.6941193 0.597713220779 -0.179081767607
91.2309946667 478.962722 0.626126038961 -5.79275766637
110.345460914 579.3136698 1 0.209230363332
85.2731963619 447.6842809 0.608626844156 0.36503866195
92.6741292381 486.5391785 0.620391038961 0.327185880157
83.7694362286 439.7895402 0.605338824675 0.211659412468
88.0776929524 462.407888 0.623022662338 0.253099191195
103.422272267 542.9669294 0.616058863636 -0.0655961466552
67.0993396381 352.2715331 0.605363025974 -3.20908471141
141.563827495 743.21009435 -2.80809223517 -1.86611190642
105.736572229 555.1170042 1 -0.585058803903
66.8032408762 350.7170146 0.608183961039 -1.42442235851
139.055481543 730.0412781 -2.9300215132 -1.79740820397
218.900528152 1149.2277728 -10.0306001641 -6.00156529303
171.5680048 900.7320252 -7.9976141383 -2.38449011298
115.251565943 605.0707212 1 -1.04594426591
