Results normalized to results/baselines/sha-4,5,6,7-default.log
Total Time x Total Energy:  0.999765406733
<<<<<<< HEAD
Total Violation x Total Energy:  0.997744034163
=======
Total Violation x Total Energy:  0.0
>>>>>>> 5d07200b22786ce931e1e444b56379d7a10d9e86
MAPE:  1.0
