Results normalized to results/baselines/sha-4,5,6,7-default.log
Total Time x Total Energy:  1.16958879095
Total Violation x Total Energy:  3.11150066135
<<<<<<< HEAD
MAPE:  11.23396441860465
=======
MAPE:  11.2339644186
>>>>>>> 5d07200b22786ce931e1e444b56379d7a10d9e86
