0.1, 0.0, 0.0, 0.0, 49.2, 48.4, 52.3, 75.7; 67.11; 288.57; 2.46; [4, 5, 6, 7]
0.5, 0.2, 0.0, 0.0, 48.3, 47.6, 50.8, 78.0; 67.14; 288.72; 2.45; [4, 5, 6, 7]
0.5, 0.1, 0.0, 0.0, 47.8, 45.8, 50.1, 82.4; 67.12; 288.61; 2.46; [4, 5, 6, 7]
0.1, 0.2, 0.0, 0.0, 48.2, 48.9, 51.2, 76.3; 67.13; 288.64; 2.47; [4, 5, 6, 7]
0.3, 0.0, 0.0, 0.0, 43.3, 42.4, 42.5, 98.3; 66.70; 286.82; 2.47; [4, 5, 6, 7]
0.3, 0.1, 0.0, 0.0, 77.1, 89.8, 0.0, 0.0; 95.02; 408.60; 2.24; [4, 5]
0.4, 0.2, 0.0, 0.0, 57.8, 65.5, 68.9, 0.0; 85.36; 367.04; 2.21; [4, 5, 6]
0.3, 0.2, 0.0, 0.0, 54.4, 54.5, 56.6, 60.1; 69.11; 297.19; 2.45; [4, 5, 6, 7]
0.2, 0.0, 0.1, 0.0, 74.2, 91.0, 0.0, 0.0; 94.98; 408.41; 2.31; [4, 5]
0.5, 0.0, 0.0, 0.0, 54.6, 65.0, 70.0, 0.0; 80.43; 345.86; 2.19; [4, 5, 6]
0.3, 0.1, 0.0, 0.0, 55.3, 54.1, 58.4, 58.4; 67.93; 292.08; 2.48; [4, 5, 6, 7]
0.5, 0.0, 0.0, 0.0, 76.6, 89.5, 0.0, 0.0; 95.01; 408.54; 2.40; [4, 5]
0.1, 0.1, 0.0, 0.0, 56.4, 55.0, 79.5, 0.0; 80.80; 347.44; 2.23; [4, 5, 6]
0.4, 0.1, 0.0, 0.0, 52.0, 51.9, 53.0, 68.9; 69.07; 296.99; 2.46; [4, 5, 6, 7]
0.1, 0.3, 0.0, 0.0, 76.9, 86.8, 0.0, 0.0; 95.02; 408.60; 2.37; [4, 5]
