Total Violations:  3
Total Jobs:  493
<<<<<<< HEAD
Violation Ratio:  0.6085192697768762%
=======
Violation Ratio:  0.608519269777%
>>>>>>> 5d07200b22786ce931e1e444b56379d7a10d9e86
Energy Spent:  1101.453727