0.4, 0.2, 0.0, 0.0, 45.3, 42.0, 43.4, 96.6; 66.30; 285.10; 2.38; [4, 5, 6, 7]
79.4, 82.1, 0.4, 0.2, 0.0, 0.0, 0.0, 0.0; 283.51; 1219.08; 2.31; [0, 1]
82.7, 78.3, 0.4, 0.2, 0.0, 0.0, 0.0, 0.0; 283.59; 1219.45; 0.91; [0, 1]
63.2, 56.9, 47.2, 57.0, 0.0, 0.2, 0.0, 0.0; 229.94; 988.75; 1.05; [0, 1, 2, 3]
76.1, 57.4, 59.2, 0.0, 0.0, 0.0, 0.0, 0.0; 238.56; 1025.80; 1.05; [0, 1, 2]
44.4, 70.6, 42.0, 68.1, 0.0, 0.0, 0.0, 0.0; 229.39; 986.38; 1.11; [0, 1, 2, 3]
64.5, 72.0, 52.5, 0.2, 0.0, 0.0, 0.0, 0.0; 239.69; 1030.67; 1.08; [0, 1, 2]
72.8, 41.2, 67.0, 41.6, 0.0, 0.0, 0.0, 0.0; 221.18; 951.05; 1.05; [0, 1, 2, 3]
84.4, 77.1, 0.2, 0.0, 0.0, 0.0, 0.0, 0.0; 283.47; 1218.91; 1.07; [0, 1]
47.1, 57.5, 57.3, 63.2, 0.0, 0.0, 0.0, 0.0; 231.67; 996.19; 1.02; [0, 1, 2, 3]
100.0, 0.2, 0.0, 0.0, 0.0, 0.0, 0.0, 0.0; 451.47; 1941.33; 1.00; [0]
0.2, 0.0, 0.0, 0.2, 45.6, 41.9, 41.9, 98.1; 142.51; 612.78; 2.46; [4, 5, 6, 7]
82.2, 79.4, 0.0, 0.2, 0.0, 0.0, 0.0, 0.0; 283.58; 1219.40; 2.36; [0, 1]
0.6, 0.2, 0.0, 0.2, 100.0, 0.0, 0.0, 0.0; 201.06; 864.58; 1.47; [4]
0.2, 0.2, 0.0, 0.0, 56.1, 57.5, 76.9, 0.0; 122.33; 526.03; 2.22; [4, 5, 6]
42.7, 68.7, 41.7, 72.9, 0.0, 0.0, 0.0, 0.0; 201.24; 865.34; 2.01; [0, 1, 2, 3]
0.0, 0.0, 0.0, 0.0, 100.0, 0.0, 0.0, 0.0; 161.74; 695.48; 1.43; [4]
0.4, 0.2, 0.0, 0.0, 55.4, 85.0, 51.7, 0.0; 92.16; 396.30; 2.17; [4, 5, 6]
62.7, 76.4, 56.0, 0.2, 0.0, 0.2, 0.0, 0.0; 238.24; 1024.43; 2.23; [0, 1, 2]
47.3, 70.6, 41.9, 65.0, 0.0, 0.0, 0.0, 0.0; 216.15; 929.44; 1.08; [0, 1, 2, 3]
0.4, 0.0, 0.0, 0.0, 76.3, 86.4, 0.0, 0.0; 145.07; 623.81; 1.95; [4, 5]
0.6, 0.0, 0.0, 0.0, 45.0, 45.5, 44.8, 91.3; 74.34; 319.66; 2.45; [4, 5, 6, 7]
0.0, 0.2, 0.0, 0.0, 100.0, 0.0, 0.0, 0.0; 152.13; 654.15; 2.36; [4]
0.0, 0.0, 0.0, 0.0, 57.0, 85.1, 47.6, 0.0; 96.99; 417.04; 2.17; [4, 5, 6]
100.0, 0.0, 0.2, 0.2, 0.0, 0.0, 0.0, 0.0; 441.39; 1897.97; 2.06; [0]
0.4, 0.2, 0.0, 0.0, 50.4, 45.4, 44.8, 85.4; 141.41; 608.04; 2.45; [4, 5, 6, 7]
77.4, 84.7, 0.2, 0.0, 0.0, 0.0, 0.0, 0.0; 283.21; 1217.79; 2.39; [0, 1]
99.8, 39.2, 55.3, 0.2, 0.0, 0.0, 0.0, 0.0; 250.36; 1076.56; 1.02; [0, 1, 2]
0.6, 0.0, 0.0, 0.0, 56.2, 65.6, 70.5, 0.0; 107.72; 463.19; 2.18; [4, 5, 6]
0.2, 0.0, 0.2, 0.0, 84.4, 79.8, 0.0, 0.0; 93.63; 402.62; 2.21; [4, 5]
0.4, 0.2, 0.0, 0.0, 43.3, 44.7, 41.3, 96.8; 75.48; 324.57; 2.46; [4, 5, 6, 7]
56.9, 63.4, 48.0, 58.7, 0.0, 0.0, 0.0, 0.0; 200.33; 861.43; 2.27; [0, 1, 2, 3]
0.4, 0.0, 0.0, 0.2, 89.6, 74.6, 0.0, 0.0; 137.13; 589.65; 1.96; [4, 5]
0.4, 0.0, 0.0, 0.0, 44.7, 43.2, 44.4, 92.6; 79.08; 340.06; 2.45; [4, 5, 6, 7]
0.0, 0.2, 0.0, 0.0, 58.8, 91.2, 43.1, 0.0; 80.33; 345.42; 2.39; [4, 5, 6]
0.0, 0.0, 0.0, 0.0, 82.9, 80.6, 0.0, 0.0; 94.78; 407.55; 2.18; [4, 5]
0.4, 0.0, 0.0, 0.0, 43.7, 43.6, 41.6, 97.9; 74.92; 322.16; 2.46; [4, 5, 6, 7]
0.2, 0.0, 0.0, 0.0, 55.3, 58.6, 78.0, 0.0; 79.69; 342.68; 2.41; [4, 5, 6]
79.7, 83.5, 0.2, 0.0, 0.0, 0.0, 0.0, 0.0; 283.23; 1217.87; 1.99; [0, 1]
0.6, 0.0, 0.0, 0.0, 83.7, 83.7, 0.0, 0.0; 185.28; 796.69; 1.99; [4, 5]
0.6, 0.0, 0.0, 0.2, 43.4, 43.8, 41.5, 98.1; 74.54; 320.54; 2.46; [4, 5, 6, 7]
0.6, 0.0, 0.0, 0.0, 59.9, 62.6, 67.7, 0.0; 79.77; 343.00; 2.48; [4, 5, 6]
0.2, 0.0, 0.0, 0.0, 83.3, 83.0, 0.0, 0.0; 92.81; 399.06; 2.26; [4, 5]
0.2, 0.2, 0.0, 0.2, 43.5, 43.1, 44.6, 93.9; 90.51; 389.20; 2.46; [4, 5, 6, 7]
0.6, 0.0, 0.0, 0.2, 43.6, 41.7, 42.9, 98.4; 66.44; 285.67; 2.45; [4, 5, 6, 7]
0.2, 0.0, 0.0, 0.0, 54.6, 42.7, 93.8, 0.0; 80.06; 344.27; 2.48; [4, 5, 6]
0.0, 0.2, 0.0, 0.2, 83.9, 78.7, 0.0, 0.0; 94.66; 407.04; 2.25; [4, 5]
