0.3, 0.1, 0.8, 0.9, 99.9, 100.0, 100.0, 99.9; 64.70; 2959.81; 3.03; [4, 5, 6, 7]
0.3, 0.1, 0.0, 0.1, 100.0, 79.5, 99.8, 0.0; 96.25; 4403.43; 2.71; [4, 5, 6]
92.6, 100.0, 70.6, 0.5, 0.0, 0.0, 0.0, 0.0; 100.74; 4609.04; 2.09; [0, 1, 2]
86.0, 95.9, 88.4, 0.5, 0.0, 0.1, 0.0, 0.0; 99.30; 4542.94; 1.10; [0, 1, 2]
93.2, 96.2, 93.9, 98.8, 0.0, 0.0, 0.0, 0.0; 74.97; 3430.04; 1.27; [0, 1, 2, 3]
95.0, 78.5, 99.9, 0.4, 0.0, 0.1, 0.0, 0.0; 99.08; 4532.70; 1.20; [0, 1, 2]
86.1, 87.2, 96.9, 98.7, 0.0, 0.0, 0.0, 0.0; 89.49; 4093.95; 1.28; [0, 1, 2, 3]
96.9, 98.8, 97.5, 96.1, 0.0, 0.0, 0.0, 0.0; 68.28; 3123.78; 1.29; [0, 1, 2, 3]
99.1, 99.9, 69.4, 0.4, 0.0, 0.0, 0.0, 0.0; 96.99; 4437.09; 1.30; [0, 1, 2]
95.4, 95.8, 96.2, 98.8, 0.0, 0.0, 0.0, 0.0; 94.19; 4309.12; 1.30; [0, 1, 2, 3]
97.0, 97.4, 97.4, 97.5, 0.0, 0.1, 0.0, 0.0; 68.25; 3122.43; 1.29; [0, 1, 2, 3]
87.9, 86.0, 100.0, 0.5, 0.0, 0.0, 0.0, 0.0; 101.25; 4632.07; 1.24; [0, 1, 2]
74.1, 99.3, 100.0, 0.4, 0.0, 0.0, 0.0, 0.0; 98.01; 4483.94; 1.10; [0, 1, 2]
97.7, 92.7, 92.2, 91.1, 0.0, 0.1, 0.0, 0.0; 97.14; 4444.29; 1.27; [0, 1, 2, 3]
95.9, 97.4, 97.4, 95.1, 0.0, 0.0, 0.0, 0.0; 68.33; 3125.89; 1.29; [0, 1, 2, 3]
100.0, 99.9, 75.8, 0.2, 0.0, 0.0, 0.0, 0.0; 97.97; 4482.31; 1.19; [0, 1, 2]
97.3, 88.1, 89.1, 97.3, 0.0, 0.0, 0.0, 0.0; 86.25; 3945.90; 1.30; [0, 1, 2, 3]
97.0, 97.4, 97.4, 97.5, 0.0, 0.0, 0.0, 0.0; 68.26; 3122.80; 1.31; [0, 1, 2, 3]
90.1, 99.5, 84.2, 0.5, 0.0, 0.0, 0.0, 0.0; 97.09; 4441.84; 1.31; [0, 1, 2]
97.2, 95.4, 97.0, 96.5, 0.0, 0.0, 0.0, 0.0; 95.07; 4349.52; 1.31; [0, 1, 2, 3]
97.0, 96.2, 98.7, 97.4, 0.0, 0.0, 0.0, 0.0; 68.25; 3122.39; 1.31; [0, 1, 2, 3]
81.6, 97.9, 100.0, 0.3, 0.0, 0.0, 0.0, 0.0; 97.42; 4457.05; 1.25; [0, 1, 2]
84.6, 94.7, 98.5, 85.4, 0.0, 0.0, 0.0, 0.0; 94.51; 4323.63; 1.30; [0, 1, 2, 3]
96.7, 96.2, 97.4, 98.7, 0.0, 0.0, 0.0, 0.0; 68.43; 3130.51; 1.31; [0, 1, 2, 3]
99.8, 95.1, 85.2, 0.5, 0.0, 0.1, 0.0, 0.0; 97.71; 4470.36; 1.33; [0, 1, 2]
96.9, 92.0, 93.2, 98.7, 0.0, 0.0, 0.0, 0.0; 76.63; 3505.69; 1.30; [0, 1, 2, 3]
100.0, 78.1, 99.6, 0.2, 0.0, 0.0, 0.0, 0.0; 97.79; 4473.77; 1.23; [0, 1, 2]
84.6, 86.3, 98.6, 97.2, 0.0, 0.1, 0.0, 0.0; 92.14; 4215.55; 1.30; [0, 1, 2, 3]
97.0, 98.7, 97.4, 96.4, 0.0, 0.0, 0.0, 0.0; 68.25; 3122.61; 1.31; [0, 1, 2, 3]
100.0, 84.5, 92.9, 0.2, 0.0, 0.0, 0.0, 0.0; 97.92; 4479.73; 1.31; [0, 1, 2]
96.7, 98.7, 93.9, 96.9, 0.0, 0.1, 0.0, 0.0; 73.52; 3363.35; 1.30; [0, 1, 2, 3]
99.6, 99.8, 76.3, 0.5, 0.0, 0.0, 0.0, 0.0; 97.80; 4474.35; 1.22; [0, 1, 2]
97.3, 85.2, 85.1, 98.7, 0.0, 0.0, 0.0, 0.0; 92.47; 4230.51; 1.30; [0, 1, 2, 3]
97.8, 98.5, 96.4, 96.1, 0.0, 0.0, 0.0, 0.0; 68.57; 3137.23; 1.31; [0, 1, 2, 3]
99.1, 99.9, 70.2, 0.5, 0.0, 0.0, 0.0, 0.0; 98.30; 4497.32; 1.32; [0, 1, 2]
86.5, 98.5, 86.7, 0.4, 0.0, 0.0, 0.0, 0.0; 99.33; 4544.36; 1.11; [0, 1, 2]
91.8, 93.1, 98.5, 95.3, 0.0, 0.0, 0.0, 0.0; 79.95; 3657.70; 1.29; [0, 1, 2, 3]
100.0, 99.6, 0.3, 0.1, 0.0, 0.0, 0.0, 0.0; 132.05; 6041.18; 1.16; [0, 1]
96.5, 97.3, 96.5, 98.7, 0.0, 0.0, 0.0, 0.0; 75.34; 3446.61; 1.31; [0, 1, 2, 3]
84.8, 98.6, 90.8, 0.3, 0.0, 0.1, 0.0, 0.0; 98.86; 4522.87; 1.22; [0, 1, 2]
87.3, 85.4, 97.0, 98.6, 0.0, 0.0, 0.0, 0.0; 89.90; 4113.14; 1.30; [0, 1, 2, 3]
97.8, 97.3, 96.2, 97.3, 0.0, 0.0, 0.0, 0.0; 68.67; 3141.53; 1.31; [0, 1, 2, 3]
99.0, 99.9, 69.5, 0.5, 0.0, 0.1, 0.0, 0.0; 98.27; 4495.88; 1.32; [0, 1, 2]
96.4, 94.8, 96.1, 98.7, 0.0, 0.1, 0.0, 0.0; 70.92; 3244.60; 1.32; [0, 1, 2, 3]
97.3, 87.0, 89.9, 0.4, 0.0, 0.0, 0.0, 0.0; 99.06; 4531.95; 1.20; [0, 1, 2]
0.4, 0.0, 0.0, 0.0, 100.0, 0.0, 0.0, 0.0; 174.47; 7981.98; 1.24; [4]
0.4, 0.0, 0.0, 0.1, 98.7, 97.8, 98.5, 98.1; 127.21; 5820.05; 2.99; [4, 5, 6, 7]
97.5, 97.3, 98.7, 96.9, 0.0, 0.0, 0.0, 0.0; 68.33; 3126.08; 2.38; [0, 1, 2, 3]
88.0, 93.8, 87.6, 0.1, 0.0, 0.0, 0.0, 0.0; 98.23; 4494.16; 1.32; [0, 1, 2]
96.4, 94.5, 97.0, 97.0, 0.0, 0.0, 0.0, 0.0; 94.32; 4315.02; 1.30; [0, 1, 2, 3]
0.1, 0.0, 0.0, 0.0, 100.0, 0.0, 0.0, 0.0; 219.12; 10024.52; 1.27; [4]
0.3, 0.0, 0.0, 0.0, 97.4, 97.4, 98.1, 99.1; 77.02; 3523.52; 2.98; [4, 5, 6, 7]
0.5, 0.1, 0.0, 0.1, 100.0, 75.9, 98.8, 0.0; 96.66; 4422.04; 2.52; [4, 5, 6]
100.0, 83.0, 87.4, 0.5, 0.0, 0.0, 0.0, 0.0; 99.79; 4565.36; 1.98; [0, 1, 2]
97.9, 94.7, 87.9, 87.8, 0.0, 0.0, 0.0, 0.0; 96.52; 4415.95; 1.29; [0, 1, 2, 3]
97.4, 98.0, 96.0, 95.7, 0.0, 0.0, 0.0, 0.0; 68.82; 3148.31; 1.29; [0, 1, 2, 3]
100.0, 73.5, 99.8, 0.2, 0.0, 0.0, 0.0, 0.0; 98.18; 4491.92; 1.28; [0, 1, 2]
90.8, 92.1, 97.7, 97.5, 0.0, 0.0, 0.0, 0.0; 79.86; 3653.66; 1.30; [0, 1, 2, 3]
0.3, 0.0, 0.0, 0.1, 97.6, 98.1, 98.5, 99.1; 66.65; 3049.16; 3.00; [4, 5, 6, 7]
0.3, 0.0, 0.0, 0.0, 99.5, 99.9, 72.5, 0.0; 95.91; 4387.78; 2.85; [4, 5, 6]
86.7, 99.8, 83.1, 0.1, 0.0, 0.0, 0.0, 0.0; 99.14; 4535.80; 2.19; [0, 1, 2]
96.9, 93.6, 93.6, 97.3, 0.0, 0.0, 0.0, 0.0; 75.89; 3472.14; 1.29; [0, 1, 2, 3]
99.9, 77.4, 98.6, 0.5, 0.0, 0.0, 0.0, 0.0; 98.96; 4527.61; 1.23; [0, 1, 2]
85.0, 86.9, 96.9, 98.8, 0.0, 0.0, 0.0, 0.0; 91.13; 4169.18; 1.30; [0, 1, 2, 3]
97.0, 98.7, 96.1, 97.4, 0.0, 0.0, 0.0, 0.0; 68.30; 3124.95; 1.31; [0, 1, 2, 3]
83.9, 89.4, 94.2, 0.4, 0.0, 0.0, 0.0, 0.0; 99.33; 4544.57; 1.32; [0, 1, 2]
96.3, 95.6, 96.0, 97.3, 0.0, 0.0, 0.0, 0.0; 71.86; 3287.57; 1.31; [0, 1, 2, 3]
84.8, 99.8, 90.3, 0.7, 0.0, 0.0, 0.0, 0.0; 98.90; 4524.78; 1.22; [0, 1, 2]
87.5, 91.3, 92.8, 98.7, 0.0, 0.0, 0.0, 0.0; 87.95; 4023.86; 1.30; [0, 1, 2, 3]
0.3, 0.1, 0.0, 0.0, 97.2, 98.0, 97.9, 98.1; 67.67; 3096.06; 2.99; [4, 5, 6, 7]
0.2, 0.0, 0.0, 0.1, 99.1, 70.6, 100.0, 0.0; 97.92; 4479.81; 2.92; [4, 5, 6]
100.0, 73.0, 97.5, 0.5, 0.0, 0.0, 0.0, 0.0; 100.29; 4588.21; 1.42; [0, 1, 2]
100.0, 83.1, 88.6, 0.3, 0.0, 0.1, 0.0, 0.0; 99.41; 4548.23; 1.12; [0, 1, 2]
85.9, 96.6, 84.3, 98.4, 0.0, 0.0, 0.0, 0.0; 91.15; 4170.17; 1.29; [0, 1, 2, 3]
96.8, 96.3, 98.7, 97.5, 0.0, 0.0, 0.0, 0.0; 68.26; 3122.96; 1.30; [0, 1, 2, 3]
89.7, 95.4, 92.2, 0.5, 0.0, 0.0, 0.0, 0.0; 98.95; 4526.85; 1.31; [0, 1, 2]
95.4, 95.7, 93.7, 98.6, 0.0, 0.0, 0.0, 0.0; 72.89; 3334.81; 1.31; [0, 1, 2, 3]
100.0, 100.0, 77.0, 0.5, 0.0, 0.0, 0.0, 0.0; 97.73; 4471.09; 1.22; [0, 1, 2]
98.6, 86.0, 85.1, 97.2, 0.0, 0.0, 0.0, 0.0; 89.90; 4113.01; 1.30; [0, 1, 2, 3]
96.8, 97.4, 98.7, 96.2, 0.0, 0.0, 0.0, 0.0; 68.27; 3123.57; 1.31; [0, 1, 2, 3]
97.8, 98.6, 75.2, 0.4, 0.0, 0.0, 0.0, 0.0; 97.03; 4439.28; 1.32; [0, 1, 2]
96.6, 96.4, 95.4, 98.8, 0.0, 0.0, 0.0, 0.0; 94.05; 4302.95; 1.31; [0, 1, 2, 3]
96.7, 98.7, 96.1, 97.3, 0.0, 0.1, 0.0, 0.0; 68.39; 3129.04; 1.30; [0, 1, 2, 3]
90.5, 84.9, 100.0, 0.8, 0.0, 0.0, 0.0, 0.0; 98.78; 4519.29; 1.26; [0, 1, 2]
97.5, 84.9, 87.6, 93.6, 0.0, 0.0, 0.0, 0.0; 94.66; 4330.64; 1.31; [0, 1, 2, 3]
96.8, 97.4, 98.7, 96.3, 0.0, 0.0, 0.0, 0.0; 68.25; 3122.60; 1.32; [0, 1, 2, 3]
89.6, 99.9, 80.7, 0.5, 0.0, 0.0, 0.0, 0.0; 99.32; 4543.67; 1.32; [0, 1, 2]
95.0, 96.0, 94.0, 97.0, 0.0, 0.0, 0.0, 0.0; 74.50; 3408.20; 1.30; [0, 1, 2, 3]
99.2, 99.9, 78.2, 0.2, 0.0, 0.0, 0.0, 0.0; 97.92; 4479.85; 1.22; [0, 1, 2]
88.9, 86.2, 98.7, 94.9, 0.0, 0.0, 0.0, 0.0; 90.46; 4138.60; 1.31; [0, 1, 2, 3]
97.1, 96.1, 97.4, 98.7, 0.0, 0.0, 0.0, 0.0; 68.29; 3124.10; 1.31; [0, 1, 2, 3]
99.5, 72.0, 100.0, 0.3, 0.0, 0.0, 0.0, 0.0; 98.30; 4497.15; 1.33; [0, 1, 2]
98.0, 98.4, 94.4, 96.9, 0.0, 0.0, 0.0, 0.0; 70.54; 3227.33; 1.30; [0, 1, 2, 3]
99.9, 99.8, 77.4, 0.7, 0.0, 0.0, 0.0, 0.0; 97.86; 4477.11; 1.23; [0, 1, 2]
97.5, 87.1, 84.8, 98.7, 0.0, 0.0, 0.0, 0.0; 90.40; 4135.63; 1.31; [0, 1, 2, 3]
96.9, 97.3, 97.4, 97.4, 0.0, 0.0, 0.0, 0.0; 68.48; 3132.86; 1.31; [0, 1, 2, 3]
91.0, 99.8, 77.1, 0.6, 0.0, 0.0, 0.0, 0.0; 98.67; 4513.94; 1.32; [0, 1, 2]
96.2, 96.9, 94.2, 96.9, 0.0, 0.0, 0.0, 0.0; 71.22; 3258.44; 1.30; [0, 1, 2, 3]
88.9, 84.4, 100.0, 0.2, 0.0, 0.0, 0.0, 0.0; 98.36; 4499.95; 1.24; [0, 1, 2]
87.6, 89.1, 98.0, 97.4, 0.0, 0.0, 0.0, 0.0; 86.34; 3950.04; 1.31; [0, 1, 2, 3]
96.9, 97.4, 97.4, 97.4, 0.0, 0.0, 0.0, 0.0; 68.40; 3129.18; 1.31; [0, 1, 2, 3]
100.0, 0.1, 0.2, 0.3, 0.0, 0.1, 0.0, 0.0; 112.27; 5136.20; 1.12; [0]
0.4, 0.0, 0.0, 0.1, 98.9, 97.7, 98.7, 98.1; 174.16; 7967.85; 2.98; [4, 5, 6, 7]
98.0, 96.4, 97.1, 97.8, 0.0, 0.0, 0.0, 0.0; 68.76; 3145.70; 2.83; [0, 1, 2, 3]
93.7, 99.9, 78.5, 0.2, 0.0, 0.0, 0.0, 0.0; 98.12; 4489.12; 1.30; [0, 1, 2]
92.2, 97.4, 90.5, 97.1, 0.0, 0.0, 0.0, 0.0; 79.59; 3641.45; 1.30; [0, 1, 2, 3]
90.8, 92.9, 99.9, 0.4, 0.0, 0.1, 0.0, 0.0; 94.26; 4312.22; 1.25; [0, 1, 2]
97.5, 83.7, 98.8, 84.8, 0.0, 0.0, 0.0, 0.0; 95.25; 4357.47; 1.30; [0, 1, 2, 3]
96.9, 96.1, 97.3, 98.7, 0.0, 0.0, 0.0, 0.0; 68.31; 3125.17; 1.31; [0, 1, 2, 3]
98.9, 71.7, 100.0, 0.3, 0.0, 0.0, 0.0, 0.0; 98.29; 4496.66; 1.30; [0, 1, 2]
92.9, 93.5, 96.4, 98.8, 0.0, 0.0, 0.0, 0.0; 76.41; 3495.74; 1.30; [0, 1, 2, 3]
99.8, 78.2, 100.0, 0.5, 0.0, 0.1, 0.0, 0.0; 97.60; 4465.24; 1.23; [0, 1, 2]
85.7, 85.0, 97.0, 98.7, 0.0, 0.0, 0.0, 0.0; 92.31; 4223.19; 1.31; [0, 1, 2, 3]
96.5, 98.7, 96.2, 97.4, 0.0, 0.1, 0.0, 0.0; 68.50; 3133.67; 1.31; [0, 1, 2, 3]
91.1, 100.0, 76.4, 0.4, 0.0, 0.0, 0.0, 0.0; 99.24; 4540.12; 1.33; [0, 1, 2]
97.8, 95.0, 93.6, 96.9, 0.0, 0.0, 0.0, 0.0; 72.54; 3318.69; 1.31; [0, 1, 2, 3]
76.2, 99.8, 99.9, 0.6, 0.0, 0.0, 0.0, 0.0; 97.81; 4474.67; 1.20; [0, 1, 2]
87.4, 98.1, 85.8, 98.6, 0.0, 0.0, 0.0, 0.0; 88.11; 4031.24; 1.31; [0, 1, 2, 3]
96.8, 98.7, 97.4, 96.2, 0.0, 0.0, 0.0, 0.0; 68.29; 3124.10; 1.31; [0, 1, 2, 3]
96.2, 99.4, 74.1, 0.1, 0.0, 0.0, 0.0, 0.0; 97.77; 4473.15; 1.33; [0, 1, 2]
96.7, 97.1, 96.5, 98.9, 0.0, 0.0, 0.0, 0.0; 94.21; 4309.97; 1.33; [0, 1, 2, 3]
97.9, 97.1, 95.9, 97.1, 0.0, 0.0, 0.0, 0.0; 68.92; 3153.25; 1.31; [0, 1, 2, 3]
0.4, 0.1, 0.0, 0.1, 100.0, 0.0, 0.0, 0.0; 180.87; 8274.59; 1.30; [4]
0.3, 0.1, 0.0, 0.0, 97.5, 99.1, 98.2, 97.3; 111.77; 5113.31; 2.99; [4, 5, 6, 7]
97.3, 97.0, 98.7, 97.6, 0.0, 0.0, 0.0, 0.0; 68.27; 3123.20; 2.42; [0, 1, 2, 3]
0.3, 0.1, 0.0, 0.1, 99.7, 99.9, 72.1, 0.0; 95.80; 4383.02; 2.23; [4, 5, 6]
71.7, 100.0, 99.9, 0.3, 0.0, 0.0, 0.0, 0.0; 99.23; 4539.67; 2.18; [0, 1, 2]
92.8, 96.2, 93.1, 98.7, 0.0, 0.0, 0.0, 0.0; 76.98; 3521.77; 1.29; [0, 1, 2, 3]
99.9, 100.0, 78.4, 0.4, 0.0, 0.0, 0.0, 0.0; 97.60; 4465.03; 1.22; [0, 1, 2]
97.6, 83.7, 85.8, 98.8, 0.0, 0.0, 0.0, 0.0; 93.01; 4255.35; 1.29; [0, 1, 2, 3]
97.7, 96.0, 98.4, 95.9, 0.0, 0.1, 0.0, 0.0; 68.91; 3152.55; 1.30; [0, 1, 2, 3]
88.1, 97.4, 81.8, 0.6, 0.0, 0.0, 0.0, 0.0; 99.45; 4549.79; 1.32; [0, 1, 2]
94.6, 95.3, 97.4, 97.3, 0.0, 0.0, 0.0, 0.0; 72.69; 3325.49; 1.31; [0, 1, 2, 3]
99.9, 88.0, 86.3, 0.5, 0.0, 0.0, 0.0, 0.0; 99.62; 4557.72; 1.22; [0, 1, 2]
86.0, 90.6, 93.5, 98.7, 0.0, 0.0, 0.0, 0.0; 89.17; 4079.60; 1.30; [0, 1, 2, 3]
97.1, 97.5, 97.4, 97.4, 0.0, 0.0, 0.0, 0.0; 68.26; 3122.81; 1.31; [0, 1, 2, 3]
100.0, 70.4, 99.1, 0.2, 0.0, 0.0, 0.0, 0.0; 96.98; 4436.81; 1.31; [0, 1, 2]
96.9, 95.2, 96.7, 97.1, 0.0, 0.0, 0.0, 0.0; 93.97; 4299.03; 1.32; [0, 1, 2, 3]
96.9, 97.5, 96.3, 98.7, 0.0, 0.0, 0.0, 0.0; 68.27; 3123.18; 1.31; [0, 1, 2, 3]
99.9, 79.1, 99.8, 0.4, 0.0, 0.0, 0.0, 0.0; 97.56; 4463.60; 1.25; [0, 1, 2]
97.6, 83.5, 83.9, 98.6, 0.0, 0.0, 0.0, 0.0; 94.77; 4335.82; 1.30; [0, 1, 2, 3]
97.9, 97.2, 95.8, 97.0, 0.0, 0.0, 0.0, 0.0; 69.03; 3158.31; 1.30; [0, 1, 2, 3]
93.8, 76.6, 100.0, 0.4, 0.0, 0.0, 0.0, 0.0; 99.37; 4546.13; 1.33; [0, 1, 2]
