Total Violations:  14
Total Jobs:  388
<<<<<<< HEAD
Violation Ratio:  3.608247422680412%
=======
Violation Ratio:  3.60824742268%
>>>>>>> 5d07200b22786ce931e1e444b56379d7a10d9e86
Energy Spent:  530.179512