4.5, 1.8, 2.6, 2.5, 91.9, 87.3, 70.6, 94.2; 28.32; 759.79; 3.64; [4, 5, 6, 7]
99.9, 99.9, 99.9, 1.0, 0.0, 0.0, 0.0, 0.0; 156.21; 4191.06; 1.95; [0, 1, 2]
2.7, 0.8, 0.1, 0.1, 100.0, 99.9, 99.9, 99.9; 70.93; 1903.17; 3.72; [4, 5, 6, 7]
1.6, 0.6, 0.0, 0.1, 100.0, 99.9, 100.0, 100.0; 59.68; 1601.21; 3.72; [4, 5, 6, 7]
5.2, 0.0, 0.0, 0.2, 100.0, 100.0, 99.9, 0.0; 78.77; 2113.29; 3.61; [4, 5, 6]
2.2, 0.1, 0.0, 0.1, 99.9, 99.8, 99.8, 100.0; 67.21; 1803.13; 3.72; [4, 5, 6, 7]
1.7, 0.1, 0.0, 0.2, 100.0, 100.0, 100.0, 99.9; 64.51; 1730.81; 3.73; [4, 5, 6, 7]
2.0, 0.0, 0.0, 0.1, 100.0, 99.9, 99.9, 100.0; 63.15; 1694.29; 3.73; [4, 5, 6, 7]
1.5, 0.1, 0.0, 0.1, 100.0, 100.0, 100.0, 100.0; 65.52; 1757.98; 3.73; [4, 5, 6, 7]
3.7, 0.5, 0.0, 0.2, 75.8, 88.0, 98.7, 90.9; 63.02; 1690.76; 3.74; [4, 5, 6, 7]
3.4, 0.9, 0.0, 0.5, 99.1, 100.0, 100.0, 99.9; 26.24; 703.95; 3.78; [4, 5, 6, 7]
98.2, 99.9, 99.9, 100.0, 0.0, 0.0, 0.0, 0.0; 56.89; 1526.43; 3.51; [0, 1, 2, 3]
1.8, 0.1, 0.0, 0.1, 100.0, 100.0, 0.0, 0.0; 66.16; 1775.08; 2.19; [4, 5]
100.0, 97.7, 99.9, 100.0, 0.0, 0.0, 0.0, 0.0; 60.96; 1635.50; 2.04; [0, 1, 2, 3]
99.9, 99.9, 100.0, 2.0, 0.0, 0.0, 0.0, 0.0; 67.90; 1821.71; 1.47; [0, 1, 2]
99.9, 95.2, 100.0, 98.0, 0.0, 0.0, 0.0, 0.0; 65.84; 1766.58; 1.46; [0, 1, 2, 3]
99.9, 100.0, 99.9, 2.8, 0.2, 0.3, 0.0, 0.2; 56.41; 1513.57; 1.47; [0, 1, 2]
100.0, 0.8, 0.0, 0.3, 0.0, 0.0, 0.0, 0.0; 144.75; 3883.74; 1.04; [0]
2.6, 0.0, 0.0, 0.3, 99.9, 99.9, 0.0, 0.0; 82.68; 2218.18; 2.21; [4, 5]
3.5, 0.2, 0.6, 0.6, 100.0, 100.0, 0.0, 0.0; 56.27; 1509.78; 2.23; [4, 5]
3.6, 0.2, 0.6, 0.0, 99.9, 99.9, 99.8, 0.0; 39.24; 1052.71; 3.00; [4, 5, 6]
3.5, 0.0, 0.5, 0.4, 99.9, 99.9, 99.6, 0.0; 30.10; 807.48; 3.01; [4, 5, 6]
3.2, 0.1, 0.1, 0.5, 99.9, 99.9, 99.8, 0.0; 40.68; 1091.50; 3.00; [4, 5, 6]
1.1, 0.1, 0.0, 0.0, 100.0, 0.0, 0.0, 0.0; 99.87; 2679.39; 1.84; [4]
96.3, 100.0, 98.0, 100.0, 0.0, 0.0, 0.0, 0.0; 74.59; 2001.18; 1.59; [0, 1, 2, 3]
99.8, 99.7, 99.7, 1.6, 0.0, 0.0, 0.0, 0.0; 86.86; 2330.40; 1.42; [0, 1, 2]
2.9, 0.0, 0.0, 0.2, 99.8, 98.8, 100.0, 0.0; 56.10; 1505.06; 2.99; [4, 5, 6]
98.4, 97.3, 90.2, 99.9, 0.0, 0.0, 0.0, 0.0; 71.02; 1905.59; 2.55; [0, 1, 2, 3]
99.9, 99.9, 99.8, 2.5, 0.0, 0.0, 0.0, 0.0; 53.03; 1422.73; 1.47; [0, 1, 2]
100.0, 100.0, 0.8, 0.7, 0.0, 0.1, 0.0, 0.0; 109.09; 2926.90; 1.17; [0, 1]
6.0, 0.5, 0.0, 0.5, 100.0, 99.9, 99.8, 99.6; 27.55; 739.16; 3.79; [4, 5, 6, 7]
89.3, 97.5, 97.5, 99.4, 0.0, 0.0, 0.0, 0.0; 88.75; 2381.23; 3.37; [0, 1, 2, 3]
1.1, 0.3, 0.0, 0.1, 100.0, 99.9, 100.0, 0.0; 95.90; 2572.87; 2.93; [4, 5, 6]
1.8, 0.4, 0.0, 0.0, 99.7, 100.0, 99.9, 100.0; 66.55; 1785.61; 3.72; [4, 5, 6, 7]
1.5, 0.5, 0.1, 0.0, 100.0, 100.0, 100.0, 99.9; 62.71; 1682.43; 3.74; [4, 5, 6, 7]
2.7, 0.2, 0.0, 0.0, 100.0, 100.0, 100.0, 100.0; 61.59; 1652.58; 3.75; [4, 5, 6, 7]
1.9, 0.1, 0.0, 0.0, 99.9, 100.0, 99.9, 99.9; 65.05; 1745.32; 3.75; [4, 5, 6, 7]
2.1, 0.3, 0.0, 0.0, 100.0, 100.0, 100.0, 100.0; 63.44; 1702.04; 3.75; [4, 5, 6, 7]
0.6, 0.0, 0.2, 0.0, 100.0, 0.0, 0.0, 0.0; 238.15; 6389.56; 3.62; [4]
1.3, 0.4, 0.1, 0.2, 100.0, 100.0, 0.0, 0.0; 149.16; 4002.01; 2.18; [4, 5]
2.1, 0.0, 0.0, 0.1, 98.8, 99.0, 97.2, 99.7; 80.22; 2152.37; 3.71; [4, 5, 6, 7]
1.9, 0.2, 0.0, 0.0, 90.7, 98.9, 99.0, 0.0; 83.39; 2237.27; 3.07; [4, 5, 6]
1.7, 0.3, 0.0, 0.0, 100.0, 100.0, 99.9, 100.0; 57.67; 1547.32; 3.72; [4, 5, 6, 7]
1.7, 0.1, 0.1, 0.1, 99.9, 99.9, 100.0, 0.0; 80.42; 2157.72; 3.28; [4, 5, 6]
2.3, 0.2, 0.3, 0.0, 97.8, 99.9, 99.2, 99.9; 72.07; 1933.68; 3.73; [4, 5, 6, 7]
4.6, 0.5, 0.2, 0.1, 99.9, 99.8, 99.5, 100.0; 61.28; 1644.27; 3.78; [4, 5, 6, 7]
1.2, 0.1, 0.0, 0.0, 100.0, 99.9, 100.0, 99.9; 60.14; 1613.67; 3.75; [4, 5, 6, 7]
1.6, 0.5, 0.2, 0.0, 99.7, 100.0, 100.0, 99.9; 62.17; 1668.02; 3.75; [4, 5, 6, 7]
1.9, 0.1, 0.1, 0.0, 100.0, 99.9, 100.0, 100.0; 61.71; 1655.56; 3.75; [4, 5, 6, 7]
1.6, 0.3, 0.1, 0.0, 99.2, 98.9, 83.9, 99.9; 68.21; 1829.97; 3.72; [4, 5, 6, 7]
1.5, 0.1, 0.4, 0.0, 90.8, 99.7, 82.8, 94.6; 65.51; 1757.54; 3.70; [4, 5, 6, 7]
1.2, 1.0, 0.0, 0.0, 100.0, 99.9, 100.0, 99.9; 72.27; 1938.91; 3.74; [4, 5, 6, 7]
0.8, 0.0, 0.0, 0.0, 100.0, 0.0, 0.0, 0.0; 241.04; 6466.99; 3.62; [4]
1.5, 0.3, 0.0, 0.0, 100.0, 100.0, 99.9, 99.9; 110.86; 2974.29; 3.74; [4, 5, 6, 7]
1.2, 0.0, 0.0, 0.0, 100.0, 99.9, 99.9, 0.0; 87.05; 2335.65; 3.32; [4, 5, 6]
1.3, 0.2, 0.0, 0.0, 100.0, 100.0, 100.0, 99.9; 80.85; 2169.19; 3.75; [4, 5, 6, 7]
0.3, 0.1, 0.0, 0.0, 100.0, 100.0, 99.9, 0.0; 100.52; 2697.07; 3.39; [4, 5, 6]
1.1, 0.5, 0.0, 0.4, 100.0, 99.9, 100.0, 99.9; 51.92; 1393.05; 3.75; [4, 5, 6, 7]
