1.0, 1.0, 0.3, 0.7, 99.9, 100.0, 100.0, 99.9; 64.72; 2960.72; 3.04; [4, 5, 6, 7]
0.1, 0.1, 0.0, 0.0, 76.9, 99.9, 96.1, 0.0; 96.95; 4435.56; 2.98; [4, 5, 6]
92.6, 75.9, 99.9, 0.3, 0.0, 0.0, 0.0, 0.0; 101.59; 4647.54; 1.60; [0, 1, 2]
99.9, 73.3, 100.0, 0.4, 0.0, 0.0, 0.0, 0.0; 98.31; 4497.59; 1.09; [0, 1, 2]
90.4, 90.4, 98.8, 84.4, 0.0, 0.1, 0.0, 0.0; 96.40; 4410.10; 1.28; [0, 1, 2, 3]
0.4, 0.1, 0.0, 0.0, 88.2, 99.9, 80.8, 0.0; 98.19; 4492.33; 2.26; [4, 5, 6]
99.9, 71.7, 98.5, 0.3, 0.0, 0.0, 0.0, 0.0; 100.70; 4607.17; 1.32; [0, 1, 2]
100.0, 83.9, 87.8, 0.2, 0.0, 0.0, 0.0, 0.0; 99.53; 4553.72; 1.10; [0, 1, 2]
97.2, 88.4, 86.3, 98.7, 0.0, 0.0, 0.0, 0.0; 87.54; 4004.86; 1.29; [0, 1, 2, 3]
0.4, 0.0, 0.0, 0.0, 99.1, 97.7, 98.2, 97.4; 67.11; 3070.12; 2.98; [4, 5, 6, 7]
0.2, 0.1, 0.0, 0.0, 90.0, 77.0, 98.4, 0.0; 97.91; 4479.46; 2.92; [4, 5, 6]
97.3, 96.9, 98.5, 95.9, 0.0, 0.0, 0.0, 0.0; 72.50; 3316.99; 1.60; [0, 1, 2, 3]
0.4, 0.0, 0.1, 0.0, 93.9, 89.8, 89.9, 0.0; 98.04; 4485.17; 2.25; [4, 5, 6]
98.6, 85.1, 96.6, 86.6, 0.0, 0.0, 0.0, 0.0; 91.66; 4193.37; 1.87; [0, 1, 2, 3]
0.4, 0.1, 0.1, 0.0, 98.1, 97.7, 98.3, 98.7; 66.97; 3064.11; 2.96; [4, 5, 6, 7]
0.6, 0.0, 0.0, 0.0, 98.7, 99.8, 69.4, 0.0; 97.07; 4440.87; 2.84; [4, 5, 6]
97.8, 96.5, 98.7, 96.3, 0.0, 0.0, 0.0, 0.0; 72.50; 3316.98; 1.70; [0, 1, 2, 3]
0.3, 0.1, 0.1, 0.0, 96.1, 100.0, 79.2, 0.0; 96.61; 4420.08; 2.17; [4, 5, 6]
84.6, 98.4, 97.2, 87.7, 0.0, 0.0, 0.0, 0.0; 91.33; 4178.19; 1.96; [0, 1, 2, 3]
0.4, 0.0, 0.0, 0.1, 98.1, 97.4, 98.4, 98.7; 67.05; 3067.66; 2.96; [4, 5, 6, 7]
0.3, 0.1, 0.0, 0.0, 99.9, 99.7, 69.9, 0.0; 97.91; 4479.19; 2.90; [4, 5, 6]
97.5, 95.7, 97.2, 98.1, 0.0, 0.0, 0.0, 0.0; 72.20; 3303.11; 1.63; [0, 1, 2, 3]
0.1, 0.1, 0.0, 0.0, 99.8, 99.6, 76.2, 0.0; 96.72; 4424.87; 2.22; [4, 5, 6]
95.6, 86.8, 97.1, 86.8, 0.0, 0.0, 0.0, 0.0; 92.65; 4238.78; 1.99; [0, 1, 2, 3]
0.3, 0.0, 0.0, 0.0, 99.4, 99.8, 0.0, 0.0; 129.50; 5924.62; 1.82; [4, 5]
81.2, 99.9, 94.9, 0.3, 0.0, 0.0, 0.0, 0.0; 109.09; 4990.78; 1.46; [0, 1, 2]
73.9, 99.9, 100.0, 0.2, 0.0, 0.0, 0.0, 0.0; 98.16; 4490.67; 1.10; [0, 1, 2]
84.3, 97.3, 98.6, 84.6, 0.0, 0.0, 0.0, 0.0; 95.08; 4350.05; 1.27; [0, 1, 2, 3]
0.2, 0.0, 0.1, 0.0, 97.1, 97.1, 97.8, 99.1; 67.89; 3105.99; 2.97; [4, 5, 6, 7]
0.6, 0.0, 0.0, 0.0, 99.5, 72.3, 100.0, 0.0; 97.09; 4441.69; 2.92; [4, 5, 6]
97.4, 93.0, 93.4, 94.4, 0.0, 0.0, 0.0, 0.0; 81.45; 3726.13; 1.77; [0, 1, 2, 3]
0.3, 0.0, 0.1, 0.0, 98.4, 98.6, 98.0, 98.1; 66.65; 3049.26; 2.99; [4, 5, 6, 7]
0.2, 0.0, 0.0, 0.0, 100.0, 74.6, 99.8, 0.0; 95.95; 4389.90; 2.80; [4, 5, 6]
96.9, 93.4, 97.3, 95.9, 0.0, 0.0, 0.0, 0.0; 92.86; 4248.27; 2.13; [0, 1, 2, 3]
0.5, 0.1, 0.0, 0.0, 97.5, 98.5, 97.3, 99.2; 66.73; 3053.01; 2.97; [4, 5, 6, 7]
0.4, 0.2, 0.0, 0.0, 99.9, 78.8, 99.6, 0.0; 96.44; 4411.98; 2.58; [4, 5, 6]
96.7, 98.6, 86.2, 84.4, 0.0, 0.0, 0.0, 0.0; 95.33; 4361.33; 2.01; [0, 1, 2, 3]
0.2, 0.0, 0.0, 0.0, 97.5, 98.2, 98.1, 98.4; 67.27; 3077.67; 2.96; [4, 5, 6, 7]
0.3, 0.1, 0.0, 0.0, 99.8, 99.8, 71.8, 0.0; 97.12; 4443.31; 2.91; [4, 5, 6]
95.4, 94.2, 98.6, 93.5, 0.0, 0.0, 0.0, 0.0; 79.06; 3616.86; 1.71; [0, 1, 2, 3]
0.1, 0.2, 0.0, 0.0, 99.8, 99.4, 76.7, 0.0; 96.58; 4418.57; 2.21; [4, 5, 6]
97.6, 87.4, 92.5, 84.1, 0.0, 0.0, 0.0, 0.0; 96.47; 4413.50; 2.01; [0, 1, 2, 3]
0.2, 0.0, 0.0, 0.0, 98.1, 98.0, 97.2, 98.4; 67.44; 3085.35; 2.96; [4, 5, 6, 7]
0.3, 0.2, 0.0, 0.0, 99.9, 71.1, 100.0, 0.0; 97.08; 4441.45; 2.91; [4, 5, 6]
97.9, 95.7, 94.6, 97.0, 0.0, 0.0, 0.0, 0.0; 75.96; 3475.38; 1.70; [0, 1, 2, 3]
0.1, 0.1, 0.0, 0.0, 88.9, 100.0, 85.3, 0.0; 97.55; 4462.99; 2.24; [4, 5, 6]
91.8, 86.0, 98.7, 92.0, 0.0, 0.0, 0.0, 0.0; 91.45; 4183.91; 1.95; [0, 1, 2, 3]
0.2, 0.1, 0.0, 0.1, 97.5, 98.3, 98.1, 98.8; 67.01; 3065.51; 2.97; [4, 5, 6, 7]
0.5, 0.0, 0.0, 0.0, 78.4, 91.7, 95.6, 0.0; 98.63; 4512.51; 2.91; [4, 5, 6]
94.7, 98.6, 95.3, 96.0, 0.0, 0.0, 0.0, 0.0; 74.55; 3410.69; 1.53; [0, 1, 2, 3]
0.1, 0.0, 0.0, 0.1, 99.7, 100.0, 75.7, 0.0; 96.69; 4423.61; 2.22; [4, 5, 6]
97.2, 97.0, 86.4, 88.1, 0.0, 0.0, 0.0, 0.0; 90.30; 4131.14; 1.94; [0, 1, 2, 3]
0.3, 0.1, 0.0, 0.0, 97.5, 98.5, 99.1, 97.7; 66.94; 3062.59; 2.96; [4, 5, 6, 7]
0.4, 0.0, 0.0, 0.0, 99.9, 71.8, 100.0, 0.0; 97.04; 4439.66; 2.89; [4, 5, 6]
96.7, 97.0, 98.6, 96.0, 0.0, 0.0, 0.0, 0.0; 73.62; 3367.96; 1.62; [0, 1, 2, 3]
96.8, 98.8, 97.5, 96.4, 0.0, 0.0, 0.0, 0.0; 68.24; 3121.83; 1.29; [0, 1, 2, 3]
96.9, 97.3, 98.8, 96.2, 0.0, 0.0, 0.0, 0.0; 68.24; 3121.90; 1.29; [0, 1, 2, 3]
96.9, 96.3, 97.5, 98.7, 0.0, 0.0, 0.0, 0.0; 68.22; 3120.84; 1.30; [0, 1, 2, 3]
96.1, 95.2, 97.5, 97.5, 0.0, 0.0, 0.0, 0.0; 68.22; 3121.15; 1.30; [0, 1, 2, 3]
97.0, 97.4, 97.4, 97.4, 0.0, 0.0, 0.0, 0.0; 68.27; 3123.35; 1.31; [0, 1, 2, 3]
97.1, 97.5, 97.5, 97.5, 0.0, 0.0, 0.0, 0.0; 68.18; 3119.35; 1.31; [0, 1, 2, 3]
96.9, 98.7, 97.3, 96.0, 0.0, 0.0, 0.0, 0.0; 68.41; 3129.64; 1.31; [0, 1, 2, 3]
94.9, 95.3, 84.5, 0.4, 0.0, 0.1, 0.0, 0.0; 96.98; 4436.81; 1.32; [0, 1, 2]
95.8, 95.9, 96.4, 98.7, 0.0, 0.0, 0.0, 0.0; 92.08; 4212.73; 1.30; [0, 1, 2, 3]
0.3, 0.2, 0.0, 0.0, 97.8, 97.6, 98.6, 99.1; 66.65; 3049.37; 2.99; [4, 5, 6, 7]
0.2, 0.1, 0.0, 0.0, 100.0, 79.7, 99.8, 0.0; 96.12; 4397.34; 2.71; [4, 5, 6]
0.2, 0.0, 0.0, 0.0, 76.5, 89.0, 96.7, 0.0; 97.11; 4442.70; 2.29; [4, 5, 6]
98.9, 100.0, 73.6, 0.2, 0.0, 0.0, 0.0, 0.0; 99.13; 4535.13; 2.13; [0, 1, 2]
97.1, 90.3, 92.3, 98.7, 0.0, 0.0, 0.0, 0.0; 79.30; 3628.17; 1.29; [0, 1, 2, 3]
97.8, 98.5, 96.0, 96.1, 0.0, 0.0, 0.0, 0.0; 68.67; 3141.78; 1.29; [0, 1, 2, 3]
97.6, 96.0, 95.9, 98.4, 0.0, 0.0, 0.0, 0.0; 68.76; 3145.95; 1.29; [0, 1, 2, 3]
96.8, 98.7, 97.3, 96.0, 0.0, 0.0, 0.0, 0.0; 68.42; 3130.35; 1.30; [0, 1, 2, 3]
96.0, 97.4, 97.5, 94.9, 0.0, 0.0, 0.0, 0.0; 68.24; 3122.18; 1.30; [0, 1, 2, 3]
97.1, 97.4, 97.4, 97.5, 0.0, 0.0, 0.0, 0.0; 68.30; 3124.50; 1.31; [0, 1, 2, 3]
96.8, 97.5, 96.3, 98.7, 0.0, 0.0, 0.0, 0.0; 68.24; 3122.19; 1.31; [0, 1, 2, 3]
96.8, 98.7, 96.3, 97.5, 0.0, 0.0, 0.0, 0.0; 68.25; 3122.51; 1.31; [0, 1, 2, 3]
97.1, 97.4, 97.3, 97.2, 0.0, 0.1, 0.0, 0.0; 68.24; 3121.81; 1.30; [0, 1, 2, 3]
95.9, 97.4, 97.7, 94.9, 0.0, 0.0, 0.0, 0.0; 68.40; 3129.31; 1.31; [0, 1, 2, 3]
97.2, 96.1, 97.4, 98.7, 0.0, 0.0, 0.0, 0.0; 68.35; 3127.14; 1.31; [0, 1, 2, 3]
97.1, 98.8, 96.1, 97.4, 0.0, 0.0, 0.0, 0.0; 68.26; 3123.12; 1.31; [0, 1, 2, 3]
96.9, 98.6, 96.1, 97.4, 0.0, 0.0, 0.0, 0.0; 68.29; 3124.09; 1.30; [0, 1, 2, 3]
96.0, 97.5, 95.1, 97.6, 0.0, 0.0, 0.0, 0.0; 68.39; 3128.76; 1.30; [0, 1, 2, 3]
96.7, 97.5, 97.4, 97.5, 0.0, 0.0, 0.0, 0.0; 68.29; 3124.10; 1.31; [0, 1, 2, 3]
97.1, 98.7, 96.1, 97.5, 0.0, 0.0, 0.0, 0.0; 68.30; 3124.52; 1.31; [0, 1, 2, 3]
97.0, 97.4, 98.8, 96.1, 0.0, 0.0, 0.0, 0.0; 68.22; 3121.23; 1.31; [0, 1, 2, 3]
96.9, 97.4, 96.0, 98.7, 0.0, 0.0, 0.0, 0.0; 68.38; 3128.17; 1.31; [0, 1, 2, 3]
97.2, 97.2, 94.7, 95.9, 0.0, 0.0, 0.0, 0.0; 68.71; 3143.37; 1.31; [0, 1, 2, 3]
97.0, 98.7, 96.2, 97.4, 0.0, 0.0, 0.0, 0.0; 68.39; 3128.70; 1.31; [0, 1, 2, 3]
96.8, 97.6, 96.2, 98.6, 0.0, 0.0, 0.0, 0.0; 68.39; 3128.70; 1.31; [0, 1, 2, 3]
97.8, 96.1, 97.3, 97.3, 0.0, 0.0, 0.0, 0.0; 68.68; 3142.16; 1.31; [0, 1, 2, 3]
96.8, 97.6, 96.2, 98.7, 0.0, 0.0, 0.0, 0.0; 68.25; 3122.66; 1.31; [0, 1, 2, 3]
95.9, 96.2, 96.2, 97.4, 0.0, 0.0, 0.0, 0.0; 68.22; 3121.03; 1.31; [0, 1, 2, 3]
97.8, 96.3, 97.5, 97.3, 0.0, 0.0, 0.0, 0.0; 68.61; 3138.90; 1.31; [0, 1, 2, 3]
97.1, 96.3, 97.4, 98.7, 0.0, 0.1, 0.0, 0.0; 68.23; 3121.40; 1.31; [0, 1, 2, 3]
97.1, 98.7, 96.2, 97.5, 0.0, 0.0, 0.0, 0.0; 68.18; 3119.42; 1.31; [0, 1, 2, 3]
96.8, 97.4, 96.2, 98.7, 0.0, 0.0, 0.0, 0.0; 68.36; 3127.48; 1.31; [0, 1, 2, 3]
96.0, 97.5, 95.0, 97.4, 0.0, 0.0, 0.0, 0.0; 68.35; 3127.22; 1.31; [0, 1, 2, 3]
97.4, 96.3, 98.7, 97.5, 0.0, 0.0, 0.0, 0.0; 68.23; 3121.64; 1.31; [0, 1, 2, 3]
84.9, 99.5, 90.0, 0.3, 0.0, 0.0, 0.0, 0.0; 98.78; 4519.13; 1.22; [0, 1, 2]
86.5, 85.1, 96.7, 96.9, 0.0, 0.0, 0.0, 0.0; 91.97; 4207.74; 1.30; [0, 1, 2, 3]
1.0, 1.6, 1.6, 1.6, 98.1, 98.2, 98.3, 97.7; 67.19; 3074.16; 3.02; [4, 5, 6, 7]
0.2, 0.1, 0.0, 0.1, 99.9, 99.3, 70.9, 0.0; 97.10; 4442.22; 2.94; [4, 5, 6]
96.2, 99.8, 74.3, 0.2, 0.0, 0.0, 0.0, 0.0; 100.46; 4596.19; 1.54; [0, 1, 2]
100.0, 86.6, 86.7, 0.4, 0.0, 0.0, 0.0, 0.0; 98.34; 4499.21; 1.12; [0, 1, 2]
97.7, 85.6, 83.5, 98.8, 0.0, 0.0, 0.0, 0.0; 93.25; 4266.05; 1.30; [0, 1, 2, 3]
0.3, 0.1, 0.0, 0.0, 88.5, 92.6, 95.1, 0.0; 96.25; 4403.32; 2.30; [4, 5, 6]
99.9, 97.2, 70.1, 0.2, 0.0, 0.0, 0.0, 0.0; 98.23; 4494.13; 2.15; [0, 1, 2]
97.8, 98.6, 94.1, 96.3, 0.0, 0.0, 0.0, 0.0; 73.04; 3341.56; 1.30; [0, 1, 2, 3]
99.6, 76.3, 100.0, 0.5, 0.0, 0.0, 0.0, 0.0; 97.69; 4469.23; 1.21; [0, 1, 2]
97.5, 86.2, 85.3, 97.8, 0.0, 0.0, 0.0, 0.0; 91.90; 4204.45; 1.30; [0, 1, 2, 3]
0.1, 0.0, 0.0, 0.0, 99.3, 100.0, 72.8, 0.0; 95.95; 4389.73; 2.25; [4, 5, 6]
96.7, 95.7, 93.2, 97.3, 0.0, 0.0, 0.0, 0.0; 92.99; 4254.19; 2.13; [0, 1, 2, 3]
0.5, 0.1, 0.0, 0.0, 99.9, 99.9, 73.7, 0.0; 96.87; 4431.85; 2.25; [4, 5, 6]
99.9, 76.7, 93.7, 0.5, 0.0, 0.0, 0.0, 0.0; 99.91; 4570.86; 1.71; [0, 1, 2]
97.3, 87.0, 84.7, 98.8, 0.0, 0.0, 0.0, 0.0; 90.98; 4162.39; 1.29; [0, 1, 2, 3]
0.2, 0.0, 0.0, 0.0, 99.9, 99.3, 73.4, 0.0; 96.20; 4401.36; 2.21; [4, 5, 6]
99.7, 96.5, 71.6, 0.3, 0.0, 0.0, 0.0, 0.0; 98.46; 4504.40; 2.16; [0, 1, 2]
96.7, 94.9, 94.7, 97.2, 0.0, 0.0, 0.0, 0.0; 73.57; 3365.72; 1.29; [0, 1, 2, 3]
93.9, 95.0, 84.9, 0.5, 0.0, 0.0, 0.0, 0.0; 99.05; 4531.33; 1.22; [0, 1, 2]
97.5, 85.7, 97.3, 88.5, 0.0, 0.0, 0.0, 0.0; 89.18; 4080.07; 1.30; [0, 1, 2, 3]
96.8, 96.4, 97.5, 98.7, 0.0, 0.0, 0.0, 0.0; 68.23; 3121.44; 1.30; [0, 1, 2, 3]
99.6, 99.8, 71.4, 0.4, 0.0, 0.1, 0.0, 0.0; 98.26; 4495.20; 1.32; [0, 1, 2]
96.7, 96.0, 96.0, 97.3, 0.0, 0.0, 0.0, 0.0; 71.19; 3257.01; 1.31; [0, 1, 2, 3]
96.2, 77.7, 100.0, 0.1, 0.0, 0.1, 0.0, 0.0; 98.40; 4501.89; 1.22; [0, 1, 2]
87.0, 88.8, 96.7, 98.8, 0.0, 0.0, 0.0, 0.0; 87.11; 3985.48; 1.31; [0, 1, 2, 3]
96.8, 98.7, 97.4, 96.0, 0.0, 0.0, 0.0, 0.0; 68.40; 3129.27; 1.31; [0, 1, 2, 3]
92.4, 99.2, 77.3, 0.5, 0.0, 0.0, 0.0, 0.0; 98.13; 4489.63; 1.32; [0, 1, 2]
96.5, 97.2, 98.6, 96.1, 0.0, 0.0, 0.0, 0.0; 93.84; 4293.27; 1.31; [0, 1, 2, 3]
96.7, 98.8, 97.5, 96.4, 0.0, 0.0, 0.0, 0.0; 68.23; 3121.50; 1.31; [0, 1, 2, 3]
99.8, 99.8, 79.0, 0.5, 0.0, 0.0, 0.0, 0.0; 97.64; 4466.90; 1.24; [0, 1, 2]
92.4, 98.7, 85.5, 88.4, 0.0, 0.0, 0.0, 0.0; 94.21; 4310.13; 1.30; [0, 1, 2, 3]
96.8, 97.4, 98.8, 96.1, 0.0, 0.0, 0.0, 0.0; 68.39; 3128.96; 1.31; [0, 1, 2, 3]
88.8, 92.2, 86.8, 0.6, 0.0, 0.0, 0.0, 0.0; 99.65; 4558.77; 1.31; [0, 1, 2]
93.9, 96.4, 94.4, 98.8, 0.0, 0.0, 0.0, 0.0; 74.07; 3388.88; 1.31; [0, 1, 2, 3]
90.1, 95.8, 91.1, 0.4, 0.0, 0.0, 0.0, 0.0; 97.88; 4478.13; 1.22; [0, 1, 2]
84.8, 97.1, 85.4, 98.8, 0.0, 0.0, 0.0, 0.0; 91.51; 4186.71; 1.31; [0, 1, 2, 3]
80.9, 91.9, 74.4, 73.6, 0.0, 0.0, 0.0, 0.0; 68.24; 3121.99; 1.31; [0, 1, 2, 3]
