31.9, 6.0, 4.4, 22.2, 0.2, 0.4, 0.0, 1.8; 0.60; 40.00; 0.76; [4, 5, 6, 7]
37.2, 11.5, 5.5, 1.4, 0.0, 0.0, 0.0, 0.0; 0.00; 40.00; 0.73; [4, 5, 6, 7]
39.2, 7.2, 8.4, 8.2, 0.0, 0.0, 0.0, 0.0; 0.00; 40.00; 0.75; [4, 5, 6, 7]
19.7, 21.1, 10.8, 7.5, 0.0, 0.2, 0.0, 0.0; 0.05; 40.00; 0.75; [4, 5, 6, 7]
0.2, 0.0, 0.0, 0.0, 35.8, 0.0, 0.0, 0.0; 35.80; 40.00; 0.86; [4]
0.2, 0.2, 0.0, 0.2, 14.3, 21.8, 0.0, 0.0; 18.05; 40.00; 0.89; [4, 5]
34.6, 8.0, 12.6, 0.0, 0.0, 0.0, 0.0, 0.0; 18.40; 40.00; 0.75; [0, 1, 2]
0.4, 0.0, 0.0, 0.0, 34.3, 0.0, 0.0, 0.0; 34.30; 40.00; 0.86; [4]
2.6, 12.8, 13.1, 32.6, 0.0, 0.2, 0.0, 0.0; 15.28; 40.00; 0.76; [0, 1, 2, 3]
16.6, 36.7, 5.7, 0.2, 0.0, 0.0, 0.0, 0.0; 19.67; 40.00; 0.77; [0, 1, 2]
0.2, 0.0, 0.0, 0.0, 40.2, 0.0, 0.0, 0.0; 40.20; 40.00; 0.89; [4]
60.0, 0.2, 0.0, 0.0, 0.0, 0.0, 0.0, 0.0; 60.00; 40.00; 0.78; [0]
48.6, 14.5, 0.2, 0.2, 0.0, 0.0, 0.0, 0.0; 31.55; 40.00; 0.77; [0, 1]
60.7, 0.0, 0.4, 0.2, 0.0, 0.0, 0.0, 0.0; 60.70; 40.00; 0.78; [0]
53.8, 0.0, 0.0, 0.2, 0.0, 0.0, 0.0, 0.0; 53.80; 40.00; 0.76; [0]
0.0, 0.0, 0.0, 0.0, 18.0, 0.2, 1.9, 11.1; 7.80; 40.00; 0.85; [4, 5, 6, 7]
0.8, 0.2, 0.0, 0.2, 22.5, 0.0, 2.4, 11.2; 9.02; 40.00; 0.87; [4, 5, 6, 7]
0.2, 0.0, 0.0, 0.0, 24.5, 0.0, 1.4, 11.4; 9.32; 40.00; 0.89; [4, 5, 6, 7]
0.2, 0.0, 0.0, 0.0, 24.8, 0.0, 2.4, 11.2; 9.60; 40.00; 0.90; [4, 5, 6, 7]
0.2, 0.0, 0.0, 0.2, 22.9, 0.0, 2.4, 11.4; 9.17; 40.00; 0.88; [4, 5, 6, 7]
0.4, 0.2, 0.0, 0.2, 22.0, 0.0, 2.4, 11.2; 8.90; 40.00; 0.88; [4, 5, 6, 7]
0.2, 0.0, 0.0, 0.0, 23.2, 0.0, 1.0, 11.2; 8.85; 40.00; 0.88; [4, 5, 6, 7]
1.0, 0.8, 0.2, 0.0, 24.8, 0.4, 1.6, 11.6; 9.60; 40.00; 0.90; [4, 5, 6, 7]
0.4, 0.2, 0.0, 0.2, 22.0, 0.0, 2.0, 11.4; 8.85; 40.00; 0.89; [4, 5, 6, 7]
0.4, 0.0, 0.0, 0.0, 19.2, 0.0, 2.0, 11.3; 8.12; 40.00; 0.87; [4, 5, 6, 7]
0.4, 0.0, 0.0, 0.0, 19.5, 0.0, 2.4, 11.4; 8.32; 40.00; 0.86; [4, 5, 6, 7]
0.2, 0.0, 0.0, 0.0, 21.1, 0.0, 1.4, 11.2; 8.43; 40.00; 0.88; [4, 5, 6, 7]
0.2, 0.0, 0.0, 0.2, 25.1, 0.0, 1.2, 11.4; 9.43; 40.00; 0.89; [4, 5, 6, 7]
0.6, 0.0, 0.0, 0.0, 39.6, 0.0, 0.0, 0.0; 39.60; 40.00; 0.91; [4]
1.3, 0.0, 0.0, 0.0, 19.8, 18.2, 0.0, 0.0; 19.00; 40.00; 0.92; [4, 5]
0.4, 0.2, 0.0, 0.2, 10.1, 11.6, 3.9, 10.5; 9.02; 40.00; 0.90; [4, 5, 6, 7]
0.4, 0.0, 0.0, 0.0, 9.4, 10.1, 1.6, 11.2; 8.07; 40.00; 0.90; [4, 5, 6, 7]
0.0, 0.0, 0.0, 0.2, 5.6, 8.3, 1.8, 11.4; 6.78; 40.00; 0.84; [4, 5, 6, 7]
0.4, 0.0, 0.0, 0.0, 5.7, 8.7, 1.6, 11.2; 6.80; 40.00; 0.85; [4, 5, 6, 7]
0.4, 0.0, 0.0, 0.2, 7.0, 9.1, 2.2, 11.3; 7.40; 40.00; 0.85; [4, 5, 6, 7]
0.2, 0.2, 0.0, 0.0, 13.8, 5.5, 1.8, 11.4; 8.12; 40.00; 0.87; [4, 5, 6, 7]
0.0, 0.0, 0.0, 0.0, 17.3, 0.0, 1.4, 11.3; 7.50; 40.00; 0.86; [4, 5, 6, 7]
0.8, 0.0, 0.0, 0.2, 22.0, 0.0, 2.0, 11.4; 8.85; 40.00; 0.90; [4, 5, 6, 7]
0.0, 0.0, 0.0, 0.0, 23.3, 0.0, 1.8, 11.3; 9.10; 40.00; 0.91; [4, 5, 6, 7]
0.2, 0.0, 0.0, 0.2, 16.4, 0.0, 2.2, 11.3; 7.47; 40.00; 0.87; [4, 5, 6, 7]
0.2, 0.0, 0.0, 0.0, 18.5, 0.0, 2.4, 11.3; 8.05; 40.00; 0.87; [4, 5, 6, 7]
0.6, 0.0, 0.0, 0.2, 18.7, 0.0, 2.4, 11.3; 8.10; 40.00; 0.88; [4, 5, 6, 7]
0.8, 0.0, 0.0, 0.0, 15.2, 0.0, 2.0, 11.4; 7.15; 40.00; 0.85; [4, 5, 6, 7]
0.8, 0.2, 0.0, 0.0, 19.3, 0.0, 2.2, 11.3; 8.20; 40.00; 0.88; [4, 5, 6, 7]
0.2, 0.0, 0.0, 0.2, 24.4, 0.0, 2.6, 11.4; 9.60; 40.00; 0.88; [4, 5, 6, 7]
0.8, 0.0, 0.0, 0.0, 28.4, 0.0, 2.2, 11.3; 10.47; 40.00; 0.95; [4, 5, 6, 7]
0.2, 0.0, 0.0, 0.0, 20.3, 0.0, 2.2, 11.3; 8.45; 40.00; 0.90; [4, 5, 6, 7]
0.2, 0.2, 0.0, 0.0, 24.9, 0.0, 2.6, 11.4; 9.72; 40.00; 0.93; [4, 5, 6, 7]
0.6, 0.0, 0.0, 0.2, 22.5, 0.0, 2.2, 11.2; 8.97; 40.00; 0.92; [4, 5, 6, 7]
0.2, 0.2, 0.0, 0.0, 26.6, 0.0, 2.8, 11.4; 10.20; 40.00; 0.93; [4, 5, 6, 7]
66.1, 0.2, 0.0, 0.0, 0.0, 0.0, 0.0, 0.0; 66.10; 40.00; 0.82; [0]
47.6, 11.2, 4.0, 0.2, 0.0, 0.0, 0.0, 0.0; 20.93; 40.00; 0.80; [0, 1, 2]
50.0, 0.2, 0.2, 0.0, 0.0, 0.2, 0.0, 0.0; 50.00; 40.00; 0.78; [0]
37.8, 0.0, 0.0, 0.0, 0.0, 0.0, 0.0, 0.0; 37.80; 40.00; 0.78; [0]
