13.2, 18.3, 16.5, 9.7, 62.2, 70.2, 65.3, 62.0; 64.92; 765.03; 2.46; [4, 5, 6, 7]
13.2, 18.3, 16.5, 9.7, 62.2, 70.2, 65.3, 62.0; 14.43; 930.67; 2.41; [0, 1, 2, 3]
13.2, 18.3, 16.5, 9.7, 62.2, 70.2, 65.3, 62.0; 13.20; 1074.15; 1.78; [0]
13.2, 18.3, 16.5, 9.7, 62.2, 70.2, 65.3, 62.0; 14.43; 1281.87; 1.57; [0, 1, 2, 3]
13.2, 18.3, 16.5, 9.7, 62.2, 70.2, 65.3, 62.0; 64.92; 1254.47; 1.67; [4, 5, 6, 7]
13.2, 18.3, 16.5, 9.7, 62.2, 70.2, 65.3, 62.0; 65.90; 1106.98; 1.78; [4, 5, 6]
13.2, 18.3, 16.5, 9.7, 62.2, 70.2, 65.3, 62.0; 66.20; 1102.55; 1.80; [4, 5]
13.2, 18.3, 16.5, 9.7, 62.2, 70.2, 65.3, 62.0; 66.20; 1170.79; 1.76; [4, 5]
13.2, 18.3, 16.5, 9.7, 62.2, 70.2, 65.3, 62.0; 16.00; 1210.69; 1.69; [0, 1, 2]
13.2, 18.3, 16.5, 9.7, 62.2, 70.2, 65.3, 62.0; 13.20; 1262.30; 1.63; [0]
13.2, 18.3, 16.5, 9.7, 62.2, 70.2, 65.3, 62.0; 15.75; 1296.60; 1.63; [0, 1]
13.2, 18.3, 16.5, 9.7, 62.2, 70.2, 65.3, 62.0; 66.20; 1279.45; 1.66; [4, 5]
13.2, 18.3, 16.5, 9.7, 62.2, 70.2, 65.3, 62.0; 16.00; 1353.97; 1.65; [0, 1, 2]
13.2, 18.3, 16.5, 9.7, 62.2, 70.2, 65.3, 62.0; 66.20; 1431.87; 1.54; [4, 5]
13.2, 18.3, 16.5, 9.7, 62.2, 70.2, 65.3, 62.0; 13.20; 1533.08; 1.50; [0]
13.2, 18.3, 16.5, 9.7, 62.2, 70.2, 65.3, 62.0; 64.92; 1574.82; 1.44; [4, 5, 6, 7]
13.2, 18.3, 16.5, 9.7, 62.2, 70.2, 65.3, 62.0; 65.90; 1479.26; 1.51; [4, 5, 6]
13.2, 18.3, 16.5, 9.7, 62.2, 70.2, 65.3, 62.0; 14.43; 1389.02; 1.62; [0, 1, 2, 3]
13.2, 18.3, 16.5, 9.7, 62.2, 70.2, 65.3, 62.0; 15.75; 1243.81; 1.65; [0, 1]
13.2, 18.3, 16.5, 9.7, 62.2, 70.2, 65.3, 62.0; 16.00; 1316.45; 1.60; [0, 1, 2]
13.2, 18.3, 16.5, 9.7, 62.2, 70.2, 65.3, 62.0; 14.43; 1331.62; 1.53; [0, 1, 2, 3]
13.2, 18.3, 16.5, 9.7, 62.2, 70.2, 65.3, 62.0; 13.20; 1321.14; 1.51; [0]
13.2, 18.3, 16.5, 9.7, 62.2, 70.2, 65.3, 62.0; 16.00; 1460.85; 1.42; [0, 1, 2]
13.2, 18.3, 16.5, 9.7, 62.2, 70.2, 65.3, 62.0; 15.75; 1407.11; 1.39; [0, 1]
13.2, 18.3, 16.5, 9.7, 62.2, 70.2, 65.3, 62.0; 62.20; 1557.66; 1.34; [4]
13.2, 18.3, 16.5, 9.7, 62.2, 70.2, 65.3, 62.0; 64.92; 1580.20; 1.29; [4, 5, 6, 7]
13.2, 18.3, 16.5, 9.7, 62.2, 70.2, 65.3, 62.0; 16.00; 1595.11; 1.30; [0, 1, 2]
13.2, 18.3, 16.5, 9.7, 62.2, 70.2, 65.3, 62.0; 65.90; 1593.45; 1.40; [4, 5, 6]
13.2, 18.3, 16.5, 9.7, 62.2, 70.2, 65.3, 62.0; 15.75; 1476.89; 1.42; [0, 1]
13.2, 18.3, 16.5, 9.7, 62.2, 70.2, 65.3, 62.0; 13.20; 1557.91; 1.37; [0]
13.2, 18.3, 16.5, 9.7, 62.2, 70.2, 65.3, 62.0; 64.92; 1589.91; 1.56; [4, 5, 6, 7]
13.2, 18.3, 16.5, 9.7, 62.2, 70.2, 65.3, 62.0; 62.20; 1318.19; 1.68; [4]
13.2, 18.3, 16.5, 9.7, 62.2, 70.2, 65.3, 62.0; 15.75; 1313.20; 1.67; [0, 1]
13.2, 18.3, 16.5, 9.7, 62.2, 70.2, 65.3, 62.0; 15.75; 1408.21; 1.61; [0, 1]
13.2, 18.3, 16.5, 9.7, 62.2, 70.2, 65.3, 62.0; 65.90; 1475.95; 1.51; [4, 5, 6]
13.2, 18.3, 16.5, 9.7, 62.2, 70.2, 65.3, 62.0; 66.20; 1465.51; 1.57; [4, 5]
13.2, 18.3, 16.5, 9.7, 62.2, 70.2, 65.3, 62.0; 14.43; 1481.87; 1.55; [0, 1, 2, 3]
13.2, 18.3, 16.5, 9.7, 62.2, 70.2, 65.3, 62.0; 14.43; 1451.38; 1.57; [0, 1, 2, 3]
13.2, 18.3, 16.5, 9.7, 62.2, 70.2, 65.3, 62.0; 16.00; 1387.98; 1.53; [0, 1, 2]
13.2, 18.3, 16.5, 9.7, 62.2, 70.2, 65.3, 62.0; 14.43; 1454.59; 1.43; [0, 1, 2, 3]
13.2, 18.3, 16.5, 9.7, 62.2, 70.2, 65.3, 62.0; 62.20; 1436.73; 1.35; [4]
13.2, 18.3, 16.5, 9.7, 62.2, 70.2, 65.3, 62.0; 15.75; 1426.22; 1.37; [0, 1]
13.2, 18.3, 16.5, 9.7, 62.2, 70.2, 65.3, 62.0; 15.75; 1442.67; 1.37; [0, 1]
13.2, 18.3, 16.5, 9.7, 62.2, 70.2, 65.3, 62.0; 64.92; 1468.98; 1.34; [4, 5, 6, 7]
13.2, 18.3, 16.5, 9.7, 62.2, 70.2, 65.3, 62.0; 15.75; 1483.03; 1.35; [0, 1]
13.2, 18.3, 16.5, 9.7, 62.2, 70.2, 65.3, 62.0; 64.92; 1491.20; 1.42; [4, 5, 6, 7]
13.2, 18.3, 16.5, 9.7, 62.2, 70.2, 65.3, 62.0; 15.75; 1379.06; 1.47; [0, 1]
13.2, 18.3, 16.5, 9.7, 62.2, 70.2, 65.3, 62.0; 65.90; 1371.15; 1.57; [4, 5, 6]
13.2, 18.3, 16.5, 9.7, 62.2, 70.2, 65.3, 62.0; 62.20; 1274.17; 1.63; [4]
13.2, 18.3, 16.5, 9.7, 62.2, 70.2, 65.3, 62.0; 14.43; 1239.38; 1.72; [0, 1, 2, 3]
13.2, 18.3, 16.5, 9.7, 62.2, 70.2, 65.3, 62.0; 15.75; 1213.70; 1.74; [0, 1]
13.2, 18.3, 16.5, 9.7, 62.2, 70.2, 65.3, 62.0; 66.20; 1322.04; 1.61; [4, 5]
13.2, 18.3, 16.5, 9.7, 62.2, 70.2, 65.3, 62.0; 14.43; 1340.55; 1.58; [0, 1, 2, 3]
13.2, 18.3, 16.5, 9.7, 62.2, 70.2, 65.3, 62.0; 64.92; 1315.80; 1.56; [4, 5, 6, 7]
13.2, 18.3, 16.5, 9.7, 62.2, 70.2, 65.3, 62.0; 62.20; 1283.08; 1.62; [4]
13.2, 18.3, 16.5, 9.7, 62.2, 70.2, 65.3, 62.0; 66.20; 1327.40; 1.60; [4, 5]
13.2, 18.3, 16.5, 9.7, 62.2, 70.2, 65.3, 62.0; 64.92; 1321.19; 1.75; [4, 5, 6, 7]
13.2, 18.3, 16.5, 9.7, 62.2, 70.2, 65.3, 62.0; 16.00; 1096.20; 1.88; [0, 1, 2]
13.2, 18.3, 16.5, 9.7, 62.2, 70.2, 65.3, 62.0; 62.20; 1135.62; 1.82; [4]
13.2, 18.3, 16.5, 9.7, 62.2, 70.2, 65.3, 62.0; 65.90; 1167.23; 1.89; [4, 5, 6]
13.2, 18.3, 16.5, 9.7, 62.2, 70.2, 65.3, 62.0; 62.20; 1198.10; 1.87; [4]
13.2, 18.3, 16.5, 9.7, 62.2, 70.2, 65.3, 62.0; 64.92; 1247.57; 1.88; [4, 5, 6, 7]
13.2, 18.3, 16.5, 9.7, 62.2, 70.2, 65.3, 62.0; 15.75; 1179.10; 1.89; [0, 1]
13.2, 18.3, 16.5, 9.7, 62.2, 70.2, 65.3, 62.0; 16.00; 1251.83; 1.78; [0, 1, 2]
13.2, 18.3, 16.5, 9.7, 62.2, 70.2, 65.3, 62.0; 64.92; 1281.92; 1.68; [4, 5, 6, 7]
13.2, 18.3, 16.5, 9.7, 62.2, 70.2, 65.3, 62.0; 65.90; 1195.06; 1.88; [4, 5, 6]
13.2, 18.3, 16.5, 9.7, 62.2, 70.2, 65.3, 62.0; 66.20; 1101.29; 1.88; [4, 5]
13.2, 18.3, 16.5, 9.7, 62.2, 70.2, 65.3, 62.0; 13.20; 1136.74; 1.90; [0]
