91.1887806267 1018.5786796 0.696693064935 0.390750640602
108.938374132 1216.84163905 -4.61796737225 -1.45688372787
116.444160806 1300.6812762 1 0.292064585456
95.8985432677 1071.1867283 1.0233355926 -0.131848192044
93.9611221441 1049.54573435 -3.96376009808 -2.75099882369
101.724592762 1136.26370115 1.01767960523 1.42655512316
104.955510546 1172.3530528 0.761188818182 -0.101614344374
99.4506355237 1110.8635988 1 -0.395005350101
94.9623154432 1060.7290635 -3.58232183266 -2.16909760611
105.467894781 1178.0763847 -4.11735873139 -3.1875884776
107.406711258 1199.73296475 1 2.12347435754
107.457276285 1200.2977761 1 0.558051887486
86.8413250492 970.0176008 1.01994480542 -1.69554568438
88.8973453357 992.9833474 0.730128103896 0.198627546247
86.8995932632 970.66845675 0.66868487013 0.349645578857
76.8523138004 858.44034515 0.676589883117 0.406596063412
86.9339442525 971.0521573 0.710104363636 0.270038665781
95.5345489615 1067.1209119 0.740065188312 0.663913413638
105.490094239 1178.32435265 0.761986233766 1.51703500888
107.034259651 1195.5726803 0.78110974026 -0.176045446377
112.586495139 1257.5911507 -4.81132315441 -2.05314684595
115.81289573 1293.6300453 1 -1.27748897892
117.220046616 1309.3479207 -5.33938627695 -3.27853309522
120.668099955 1347.8626765 1 0.613932560522
95.2590961683 1064.0441042 1.03859451538 0.0842235422794
96.2674166876 1075.3070444 1.04551656217 0.41510903241
104.049049118 1162.22787865 1.03164251784 1.30514242895
101.89236761 1138.1377462 0.735736493506 -1.38882047523
95.3992373859 1065.6094816 0.718318935065 0.0802339439479
94.0631163474 1050.6850096 0.716537142857 0.488430485235
95.9726769919 1072.014802 0.742716155844 0.673299072714
99.0405032095 1106.28242085 0.746301701299 0.491041214163
94.0373553178 1050.3972589 0.753891727273 0.516174769009
98.9427758102 1105.1908058 0.756921525974 0.373513462163
106.37512094 1188.2101009 0.767815597403 -0.726380459504
109.262075421 1220.45738245 1 0.136805984156
106.05133308 1184.5933905 -4.48706149759 -2.15014388891
98.6185182184 1101.5688485 1.00077147788 -0.427845752291
94.2987479946 1053.3170151 1.02958222812 0.644056809067
103.391116132 1154.8787672 1.01459131981 1.25301209782
100.331255842 1120.70012775 0.72457737013 0.226682402477
92.4090336974 1032.2089064 0.720018201299 -0.0641926269722
99.3795109758 1110.0691376 0.730318103896 0.0734452940206
107.142947628 1196.786725 0.751990779221 1.22908318994
111.922733885 1250.1769375 1 0.187536204362
114.93901667 1283.8688162 -4.58125635114 -0.53338508964
111.460147323 1245.0098456 1 -0.09078801171
102.595226047 1145.98867495 1.01031423216 0.0469398753571
101.939778021 1138.6673205 1.02316584899 1.17441621021
94.599886231 1056.6807292 1.04953574343 0.104902300387
95.3201937601 1064.7265643 0.724339454545 0.195864494115
104.133738496 1163.173859 0.746561922078 1.49792198518
103.590693205 1157.1080431 0.743280909091 -0.103796619055
99.6782411101 1113.4059532 -3.92432282999 -2.90338697501
102.73453744 1147.5447832 -4.12244045012 -6.46127699357
103.764432596 1159.0487121 1.00090125629 -0.333232817595
