1.4, 0.2, 1.3, 0.6, 94.2, 93.5, 99.4, 94.3; 41.01; 1100.30; 3.73; [4, 5, 6, 7]
1.1, 0.3, 0.0, 0.0, 100.0, 100.0, 0.0, 0.0; 61.11; 1639.46; 3.20; [4, 5]
1.1, 0.3, 0.1, 0.0, 100.0, 100.0, 0.0, 0.0; 72.43; 1943.30; 2.71; [4, 5]
1.3, 0.3, 0.1, 0.0, 100.0, 100.0, 0.0, 0.0; 77.31; 2074.23; 2.54; [4, 5]
1.2, 0.1, 0.2, 0.0, 100.0, 100.0, 0.0, 0.0; 79.92; 2144.21; 2.46; [4, 5]
1.6, 0.3, 0.3, 0.0, 100.0, 100.0, 0.3, 0.2; 81.61; 2189.55; 2.41; [4, 5]
100.0, 100.0, 100.0, 1.1, 0.0, 0.0, 0.0, 0.0; 82.57; 2215.45; 2.36; [0, 1, 2]
99.9, 99.9, 100.0, 100.0, 0.0, 0.0, 0.0, 0.0; 87.10; 2337.03; 2.19; [0, 1, 2, 3]
1.8, 0.2, 0.0, 0.3, 100.0, 100.0, 99.8, 99.9; 89.67; 2405.84; 2.12; [4, 5, 6, 7]
1.0, 0.0, 0.0, 0.2, 100.0, 0.0, 0.0, 0.0; 80.77; 2166.94; 2.18; [4]
100.0, 100.0, 0.4, 0.9, 0.0, 0.0, 0.0, 0.0; 86.31; 2315.64; 2.07; [0, 1]
100.0, 100.0, 0.3, 0.7, 0.0, 0.0, 0.0, 0.0; 92.25; 2475.13; 1.92; [0, 1]
100.0, 100.0, 0.3, 0.3, 0.0, 0.1, 0.0, 0.0; 100.47; 2695.74; 1.75; [0, 1]
100.0, 100.0, 0.8, 0.5, 0.0, 0.0, 0.0, 0.0; 102.68; 2754.78; 1.66; [0, 1]
1.1, 0.1, 0.2, 0.0, 100.0, 100.0, 0.0, 0.0; 104.85; 2813.06; 1.60; [4, 5]
1.2, 0.0, 0.4, 0.0, 100.0, 100.0, 0.0, 0.0; 103.49; 2776.75; 1.69; [4, 5]
1.4, 0.0, 0.2, 0.2, 100.0, 100.0, 0.0, 0.0; 106.23; 2850.23; 1.73; [4, 5]
3.9, 0.4, 0.0, 0.3, 96.8, 79.4, 91.3, 85.5; 106.89; 2867.90; 2.42; [4, 5, 6, 7]
1.0, 0.1, 0.0, 0.0, 100.0, 0.1, 0.0, 0.0; 42.13; 1130.27; 2.51; [4]
100.0, 100.0, 0.8, 1.1, 0.0, 0.0, 0.0, 0.0; 40.75; 1093.45; 2.29; [0, 1]
100.0, 99.8, 100.0, 100.0, 0.0, 0.0, 0.0, 0.0; 43.37; 1163.57; 1.96; [0, 1, 2, 3]
1.9, 0.2, 0.0, 0.1, 100.0, 100.0, 0.0, 0.0; 49.92; 1339.38; 1.70; [4, 5]
2.8, 0.4, 0.0, 0.2, 99.8, 99.9, 99.8, 0.0; 51.81; 1390.07; 2.16; [4, 5, 6]
2.2, 0.1, 0.0, 0.6, 99.9, 99.9, 99.9, 0.0; 34.10; 914.81; 2.76; [4, 5, 6]
100.0, 100.0, 98.6, 99.7, 0.0, 0.0, 0.0, 0.0; 30.76; 825.31; 2.79; [0, 1, 2, 3]
100.0, 99.9, 100.0, 1.7, 0.0, 0.0, 0.0, 0.0; 35.38; 949.25; 2.34; [0, 1, 2]
100.0, 0.5, 0.1, 0.5, 0.0, 0.1, 0.0, 0.0; 43.83; 1175.88; 1.77; [0]
3.8, 1.0, 0.0, 0.0, 99.0, 97.6, 99.1, 0.0; 44.90; 1204.55; 1.63; [4, 5, 6]
3.1, 0.7, 0.1, 0.0, 99.8, 99.7, 99.9, 0.0; 35.48; 951.81; 2.96; [4, 5, 6]
100.0, 99.3, 99.3, 100.0, 0.0, 0.0, 0.0, 0.0; 25.29; 678.50; 2.90; [0, 1, 2, 3]
99.9, 100.0, 99.9, 2.2, 0.0, 0.0, 0.0, 0.0; 31.38; 841.91; 2.25; [0, 1, 2]
100.0, 0.4, 0.2, 0.3, 0.0, 0.0, 0.0, 0.0; 39.36; 1056.00; 1.73; [0]
100.0, 99.9, 100.0, 99.8, 0.0, 0.0, 0.0, 0.0; 46.45; 1246.30; 1.44; [0, 1, 2, 3]
1.7, 0.1, 0.3, 0.0, 100.0, 99.9, 0.0, 0.0; 48.56; 1302.96; 1.42; [4, 5]
2.3, 0.1, 0.7, 0.1, 98.6, 99.9, 99.9, 1.9; 50.64; 1358.59; 1.98; [4, 5, 6]
2.6, 0.1, 0.0, 0.0, 99.8, 99.8, 99.7, 0.0; 37.69; 1011.19; 2.70; [4, 5, 6]
100.0, 99.8, 100.0, 100.0, 0.0, 0.0, 0.0, 0.0; 34.47; 924.84; 2.75; [0, 1, 2, 3]
99.8, 99.9, 99.9, 2.1, 0.0, 0.0, 0.0, 0.0; 33.76; 905.82; 2.41; [0, 1, 2]
100.0, 0.6, 0.2, 0.4, 0.0, 0.0, 0.0, 0.0; 41.94; 1125.28; 1.78; [0]
3.1, 0.3, 0.0, 0.1, 99.9, 100.0, 99.9, 0.0; 43.87; 1177.00; 1.63; [4, 5, 6]
1.6, 0.6, 0.1, 0.0, 99.9, 99.9, 99.9, 0.0; 40.42; 1084.35; 2.09; [4, 5, 6]
1.3, 0.2, 0.0, 0.0, 99.9, 99.9, 100.0, 0.0; 42.11; 1129.77; 2.77; [4, 5, 6]
1.3, 0.4, 0.0, 0.0, 100.0, 100.0, 100.0, 0.0; 44.14; 1184.21; 2.94; [4, 5, 6]
1.1, 0.4, 0.0, 0.0, 100.0, 100.0, 99.9, 0.0; 49.69; 1333.19; 2.94; [4, 5, 6]
1.5, 0.5, 0.0, 0.0, 99.9, 99.9, 100.0, 0.0; 59.85; 1605.90; 2.94; [4, 5, 6]
1.4, 0.1, 0.1, 0.1, 100.0, 100.0, 100.0, 0.0; 62.33; 1672.40; 2.94; [4, 5, 6]
100.0, 100.0, 0.1, 0.9, 0.0, 0.0, 0.0, 0.0; 63.34; 1699.47; 2.90; [0, 1]
0.9, 0.1, 0.1, 0.1, 100.0, 100.0, 0.0, 0.0; 73.40; 1969.44; 2.62; [4, 5]
1.1, 0.0, 0.2, 0.1, 100.0, 100.0, 0.0, 0.0; 76.16; 2043.37; 2.50; [4, 5]
1.2, 0.1, 0.2, 0.3, 100.0, 100.0, 0.0, 0.0; 80.92; 2170.98; 2.40; [4, 5]
99.9, 99.7, 100.0, 1.5, 0.0, 0.0, 0.0, 0.0; 84.86; 2276.80; 2.31; [0, 1, 2]
1.0, 0.0, 0.0, 0.1, 100.0, 99.9, 99.9, 0.0; 89.40; 2398.59; 2.14; [4, 5, 6]
1.8, 0.1, 0.0, 0.2, 87.6, 99.0, 100.0, 0.0; 88.10; 2363.63; 2.13; [4, 5, 6]
1.7, 0.1, 0.0, 0.4, 99.9, 92.2, 98.8, 0.0; 83.90; 2251.01; 2.37; [4, 5, 6]
1.0, 0.0, 0.0, 0.3, 100.0, 99.9, 99.9, 0.0; 65.57; 1759.22; 2.52; [4, 5, 6]
100.0, 100.0, 0.7, 0.5, 0.0, 0.0, 0.0, 0.0; 62.29; 1671.24; 2.58; [0, 1]
0.9, 0.1, 0.0, 0.1, 100.0, 100.0, 0.0, 0.0; 66.37; 1780.65; 2.50; [4, 5]
0.7, 0.0, 0.0, 0.3, 100.0, 100.0, 0.0, 0.0; 71.06; 1906.46; 2.39; [4, 5]
1.2, 0.0, 0.0, 0.2, 100.0, 100.0, 0.0, 0.0; 73.26; 1965.60; 2.30; [4, 5]
1.4, 0.2, 0.0, 0.4, 100.0, 100.0, 0.0, 0.0; 81.98; 2199.59; 2.24; [4, 5]
99.9, 100.0, 98.9, 100.0, 0.0, 0.0, 0.0, 0.0; 85.71; 2299.53; 2.18; [0, 1, 2, 3]
1.4, 0.0, 0.0, 0.3, 99.5, 100.0, 99.7, 99.9; 85.84; 2303.03; 2.23; [4, 5, 6, 7]
100.0, 100.0, 0.3, 0.8, 0.0, 0.0, 0.0, 0.0; 76.83; 2061.29; 2.23; [0, 1]
1.6, 0.0, 0.1, 0.1, 100.0, 100.0, 0.0, 0.0; 80.73; 2165.94; 2.13; [4, 5]
100.0, 100.0, 99.9, 1.3, 0.0, 0.0, 0.0, 0.0; 81.76; 2193.51; 2.09; [0, 1, 2]
1.2, 0.2, 0.0, 0.3, 100.0, 99.9, 99.8, 0.0; 81.51; 2186.88; 2.09; [4, 5, 6]
1.1, 0.0, 0.0, 0.2, 99.9, 99.9, 100.0, 0.0; 76.25; 2045.88; 2.28; [4, 5, 6]
100.0, 100.0, 0.9, 1.4, 0.0, 0.1, 0.0, 0.0; 82.36; 2209.72; 2.33; [0, 1]
1.9, 0.2, 0.0, 0.2, 94.1, 70.2, 95.4, 98.9; 83.63; 2243.67; 2.18; [4, 5, 6, 7]
100.0, 100.0, 0.4, 0.2, 0.0, 0.0, 0.0, 0.0; 78.36; 2102.47; 2.28; [0, 1]
1.0, 0.2, 0.0, 0.3, 100.0, 100.0, 0.0, 0.0; 83.67; 2244.89; 2.16; [4, 5]
100.0, 100.0, 100.0, 1.4, 0.0, 0.0, 0.0, 0.0; 85.55; 2295.19; 2.15; [0, 1, 2]
0.9, 0.1, 0.0, 0.1, 99.9, 100.0, 99.9, 0.0; 88.55; 2375.69; 2.14; [4, 5, 6]
1.6, 0.0, 0.0, 0.4, 99.9, 100.0, 99.9, 0.0; 88.13; 2364.58; 2.14; [4, 5, 6]
0.9, 0.1, 0.6, 0.4, 99.9, 99.8, 100.0, 0.0; 83.16; 2231.11; 2.36; [4, 5, 6]
1.7, 0.0, 0.0, 0.2, 99.9, 100.0, 100.0, 0.0; 83.50; 2240.24; 2.42; [4, 5, 6]
1.2, 0.1, 0.0, 0.3, 100.0, 99.9, 99.9, 0.0; 73.60; 1974.76; 2.71; [4, 5, 6]
100.0, 100.0, 0.9, 0.8, 0.0, 0.0, 0.0, 0.0; 67.53; 1811.84; 2.88; [0, 1]
1.0, 0.0, 0.2, 0.0, 100.0, 100.0, 0.0, 0.0; 72.95; 1957.27; 2.62; [4, 5]
0.6, 0.1, 0.1, 0.0, 100.0, 100.0, 0.0, 0.0; 77.57; 2081.28; 2.50; [4, 5]
