Total Violations:  8
Total Jobs:  388
<<<<<<< HEAD
Violation Ratio:  2.0618556701030926%
=======
Violation Ratio:  2.0618556701%
>>>>>>> 5d07200b22786ce931e1e444b56379d7a10d9e86
Energy Spent:  586.181114