0.0, 0.2, 0.0, 0.0, 43.3, 41.2, 43.1, 98.2; 66.31; 285.12; 2.37; [4, 5, 6, 7]
0.2, 0.2, 0.0, 0.0, 60.9, 64.0, 66.9, 0.0; 80.01; 344.05; 2.43; [4, 5, 6]
0.6, 0.0, 0.0, 0.0, 84.7, 79.9, 0.0, 0.0; 94.68; 407.15; 2.22; [4, 5]
0.0, 0.0, 0.0, 0.2, 44.4, 42.5, 43.7, 97.6; 96.01; 412.84; 2.45; [4, 5, 6, 7]
0.4, 0.2, 0.0, 0.0, 47.4, 46.5, 47.9, 83.3; 67.08; 288.46; 2.46; [4, 5, 6, 7]
0.0, 0.2, 0.0, 0.0, 68.2, 61.6, 60.7, 0.0; 80.73; 347.13; 2.45; [4, 5, 6]
0.2, 0.0, 0.0, 0.0, 82.6, 83.1, 0.0, 0.0; 94.05; 404.40; 2.28; [4, 5]
0.2, 0.0, 0.0, 0.2, 44.6, 45.0, 46.1, 89.1; 89.96; 386.81; 2.43; [4, 5, 6, 7]
0.8, 0.0, 0.0, 0.0, 43.6, 46.8, 41.4, 94.8; 66.72; 286.88; 2.44; [4, 5, 6, 7]
0.0, 0.0, 0.0, 0.0, 65.4, 69.2, 58.5, 0.0; 79.55; 342.08; 2.43; [4, 5, 6]
0.4, 0.2, 0.0, 0.0, 46.4, 45.7, 48.6, 86.0; 71.41; 307.07; 2.46; [4, 5, 6, 7]
0.2, 0.0, 0.0, 0.2, 57.3, 91.4, 42.3, 0.0; 80.16; 344.69; 2.51; [4, 5, 6]
0.2, 0.2, 0.0, 0.0, 83.0, 82.5, 0.0, 0.0; 94.56; 406.59; 2.23; [4, 5]
0.6, 0.0, 0.0, 0.0, 44.4, 43.6, 41.8, 97.4; 75.40; 324.22; 2.45; [4, 5, 6, 7]
0.2, 0.0, 0.0, 0.2, 57.9, 68.7, 65.7, 0.0; 79.89; 343.52; 2.42; [4, 5, 6]
0.2, 0.2, 0.2, 0.0, 45.1, 43.3, 43.2, 94.6; 70.30; 302.30; 2.47; [4, 5, 6, 7]
83.9, 55.8, 50.3, 0.9, 0.0, 0.0, 0.0, 0.0; 239.30; 1029.00; 2.32; [0, 1, 2]
0.2, 0.0, 0.0, 0.0, 45.6, 43.1, 44.8, 92.2; 130.26; 560.13; 2.44; [4, 5, 6, 7]
53.2, 53.4, 81.6, 0.0, 0.0, 0.0, 0.0, 0.0; 239.28; 1028.89; 2.34; [0, 1, 2]
0.2, 0.0, 0.0, 0.0, 46.5, 43.0, 48.2, 87.7; 88.64; 381.14; 2.41; [4, 5, 6, 7]
0.2, 0.2, 0.0, 0.2, 44.6, 43.7, 44.4, 93.4; 66.79; 287.22; 2.44; [4, 5, 6, 7]
0.4, 0.0, 0.0, 0.0, 60.5, 54.8, 76.3, 0.0; 81.27; 349.48; 2.38; [4, 5, 6]
0.0, 0.0, 0.0, 0.0, 80.7, 84.2, 0.0, 0.0; 94.00; 404.22; 2.25; [4, 5]
0.0, 0.2, 0.0, 0.0, 43.6, 43.6, 41.6, 98.3; 75.39; 324.19; 2.45; [4, 5, 6, 7]
0.4, 0.0, 0.0, 0.2, 54.8, 50.6, 85.1, 0.0; 79.54; 342.02; 2.47; [4, 5, 6]
0.0, 0.0, 0.0, 0.0, 43.2, 43.6, 41.2, 98.1; 71.54; 307.62; 2.46; [4, 5, 6, 7]
0.2, 0.2, 0.0, 0.0, 55.7, 87.2, 49.6, 0.0; 79.48; 341.75; 2.49; [4, 5, 6]
0.4, 0.0, 0.0, 0.0, 44.3, 43.1, 42.6, 94.2; 74.60; 320.77; 2.44; [4, 5, 6, 7]
0.0, 0.0, 0.0, 0.2, 56.3, 93.8, 42.1, 0.0; 80.73; 347.13; 2.39; [4, 5, 6]
0.6, 0.2, 0.0, 0.0, 83.4, 83.5, 0.0, 0.0; 93.74; 403.10; 2.21; [4, 5]
0.0, 0.0, 0.0, 0.0, 45.3, 45.0, 44.2, 89.4; 78.39; 337.08; 2.43; [4, 5, 6, 7]
0.2, 0.2, 0.0, 0.0, 56.7, 62.7, 73.7, 0.0; 79.76; 342.97; 2.45; [4, 5, 6]
