Beat	Tag	Timestamp	Global_Rate	Window_Rate	Instant_Rate	Global_Accuracy	Window_Accuracy	Instant_Accuracy	Global_Power	Window_Power	Instant_Power	Instant_Latency	Window_Latency	Global_latency	total_energy
0	12	1449832606652400685	0.000000	0.000000	0.000000	1.000000	1.000000	1.000000	0.000000	0.000000	0.000000	0	0	0	0.683213
1	14	1449832606937478905	7.015618	3.507809	3.507809	1.000000	1.000000	1.000000	2.396581	2.396581	2.396581	285078220	285078220	285078220	0.683213
2	16	1449832607222638999	5.260958	3.507305	3.506802	1.000000	1.000000	1.000000	2.369137	2.369137	2.341702	285160094	285119157	285119157	1.350973
3	18	1449832607507662969	4.676928	3.507696	3.508477	1.000000	1.000000	1.000000	2.346152	2.346152	2.300167	285023970	285087428	285087428	2.006576
4	20	1449832607792780355	4.384505	3.507604	3.507327	1.000000	1.000000	1.000000	2.335902	2.335902	2.305153	285117386	285094917	285094917	2.663815
5	22	1449832608077797158	4.209355	3.507796	3.508565	1.000000	1.000000	1.000000	2.330052	2.330052	2.306645	285016803	285079294	285079294	3.321247
6	24	1449832608362850961	4.092490	3.507848	3.508110	1.000000	1.000000	1.000000	2.327438	2.327438	2.314366	285053803	285075046	285075046	3.980966
7	26	1449832608647927930	4.008966	3.507845	3.507825	1.000000	1.000000	1.000000	2.339881	2.339881	2.414540	285076969	285075320	285075320	4.669296
8	28	1449832608932948983	3.946419	3.507928	3.508513	1.000000	1.000000	1.000000	2.352689	2.352689	2.442364	285021053	285068537	285068537	5.365421
9	30	1449832609218134744	3.897520	3.507768	3.506486	1.000000	1.000000	1.000000	2.361373	2.361373	2.430813	285185761	285081562	285081562	6.058654
10	32	1449832609504899876	3.856268	3.505698	3.487174	1.000000	1.000000	1.000000	2.364968	2.364968	2.397134	286765132	285249919	285249919	6.746069
11	34	1449832609789847804	3.824766	3.506035	3.509413	1.000000	1.000000	1.000000	2.367975	2.367975	2.398080	284947928	285222465	285222465	7.429397
12	36	1449832610074949273	3.798339	3.506159	3.507523	1.000000	1.000000	1.000000	2.367734	2.367734	2.365076	285101469	285212382	285212382	8.103683
13	38	1449832610363518649	3.772448	3.502987	3.465371	1.000000	1.000000	1.000000	2.364827	2.364827	2.330359	288569376	285470612	285470612	8.776154
14	40	1449832610653917604	3.748578	3.498673	3.443539	1.000000	1.000000	1.000000	2.360520	2.360520	2.305472	290398955	285822637	285822637	9.445660
15	42	1449832610993325758	3.685850	3.455485	2.946305	1.000000	1.000000	1.000000	2.382006	2.382006	2.635321	339408154	289395004	289395004	10.340110
16	44	1449832611338169189	3.628007	3.414594	2.899867	1.000000	1.000000	1.000000	2.377778	2.377778	2.324560	344843431	292860531	292860531	11.141719
17	46	1449832611679571879	3.580542	3.381623	2.929092	1.000000	1.000000	1.000000	2.352919	2.352919	2.011729	341402690	295715952	295715952	11.828529
18	48	1449832612021204110	3.538964	3.352702	2.927124	1.000000	1.000000	1.000000	2.340608	2.340608	2.159445	341632231	298266856	298266856	12.566265
19	50	1449832612337898659	3.517722	3.341836	3.157617	1.000000	1.000000	1.000000	2.325543	2.325543	2.070142	316694549	299236735	299236735	13.221868
20	52	1449832612678528184	3.484825	3.318881	2.935741	1.000000	1.000000	1.000000	2.321324	2.321324	2.250904	340629525	301306374	301306374	13.988592
21	54	1449832613015982926	3.457172	3.300028	2.963360	1.000000	1.000000	1.000000	2.310784	2.310784	2.122576	337454742	303027725	303027725	14.704865
22	56	1449832613355782079	3.431104	3.281926	2.942915	1.000000	1.000000	1.000000	2.304082	2.304082	2.178568	339799153	304699154	304699154	15.445141
23	58	1449832613694847442	3.407906	3.265910	2.949284	1.000000	1.000000	1.000000	2.289451	2.289451	2.000189	339065363	306193337	306193337	16.123336
24	60	1449832614031290395	3.388044	3.252522	2.972272	1.000000	1.000000	1.000000	2.286364	2.286364	2.221752	336442953	307453737	307453737	16.870828
25	62	1449832614371935087	3.368079	3.238537	2.935610	1.000000	1.000000	1.000000	2.276858	2.276858	2.070952	340644692	308781376	308781376	17.576287
26	64	1449832614711513657	3.350245	3.226161	2.944827	1.000000	1.000000	1.000000	2.271375	2.271375	2.146721	339578570	309965883	309965883	18.305268
27	66	1449832615051261309	3.333786	3.214722	2.943361	1.000000	1.000000	1.000000	2.261787	2.261787	2.034356	339747652	311068912	311068912	18.996435
28	68	1449832615392291500	3.318119	3.203701	2.932292	1.000000	1.000000	1.000000	2.263220	2.263220	2.298503	341030191	312138957	312138957	19.780294
29	70	1449832615765346353	3.292020	3.182286	2.680571	1.000000	1.000000	1.000000	2.258133	2.258133	2.138969	373054853	314239505	314239505	20.578247
30	72	1449832616052095942	3.297979	3.191593	3.487363	1.000000	1.000000	1.000000	2.258394	2.258394	2.266665	286749589	313323175	313323175	21.228212
31	74	1449832616337149578	3.304164	3.191601	3.508112	1.000000	1.000000	1.000000	2.264864	2.260869	2.478233	285053636	313322355	312411254	21.934641
32	76	1449832616622196463	3.309998	3.191639	3.508195	1.000000	1.000000	1.000000	2.266173	2.259926	2.310638	285046885	313318581	311556118	22.593282
33	78	1449832616907267724	3.315499	3.191623	3.507895	1.000000	1.000000	1.000000	2.268699	2.261652	2.357043	285071261	313320157	310753546	23.265207
34	80	1449832617192339651	3.320702	3.191639	3.507887	1.000000	1.000000	1.000000	2.273434	2.265856	2.443778	285071927	313318642	309998204	23.961859
35	82	1449832617477454203	3.325619	3.191606	3.507362	1.000000	1.000000	1.000000	2.277289	2.269287	2.419772	285114552	313321900	309287243	24.651771
36	84	1449832617762524339	3.330296	3.191600	3.507909	1.000000	1.000000	1.000000	2.280911	2.272444	2.418457	285070136	313322444	308614545	25.341201
37	86	1449832618047527224	3.334759	3.191626	3.508736	1.000000	1.000000	1.000000	2.284901	2.273229	2.440464	285002885	313319975	307976392	26.036741
38	88	1449832618332640443	3.338973	3.191594	3.507379	1.000000	1.000000	1.000000	2.289143	2.273726	2.458669	285113219	313323047	307374730	26.737740
39	90	1449832618617798953	3.342973	3.191603	3.506822	1.000000	1.000000	1.000000	2.290909	2.271675	2.363244	285158510	313322138	306805083	27.411639
40	92	1449832618902877547	3.346808	3.192176	3.507805	1.000000	1.000000	1.000000	2.291590	2.269319	2.320188	285078594	313265920	306261921	28.073075
41	94	1449832619187988682	3.350461	3.192121	3.507404	1.000000	1.000000	1.000000	2.292450	2.267237	2.329377	285111135	313271360	305746048	28.737206
42	96	1449832619473085234	3.353955	3.192122	3.507584	1.000000	1.000000	1.000000	2.293528	2.266505	2.340957	285096552	313271196	305254394	29.404605
43	98	1449832619758159036	3.357303	3.193310	3.507864	1.000000	1.000000	1.000000	2.295750	2.268462	2.395654	285073802	313154677	304785077	30.087543
44	100	1449832620044739667	3.360130	3.194609	3.489419	1.000000	1.000000	1.000000	2.298466	2.272025	2.422699	286580631	313027399	304371340	30.781841
45	102	1449832620333259668	3.362362	3.212014	3.465964	1.000000	1.000000	1.000000	2.301571	2.264187	2.445670	288520001	311331127	304019088	31.487466
46	104	1449832620655009578	3.356517	3.219976	3.108004	1.000000	1.000000	1.000000	2.304517	2.267671	2.429779	321749910	310561343	304404541	32.269247
47	106	1449832620995915185	3.346460	3.220148	2.933363	1.000000	1.000000	1.000000	2.307096	2.282369	2.413037	340905607	310544774	305181159	33.091865
48	108	1449832621336855083	3.336862	3.220387	2.933068	1.000000	1.000000	1.000000	2.307504	2.288426	2.324675	340939898	310521696	305926133	33.884439
49	110	1449832621679701894	3.327277	3.211371	2.916755	1.000000	1.000000	1.000000	2.302510	2.288492	2.088590	342846811	311393439	306679616	34.600506
50	112	1449832622016171013	3.319498	3.212802	2.972041	1.000000	1.000000	1.000000	2.298255	2.283368	2.108255	336469119	311254759	307275406	35.309868
51	114	1449832622357072995	3.311117	3.211617	2.933395	1.000000	1.000000	1.000000	2.293275	2.281348	2.068833	340901982	311369667	307934751	36.015138
52	116	1449832622700638261	3.302543	3.210322	2.910655	1.000000	1.000000	1.000000	2.289879	2.279691	2.134649	343565266	311495204	308619953	36.748529
53	118	1449832623039853748	3.295204	3.210271	2.947979	1.000000	1.000000	1.000000	2.285982	2.283368	2.101595	339215487	311500208	309197227	37.461423
54	120	1449832623376968907	3.288575	3.210040	2.966345	1.000000	1.000000	1.000000	2.284600	2.283208	2.217439	337115159	311522614	309714226	38.208955
55	122	1449832623720112466	3.281049	3.209182	2.914232	1.000000	1.000000	1.000000	2.281104	2.284610	2.110700	343143559	311605909	310322032	38.933228
56	124	1449832624057654124	3.274873	3.209881	2.962597	1.000000	1.000000	1.000000	2.279708	2.286894	2.209118	337541658	311538012	310808097	39.678898
57	126	1449832624397830483	3.268447	3.209734	2.939652	1.000000	1.000000	1.000000	2.276698	2.290098	2.122710	340176359	311552302	311323329	40.400993
58	128	1449832624738492757	3.262175	3.209860	2.935459	1.000000	1.000000	1.000000	2.275994	2.287939	2.239270	340662274	311540038	311829173	41.163828
59	130	1449832625076166748	3.256663	3.222058	2.961436	1.000000	1.000000	1.000000	2.275209	2.291922	2.233193	337673991	310360676	312267221	41.917919
60	132	1449832625416945396	3.250812	3.203468	2.934456	1.000000	1.000000	1.000000	2.272032	2.285721	2.100270	340778648	312161645	312742411	42.633646
61	134	1449832625791900035	3.239374	3.173008	2.666989	1.000000	1.000000	1.000000	2.270470	2.276212	2.192302	374954639	315158345	313762284	43.455660
62	136	1449832626078712581	3.243024	3.172415	3.486598	1.000000	1.000000	1.000000	2.270239	2.274526	2.254823	286812546	315217201	313327611	44.102372
63	138	1449832626363708133	3.246867	3.172441	3.508827	1.000000	1.000000	1.000000	2.273136	2.277949	2.470636	284995552	315214677	312877896	44.806492
64	140	1449832626648844893	3.250578	3.172419	3.507089	1.000000	1.000000	1.000000	2.273592	2.273767	2.305061	285136760	315216838	312444440	45.463750
65	142	1449832626937314393	3.253650	3.171294	3.466571	1.000000	1.000000	1.000000	2.274320	2.270924	2.324829	288469500	315328670	312075595	46.134392
66	144	1449832627222371195	3.257175	3.171299	3.508073	1.000000	1.000000	1.000000	2.275408	2.268946	2.352837	285056802	315328226	311666219	46.805084
67	146	1449832627507500621	3.260593	3.171256	3.507179	1.000000	1.000000	1.000000	2.277693	2.269009	2.442476	285129426	315332444	311270148	47.501506
68	148	1449832627792500548	3.263939	3.171294	3.508773	1.000000	1.000000	1.000000	2.280203	2.269165	2.463909	284999927	315328668	310883821	48.203720
69	150	1449832628077597224	3.267181	3.171315	3.507582	1.000000	1.000000	1.000000	2.282449	2.271749	2.449003	285096676	315326607	310510094	48.901923
70	152	1449832628362638150	3.270347	3.171328	3.508268	1.000000	1.000000	1.000000	2.284294	2.274845	2.422947	285040926	315325352	310146249	49.592562
71	154	1449832628647671535	3.273431	3.171354	3.508361	1.000000	1.000000	1.000000	2.285812	2.277016	2.401441	285033385	315322760	309792547	50.277052
72	156	1449832628935960953	3.275958	3.170284	3.468736	1.000000	1.000000	1.000000	2.286702	2.277452	2.354580	288289418	315429189	309493892	50.955853
73	158	1449832629222776416	3.278634	3.169700	3.486562	1.000000	1.000000	1.000000	2.286924	2.274704	2.304237	286815463	315487244	309183229	51.616744
74	160	1449832629507872592	3.281490	3.170197	3.507588	1.000000	1.000000	1.000000	2.287489	2.271954	2.332183	285096176	315437762	308857728	52.281640
75	162	1449832629792899102	3.284285	3.171368	3.508446	1.000000	1.000000	1.000000	2.288561	2.269747	2.374559	285026510	315321312	308539978	52.958453
76	164	1449832630077896861	3.287017	3.183738	3.508800	1.000000	1.000000	1.000000	2.290310	2.269199	2.432292	284997759	314096240	308230212	53.651650
77	166	1449832630362977204	3.289671	3.202712	3.507783	1.000000	1.000000	1.000000	2.292367	2.269812	2.461353	285080343	312235398	307929565	54.353334
78	168	1449832630689247726	3.286621	3.207735	3.064941	1.000000	1.000000	1.000000	2.294672	2.274523	2.462174	326270522	311746419	308164705	55.156669
79	170	1449832631040900427	3.280235	3.204718	2.843715	1.000000	1.000000	1.000000	2.296569	2.287033	2.426272	351652701	312039948	308715186	56.009874
80	172	1449832631380941786	3.275567	3.203495	2.940819	1.000000	1.000000	1.000000	2.296023	2.292360	2.256851	340041359	312159022	309106763	56.777296
81	174	1449832631720911103	3.271036	3.203815	2.941442	1.000000	1.000000	1.000000	2.294126	2.295552	2.156119	339969317	312127933	309487782	57.510311
82	176	1449832632060574129	3.266665	3.205150	2.944094	1.000000	1.000000	1.000000	2.293030	2.298432	2.212186	339663026	311997858	309855773	58.261708
83	178	1449832632399827907	3.262462	3.205137	2.947646	1.000000	1.000000	1.000000	2.290421	2.298192	2.094993	339253778	311999135	310209966	58.972443
84	180	1449832632736331400	3.258711	3.205347	2.971737	1.000000	1.000000	1.000000	2.289976	2.299581	2.255907	336503493	311978747	310522984	59.731563
85	182	1449832633076107968	3.254653	3.206500	2.943111	1.000000	1.000000	1.000000	2.287999	2.300576	2.136233	339776568	311866514	310867144	60.457405
86	184	1449832633412974751	3.251051	3.206731	2.968533	1.000000	1.000000	1.000000	2.287226	2.301214	2.226646	336866783	311844018	311169465	61.207488
87	186	1449832633754250815	3.247011	3.206355	2.930179	1.000000	1.000000	1.000000	2.284809	2.300192	2.095268	341276064	311880675	311515518	61.922553
88	188	1449832634094454381	3.243198	3.206512	2.939417	1.000000	1.000000	1.000000	2.284102	2.299776	2.227754	340203566	311865384	311841519	62.680443
89	190	1449832634411834010	3.242141	3.213482	3.150801	1.000000	1.000000	1.000000	2.282259	2.296173	2.122955	317379629	311188905	311903745	63.354225
90	192	1449832634754010196	3.238249	3.213001	2.922471	1.000000	1.000000	1.000000	2.279452	2.294364	2.051715	342176186	311235489	312240105	64.056273
91	194	1449832635092974474	3.234815	3.225434	2.950163	1.000000	1.000000	1.000000	2.279627	2.298469	2.294099	338964278	310035811	312533777	64.833891
92	196	1449832635436721322	3.230926	3.205810	2.909118	1.000000	1.000000	1.000000	2.277498	2.292567	2.101372	343746848	311933621	312873050	65.556231
93	198	1449832635790413684	3.226026	3.182448	2.827316	1.000000	1.000000	1.000000	2.276689	2.284117	2.210833	353692362	314223515	313311967	66.338186
94	200	1449832636202811094	3.214845	3.140057	2.424845	1.000000	1.000000	1.000000	2.275981	2.280983	2.226011	412397410	318465537	314366068	67.256187
95	202	1449832636586318583	3.207064	3.109129	2.607511	1.000000	1.000000	1.000000	2.273550	2.271930	2.086177	383507489	321633469	315093872	68.056252
96	204	1449832636969262031	3.199540	3.077905	2.611352	1.000000	1.000000	1.000000	2.268665	2.254434	1.886843	382943448	324896357	315800639	68.778806
97	206	1449832637369290016	3.190427	3.042044	2.499825	1.000000	1.000000	1.000000	2.264965	2.238050	1.984550	400027985	328726309	316668962	69.572681
98	208	1449832637763809767	3.182112	3.008632	2.534727	1.000000	1.000000	1.000000	2.260830	2.219757	1.938862	394519751	332376970	317463357	70.337601
99	210	1449832638147068881	3.175141	2.979302	2.609201	1.000000	1.000000	1.000000	2.256148	2.200187	1.876113	383259114	335649051	318127961	71.056638
100	212	1449832638529386414	3.168430	2.950796	2.615627	1.000000	1.000000	1.000000	2.252468	2.184508	1.949340	382317533	338891604	318769857	71.801905
101	214	1449832638912336863	3.161817	2.922647	2.611304	1.000000	1.000000	1.000000	2.249229	2.170840	1.979609	382950449	342155506	319405308	72.559997
102	216	1449832639314499884	3.153502	2.890580	2.486554	1.000000	1.000000	1.000000	2.245654	2.157521	1.958845	402163021	345951293	320216658	73.347772
103	218	1449832639709746632	3.146048	2.860693	2.530065	1.000000	1.000000	1.000000	2.241841	2.144812	1.926783	395246748	349565669	320945106	74.109327
104	220	1449832640104353131	3.138830	2.831129	2.534170	1.000000	1.000000	1.000000	2.238141	2.131702	1.928127	394606499	353216013	321653388	74.870178
105	222	1449832640494270560	3.132215	2.803379	2.564646	1.000000	1.000000	1.000000	2.234496	2.117584	1.921771	389917429	356712377	322303522	75.619510
106	224	1449832640907190385	3.123651	2.770264	2.421778	1.000000	1.000000	1.000000	2.231258	2.103518	1.965884	412919825	360976446	323158393	76.431263
107	226	1449832641195605926	3.126519	2.769411	3.467220	1.000000	1.000000	1.000000	2.230677	2.095650	2.161699	288415541	361087619	322833693	77.054731
108	228	1449832641480718476	3.129637	2.779973	3.507387	1.000000	1.000000	1.000000	2.232367	2.093591	2.437167	285112550	359715686	322484423	77.749598
109	230	1449832641765715568	3.132715	2.797251	3.508808	1.000000	1.000000	1.000000	2.233920	2.091453	2.423609	284997092	357493833	322140503	78.440319
110	232	1449832642050837160	3.135732	2.811649	3.507276	1.000000	1.000000	1.000000	2.235349	2.094732	2.411403	285121592	355663175	321803967	79.127862
111	234	1449832642335918669	3.138704	2.826187	3.507769	1.000000	1.000000	1.000000	2.236949	2.101921	2.435644	285081509	353833581	321473134	79.822219
112	236	1449832642621017386	3.141628	2.840790	3.507557	1.000000	1.000000	1.000000	2.237995	2.105582	2.368893	285098717	352014771	321148363	80.497588
113	238	1449832642906040311	3.144512	2.855453	3.508490	1.000000	1.000000	1.000000	2.238697	2.111938	2.327251	285022925	350207076	320828669	81.160907
114	240	1449832643192788357	3.147203	2.869040	3.487382	1.000000	1.000000	1.000000	2.239338	2.113020	2.320369	286748046	348548561	320529716	81.826269
115	242	1449832643479431028	3.149860	2.883694	3.488664	1.000000	1.000000	1.000000	2.239993	2.118061	2.323477	286642671	346777431	320235046	82.492276
116	244	1449832643764484620	3.152612	2.898128	3.508112	1.000000	1.000000	1.000000	2.241449	2.123105	2.429558	285053592	345050325	319931758	83.184831
117	246	1449832644049540920	3.155321	2.913954	3.508079	1.000000	1.000000	1.000000	2.243076	2.133215	2.454932	285056300	343176333	319633677	83.884625
118	248	1449832644337878378	3.157715	2.928708	3.468158	1.000000	1.000000	1.000000	2.244638	2.138913	2.447187	288337458	341447463	319368455	84.590240
119	250	1449832644622888636	3.160349	2.937992	3.508646	1.000000	1.000000	1.000000	2.245999	2.147424	2.426064	285010258	340368484	319079730	85.281693
120	252	1449832644911383094	3.162656	2.953520	3.466271	1.000000	1.000000	1.000000	2.247362	2.158580	2.426674	288494458	338579093	318824853	85.981775
121	254	1449832645196493936	3.165206	2.969262	3.507408	1.000000	1.000000	1.000000	2.248569	2.161143	2.410539	285110842	336783978	318546225	86.669046
122	256	1449832645481613735	3.167718	2.986592	3.507298	1.000000	1.000000	1.000000	2.249318	2.168567	2.350633	285119799	334829743	318272238	87.339258
123	258	1449832645766622952	3.170202	3.007154	3.508658	1.000000	1.000000	1.000000	2.249917	2.171723	2.331482	285009217	332540305	318001807	88.003752
124	260	1449832646051717919	3.172644	3.046023	3.507603	1.000000	1.000000	1.000000	2.250706	2.174871	2.358977	285094967	328296890	317736429	88.676284
125	262	1449832646336809802	3.175050	3.076768	3.507641	1.000000	1.000000	1.000000	2.251317	2.183063	2.335736	285091883	325016370	317475272	89.342184
126	264	1449832646621934061	3.177420	3.107948	3.507243	1.000000	1.000000	1.000000	2.252664	2.202409	2.440193	285124259	321755730	317218518	90.037942
127	266	1449832646906991069	3.179762	3.145412	3.508070	1.000000	1.000000	1.000000	2.254175	2.219424	2.465972	285057008	317923364	316965278	90.740885
128	268	1449832647193871781	3.181927	3.181315	3.485769	1.000000	1.000000	1.000000	2.255579	2.238256	2.452634	286880712	314335396	316730242	91.444498
129	270	1449832647478949789	3.184203	3.214786	3.507812	1.000000	1.000000	1.000000	2.256672	2.258439	2.412052	285078008	311062693	316484876	92.132121
130	272	1449832647763960131	3.186452	3.248661	3.508645	1.000000	1.000000	1.000000	2.257766	2.276052	2.414475	285010342	307819120	316242764	92.820271
131	274	1449832648049077180	3.188662	3.283447	3.507331	1.000000	1.000000	1.000000	2.258641	2.291873	2.384884	285117049	304558007	316005164	93.500242
132	276	1449832648334182230	3.190842	3.326060	3.507479	1.000000	1.000000	1.000000	2.259199	2.308246	2.340110	285105050	300656074	315771072	94.167420
133	278	1449832648619236488	3.192997	3.367196	3.508104	1.000000	1.000000	1.000000	2.259728	2.326094	2.337172	285054258	296982991	315540118	94.833641
134	280	1449832648904241038	3.195127	3.409134	3.508716	1.000000	1.000000	1.000000	2.260198	2.344048	2.329428	285004550	293329593	315312241	95.497538
135	282	1449832649189251588	3.197228	3.450266	3.508642	1.000000	1.000000	1.000000	2.261188	2.365077	2.407882	285010550	289832697	315087784	96.183810
136	284	1449832649474325388	3.199296	3.501754	3.507864	1.000000	1.000000	1.000000	2.262528	2.387561	2.462558	285073800	285571163	314867093	96.885821
137	286	1449832649759353646	3.201340	3.503139	3.508424	1.000000	1.000000	1.000000	2.263653	2.396667	2.432611	285028258	285458253	314649291	97.579183
138	288	1449832650044368696	3.203358	3.503179	3.508587	1.000000	1.000000	1.000000	2.264662	2.396007	2.417337	285015050	285455003	314434550	98.268161
139	290	1449832650332738154	3.205103	3.501800	3.467774	1.000000	1.000000	1.000000	2.265798	2.396459	2.436735	288369458	285567415	314247032	98.970841
140	292	1449832650648954743	3.204796	3.489136	3.162389	1.000000	1.000000	1.000000	2.266927	2.396933	2.422818	316216589	286603914	314261100	99.736976
141	294	1449832650968253990	3.204271	3.475305	3.131858	1.000000	1.000000	1.000000	2.267689	2.394756	2.372625	319299247	287744506	314296831	100.494553
142	296	1449832651284087747	3.204002	3.462975	3.166223	1.000000	1.000000	1.000000	2.268461	2.394953	2.376834	315833757	288769007	314307655	101.245238
143	298	1449832651624580769	3.201980	3.440943	2.936918	1.000000	1.000000	1.000000	2.268385	2.391837	2.258472	340493022	290618010	314490769	102.014232
144	300	1449832651965361665	3.199967	3.419749	2.934437	1.000000	1.000000	1.000000	2.267288	2.383710	2.122503	340780896	292419105	314673340	102.737540
145	302	1449832652304046359	3.198132	3.399581	2.952599	1.000000	1.000000	1.000000	2.266851	2.378937	2.208359	338684694	294153839	314838935	103.485478
146	304	1449832652643046260	3.196302	3.378926	2.949853	1.000000	1.000000	1.000000	2.265970	2.368469	2.147348	338999901	295952049	315004421	104.213429
147	306	1449832652984007073	3.194364	3.357783	2.932888	1.000000	1.000000	1.000000	2.265324	2.358446	2.178107	340960813	297815533	315180995	104.956078
148	308	1449832653318677819	3.192884	3.340460	2.988011	1.000000	1.000000	1.000000	2.264172	2.346145	2.104825	334670746	299359976	315312683	105.660501
149	310	1449832653656575807	3.191206	3.320903	2.959473	1.000000	1.000000	1.000000	2.263532	2.337223	2.175010	337897988	301122901	315464262	106.395433
150	312	1449832653998086160	3.189309	3.301528	2.928169	1.000000	1.000000	1.000000	2.262139	2.324358	2.070490	341510353	302890098	315637903	107.102527
151	314	1449832654339275596	3.187460	3.281277	2.930923	1.000000	1.000000	1.000000	2.261771	2.317426	2.210625	341189436	304759385	315807118	107.856768
152	316	1449832654679173120	3.185723	3.261735	2.942063	1.000000	1.000000	1.000000	2.260854	2.309555	2.132292	339897524	306585309	315965608	108.581529
153	318	1449832655017960188	3.184084	3.242774	2.951707	1.000000	1.000000	1.000000	2.260318	2.304292	2.184268	338787068	308377904	316114767	109.321531
154	320	1449832655359238083	3.182305	3.223200	2.930163	1.000000	1.000000	1.000000	2.258685	2.292462	2.027342	341277895	310250668	316278164	110.013418
155	322	1449832655687893013	3.181369	3.208184	3.042705	1.000000	1.000000	1.000000	2.258394	2.288428	2.215242	328654930	311702770	316358015	110.741468
156	324	1449832656011501373	3.180771	3.195035	3.090155	1.000000	1.000000	1.000000	2.258263	2.282097	2.238431	323608360	312985574	316404491	111.465843
157	326	1449832656296519005	3.182653	3.195049	3.508555	1.000000	1.000000	1.000000	2.259685	2.283309	2.505917	285017632	312984261	316204575	112.180074
158	328	1449832656581576013	3.184511	3.195669	3.508070	1.000000	1.000000	1.000000	2.260984	2.284326	2.487209	285057008	312923471	316007438	112.889070
159	330	1449832656868352433	3.186239	3.195091	3.487037	1.000000	1.000000	1.000000	2.261623	2.283149	2.372786	286776420	312980085	315823595	113.569529
160	332	1449832657153495773	3.188050	3.195046	3.507008	1.000000	1.000000	1.000000	2.261930	2.280161	2.316027	285143340	312984519	315631844	114.229929
161	334	1449832657438664406	3.189839	3.195029	3.506697	1.000000	1.000000	1.000000	2.262252	2.278169	2.319261	285168633	312986239	315442631	114.891309
162	336	1449832657723767663	3.191612	3.195029	3.507501	1.000000	1.000000	1.000000	2.262618	2.277800	2.327947	285103257	312986179	315255351	115.555015
163	338	1449832658008934670	3.193362	3.194991	3.506717	1.000000	1.000000	1.000000	2.263657	2.281219	2.449749	285167007	312989937	315070760	116.253602
164	340	1449832658293972803	3.195100	3.194979	3.508303	1.000000	1.000000	1.000000	2.264532	2.284030	2.422011	285038133	312991057	314887634	116.943968
165	342	1449832658579165768	3.196810	3.194917	3.506398	1.000000	1.000000	1.000000	2.265387	2.284412	2.420377	285192965	312997138	314707667	117.634242
166	344	1449832658864197818	3.198511	3.194932	3.508377	1.000000	1.000000	1.000000	2.266341	2.283730	2.440133	285032050	312995746	314528898	118.329758
167	346	1449832659149424408	3.200181	3.194864	3.505984	1.000000	1.000000	1.000000	2.267404	2.284625	2.461973	285226590	313002358	314353435	119.031978
168	348	1449832659434436582	3.201847	3.194865	3.508622	1.000000	1.000000	1.000000	2.268143	2.284230	2.404293	285012174	313002262	314178785	119.717231
169	350	1449832659722942705	3.203284	3.194818	3.466131	1.000000	1.000000	1.000000	2.268464	2.280863	2.327074	288506123	313006817	314026875	120.388606
170	352	1449832660009699583	3.204810	3.204873	3.487275	1.000000	1.000000	1.000000	2.268682	2.276932	2.309106	286756878	312024827	313866464	121.050758
171	354	1449832660294795215	3.206419	3.216627	3.507595	1.000000	1.000000	1.000000	2.268966	2.275034	2.322018	285095632	310884706	313698213	121.712756
172	356	1449832660580281721	3.207988	3.227127	3.502793	1.000000	1.000000	1.000000	2.269823	2.276360	2.430827	285486506	309873131	313534192	122.406724
173	358	1449832660924569274	3.206063	3.225811	2.904549	1.000000	1.000000	1.000000	2.271576	2.287008	2.546292	344287553	309999615	313711957	123.283381
174	360	1449832661265616710	3.204353	3.225718	2.932143	1.000000	1.000000	1.000000	2.272266	2.296519	2.381980	341047436	310008499	313869057	124.095749
175	362	1449832661606470356	3.202675	3.224966	2.933810	1.000000	1.000000	1.000000	2.271367	2.293529	2.127320	340853646	310080798	314023255	124.820854
176	364	1449832661950182285	3.200852	3.223333	2.909413	1.000000	1.000000	1.000000	2.270325	2.291846	2.103791	343711929	310237866	314191940	125.543952
177	366	1449832662291848761	3.199169	3.223089	2.926831	1.000000	1.000000	1.000000	2.269686	2.291403	2.166270	341666476	310261388	314347164	126.284094
178	368	1449832662634464735	3.197453	3.220340	2.918720	1.000000	1.000000	1.000000	2.268819	2.292093	2.127906	342615974	310526229	314505977	127.013148
179	370	1449832662974852382	3.195884	3.219480	2.937827	1.000000	1.000000	1.000000	2.268136	2.291359	2.155793	340387647	310609217	314650568	127.746953
180	372	1449832663314170031	3.194394	3.220237	2.947091	1.000000	1.000000	1.000000	2.266414	2.288141	1.980714	339317649	310536127	314787607	128.419045
181	374	1449832663653926096	3.192897	3.220733	2.943288	1.000000	1.000000	1.000000	2.264918	2.281032	2.015388	339756065	310488348	314925554	129.103785
182	376	1449832663992925496	3.191460	3.221043	2.949858	1.000000	1.000000	1.000000	2.264151	2.281149	2.135105	338999400	310458411	315057828	129.827584
183	378	1449832664333986516	3.189926	3.220257	2.932027	1.000000	1.000000	1.000000	2.262575	2.274297	1.997759	341061020	310534209	315199922	130.508942
184	380	1449832664673218207	3.188511	3.220964	2.947838	1.000000	1.000000	1.000000	2.261967	2.279129	2.158515	339231691	310466003	315330530	131.241178
185	382	1449832665017871217	3.186816	3.215442	2.901469	1.000000	1.000000	1.000000	2.260822	2.273584	2.068102	344653010	310999272	315489029	131.953956
186	384	1449832665365129636	3.184999	3.207311	2.879700	1.000000	1.000000	1.000000	2.260120	2.269920	2.142129	347258419	311787607	315659833	132.697828
187	386	1449832665715962462	3.183012	3.184902	2.850360	1.000000	1.000000	1.000000	2.258977	2.255248	2.067730	350832826	313981447	315847923	133.423256
188	388	1449832666126481999	3.177855	3.143038	2.435938	1.000000	1.000000	1.000000	2.258918	2.248112	2.250388	410519537	318163531	316351496	134.347084
189	390	1449832666534554875	3.172899	3.103597	2.450543	1.000000	1.000000	1.000000	2.257431	2.235656	2.040678	408072876	322206746	316836794	135.179829
190	392	1449832666914347913	3.169496	3.073502	2.633013	1.000000	1.000000	1.000000	2.254907	2.218570	1.856880	379793038	325361735	317168143	135.885059
191	394	1449832667308970618	3.165362	3.039419	2.534066	1.000000	1.000000	1.000000	2.253203	2.206647	1.993132	394622705	329010204	317573664	136.671594
192	396	1449832667692209980	3.161871	3.009497	2.609335	1.000000	1.000000	1.000000	2.250941	2.191115	1.892884	383239362	332281408	317915673	137.397022
193	398	1449832668092841710	3.157529	2.975037	2.496058	1.000000	1.000000	1.000000	2.249052	2.174665	1.961144	400631730	336130233	318344254	138.182718
194	400	1449832668476030613	3.154134	2.946359	2.609679	1.000000	1.000000	1.000000	2.246947	2.157762	1.909512	383188903	339401925	318678504	138.914422
195	402	1449832668857038106	3.150890	2.918892	2.624620	1.000000	1.000000	1.000000	2.245227	2.143370	1.966101	381007493	342595742	318998140	139.663521
196	404	1449832669246446575	3.147264	2.889548	2.567998	1.000000	1.000000	1.000000	2.243574	2.129078	1.979556	389408469	346074956	319357376	140.434377
197	406	1449832669642906567	3.143331	2.858917	2.522323	1.000000	1.000000	1.000000	2.241351	2.111013	1.890437	396459992	349782736	319748760	141.183860
198	408	1449832670036008942	3.139613	2.829769	2.543867	1.000000	1.000000	1.000000	2.239482	2.096782	1.939855	393102375	353385743	320119233	141.946422
199	410	1449832670418572222	3.136459	2.804884	2.613947	1.000000	1.000000	1.000000	2.237476	2.083718	1.905191	382563280	356520982	320433022	142.675278
200	412	1449832670881435239	3.129426	2.759449	2.160466	1.000000	1.000000	1.000000	2.235771	2.074246	2.000873	462863017	362391187	321145172	143.601408
201	414	1449832671166963619	3.131076	2.759339	3.502279	1.000000	1.000000	1.000000	2.234914	2.066905	2.042146	285528380	362405612	320967974	144.184498
202	416	1449832671452112126	3.132730	2.759425	3.506945	1.000000	1.000000	1.000000	2.235800	2.067034	2.436155	285148507	362394346	320790650	144.879164
203	418	1449832671737211590	3.134372	2.774530	3.507548	1.000000	1.000000	1.000000	2.236762	2.062016	2.455496	285099464	360421410	320614832	145.579225
204	420	1449832672022281138	3.136001	2.788969	3.507916	1.000000	1.000000	1.000000	2.237657	2.061945	2.442112	285069548	358555481	320440590	146.275396
205	422	1449832672307371728	3.137615	2.803502	3.507657	1.000000	1.000000	1.000000	2.238368	2.068905	2.401353	285090590	356696712	320268151	146.960000
206	424	1449832672592444651	3.139215	2.818949	3.507874	1.000000	1.000000	1.000000	2.238871	2.075432	2.354634	285072923	354742078	320097300	147.631242
207	426	1449832672879197528	3.140723	2.833571	3.487323	1.000000	1.000000	1.000000	2.239199	2.078981	2.314717	286752877	352911625	319936216	148.294994
208	428	1449832673164316618	3.142294	2.849043	3.507306	1.000000	1.000000	1.000000	2.239458	2.083364	2.299631	285119090	350995062	319768826	148.950662
209	430	1449832673449394957	3.143854	2.864087	3.507808	1.000000	1.000000	1.000000	2.239790	2.087371	2.317088	285078339	349151419	319602843	149.611214
210	432	1449832673736188876	3.145320	2.878521	3.486824	1.000000	1.000000	1.000000	2.240193	2.097634	2.334129	286793919	347400628	319446610	150.280628
211	434	1449832674021229340	3.146856	2.893713	3.508274	1.000000	1.000000	1.000000	2.240916	2.108950	2.411156	285040464	345576774	319283548	150.967905
212	436	1449832674306300430	3.148377	2.908844	3.507897	1.000000	1.000000	1.000000	2.241735	2.117111	2.435300	285071090	343779163	319122168	151.662139
213	438	1449832674591359311	3.149886	2.924726	3.508047	1.000000	1.000000	1.000000	2.242634	2.130492	2.455806	285058881	341912425	318962247	152.362188
214	440	1449832674876450109	3.151381	2.940245	3.507654	1.000000	1.000000	1.000000	2.243482	2.138370	2.445791	285090798	340107728	318803969	153.059461
215	442	1449832675161527157	3.152865	2.957514	3.507824	1.000000	1.000000	1.000000	2.244176	2.148393	2.410055	285077048	338121863	318647099	153.746512
216	444	1449832675446511122	3.154340	2.975783	3.508969	1.000000	1.000000	1.000000	2.244747	2.155213	2.382015	284983965	336046048	318491252	154.425348
217	446	1449832675761604170	3.154428	2.986370	3.173666	1.000000	1.000000	1.000000	2.245180	2.164055	2.339718	315093048	334854722	318475592	155.162577
218	448	1449832676079173962	3.154403	3.014260	3.148914	1.000000	1.000000	1.000000	2.246117	2.169621	2.450108	317569792	331756397	318471437	155.940657
219	450	1449832676419244775	3.153360	3.034997	2.940564	1.000000	1.000000	1.000000	2.247249	2.185569	2.478437	340070813	329489661	318570064	156.783502
220	452	1449832676736707483	3.153345	3.054256	3.149976	1.000000	1.000000	1.000000	2.246717	2.196475	2.129772	317462708	327411984	318565030	157.459625
221	454	1449832677078640958	3.152234	3.070728	2.924545	1.000000	1.000000	1.000000	2.246065	2.201743	2.112320	341933475	325655676	318670770	158.181898
222	456	1449832677416536527	3.151314	3.085047	2.959494	1.000000	1.000000	1.000000	2.245632	2.212305	2.155404	337895569	324144216	318757368	158.910199
223	458	1449832677758153252	3.150237	3.103883	2.927257	1.000000	1.000000	1.000000	2.244894	2.218467	2.092089	341616725	322177049	318859876	159.624892
224	460	1449832678099852977	3.149168	3.117265	2.926546	1.000000	1.000000	1.000000	2.244224	2.226731	2.104758	341699725	320794076	318961840	160.344087
225	462	1449832678436865715	3.148313	3.131580	2.967247	1.000000	1.000000	1.000000	2.243393	2.231486	2.067243	337012738	319327584	319042066	161.040774
226	464	1449832678749288479	3.148541	3.156950	3.200791	1.000000	1.000000	1.000000	2.242806	2.237743	2.107796	312422764	316761394	319012777	161.699297
227	466	1449832679089007001	3.147580	3.175914	2.943613	1.000000	1.000000	1.000000	2.242430	2.249624	2.162789	339718522	314870011	319103992	162.434037
228	468	1449832679432060180	3.146484	3.192831	2.915000	1.000000	1.000000	1.000000	2.242497	2.262841	2.256658	343053179	313201704	319209032	163.208191
229	470	1449832679775579358	3.145377	3.206154	2.911046	1.000000	1.000000	1.000000	2.241772	2.271051	2.088177	343519178	311900234	319315190	163.925520
230	472	1449832680114295591	3.144487	3.249264	2.952324	1.000000	1.000000	1.000000	2.241132	2.278430	2.102971	338716233	307762008	319399543	164.637830
231	474	1449832680454405362	3.143546	3.230169	2.940227	1.000000	1.000000	1.000000	2.240246	2.277286	2.048825	340109771	309581388	319489197	165.334655
232	476	1449832680815908574	3.141707	3.203829	2.766227	1.000000	1.000000	1.000000	2.239859	2.267951	2.160801	361503212	312126545	319670292	166.115792
233	478	1449832681106057316	3.142895	3.202102	3.446508	1.000000	1.000000	1.000000	2.240521	2.266636	2.409794	290148742	312294854	319543590	166.814991
234	480	1449832681391083822	3.144289	3.202117	3.508446	1.000000	1.000000	1.000000	2.241606	2.269155	2.524943	285026506	312293419	319396081	167.534666
235	482	1449832681676163661	3.145670	3.202121	3.507789	1.000000	1.000000	1.000000	2.242097	2.268226	2.370805	285079839	312293061	319250055	168.210535
236	484	1449832681961250625	3.147040	3.202116	3.507702	1.000000	1.000000	1.000000	2.242425	2.267444	2.328928	285086964	312293529	319105296	168.874482
237	486	1449832682246325422	3.148401	3.202689	3.507851	1.000000	1.000000	1.000000	2.242745	2.267817	2.327247	285074797	312237593	318961707	169.537921
238	488	1449832682531511302	3.149747	3.202667	3.506485	1.000000	1.000000	1.000000	2.243104	2.268992	2.338243	285185880	312239820	318819792	170.204755
239	490	1449832682816524183	3.151090	3.202689	3.508613	1.000000	1.000000	1.000000	2.243468	2.269701	2.340401	285012881	312237638	318678340	170.871800
240	492	1449832683101588064	3.152421	3.203280	3.507986	1.000000	1.000000	1.000000	2.243964	2.270979	2.376494	285063881	312179970	318538280	171.549252
241	494	1449832683386697569	3.153740	3.203257	3.507424	1.000000	1.000000	1.000000	2.244654	2.271540	2.429559	285109505	312182272	318399572	172.241943
242	496	1449832683673437821	3.154982	3.202686	3.487477	1.000000	1.000000	1.000000	2.245459	2.272356	2.461000	286740252	312237911	318268748	172.947610
243	498	1449832683958434951	3.156287	3.202707	3.508807	1.000000	1.000000	1.000000	2.246232	2.272329	2.454944	284997130	312235853	318131828	173.647262
244	500	1449832684243556623	3.157576	3.202697	3.507275	1.000000	1.000000	1.000000	2.246909	2.271869	2.430675	285121672	312236882	317996540	174.340301
245	502	1449832684528648921	3.158858	3.202691	3.507636	1.000000	1.000000	1.000000	2.247431	2.271244	2.389497	285092298	312237390	317862237	175.021528
246	504	1449832684813691010	3.160132	3.202672	3.508254	1.000000	1.000000	1.000000	2.247773	2.270000	2.341135	285042089	312239327	317728822	175.688850
247	506	1449832685098843473	3.161393	3.212941	3.506896	1.000000	1.000000	1.000000	2.248091	2.269643	2.335342	285152463	311241308	317596934	176.354778
248	508	1449832685383830021	3.162651	3.224192	3.508938	1.000000	1.000000	1.000000	2.248395	2.265394	2.332010	284986548	310155200	317465440	177.019370
249	510	1449832685704209762	3.162483	3.231030	3.121296	1.000000	1.000000	1.000000	2.248748	2.260008	2.335448	320379741	309498831	317477144	177.767600
250	512	1449832686014968863	3.162700	3.233364	3.217927	1.000000	1.000000	1.000000	2.249881	2.273776	2.538009	310759101	309275377	317450272	178.556310
251	514	1449832686355773173	3.161723	3.233758	2.934235	1.000000	1.000000	1.000000	2.251038	2.288796	2.520654	340804310	309237738	317543316	179.415359
252	516	1449832686698589394	3.160675	3.232044	2.917015	1.000000	1.000000	1.000000	2.250538	2.287941	2.134167	342816221	309401760	317643605	180.146986
253	518	1449832687036208463	3.159840	3.233436	2.961918	1.000000	1.000000	1.000000	2.250119	2.290163	2.150826	337619069	309268504	317722560	180.873146
254	520	1449832687376851690	3.158894	3.233805	2.935623	1.000000	1.000000	1.000000	2.249381	2.289096	2.075137	340643227	309233288	317812799	181.580028
255	522	1449832687716394337	3.157999	3.232923	2.945138	1.000000	1.000000	1.000000	2.249117	2.293392	2.186311	339542647	309317619	317898014	182.322373
256	524	1449832688057609354	3.157046	3.222923	2.930703	1.000000	1.000000	1.000000	2.248641	2.293842	2.135737	341215017	310277360	317989096	183.051119
257	526	1449832688397661083	3.156146	3.222807	2.940729	1.000000	1.000000	1.000000	2.248469	2.295464	2.207310	340051729	310288467	318074943	183.801718
258	528	1449832688737703936	3.155254	3.223850	2.940806	1.000000	1.000000	1.000000	2.247922	2.290351	2.116396	340042853	310188123	318160090	184.521384
259	530	1449832689077970289	3.154361	3.224977	2.938874	1.000000	1.000000	1.000000	2.247424	2.291849	2.127199	340266353	310079695	318245442	185.245198
260	532	1449832689390312511	3.154539	3.234147	3.201616	1.000000	1.000000	1.000000	2.246962	2.293127	2.124965	312342222	309200561	318222737	185.908914
261	534	1449832689728266537	3.153744	3.234899	2.958982	1.000000	1.000000	1.000000	2.246724	2.298277	2.188592	337954026	309128703	318298336	186.648558
262	536	1449832690072840295	3.152705	3.240815	2.902136	1.000000	1.000000	1.000000	2.246238	2.297342	2.128925	344573758	308564387	318398624	187.382129
263	538	1449832690419788379	3.151584	3.221051	2.882276	1.000000	1.000000	1.000000	2.245810	2.288088	2.142970	346948084	310457699	318507177	188.125628
264	540	1449832690780783675	3.149948	3.194990	2.770119	1.000000	1.000000	1.000000	2.245209	2.273893	2.105879	360995296	312989992	318668117	188.885841
265	542	1449832691154412769	3.147854	3.165142	2.676451	1.000000	1.000000	1.000000	2.245361	2.271197	2.279439	373629094	315941634	318875517	189.737505
266	544	1449832691537510836	3.145428	3.132747	2.610298	1.000000	1.000000	1.000000	2.244390	2.259842	2.030320	383098067	319208671	319116955	190.515317
267	546	1449832691919747073	3.143055	3.101281	2.616183	1.000000	1.000000	1.000000	2.242959	2.244628	1.925094	382236237	322447385	319353357	191.251157
268	548	1449832692298973485	3.140815	3.071422	2.636947	1.000000	1.000000	1.000000	2.241970	2.233160	2.019642	379226412	325582069	319576764	192.017059
269	550	1449832692698794507	3.137842	3.035740	2.501119	1.000000	1.000000	1.000000	2.240945	2.221500	2.021411	399821022	329409007	319875069	192.825262
270	552	1449832693094079874	3.135062	3.002254	2.529818	1.000000	1.000000	1.000000	2.239640	2.206556	1.955519	395285367	333083056	320154367	193.598250
271	554	1449832693491393153	3.132233	2.968917	2.516906	1.000000	1.000000	1.000000	2.238190	2.189104	1.922715	397313279	336823181	320439086	194.362170
272	556	1449832693892055130	3.129311	2.935818	2.495869	1.000000	1.000000	1.000000	2.236512	2.169077	1.872918	400661977	340620572	320734023	195.112577
273	558	1449832694297858552	3.126232	2.901516	2.464247	1.000000	1.000000	1.000000	2.235038	2.151341	1.917944	405803422	344647448	321045633	195.890885
274	560	1449832694681530410	3.123966	2.874121	2.606394	1.000000	1.000000	1.000000	2.233601	2.134674	1.905501	383671858	347932454	321274196	196.621972
275	562	1449832695082304595	3.121116	2.842617	2.495171	1.000000	1.000000	1.000000	2.232176	2.119608	1.919213	400774185	351788517	321563286	197.391143
276	564	1449832695492900920	3.117947	2.809196	2.435482	1.000000	1.000000	1.000000	2.230875	2.107198	1.950625	410596325	355973659	321885870	198.192062
277	566	1449832696747465873	3.085630	2.575412	0.797089	1.000000	1.000000	1.000000	2.219867	2.029791	1.440327	1254564953	388287408	325252942	199.999047
278	568	1449832698715638064	3.030526	2.250257	0.508086	1.000000	1.000000	1.000000	2.189767	1.843535	0.811908	1968172191	444393596	331162724	201.597022
279	570	1449832700684064628	2.977720	2.002690	0.508020	1.000000	1.000000	1.000000	2.160696	1.696030	0.801077	1968426564	499328490	337031053	203.173884
280	572	1449832701046049504	2.976895	1.995864	2.762546	1.000000	1.000000	1.000000	2.157413	1.669194	1.304509	361984876	501036016	337120174	203.646096
281	574	1449832701331131675	2.978494	2.003291	3.507761	1.000000	1.000000	1.000000	2.158114	1.663544	2.390274	285082171	499178612	336934985	204.327521
282	576	1449832701616198929	2.980083	2.011046	3.507944	1.000000	1.000000	1.000000	2.158599	1.665265	2.319613	285067254	497253646	336751057	204.988767
283	578	1449832701901309016	2.981661	2.018150	3.507417	1.000000	1.000000	1.000000	2.159006	1.666310	2.294696	285110087	495503347	336568580	205.643008
284	580	1449832702186380896	2.983232	2.025723	3.507887	1.000000	1.000000	1.000000	2.159440	1.669185	2.304197	285071880	493650969	336387254	206.299870
285	582	1449832702471500900	2.984791	2.033194	3.507295	1.000000	1.000000	1.000000	2.159861	1.669497	2.301172	285120004	491836881	336207369	206.955980
286	584	1449832702756536946	2.986344	2.040965	3.508328	1.000000	1.000000	1.000000	2.160263	1.670809	2.295286	285036046	489964249	336028448	207.610219
287	586	1449832703041628242	2.987886	2.048625	3.507648	1.000000	1.000000	1.000000	2.160950	1.672400	2.392479	285091296	488132235	335850967	208.292294
288	588	1449832703326707246	2.989419	2.056343	3.507800	1.000000	1.000000	1.000000	2.161765	1.677002	2.437485	285079004	486300107	335674675	208.987170
289	590	1449832703611753083	2.990944	2.064156	3.508208	1.000000	1.000000	1.000000	2.162542	1.681150	2.425897	285045837	484459423	335499489	209.678661
290	592	1449832703896877129	2.992458	2.068029	3.507245	1.000000	1.000000	1.000000	2.163238	1.685721	2.399897	285124046	483552150	335325780	210.362930
291	594	1449832704181970841	2.993964	2.075593	3.507619	1.000000	1.000000	1.000000	2.163930	1.688049	2.399884	285093712	481790139	335153162	211.047122
292	596	1449832704467064679	2.995461	2.084169	3.507617	1.000000	1.000000	1.000000	2.164649	1.691807	2.410635	285093838	479807475	334981726	211.734379
293	598	1449832704752135600	2.996950	2.093167	3.507899	1.000000	1.000000	1.000000	2.165087	1.693294	2.315639	285070921	477744903	334811381	212.394500
294	600	1449832705037223645	2.998430	2.104312	3.507688	1.000000	1.000000	1.000000	2.165507	1.695177	2.309902	285088045	475214661	334642254	213.053026
295	602	1449832705322308774	2.999901	2.117463	3.507724	1.000000	1.000000	1.000000	2.165920	1.692106	2.308299	285085129	472263195	334474264	213.711087
296	604	1449832705607901860	3.001349	2.132137	3.501485	1.000000	1.000000	1.000000	2.166515	1.696703	2.372267	285593086	469013029	334309125	214.388590
297	606	1449832706292772676	2.990756	2.087243	1.460129	1.000000	1.000000	1.000000	2.167608	1.720594	2.325557	684870816	479100849	335489467	215.981296
298	608	1449832707318596008	2.970213	1.997387	0.974827	1.000000	1.000000	1.000000	2.155175	1.660239	0.947457	1025823332	500654080	337806024	216.953220
299	610	1449832708258717493	2.952572	1.928030	1.063692	1.000000	1.000000	1.000000	2.143994	1.607855	0.946843	940121485	518664095	339820457	217.843367
300	612	1449832709274845227	2.933082	1.854053	0.984128	1.000000	1.000000	1.000000	2.132381	1.559377	0.971136	1016127734	539358841	342074815	218.830166
301	614	1449832710300231184	2.913713	1.784775	0.975243	1.000000	1.000000	1.000000	2.120507	1.512523	0.932093	1025385957	560294597	344344951	219.785921
302	616	1449832710913782113	2.906158	1.762453	1.629857	1.000000	1.000000	1.000000	2.114237	1.487550	1.055035	613550929	567390895	345236362	220.433239
303	618	1449832711200561862	2.907751	1.774864	3.486997	1.000000	1.000000	1.000000	2.114143	1.487269	2.080016	286779749	563423439	345043436	221.029745
304	620	1449832711485722532	2.909380	1.785269	3.506795	1.000000	1.000000	1.000000	2.115011	1.493776	2.433478	285160670	560139733	344846453	221.723677
305	622	1449832711770715119	2.911006	1.797655	3.508863	1.000000	1.000000	1.000000	2.115844	1.499410	2.421929	284992587	556280346	344650211	222.413909
306	624	1449832712055834039	2.912619	1.811273	3.507308	1.000000	1.000000	1.000000	2.116665	1.504062	2.419431	285118920	552097766	344455664	223.103735
307	626	1449832712340964959	2.914223	1.923879	3.507161	1.000000	1.000000	1.000000	2.117161	1.523757	2.300755	285130920	519783299	344262424	223.759751
308	628	1449832712626011129	2.915820	2.156664	3.508204	1.000000	1.000000	1.000000	2.117637	1.640258	2.293927	285046170	463679099	344070163	224.413626
309	630	1449832712911204299	2.917405	2.453558	3.506395	1.000000	1.000000	1.000000	2.118135	1.790824	2.303386	285193170	407571320	343879623	225.070536
310	632	1449832713196351178	2.918983	2.469074	3.506965	1.000000	1.000000	1.000000	2.118687	1.817833	2.324359	285146879	405010053	343690162	225.733320
311	634	1449832713481489847	2.920553	2.469063	3.507066	1.000000	1.000000	1.000000	2.119351	1.817300	2.367413	285138669	405011936	343501894	226.408361
312	636	1449832713766569476	2.922116	2.469060	3.507792	1.000000	1.000000	1.000000	2.120131	1.819474	2.412271	285079629	405012349	343314643	227.096050
313	638	1449832714051602021	2.923672	2.469076	3.508371	1.000000	1.000000	1.000000	2.120984	1.822918	2.441613	285032545	405009764	343128438	227.791989
314	640	1449832714336770566	2.925216	2.469057	3.506698	1.000000	1.000000	1.000000	2.121839	1.826202	2.443992	285168545	405012986	342943853	228.488939
315	642	1449832714621838903	2.926754	2.469067	3.507931	1.000000	1.000000	1.000000	2.122627	1.828993	2.420204	285068337	405011263	342760121	229.178863
316	644	1449832714907009531	2.928282	2.469040	3.506673	1.000000	1.000000	1.000000	2.123285	1.830811	2.372516	285170628	405015749	342577876	229.855434
317	646	1449832715192122367	2.929803	2.469035	3.507383	1.000000	1.000000	1.000000	2.123814	1.829219	2.324594	285112836	405016467	342396598	230.518206
318	648	1449832715477243370	2.931316	2.469027	3.507283	1.000000	1.000000	1.000000	2.124341	1.826576	2.324763	285121003	405017867	342216486	231.181045
319	650	1449832715762336499	2.932822	2.469017	3.507626	1.000000	1.000000	1.000000	2.124861	1.824174	2.323453	285093129	405019444	342037416	231.843445
320	652	1449832716047502668	2.934318	2.469009	3.506727	1.000000	1.000000	1.000000	2.125464	1.823152	2.356236	285166169	405020848	341859693	232.515364
321	654	1449832716332655630	2.935806	2.468997	3.506890	1.000000	1.000000	1.000000	2.126303	1.824286	2.448113	285152962	405022823	341683037	233.213450
322	656	1449832716617697675	2.937290	2.469007	3.508254	1.000000	1.000000	1.000000	2.127156	1.825334	2.455379	285042045	405021097	341507133	233.913337
323	658	1449832716904487798	2.938720	2.468658	3.486870	1.000000	1.000000	1.000000	2.127959	1.828241	2.435900	286790123	405078403	341337731	234.611929
324	660	1449832717189623343	2.940186	2.468648	3.507104	1.000000	1.000000	1.000000	2.128678	1.830512	2.406624	285135545	405079987	341164267	235.298143
325	662	1449832717474650179	2.941648	2.468660	3.508442	1.000000	1.000000	1.000000	2.129388	1.832770	2.404647	285026836	405078044	340991536	235.983532
326	664	1449832717759723891	2.943100	2.468765	3.507865	1.000000	1.000000	1.000000	2.129996	1.832614	2.366602	285073712	405060732	340820009	236.658188
327	666	1449832718044777769	2.944546	2.552756	3.508109	1.000000	1.000000	1.000000	2.130495	1.815826	2.324859	285053878	391733500	340649471	237.320898
328	668	1449832718329892939	2.945983	2.724475	3.507355	1.000000	1.000000	1.000000	2.130992	1.909916	2.325281	285115170	367043228	340480159	237.983871
329	670	1449832718615133900	2.947409	2.896755	3.505808	1.000000	1.000000	1.000000	2.131475	2.008647	2.320413	285240961	345213878	340312259	238.645748
330	672	1449832718900967442	2.948813	3.116520	3.498540	1.000000	1.000000	1.000000	2.132240	2.130739	2.432075	285833542	320870738	340147171	239.340916
331	674	1449832719186117237	2.950227	3.376141	3.506929	1.000000	1.000000	1.000000	2.133064	2.279540	2.457422	285149795	296196200	339981016	240.041650
332	676	1449832719471247531	2.951634	3.505711	3.507169	1.000000	1.000000	1.000000	2.133797	2.372117	2.423085	285130294	285248846	339815803	240.732544
333	678	1449832719759654192	2.952949	3.505045	3.467326	1.000000	1.000000	1.000000	2.134520	2.383421	2.417147	288406661	285303077	339661421	241.429666
334	680	1449832720046503565	2.954298	3.504353	3.486150	1.000000	1.000000	1.000000	2.135255	2.383147	2.425004	286849373	285359367	339503302	242.125277
335	682	1449832720331717192	2.955683	3.504263	3.506144	1.000000	1.000000	1.000000	2.135868	2.381741	2.379712	285213627	285366735	339341243	242.804003
336	684	1449832720617231319	2.957053	3.504101	3.502454	1.000000	1.000000	1.000000	2.136354	2.378759	2.329954	285514127	285379908	339181043	243.469238
337	686	1449832721121754673	2.952755	3.416549	1.982069	1.000000	1.000000	1.000000	2.137343	2.380254	2.360697	504523354	292692989	339671673	244.660264
338	688	1449832721775812572	2.944666	3.278760	1.528917	1.000000	1.000000	1.000000	2.133729	2.320108	1.501230	654057899	304993379	340601810	245.642156
339	690	1449832722429784720	2.936670	3.151731	1.529117	1.000000	1.000000	1.000000	2.129796	2.259972	1.437526	653972148	317286011	341526206	246.582258
340	692	1449832723083935118	2.928760	3.034108	1.528700	1.000000	1.000000	1.000000	2.125855	2.203096	1.428351	654150398	329586129	342445689	247.516615
341	694	1449832723737903017	2.920942	2.924999	1.529127	1.000000	1.000000	1.000000	2.121942	2.148932	1.425272	653967899	341880436	343359244	248.448697
342	696	1449832724391736124	2.913215	2.823485	1.529442	1.000000	1.000000	1.000000	2.118055	2.097129	1.421915	653833107	354172218	344267062	249.378392
343	698	1449832725045741772	2.905569	2.728726	1.529039	1.000000	1.000000	1.000000	2.114211	2.048050	1.422237	654005648	366471322	345170090	250.308543
344	700	1449832725701302041	2.897969	2.639792	1.525413	1.000000	1.000000	1.000000	2.110394	2.001947	1.421054	655560269	378817712	346072387	251.240129
345	702	1449832726060944879	2.897615	2.622583	2.780536	1.000000	1.000000	1.000000	2.108884	1.979168	1.608933	359642838	381303529	346111722	251.818770
346	704	1449832726345943465	2.899070	2.622622	3.508789	1.000000	1.000000	1.000000	2.108858	1.972318	2.097852	284998586	381297794	345935094	252.416655
347	706	1449832726630997217	2.900517	2.622636	3.508110	1.000000	1.000000	1.000000	2.109486	1.973527	2.373151	285053752	381295824	345759644	253.093130
348	708	1449832726916021886	2.901958	2.622658	3.508468	1.000000	1.000000	1.000000	2.110172	1.975380	2.399271	285024669	381292613	345585118	253.776982
349	710	1449832727201144764	2.903390	2.622651	3.507260	1.000000	1.000000	1.000000	2.110927	1.978013	2.429037	285122878	381293604	345411874	254.469556
350	712	1449832727486206891	2.904816	2.622675	3.508007	1.000000	1.000000	1.000000	2.111712	1.980192	2.443803	285062127	381290136	345239446	255.166191
351	714	1449832727771276102	2.906236	2.622694	3.507920	1.000000	1.000000	1.000000	2.112456	1.979678	2.427656	285069211	381287345	345068021	255.858241
352	716	1449832728056292896	2.907650	2.622700	3.508565	1.000000	1.000000	1.000000	2.113068	1.977635	2.373392	285016794	381286503	344897421	256.534698
353	718	1449832728341366399	2.909056	2.623093	3.507867	1.000000	1.000000	1.000000	2.113571	1.974869	2.327689	285073503	381229283	344727948	257.198260
354	720	1449832728628163438	2.910414	2.622712	3.486786	1.000000	1.000000	1.000000	2.114072	1.972928	2.326707	286797039	381284666	344564301	257.865553
355	722	1449832728913185690	2.911809	2.622713	3.508498	1.000000	1.000000	1.000000	2.114491	1.970167	2.293850	285022252	381284513	344396577	258.519351
356	724	1449832729198315526	2.913194	2.622700	3.507174	1.000000	1.000000	1.000000	2.114993	1.969262	2.330230	285129836	381286383	344230097	259.183769
357	726	1449832729485087273	2.914534	2.622307	3.487094	1.000000	1.000000	1.000000	2.115686	1.971498	2.411948	286771747	381343646	344069150	259.875448
358	728	1449832729770148359	2.915908	2.622319	3.508020	1.000000	1.000000	1.000000	2.116468	1.974688	2.453352	285061086	381341843	343904323	260.574803
359	730	1449832730055186028	2.917276	2.622366	3.508308	1.000000	1.000000	1.000000	2.117261	1.978154	2.459765	285037669	381335066	343740349	261.275929
360	732	1449832730340291530	2.918637	2.622532	3.507474	1.000000	1.000000	1.000000	2.118006	1.978336	2.440530	285105502	381310798	343577474	261.971737
361	734	1449832730625404616	2.919991	2.622541	3.507380	1.000000	1.000000	1.000000	2.118643	1.976777	2.394958	285113086	381309574	343415523	262.654571
362	736	1449832730910415743	2.921341	2.622568	3.508635	1.000000	1.000000	1.000000	2.119215	1.975394	2.367777	285011127	381305601	343254185	263.329414
363	738	1449832731195595495	2.922681	2.623308	3.506560	1.000000	1.000000	1.000000	2.119772	1.973914	2.362763	285179752	381198037	343094200	264.003226
364	740	1449832731482567033	2.923973	2.623280	3.484666	1.000000	1.000000	1.000000	2.120290	1.971905	2.344752	286971538	381202109	342940017	264.676103
365	742	1449832731767610119	2.925304	2.623320	3.508242	1.000000	1.000000	1.000000	2.120763	1.970606	2.327874	285043086	381196425	342781395	265.339648
366	744	1449832732052661538	2.926629	2.623426	3.508139	1.000000	1.000000	1.000000	2.121238	1.970595	2.330078	285051419	381181001	342623663	266.003840
367	746	1449832732337766331	2.927946	2.674748	3.507482	1.000000	1.000000	1.000000	2.121913	1.964438	2.418709	285104793	373867049	342466936	266.693425
368	748	1449832732622818250	2.929259	2.765740	3.508133	1.000000	1.000000	1.000000	2.122673	2.005332	2.457732	285051919	361566850	342310917	267.394006
369	750	1449832732907916127	2.930565	2.863106	3.507567	1.000000	1.000000	1.000000	2.123427	2.053048	2.456559	285097877	349271041	342155868	268.094366
370	752	1449832733193007629	2.931865	2.967631	3.507646	1.000000	1.000000	1.000000	2.124099	2.103863	2.421494	285091502	336969078	342001640	268.784714
371	754	1449832733478065173	2.933160	3.080031	3.508064	1.000000	1.000000	1.000000	2.124749	2.158491	2.413674	285057544	324672067	341848152	269.472750
372	756	1449832733763083425	2.934450	3.201247	3.508547	1.000000	1.000000	1.000000	2.125345	2.216929	2.390200	285018252	312378239	341695383	270.154000
373	758	1449832734048152844	2.935734	3.332440	3.507917	1.000000	1.000000	1.000000	2.125809	2.278328	2.332735	285069419	300080364	341543571	270.818992
374	760	1449832734333228554	2.937011	3.475470	3.507840	1.000000	1.000000	1.000000	2.126258	2.345041	2.326943	285075710	287730879	341392587	271.482347
375	762	1449832734618297222	2.938283	3.505757	3.507927	1.000000	1.000000	1.000000	2.126697	2.375263	2.323596	285068668	285245073	341242390	272.144731
376	764	1449832734904922178	2.939513	3.505091	3.488880	1.000000	1.000000	1.000000	2.127286	2.385003	2.390284	286624956	285299286	341097131	272.829846
377	766	1449832735190009639	2.940774	3.505077	3.507695	1.000000	1.000000	1.000000	2.128010	2.387684	2.453624	285087461	285300410	340948564	273.529344
378	768	1449832735475089307	2.942028	3.505055	3.507791	1.000000	1.000000	1.000000	2.128688	2.388855	2.434446	285079668	285302243	340800763	274.223355
379	770	1449832735795410295	2.942474	3.490700	3.121868	1.000000	1.000000	1.000000	2.129409	2.388660	2.419393	320320988	286475514	340746727	274.998337
380	772	1449832736145488325	2.942242	3.464491	2.856506	1.000000	1.000000	1.000000	2.130467	2.392175	2.520504	350078030	288642711	340771283	275.880710
381	774	1449832736490332577	2.942129	3.440739	2.899860	1.000000	1.000000	1.000000	2.130615	2.382876	2.186389	344844252	290635212	340781973	276.634674
382	776	1449832736828418599	2.942170	3.419924	2.957827	1.000000	1.000000	1.000000	2.130448	2.370986	2.066369	338086022	292404187	340774916	277.333284
383	778	1449832737143389726	2.942732	3.408307	3.174894	1.000000	1.000000	1.000000	2.130701	2.367533	2.235315	314971127	293400774	340707543	278.037344
384	780	1449832737486086693	2.942667	3.386799	2.918030	1.000000	1.000000	1.000000	2.130718	2.359937	2.137021	342696967	295264105	340712723	278.769695
385	782	1449832737826058043	2.942664	3.365918	2.941424	1.000000	1.000000	1.000000	2.130850	2.355255	2.181788	339971350	297095742	340710798	279.511440
386	784	1449832738166143725	2.942658	3.345291	2.940435	1.000000	1.000000	1.000000	2.130849	2.347518	2.130238	340085682	298927604	340709178	280.235904
387	786	1449832738508678193	2.942598	3.324619	2.919414	1.000000	1.000000	1.000000	2.130848	2.337229	2.130413	342534468	300786361	340713895	280.965643
388	788	1449832738846746506	2.942637	3.305203	2.957982	1.000000	1.000000	1.000000	2.130894	2.326565	2.148834	338068313	302553268	340707076	281.692096
389	790	1449832739186302857	2.942643	3.285469	2.945019	1.000000	1.000000	1.000000	2.131035	2.317183	2.186101	339556351	304370558	340704118	282.434401
390	792	1449832739527123370	2.942621	3.265543	2.934096	1.000000	1.000000	1.000000	2.131031	2.306384	2.129263	340820513	306227725	340704417	283.160097
391	794	1449832739870349836	2.942546	3.245017	2.913528	1.000000	1.000000	1.000000	2.131174	2.299202	2.186506	343226466	308164838	340710867	283.910564
392	796	1449832740208394107	2.942586	3.226508	2.958192	1.000000	1.000000	1.000000	2.131064	2.289423	2.088043	338044271	309932610	340704064	284.616415
393	798	1449832740555730394	2.942421	3.205082	2.879054	1.000000	1.000000	1.000000	2.131156	2.282619	2.166281	347336287	312004495	340720940	285.368843
394	800	1449832740905818174	2.942197	3.183614	2.856426	1.000000	1.000000	1.000000	2.131305	2.277229	2.188488	350087780	314108370	340744714	286.135006
395	802	1449832741293065100	2.941162	3.149456	2.582332	1.000000	1.000000	1.000000	2.131652	2.274687	2.251979	387246926	317515164	340862441	287.007078
396	804	1449832741676507829	2.940216	3.117257	2.607951	1.000000	1.000000	1.000000	2.131600	2.266614	2.113238	383442729	320794875	340969967	287.817384
397	806	1449832742077098635	2.938903	3.080293	2.496313	1.000000	1.000000	1.000000	2.131080	2.249372	1.955656	400590806	324644408	341120145	288.600802
398	808	1449832742483058385	2.937481	3.042522	2.463298	1.000000	1.000000	1.000000	2.130524	2.230823	1.945151	405959750	328674669	341283059	289.390455
399	810	1449832742866369947	2.936556	3.012516	2.608844	1.000000	1.000000	1.000000	2.129794	2.210515	1.871128	383311562	331948459	341388394	290.107680
400	812	1449832743267179211	2.935261	2.977912	2.494952	1.000000	1.000000	1.000000	2.129169	2.192854	1.916686	400809264	335805717	341536946	290.875905
401	814	1449832743656461090	2.934220	2.947419	2.568833	1.000000	1.000000	1.000000	2.128616	2.176790	1.934517	389281879	339279861	341656010	291.628978
402	816	1449832744048601503	2.933123	2.916722	2.550107	1.000000	1.000000	1.000000	2.128041	2.161363	1.927274	392140413	342850600	341781594	292.384739
403	818	1449832744449284642	2.931851	2.884302	2.495738	1.000000	1.000000	1.000000	2.127447	2.147515	1.923822	400683139	346704391	341927751	293.155582
404	820	1449832744843899839	2.930716	2.854242	2.534114	1.000000	1.000000	1.000000	2.126923	2.135000	1.943794	394615197	350355707	342058166	293.922633
405	822	1449832745227264609	2.929824	2.827796	2.608482	1.000000	1.000000	1.000000	2.126190	2.120064	1.861902	383364770	353632244	342160157	294.636421
406	824	1449832745621396225	2.928711	2.799428	2.537224	1.000000	1.000000	1.000000	2.125670	2.106331	1.943189	394131616	357215799	342288166	295.402293
407	826	1449832746034587079	2.927203	2.766360	2.420189	1.000000	1.000000	1.000000	2.125188	2.091742	1.963047	413190854	361485912	342462374	296.213406
408	828	1449832746321076451	2.928359	2.766000	3.490531	1.000000	1.000000	1.000000	2.125285	2.084865	2.172406	286489372	361532902	342325185	296.835777
409	830	1449832746606261202	2.929537	2.774990	3.506499	1.000000	1.000000	1.000000	2.125819	2.082929	2.387215	285184751	360361694	342185478	297.516574
410	832	1449832746891317619	2.930713	2.791781	3.508077	1.000000	1.000000	1.000000	2.126470	2.078308	2.446126	285056417	358194307	342046138	298.213858
411	834	1449832747176500620	2.931881	2.807367	3.506520	1.000000	1.000000	1.000000	2.127127	2.084749	2.450346	285183001	356205599	341907785	298.912655
412	836	1449832747461599246	2.933047	2.821357	3.507558	1.000000	1.000000	1.000000	2.127514	2.091584	2.317859	285098626	354439352	341769899	299.573474
413	838	1449832747746676122	2.934208	2.829311	3.507826	1.000000	1.000000	1.000000	2.127890	2.093288	2.313769	285076876	353442877	341632628	300.233076
414	840	1449832748031811873	2.935364	2.844755	3.507101	1.000000	1.000000	1.000000	2.128284	2.098085	2.323283	285135751	351524170	341496162	300.895527
415	842	1449832748316951915	2.936514	2.859623	3.507049	1.000000	1.000000	1.000000	2.128736	2.102292	2.352655	285140042	349696460	341360364	301.566363
416	844	1449832748602065833	2.937661	2.874686	3.507370	1.000000	1.000000	1.000000	2.129277	2.109468	2.398297	285113918	347864068	341225156	302.250151
417	846	1449832748887096959	2.938805	2.890614	3.508389	1.000000	1.000000	1.000000	2.129861	2.117327	2.420768	285031126	345947290	341090398	302.940145
418	848	1449832749172253501	2.939941	2.905427	3.506846	1.000000	1.000000	1.000000	2.130495	2.125391	2.446690	285156542	344183565	340956585	303.637834
419	850	1449832749457348460	2.941075	2.920832	3.507603	1.000000	1.000000	1.000000	2.131143	2.132539	2.455212	285094959	342368185	340823264	304.337803
420	852	1449832749742421211	2.942204	2.936772	3.507876	1.000000	1.000000	1.000000	2.131736	2.140918	2.428887	285072751	340509927	340690525	305.030212
421	854	1449832750029210874	2.943293	2.953087	3.486876	1.000000	1.000000	1.000000	2.132206	2.145744	2.366435	286789663	338628700	340562494	305.708882
422	856	1449832750314320166	2.944413	2.968555	3.507427	1.000000	1.000000	1.000000	2.132639	2.153453	2.350569	285109292	336864201	340431088	306.379051
423	858	1449832750599865541	2.945519	2.986818	3.502070	1.000000	1.000000	1.000000	2.132960	2.157014	2.294313	285545375	334804504	340301335	307.034181
424	860	1449832751104928889	2.942143	2.941433	1.979950	1.000000	1.000000	1.000000	2.133819	2.166913	2.378725	505063348	339970356	340689925	308.235588
425	862	1449832753071976348	2.909447	2.546925	0.508376	1.000000	1.000000	1.000000	2.119786	1.984145	1.089226	1967047459	392630374	344516648	310.378147
426	864	1449832755039929511	2.877600	2.244934	0.508142	1.000000	1.000000	1.000000	2.102378	1.807119	0.807200	1967953163	445447388	348327532	311.966678
427	866	1449832756006792328	2.865667	2.153672	1.034273	1.000000	1.000000	1.000000	2.094323	1.736979	0.858139	966862817	464323122	349776092	312.796381
428	868	1449832756293530407	2.866859	2.172265	3.487503	1.000000	1.000000	1.000000	2.093748	1.732045	1.794070	286738079	460349066	349628807	313.310809
429	870	1449832756578634490	2.868077	2.187822	3.507491	1.000000	1.000000	1.000000	2.094061	1.739098	2.258287	285104083	457075483	349478400	313.954655
430	872	1449832756863734074	2.869291	2.206441	3.507546	1.000000	1.000000	1.000000	2.094433	1.745421	2.290306	285099584	453218494	349328682	314.607621
431	874	1449832757148743074	2.870502	2.223494	3.508661	1.000000	1.000000	1.000000	2.094992	1.753570	2.389472	285009000	449742732	349179448	315.288642
432	876	1449832757437097399	2.871644	2.240730	3.467956	1.000000	1.000000	1.000000	2.095639	1.763121	2.433225	288354325	446283195	349038649	315.990273
433	878	1449832757723792561	2.872814	2.259971	3.488025	1.000000	1.000000	1.000000	2.096219	1.772055	2.401394	286695162	442483596	348894669	316.678741
434	880	1449832758008870520	2.874010	2.278774	3.507812	1.000000	1.000000	1.000000	2.096827	1.780911	2.418737	285077959	438832355	348747626	317.368269
435	882	1449832758293956478	2.875201	2.295914	3.507714	1.000000	1.000000	1.000000	2.097389	1.791958	2.396171	285085958	435556395	348601277	318.051384
436	884	1449832758579097228	2.876387	2.315226	3.507040	1.000000	1.000000	1.000000	2.097811	1.799028	2.322259	285140750	431923366	348455726	318.713555
437	886	1449832758864097937	2.877571	2.338359	3.508763	1.000000	1.000000	1.000000	2.098220	1.805236	2.316282	285000709	427650361	348310520	319.373697
438	888	1449832759149260312	2.878748	2.338601	3.506774	1.000000	1.000000	1.000000	2.098641	1.808545	2.322967	285162375	427606128	348166346	320.036120
439	890	1449832759434292979	2.879922	2.338629	3.508370	1.000000	1.000000	1.000000	2.099056	1.807078	2.321500	285032667	427601058	348022533	320.697823
440	892	1449832759719328854	2.881093	2.338632	3.508330	1.000000	1.000000	1.000000	2.099588	1.805702	2.384247	285035875	427600373	347879382	321.377419
441	894	1449832760004435354	2.882257	2.338646	3.507461	1.000000	1.000000	1.000000	2.100214	1.805392	2.436601	285106500	427597823	347737040	322.072110
442	896	1449832760289539521	2.883417	2.338645	3.507490	1.000000	1.000000	1.000000	2.100858	1.808267	2.447194	285104167	427598008	347595336	322.769815
443	898	1449832760574658354	2.884573	2.338638	3.507310	1.000000	1.000000	1.000000	2.101501	1.811248	2.447821	285118833	427599407	347454306	323.467735
444	900	1449832761044849340	2.882265	2.305380	2.126795	1.000000	1.000000	1.000000	2.102489	1.822241	2.425987	470190986	433767914	347730740	324.608412
445	902	1449832762066066254	2.869761	2.181959	0.979224	1.000000	1.000000	1.000000	2.098286	1.784547	1.462853	1021216914	458303809	349244192	326.102302
446	904	1449832763087640583	2.857412	2.071026	0.978881	1.000000	1.000000	1.000000	2.090759	1.713308	0.945699	1021574329	482852489	350751658	327.068404
447	906	1449832764109231746	2.845224	1.970814	0.978865	1.000000	1.000000	1.000000	2.083287	1.648105	0.939141	1021591163	507404490	352252418	328.027822
448	908	1449832765140209007	2.833025	1.878763	0.969953	1.000000	1.000000	1.000000	2.075826	1.587883	0.936260	1030977261	532265180	353767429	328.993086
449	910	1449832765926879488	2.825311	1.821545	1.271180	1.000000	1.000000	1.000000	2.070266	1.542410	0.950187	786670481	548984364	354731578	329.740569
450	912	1449832766211848946	2.826533	1.821557	3.509148	1.000000	1.000000	1.000000	2.069215	1.526017	1.481828	284969458	548980920	354576551	330.162845
451	914	1449832766496937529	2.827748	1.821745	3.507682	1.000000	1.000000	1.000000	2.069354	1.522136	2.147251	285088583	548924217	354422476	330.775002
452	916	1449832766781951029	2.828959	1.821756	3.508606	1.000000	1.000000	1.000000	2.069978	1.523325	2.419565	285013500	548921024	354268916	331.464611
453	918	1449832767067012237	2.830166	1.821809	3.508019	1.000000	1.000000	1.000000	2.070576	1.525249	2.406761	285061208	548904885	354116140	332.150685
454	920	1449832767352114486	2.831368	1.846474	3.507514	1.000000	1.000000	1.000000	2.071140	1.513866	2.388508	285102249	541572849	353964127	332.831654
455	922	1449832767637188486	2.832566	2.059702	3.507861	1.000000	1.000000	1.000000	2.071711	1.588431	2.393508	285074000	485507067	353812720	333.513981
456	924	1449832767922276235	2.833759	2.328768	3.507692	1.000000	1.000000	1.000000	2.072335	1.726279	2.424578	285087749	429411553	353662007	334.205199
457	926	1449832768207418235	2.834948	2.458890	3.507025	1.000000	1.000000	1.000000	2.072825	1.809655	2.350094	285142000	406687526	353512073	334.875309
458	928	1449832768492434359	2.836134	2.459237	3.508573	1.000000	1.000000	1.000000	2.073240	1.821672	2.308289	285016124	406630128	353362518	335.533209
459	930	1449832768777472484	2.837316	2.459251	3.508303	1.000000	1.000000	1.000000	2.073639	1.822648	2.300181	285038125	406627929	353213664	336.188848
460	932	1449832769062583275	2.838492	2.459248	3.507408	1.000000	1.000000	1.000000	2.074059	1.823172	2.312700	285110791	406628303	353065614	336.848223
461	934	1449832769347661899	2.839665	2.459234	3.507804	1.000000	1.000000	1.000000	2.074684	1.824143	2.430891	285078624	406630623	352918137	337.541218
462	936	1449832769632699649	2.840834	2.459903	3.508307	1.000000	1.000000	1.000000	2.075256	1.823239	2.401640	285037750	406520071	352771209	338.225776
463	938	1449832769917830523	2.841998	2.460219	3.507161	1.000000	1.000000	1.000000	2.075827	1.823191	2.402511	285130874	406467928	352625118	338.910806
464	940	1449832770202854856	2.843159	2.460229	3.508472	1.000000	1.000000	1.000000	2.076409	1.822978	2.409728	285024333	406466141	352479427	339.597637
465	942	1449832770487890397	2.844317	2.460240	3.508334	1.000000	1.000000	1.000000	2.077043	1.824017	2.440699	285035541	406464460	352334386	340.293323
466	944	1449832770772987188	2.845469	2.460248	3.507581	1.000000	1.000000	1.000000	2.077695	1.827057	2.452378	285096791	406462995	352190099	340.992488
467	946	1449832771058140395	2.846616	2.460218	3.506887	1.000000	1.000000	1.000000	2.078229	1.828691	2.385869	285153207	406468078	352046551	341.672827
468	948	1449832771344998015	2.847730	2.459876	3.486050	1.000000	1.000000	1.000000	2.078664	1.828868	2.327587	286857620	406524586	351907259	342.340512
469	950	1449832771630138306	2.848869	2.459854	3.507046	1.000000	1.000000	1.000000	2.079082	1.828848	2.320459	285140291	406528174	351764898	343.002169
470	952	1449832771915230888	2.850006	2.459843	3.507632	1.000000	1.000000	1.000000	2.079510	1.827524	2.327483	285092582	406530065	351623042	343.665717
471	954	1449832772200376429	2.851137	2.459835	3.506981	1.000000	1.000000	1.000000	2.080036	1.826319	2.384983	285145541	406531366	351481901	344.345784
472	956	1449832772485442470	2.852266	2.459842	3.507959	1.000000	1.000000	1.000000	2.080598	1.825373	2.406802	285066041	406530095	351341190	345.031882
473	958	1449832772770456719	2.853392	2.459863	3.508597	1.000000	1.000000	1.000000	2.081189	1.824835	2.425066	285014249	406526608	351200964	345.723060
474	960	1449832773057106547	2.854487	2.497449	3.488577	1.000000	1.000000	1.000000	2.081831	1.816315	2.453865	286649828	400408570	351064780	346.426460
475	962	1449832773342306379	2.855602	2.660461	3.506313	1.000000	1.000000	1.000000	2.082465	1.864422	2.452717	285199832	375874668	350926117	347.125974
476	964	1449832773627367337	2.856716	2.846374	3.508022	1.000000	1.000000	1.000000	2.083030	1.968303	2.412845	285060958	351324222	350787745	347.813782
477	966	1449832773912425253	2.857826	3.060227	3.508059	1.000000	1.000000	1.000000	2.083445	2.085969	2.326539	285057916	326773114	350649946	348.476981
478	968	1449832774197498168	2.858932	3.312249	3.507874	1.000000	1.000000	1.000000	2.083855	2.224356	2.324806	285072915	301909636	350512756	349.139720
479	970	1449832774482629167	2.860033	3.506414	3.507160	1.000000	1.000000	1.000000	2.084270	2.344960	2.327859	285130999	285191653	350376259	349.803464
480	972	1449832774767731083	2.861131	3.506360	3.507518	1.000000	1.000000	1.000000	2.084712	2.373705	2.344835	285101916	285196069	350240271	350.471981
481	974	1449832775052809874	2.862226	3.506364	3.507802	1.000000	1.000000	1.000000	2.085246	2.382133	2.400191	285078791	285195743	350104800	351.156225
482	976	1449832775337930122	2.863316	3.506320	3.507292	1.000000	1.000000	1.000000	2.085863	2.383159	2.450363	285120248	285199301	349969978	351.854873
483	978	1449832775623498620	2.864395	3.506112	3.501787	1.000000	1.000000	1.000000	2.086496	2.384958	2.460608	285568498	285216210	349836641	352.557545
484	980	1449832775966498833	2.864499	3.482547	2.915450	1.000000	1.000000	1.000000	2.087231	2.387397	2.449165	343000213	287146142	349822516	353.397609
485	982	1449832776283548076	2.865040	3.469668	3.154084	1.000000	1.000000	1.000000	2.087833	2.388003	2.409427	317049243	288211984	349754943	354.161516
486	984	1449832776623634672	2.865191	3.447737	2.940428	1.000000	1.000000	1.000000	2.088277	2.383750	2.309836	340086596	290045279	349735049	354.947060
487	986	1449832776961845148	2.865373	3.426838	2.956739	1.000000	1.000000	1.000000	2.088311	2.374090	2.105342	338210476	291814228	349711384	355.659109
488	988	1449832777299251460	2.865567	3.406452	2.963786	1.000000	1.000000	1.000000	2.088435	2.367668	2.150869	337406312	293560568	349686169	356.384826
489	990	1449832777638821057	2.865725	3.385489	2.944904	1.000000	1.000000	1.000000	2.088445	2.359326	2.093322	339569597	295378284	349665481	357.095654
490	992	1449832777977123283	2.865903	3.365289	2.955937	1.000000	1.000000	1.000000	2.088627	2.354042	2.180802	338302226	297151331	349642291	357.833425
491	994	1449832778315439675	2.866080	3.345310	2.955813	1.000000	1.000000	1.000000	2.088632	2.341679	2.091087	338316392	298925924	349619224	358.540874
492	996	1449832778637826279	2.866522	3.331436	3.101866	1.000000	1.000000	1.000000	2.088747	2.332928	2.150260	322386604	300170886	349563873	359.234089
493	998	1449832778978888247	2.866652	3.310872	2.932019	1.000000	1.000000	1.000000	2.088851	2.323521	2.141173	341061968	302035256	349546627	359.964361
