Beat	Tag	Timestamp	Global_Rate	Window_Rate	Instant_Rate	Global_Accuracy	Window_Accuracy	Instant_Accuracy	Global_Power	Window_Power	Instant_Power	Instant_Latency	Window_Latency	Global_latency	total_energy
0	11	1449812276516714148	0.000000	0.000000	0.000000	1.000000	1.000000	1.000000	0.000000	0.000000	0.000000	0	0	0	8.996581
1	12	1449812279478334766	0.675306	0.337653	0.337653	1.000000	1.000000	1.000000	3.037722	3.037722	3.037722	2961620618	2961620618	2961620618	8.996581
2	13	1449812282438211057	0.506629	0.337752	0.337852	1.000000	1.000000	1.000000	3.038466	3.038466	3.039209	2959876291	2960748454	2960748454	17.992265
3	14	1449812285398256930	0.450372	0.337779	0.337833	1.000000	1.000000	1.000000	3.038329	3.038329	3.038057	2960045873	2960514260	2960514260	26.985052
4	15	1449812288477247287	0.418042	0.334433	0.324782	1.000000	1.000000	1.000000	3.038428	3.038428	3.038712	3078990357	2990133284	2990133284	36.341218
5	16	1449812291598137616	0.397840	0.331534	0.320421	1.000000	1.000000	1.000000	2.710195	2.710195	1.452271	3120890329	3016284693	3016284693	40.873597
6	17	1449812294738206334	0.384162	0.329281	0.318464	1.000000	1.000000	1.000000	2.468095	2.468095	1.305314	3140068718	3036915364	3036915364	44.972374
7	18	1449812297858818373	0.374846	0.327990	0.320450	1.000000	1.000000	1.000000	2.296057	2.296057	1.291517	3120612039	3048872032	3048872032	49.002696
8	19	1449812303587207446	0.332465	0.295525	0.174569	1.000000	1.000000	1.000000	2.189785	2.189785	1.793847	5728389073	3383811662	3383811662	59.278551
9	20	1449812309567826391	0.302562	0.272306	0.167207	1.000000	1.000000	1.000000	2.108978	2.108978	1.743216	5980618945	3672345804	3672345804	69.704064
10	21	1449812314119861980	0.292529	0.265935	0.219682	1.000000	1.000000	1.000000	1.987440	1.987440	1.104983	4552035589	3760314783	3760314783	74.733986
11	22	1449812318676922707	0.284629	0.260910	0.219440	1.000000	1.000000	1.000000	1.895683	1.895683	1.138543	4557060727	3832746232	3832746232	79.922394
12	23	1449812321807746480	0.287033	0.264953	0.319405	1.000000	1.000000	1.000000	1.852283	1.852283	1.267851	3130823773	3774252694	3774252694	83.891812
13	24	1449812324929406700	0.289180	0.268525	0.320342	1.000000	1.000000	1.000000	1.815445	1.815445	1.280970	3121660220	3724053273	3724053273	87.890564
14	25	1449812328051119379	0.291068	0.271663	0.320337	1.000000	1.000000	1.000000	1.783279	1.783279	1.284442	3121712679	3681028945	3681028945	91.900223
15	26	1449812332541615460	0.285587	0.267738	0.222693	1.000000	1.000000	1.000000	1.733508	1.733508	1.162324	4490496081	3734993420	3734993420	97.119635
16	27	1449812337047016698	0.280851	0.264330	0.221956	1.000000	1.000000	1.000000	1.686142	1.686142	1.097144	4505401238	3783143909	3783143909	102.062709
17	28	1449812342726889764	0.271862	0.256758	0.176060	1.000000	1.000000	1.000000	1.631514	1.631514	1.049341	5679873066	3894716212	3894716212	108.022832
18	29	1449812349416613357	0.260631	0.246914	0.149483	1.000000	1.000000	1.000000	1.576030	1.576030	1.026884	6689723593	4049994400	4049994400	114.892402
19	30	1449812359463547180	0.241118	0.229062	0.099533	1.000000	1.000000	1.000000	1.537537	1.537537	1.258234	10046933823	4365622791	4365622791	127.533800
20	31	1449812363983185031	0.240092	0.228659	0.221257	1.000000	1.000000	1.000000	1.515671	1.515671	1.114383	4519637851	4373323544	4373323544	132.570409
21	32	1449812368481846539	0.239221	0.228347	0.222288	1.000000	1.000000	1.000000	1.495707	1.495707	1.107544	4498661508	4379292018	4379292018	137.552874
22	33	1449812371601864678	0.241888	0.231372	0.320511	1.000000	1.000000	1.000000	1.489152	1.489152	1.295937	3120018139	4322052296	4322052296	141.596220
23	34	1449812374723684352	0.244382	0.234199	0.320326	1.000000	1.000000	1.000000	1.482871	1.482871	1.291566	3121819674	4269868269	4269868269	145.628255
24	35	1449812377843873699	0.246726	0.236857	0.320493	1.000000	1.000000	1.000000	1.477064	1.477064	1.294283	3120189347	4221964981	4221964981	149.666663
25	36	1449812383457852905	0.243124	0.233773	0.178127	1.000000	1.000000	1.000000	1.492652	1.492652	1.774008	5613979206	4277645550	4277645550	159.625905
26	37	1449812390549380217	0.236774	0.228005	0.141013	1.000000	1.000000	1.000000	1.502305	1.502305	1.647866	7091527312	4385871771	4385871771	171.311792
27	38	1449812399425357981	0.227811	0.219675	0.112664	1.000000	1.000000	1.000000	1.466864	1.466864	1.011543	8875977764	4552171993	4552171993	180.290229
28	39	1449812402474315782	0.230236	0.222297	0.327981	1.000000	1.000000	1.000000	1.503337	1.503337	2.973628	3048957801	4498485772	4498485772	189.356695
29	40	1449812405523529332	0.232546	0.224794	0.327953	1.000000	1.000000	1.000000	1.537772	1.537772	2.960217	3049213550	4448510868	4448510868	198.383028
30	41	1449812409138158329	0.233748	0.226208	0.276654	1.000000	1.000000	1.000000	1.573189	1.573189	2.837223	3614628997	4420714806	4420714806	208.638536
31	42	1449812419798491876	0.223336	0.213797	0.093806	1.000000	1.000000	1.000000	1.549282	1.517866	1.251866	10660333547	4677338570	4621992829	221.983842
32	43	1449812425899604297	0.220909	0.209116	0.163905	1.000000	1.000000	1.000000	1.526508	1.464101	0.991686	6101112421	4782046441	4668215317	228.034226
33	44	1449812430179331018	0.221264	0.207209	0.233660	1.000000	1.000000	1.000000	1.531046	1.438582	1.689437	4279726721	4826035803	4656442935	235.264557
34	45	1449812433227831151	0.223341	0.207253	0.328030	1.000000	1.000000	1.000000	1.558606	1.436331	2.947797	3048500133	4825019463	4609150500	244.250916
35	46	1449812436276209618	0.225339	0.207357	0.328043	1.000000	1.000000	1.000000	1.585360	1.468105	2.960700	3048378467	4822602401	4564557013	253.276250
36	47	1449812439418489841	0.227131	0.207354	0.318240	1.000000	1.000000	1.000000	1.606998	1.498549	2.707130	3142280223	4822676118	4525049324	261.782812
37	48	1449812442544558537	0.228877	0.207346	0.319891	1.000000	1.000000	1.000000	1.601657	1.499228	1.323337	3126068696	4822858006	4487239037	265.919654
38	49	1449812445664475754	0.230568	0.211153	0.320521	1.000000	1.000000	1.000000	1.596165	1.483061	1.303919	3119917217	4735908944	4451256884	269.987773
39	50	1449812448784727012	0.232196	0.215491	0.320487	1.000000	1.000000	1.000000	1.590753	1.467722	1.297347	3120251258	4640563355	4417128534	274.035822
40	51	1449812451904556729	0.233768	0.217731	0.320530	1.000000	1.000000	1.000000	1.585460	1.475755	1.293199	3119829717	4592823159	4384696064	278.070384
41	52	1449812455024562820	0.235284	0.220026	0.320512	1.000000	1.000000	1.000000	1.580313	1.482797	1.290997	3120006091	4544921338	4353849967	282.098301
42	53	1449812458157640115	0.236731	0.220022	0.319175	1.000000	1.000000	1.000000	1.575325	1.483329	1.291133	3133077295	4544996455	4324783951	286.143522
43	54	1449812461276249669	0.238147	0.220027	0.320656	1.000000	1.000000	1.000000	1.570529	1.483566	1.291162	3118609554	4544894766	4296733384	290.170152
44	55	1449812464395993136	0.239516	0.220030	0.320539	1.000000	1.000000	1.000000	1.565885	1.483716	1.290862	3119743467	4544829125	4269983613	294.197310
45	56	1449812467515986851	0.240839	0.222264	0.320513	1.000000	1.000000	1.000000	1.561269	1.489777	1.283328	3119993715	4499145713	4244428282	298.201284
46	57	1449812470651220013	0.242100	0.224544	0.318956	1.000000	1.000000	1.000000	1.556959	1.498432	1.294378	3135233162	4453473444	4220315344	302.259462
47	58	1449812473780870944	0.243329	0.228913	0.319524	1.000000	1.000000	1.000000	1.552763	1.512976	1.292463	3129650931	4368466039	4197109719	306.304421
48	59	1449812476901034283	0.244530	0.235323	0.320496	1.000000	1.000000	1.000000	1.548747	1.533146	1.294887	3120163339	4249480697	4174673336	310.344681
49	60	1449812480020293416	0.245696	0.248845	0.320589	1.000000	1.000000	1.000000	1.544672	1.549581	1.282840	3119259133	4018558207	4153134270	314.346190
50	61	1449812483139701090	0.246826	0.251770	0.320574	1.000000	1.000000	1.000000	1.540966	1.559534	1.299236	3119407674	3971883867	4132459738	318.399035
51	62	1449812486259228806	0.247923	0.254718	0.320561	1.000000	1.000000	1.000000	1.537393	1.569943	1.300698	3119527716	3925912741	4112598326	322.456599
52	63	1449812489379587685	0.248987	0.254717	0.320476	1.000000	1.000000	1.000000	1.533953	1.570121	1.302716	3120358879	3925924099	4093516798	326.521542
53	64	1449812492501062934	0.250018	0.254718	0.320361	1.000000	1.000000	1.000000	1.530636	1.570464	1.304467	3121475249	3925912618	4075176392	330.593403
54	65	1449812495623094099	0.251020	0.254714	0.320304	1.000000	1.000000	1.000000	1.527416	1.570735	1.304669	3122031165	3925974012	4057525554	334.666619
55	66	1449812498746235092	0.251992	0.260217	0.320190	1.000000	1.000000	1.000000	1.524339	1.553732	1.308475	3123140993	3842946071	4040536744	338.753170
56	67	1449812501864773351	0.252942	0.269504	0.320663	1.000000	1.000000	1.000000	1.521278	1.540715	1.303138	3118538259	3710513103	4024072485	342.817058
57	68	1449812504983700942	0.253866	0.284203	0.320623	1.000000	1.000000	1.000000	1.518190	1.577953	1.295087	3118927591	3518611431	4008192750	346.856342
58	69	1449812508102335117	0.254765	0.284016	0.320653	1.000000	1.000000	1.000000	1.515314	1.529597	1.304622	3118634175	3520933977	3992855533	350.924981
59	70	1449812511221731623	0.255640	0.283827	0.320575	1.000000	1.000000	1.000000	1.512516	1.481692	1.304800	3119396506	3523273409	3978051143	354.995171
60	71	1449812514347829438	0.256485	0.285145	0.319888	1.000000	1.000000	1.000000	1.509786	1.429865	1.304816	3126097815	3506989036	3963851921	359.074152
61	72	1449812517477673157	0.257303	0.307128	0.319505	1.000000	1.000000	1.000000	1.506864	1.444644	1.284831	3129843719	3255972708	3950179655	363.095473
62	73	1449812520597088703	0.258112	0.316798	0.320573	1.000000	1.000000	1.000000	1.504290	1.469242	1.305463	3119415546	3156582812	3936780234	367.167754
63	74	1449812523718529784	0.258898	0.320721	0.320365	1.000000	1.000000	1.000000	1.501773	1.453685	1.304958	3121441081	3117973291	3923838343	371.241104
64	75	1449812526846820091	0.259657	0.320448	0.319663	1.000000	1.000000	1.000000	1.499301	1.400029	1.303952	3128290307	3120632963	3911407905	375.320245
65	76	1449812529972570323	0.260400	0.320183	0.319923	1.000000	1.000000	1.000000	1.496617	1.345304	1.281656	3125750232	3123212022	3899320864	379.326382
66	77	1449812533092502283	0.261131	0.320260	0.320520	1.000000	1.000000	1.000000	1.494254	1.298190	1.302296	3119931960	3122467080	3887511941	383.389457
67	78	1449812536213788614	0.261844	0.320276	0.320381	1.000000	1.000000	1.000000	1.491977	1.297570	1.304771	3121286331	3122307668	3876075738	387.462020
68	79	1449812539334435071	0.262539	0.320273	0.320446	1.000000	1.000000	1.000000	1.489771	1.297645	1.306182	3120646457	3122331976	3864966484	391.538152
69	80	1449812542453937824	0.263220	0.320276	0.320564	1.000000	1.000000	1.000000	1.487575	1.297820	1.302588	3119502753	3122307026	3854162661	395.601581
70	81	1449812545574144491	0.263884	0.320275	0.320492	1.000000	1.000000	1.000000	1.485465	1.298234	1.305648	3120206667	3122319591	3843677576	399.675473
71	82	1449812548701271758	0.264526	0.320250	0.319782	1.000000	1.000000	1.000000	1.483401	1.298726	1.305750	3127127267	3122556963	3833585318	403.758719
72	83	1449812551823251585	0.265159	0.320288	0.320310	1.000000	1.000000	1.000000	1.481344	1.299092	1.302065	3121979827	3122187048	3823701908	407.823738
73	84	1449812554944869871	0.265778	0.320278	0.320347	1.000000	1.000000	1.000000	1.479342	1.299477	1.302746	3121618286	3122287339	3814084324	411.890414
74	85	1449812558064374831	0.266385	0.320279	0.320564	1.000000	1.000000	1.000000	1.477391	1.299892	1.303315	3119504960	3122279389	3804698117	415.956111
75	86	1449812561185792201	0.266977	0.320274	0.320367	1.000000	1.000000	1.000000	1.475521	1.300674	1.306794	3121417370	3122326844	3795587707	420.035160
76	87	1449812564305182952	0.267558	0.320328	0.320575	1.000000	1.000000	1.000000	1.473674	1.301034	1.305164	3119390751	3121798763	3786690379	424.106475
77	88	1449812567448316787	0.268104	0.320282	0.318154	1.000000	1.000000	1.000000	1.471868	1.301502	1.306451	3143133835	3122248193	3778332501	428.212826
78	89	1449812570575788552	0.268654	0.320257	0.319747	1.000000	1.000000	1.000000	1.470045	1.301690	1.300532	3127471765	3122491807	3769988133	432.280203
79	90	1449812573694521055	0.269199	0.320259	0.320643	1.000000	1.000000	1.000000	1.468307	1.302408	1.304396	3118732503	3122474253	3761744391	436.348265
80	91	1449812576815600258	0.269731	0.320253	0.320402	1.000000	1.000000	1.000000	1.466607	1.302591	1.304720	3121079203	3122529971	3753736076	440.420399
81	92	1449812579933920845	0.270255	0.320257	0.320685	1.000000	1.000000	1.000000	1.464979	1.302840	1.308178	3118320587	3122489733	3745891440	444.499718
82	93	1449812583064182474	0.270757	0.320223	0.319462	1.000000	1.000000	1.000000	1.463338	1.302894	1.304331	3130261629	3122819825	3738383760	448.582616
83	94	1449812586182713227	0.271260	0.320233	0.320664	1.000000	1.000000	1.000000	1.461711	1.302802	1.301717	3118530753	3122721676	3730915651	452.642059
84	95	1449812589302057477	0.271752	0.320243	0.320580	1.000000	1.000000	1.000000	1.460134	1.302769	1.303660	3119344250	3122632112	3723635039	456.708622
85	96	1449812592428529451	0.272228	0.320231	0.319849	1.000000	1.000000	1.000000	1.458564	1.302533	1.301411	3126471974	3122743145	3716609591	460.777447
86	97	1449812595547967784	0.272701	0.320228	0.320571	1.000000	1.000000	1.000000	1.457020	1.302452	1.300722	3119438333	3122773147	3709665739	464.834968
87	98	1449812598667177283	0.273164	0.320227	0.320594	1.000000	1.000000	1.000000	1.455518	1.302678	1.301856	3119209499	3122782543	3702878886	468.895728
88	99	1449812601786825156	0.273619	0.320224	0.320549	1.000000	1.000000	1.000000	1.454075	1.302692	1.305042	3119647873	3122816333	3696251261	472.967000
89	100	1449812604905601282	0.274065	0.320226	0.320639	1.000000	1.000000	1.000000	1.452651	1.302672	1.304214	3118776126	3122795654	3689762776	477.034553
90	101	1449812608026775815	0.274501	0.320243	0.320392	1.000000	1.000000	1.000000	1.451265	1.302693	1.305454	3121174533	3122631545	3683445129	481.109104
91	102	1449812611146289980	0.274931	0.320278	0.320563	1.000000	1.000000	1.000000	1.449908	1.303390	1.305673	3119514165	3122287227	3677248086	485.182170
92	103	1449812614267290347	0.275351	0.320273	0.320410	1.000000	1.000000	1.000000	1.448580	1.303415	1.306220	3121000367	3122340054	3671201915	489.258884
93	104	1449812617385377890	0.275766	0.320284	0.320709	1.000000	1.000000	1.000000	1.447266	1.303411	1.304836	3118087543	3122228269	3665254448	493.327478
94	105	1449812620506886422	0.276171	0.320307	0.320358	1.000000	1.000000	1.000000	1.445992	1.303511	1.306949	3121508532	3122002210	3659469917	497.407131
95	106	1449812623625078632	0.276571	0.320333	0.320699	1.000000	1.000000	1.000000	1.444719	1.304266	1.304283	3118192210	3121750276	3653772257	501.474135
96	107	1449812626747633992	0.276960	0.320324	0.320251	1.000000	1.000000	1.000000	1.443464	1.304322	1.303982	3122555360	3121837722	3648238748	505.545892
97	108	1449812629903614653	0.277316	0.320206	0.316859	1.000000	1.000000	1.000000	1.442197	1.304213	1.301547	3155980661	3122994200	3643163922	509.653550
98	109	1449812633023292523	0.277695	0.320209	0.320546	1.000000	1.000000	1.000000	1.440891	1.303774	1.292978	3119677870	3122961914	3637822228	513.687226
99	110	1449812636152840401	0.278059	0.320175	0.319535	1.000000	1.000000	1.000000	1.439673	1.303719	1.300939	3129547878	3123296751	3632688143	517.758576
100	111	1449812639273473767	0.278423	0.320173	0.320448	1.000000	1.000000	1.000000	1.438485	1.303582	1.301552	3120633366	3123310975	3627567596	521.820241
101	112	1449812642394032634	0.278782	0.320195	0.320455	1.000000	1.000000	1.000000	1.437313	1.303427	1.301087	3120558867	3123092028	3622547707	525.880360
102	113	1449812645513806503	0.279135	0.320203	0.320536	1.000000	1.000000	1.000000	1.436183	1.303478	1.303592	3119773869	3123018496	3617618552	529.947273
103	114	1449812648634429869	0.279481	0.320206	0.320449	1.000000	1.000000	1.000000	1.435098	1.303613	1.306819	3120623366	3122985332	3612793356	534.025363
104	115	1449812651682920236	0.279876	0.320449	0.328031	1.000000	1.000000	1.000000	1.445847	1.350980	2.757919	3048490367	3120618179	3607367366	542.432854
105	116	1449812654731068979	0.280264	0.320700	0.328068	1.000000	1.000000	1.000000	1.458203	1.405505	2.979064	3048148743	3118175892	3602041474	551.513484
106	117	1449812657779680512	0.280646	0.320943	0.328018	1.000000	1.000000	1.000000	1.470448	1.460515	2.989514	3048611533	3115816585	3596820437	560.627352
107	118	1449812660978851395	0.280912	0.320751	0.312581	1.000000	1.000000	1.000000	1.475649	1.487410	2.095460	3199170883	3117684487	3593104086	567.331086
108	119	1449812664133082226	0.281206	0.320659	0.317035	1.000000	1.000000	1.000000	1.474415	1.488149	1.324030	3154230831	3118576456	3589040445	571.507384
109	120	1449812667255311043	0.281518	0.320647	0.320284	1.000000	1.000000	1.000000	1.473087	1.488271	1.308257	3122228817	3118692999	3584757769	575.592063
110	121	1449812670408175378	0.281804	0.320538	0.317172	1.000000	1.000000	1.000000	1.471780	1.488377	1.309721	3152864335	3119752503	3580831465	579.721435
111	122	1449812673529978530	0.282106	0.320526	0.320328	1.000000	1.000000	1.000000	1.470419	1.488056	1.298765	3121803152	3119868589	3576696075	583.775925
112	123	1449812676649559189	0.282406	0.320563	0.320556	1.000000	1.000000	1.000000	1.469097	1.487959	1.300772	3119580659	3119512556	3572614687	587.833788
113	124	1449812679772459003	0.282699	0.320548	0.320215	1.000000	1.000000	1.000000	1.467787	1.487892	1.299986	3122899814	3119658191	3568634910	591.893514
114	125	1449812682891325789	0.282990	0.320550	0.320629	1.000000	1.000000	1.000000	1.466477	1.487674	1.297069	3118866786	3119642276	3564689575	595.938898
115	126	1449812686012887815	0.283275	0.320566	0.320352	1.000000	1.000000	1.000000	1.465192	1.487566	1.297899	3121562026	3119478611	3560836292	599.990371
116	127	1449812689131517893	0.283557	0.320569	0.320654	1.000000	1.000000	1.000000	1.463933	1.487501	1.298713	3118630078	3119451669	3557024170	604.040575
117	128	1449812692252698171	0.283834	0.320562	0.320392	1.000000	1.000000	1.000000	1.462701	1.487426	1.299724	3121180278	3119517362	3553299008	608.097248
118	129	1449812695371802080	0.284108	0.320564	0.320605	1.000000	1.000000	1.000000	1.461488	1.487256	1.299901	3119103909	3119499230	3549619389	612.151775
119	130	1449812698493375481	0.284376	0.320555	0.320351	1.000000	1.000000	1.000000	1.460304	1.487156	1.301404	3121573401	3119592472	3546022364	616.214202
120	131	1449812701613865926	0.284641	0.320557	0.320462	1.000000	1.000000	1.000000	1.459166	1.487153	1.305321	3120490445	3119569669	3542476264	620.287445
121	132	1449812704733754957	0.284902	0.320556	0.320524	1.000000	1.000000	1.000000	1.458045	1.487137	1.305202	3119889031	3119582165	3538983808	624.359530
122	133	1449812707853138240	0.285160	0.320561	0.320576	1.000000	1.000000	1.000000	1.456937	1.487097	1.304948	3119383283	3119528262	3535544459	628.430163
123	134	1449812710974181016	0.285413	0.320551	0.320406	1.000000	1.000000	1.000000	1.455859	1.487157	1.306803	3121042776	3119626770	3532174527	632.508751
124	135	1449812714097476243	0.285662	0.320545	0.320175	1.000000	1.000000	1.000000	1.454776	1.487063	1.304216	3123295227	3119686326	3528877113	636.582204
125	136	1449812717217707064	0.285908	0.320538	0.320489	1.000000	1.000000	1.000000	1.453705	1.487028	1.303372	3120230821	3119754280	3525607943	640.649025
126	137	1449812721879679712	0.285161	0.315351	0.214501	1.000000	1.000000	1.000000	1.455939	1.501864	1.667155	4661972648	3171068190	3534626710	648.421257
127	138	1449812727894177682	0.283576	0.306152	0.166265	1.000000	1.000000	1.000000	1.461123	1.529376	1.844985	6014497970	3266352100	3554153256	659.517919
128	139	1449812733915000254	0.282030	0.297349	0.166090	1.000000	1.000000	1.000000	1.466226	1.555749	1.848824	6020822572	3363056923	3573424110	670.649360
129	140	1449812739930854342	0.280527	0.289079	0.166227	1.000000	1.000000	1.000000	1.470193	1.575957	1.771803	6015854088	3459267130	3592357675	681.308267
130	141	1449812743055963977	0.280791	0.289066	0.319989	1.000000	1.000000	1.000000	1.468904	1.575227	1.277707	3125109635	3459416339	3588763460	685.301241
131	142	1449812746178138414	0.281054	0.289062	0.320290	1.000000	1.000000	1.000000	1.467793	1.575244	1.301781	3122174437	3459470192	3585201711	689.365628
132	143	1449812749797083908	0.281017	0.287678	0.276324	1.000000	1.000000	1.000000	1.467634	1.578920	1.446986	3618945494	3476109246	3585457346	694.602192
133	144	1449812755815182612	0.279575	0.279901	0.166165	1.000000	1.000000	1.000000	1.472185	1.600947	1.830119	6018098704	3572691758	3603747883	705.616026
134	145	1449812760969534912	0.278665	0.274508	0.194011	1.000000	1.000000	1.000000	1.473882	1.570124	1.631700	5154352300	3642887156	3615319557	714.026382
135	146	1449812764095619167	0.278929	0.274312	0.319889	1.000000	1.000000	1.000000	1.472752	1.523063	1.297547	3126084255	3645485006	3611695592	718.082624
136	147	1449812767216202775	0.279193	0.274132	0.320453	1.000000	1.000000	1.000000	1.471617	1.475692	1.294399	3120583608	3647884075	3608084475	722.121904
137	148	1449812770339077040	0.279453	0.274323	0.320218	1.000000	1.000000	1.000000	1.470514	1.452461	1.297077	3122874265	3645340854	3604542794	726.172512
138	149	1449812773470567984	0.279704	0.274380	0.319337	1.000000	1.000000	1.000000	1.469400	1.451623	1.293856	3131490944	3644582858	3601114882	730.224211
139	150	1449812776596193532	0.279955	0.274371	0.319936	1.000000	1.000000	1.000000	1.468302	1.451199	1.293583	3125625548	3644696083	3597694096	734.267466
140	151	1449812779715329976	0.280207	0.274456	0.320602	1.000000	1.000000	1.000000	1.467234	1.450855	1.296113	3119136444	3643571820	3594275827	738.310218
141	152	1449812782837223995	0.280455	0.274456	0.320318	1.000000	1.000000	1.000000	1.466188	1.450820	1.297566	3121894019	3643574848	3590925601	742.361082
142	153	1449812785963481997	0.280697	0.274439	0.319871	1.000000	1.000000	1.000000	1.465154	1.450723	1.297698	3126258002	3643797427	3587653294	746.418021
143	154	1449812789085503973	0.280938	0.274441	0.320305	1.000000	1.000000	1.000000	1.464161	1.450783	1.302057	3122021976	3643768166	3584397131	750.483072
144	155	1449812792203948878	0.281178	0.274442	0.320673	1.000000	1.000000	1.000000	1.463175	1.450900	1.301120	3118444905	3643754103	3581161352	754.540545
145	156	1449812795325405313	0.281414	0.274442	0.320363	1.000000	1.000000	1.000000	1.462214	1.451059	1.303477	3121456435	3643750583	3577990973	758.609291
146	157	1449812798444772214	0.281648	0.274441	0.320578	1.000000	1.000000	1.000000	1.461275	1.451239	1.305037	3119366901	3643775144	3574849712	762.680179
147	158	1449812801569439346	0.281876	0.274432	0.320034	1.000000	1.000000	1.000000	1.460353	1.451426	1.306445	3124667132	3643891373	3571787246	766.762383
148	159	1449812804687485793	0.282106	0.274435	0.320714	1.000000	1.000000	1.000000	1.459427	1.451531	1.303535	3118046447	3643856124	3568721430	770.826867
149	160	1449812807808214272	0.282331	0.274437	0.320438	1.000000	1.000000	1.000000	1.458517	1.451618	1.304398	3120728479	3643827960	3565714765	774.897539
150	161	1449812810926454343	0.282555	0.274442	0.320694	1.000000	1.000000	1.000000	1.457620	1.451609	1.304905	3118240071	3643752947	3562731601	778.966546
151	162	1449812814056504080	0.282770	0.274417	0.319484	1.000000	1.000000	1.000000	1.456727	1.451566	1.304194	3130049737	3644091637	3559866158	783.048740
152	163	1449812817176741269	0.282987	0.274415	0.320488	1.000000	1.000000	1.000000	1.455833	1.451477	1.301845	3120237189	3644120101	3556973862	787.110805
153	164	1449812820297914370	0.283202	0.274414	0.320392	1.000000	1.000000	1.000000	1.454974	1.451459	1.306185	3121173101	3644124445	3554125491	791.187635
154	165	1449812823419933177	0.283414	0.274418	0.320306	1.000000	1.000000	1.000000	1.454176	1.451772	1.315112	3122018807	3644081898	3551319604	795.293441
155	166	1449812826541602568	0.283624	0.274414	0.320341	1.000000	1.000000	1.000000	1.453332	1.451832	1.305572	3121669391	3644129850	3548547667	799.369006
156	167	1449812829660588843	0.283832	0.278342	0.320617	1.000000	1.000000	1.000000	1.452500	1.438288	1.305625	3118986275	3592696971	3545794068	803.441232
157	168	1449812832784175018	0.284036	0.286014	0.320145	1.000000	1.000000	1.000000	1.451664	1.410959	1.303698	3123586175	3496333245	3543104846	807.513446
158	169	1449812835907239612	0.284238	0.294140	0.320198	1.000000	1.000000	1.000000	1.450831	1.381787	1.302400	3123064594	3399741313	3540446363	811.580926
159	170	1449812839027407299	0.284439	0.302735	0.320496	1.000000	1.000000	1.000000	1.450015	1.355652	1.303714	3120167687	3303218433	3537803101	815.648733
160	171	1449812842155794415	0.284634	0.302725	0.319654	1.000000	1.000000	1.000000	1.449214	1.356519	1.305248	3128387116	3303327682	3535244251	819.732054
161	172	1449812845276523350	0.284830	0.302729	0.320438	1.000000	1.000000	1.000000	1.448416	1.356581	1.303730	3120728935	3303279498	3532669622	823.800643
162	173	1449812848394715084	0.285026	0.304267	0.320699	1.000000	1.000000	1.000000	1.447633	1.351630	1.304940	3118191734	3286587706	3530111116	827.869695
163	174	1449812851516456807	0.285218	0.313475	0.320334	1.000000	1.000000	1.000000	1.446872	1.320098	1.307417	3121741723	3190042473	3527605783	831.951114
164	175	1449812854634945665	0.285409	0.320289	0.320668	1.000000	1.000000	1.000000	1.446095	1.302375	1.302798	3118488858	3122180358	3525111167	836.013876
165	176	1449812857756375013	0.285596	0.320305	0.320366	1.000000	1.000000	1.000000	1.445329	1.302575	1.303551	3121429348	3122025194	3522664611	840.082817
166	177	1449812860874684205	0.285784	0.320313	0.320687	1.000000	1.000000	1.000000	1.444579	1.302920	1.304739	3118309192	3121949380	3520228735	844.151395
167	178	1449812863995908928	0.285968	0.320318	0.320387	1.000000	1.000000	1.000000	1.443846	1.303238	1.306623	3121224723	3121894396	3517839489	848.229658
168	179	1449812867115008492	0.286151	0.320361	0.320605	1.000000	1.000000	1.000000	1.443116	1.303631	1.305630	3119099564	3121481350	3515466037	852.302048
169	180	1449812870237485293	0.286330	0.320371	0.320259	1.000000	1.000000	1.000000	1.442400	1.304076	1.306901	3122476801	3121376392	3513140657	856.382818
170	181	1449812873356856314	0.286509	0.320371	0.320577	1.000000	1.000000	1.000000	1.441667	1.304275	1.302079	3119371021	3121384212	3510824365	860.444486
171	182	1449812876476577500	0.286686	0.320378	0.320541	1.000000	1.000000	1.000000	1.440944	1.304447	1.302735	3119721186	3121311785	3508537212	864.508655
172	183	1449812879595971936	0.286861	0.320402	0.320575	1.000000	1.000000	1.000000	1.440237	1.304667	1.304285	3119394436	3121082999	3506274754	868.577233
173	184	1449812882715866871	0.287034	0.320409	0.320524	1.000000	1.000000	1.000000	1.439538	1.304746	1.304439	3119894935	3121012097	3504041345	872.646946
174	185	1449812885834788934	0.287206	0.320407	0.320624	1.000000	1.000000	1.000000	1.438849	1.304870	1.304845	3118922063	3121028002	3501828016	876.716656
175	186	1449812888956621695	0.287375	0.320406	0.320325	1.000000	1.000000	1.000000	1.438170	1.304943	1.305646	3121832761	3121040547	3499656614	880.792663
176	187	1449812892076838337	0.287543	0.320403	0.320491	1.000000	1.000000	1.000000	1.437496	1.304949	1.305216	3120216642	3121068872	3497500705	884.865219
177	188	1449812895197262060	0.287709	0.320418	0.320469	1.000000	1.000000	1.000000	1.436821	1.304857	1.303682	3120423723	3120927425	3495370327	888.933260
178	189	1449812898323450014	0.287871	0.320390	0.319878	1.000000	1.000000	1.000000	1.436147	1.304831	1.302786	3126187954	3121198809	3493296268	893.006013
179	190	1449812901446704852	0.288032	0.320381	0.320179	1.000000	1.000000	1.000000	1.435482	1.304784	1.302977	3123254838	3121283021	3491228998	897.075541
180	191	1449812904565529331	0.288194	0.320379	0.320634	1.000000	1.000000	1.000000	1.434828	1.304746	1.303756	3118824479	3121302501	3489160084	901.141728
181	192	1449812907716689363	0.288340	0.320307	0.317343	1.000000	1.000000	1.000000	1.434184	1.304805	1.305947	3151160032	3122006177	3487292680	905.256976
182	193	1449812910835964465	0.288498	0.320310	0.320587	1.000000	1.000000	1.000000	1.433532	1.304792	1.301476	3119275102	3121974107	3485270606	909.316639
183	194	1449812913956405270	0.288655	0.320313	0.320468	1.000000	1.000000	1.000000	1.432903	1.304760	1.305211	3120440805	3121949697	3483277000	913.389472
184	195	1449812917076452285	0.288810	0.320319	0.320508	1.000000	1.000000	1.000000	1.432273	1.304372	1.303486	3120047015	3121883971	3481302924	917.456410
185	196	1449812920195795220	0.288964	0.320327	0.320580	1.000000	1.000000	1.000000	1.431645	1.304277	1.302715	3119342935	3121806422	3479346384	921.520025
186	197	1449812923315813776	0.289116	0.320324	0.320511	1.000000	1.000000	1.000000	1.431025	1.304194	1.303118	3120018556	3121840831	3477414514	925.585778
187	198	1449812926435950415	0.289267	0.320336	0.320499	1.000000	1.000000	1.000000	1.430416	1.304208	1.304144	3120136639	3121725846	3475503937	929.654886
188	199	1449812929556820343	0.289416	0.320343	0.320423	1.000000	1.000000	1.000000	1.429825	1.304355	1.306799	3120869928	3121652690	3473617586	933.733236
189	200	1449812932677701188	0.289563	0.320341	0.320422	1.000000	1.000000	1.000000	1.429239	1.304451	1.306594	3120880845	3121676462	3471751254	937.810960
190	201	1449812935796364707	0.289710	0.320374	0.320650	1.000000	1.000000	1.000000	1.428651	1.304440	1.304932	3118663519	3121352342	3469892897	941.880604
191	202	1449812938915361891	0.289856	0.320380	0.320616	1.000000	1.000000	1.000000	1.428071	1.304496	1.305401	3118997184	3121294617	3468055747	945.952146
192	203	1449812942040813010	0.289997	0.320355	0.319954	1.000000	1.000000	1.000000	1.427495	1.304512	1.305425	3125451119	3121536596	3466271348	950.032188
193	204	1449812945161854853	0.290139	0.320357	0.320406	1.000000	1.000000	1.000000	1.426908	1.304326	1.301827	3121041843	3121513267	3464482594	954.095245
194	205	1449812948281385285	0.290280	0.320354	0.320561	1.000000	1.000000	1.000000	1.426322	1.304255	1.300663	3119530432	3121547986	3462704490	958.152703
195	206	1449812951400159385	0.290421	0.320363	0.320639	1.000000	1.000000	1.000000	1.425753	1.304247	1.303307	3118774100	3121459478	3460940744	962.217422
196	207	1449812954525127297	0.290557	0.320340	0.320003	1.000000	1.000000	1.000000	1.425174	1.304090	1.300029	3124967912	3121681436	3459226597	966.279970
197	208	1449812957653628239	0.290690	0.320315	0.319642	1.000000	1.000000	1.000000	1.424596	1.303848	1.299388	3128500942	3121923976	3457547787	970.345105
198	209	1449812960773851834	0.290826	0.320311	0.320490	1.000000	1.000000	1.000000	1.424032	1.303688	1.300807	3120223595	3121961444	3455844129	974.403915
199	210	1449812963893737013	0.290961	0.320320	0.320525	1.000000	1.000000	1.000000	1.423475	1.303500	1.301263	3119885179	3121875056	3454155893	978.463705
200	211	1449812967013587317	0.291095	0.320319	0.320528	1.000000	1.000000	1.000000	1.422933	1.303550	1.303596	3119850304	3121891032	3452484365	982.530730
201	212	1449812970132928914	0.291227	0.320320	0.320580	1.000000	1.000000	1.000000	1.422412	1.303697	1.307151	3119341597	3121878379	3450826939	986.608181
202	213	1449812973253086925	0.291358	0.320317	0.320497	1.000000	1.000000	1.000000	1.421890	1.303750	1.305875	3120158011	3121903832	3449189964	990.682717
203	214	1449812976376503758	0.291487	0.320305	0.320162	1.000000	1.000000	1.000000	1.421376	1.303824	1.306645	3123416833	3122021229	3447585170	994.763912
204	215	1449812979498297429	0.291615	0.320296	0.320329	1.000000	1.000000	1.000000	1.420865	1.303876	1.306396	3121793671	3122116950	3445988153	998.842210
205	216	1449812982618856480	0.291742	0.320300	0.320455	1.000000	1.000000	1.000000	1.420357	1.303881	1.305804	3120559051	3122074493	3444400694	1002.917048
206	217	1449812985738414825	0.291869	0.320302	0.320558	1.000000	1.000000	1.000000	1.419853	1.303898	1.305723	3119558345	3122052550	3442823789	1006.990328
207	218	1449812988860335162	0.291994	0.320297	0.320316	1.000000	1.000000	1.000000	1.419349	1.303940	1.304942	3121920337	3122102437	3441273531	1011.064253
208	219	1449812991980079507	0.292118	0.320319	0.320539	1.000000	1.000000	1.000000	1.418855	1.304049	1.306069	3119744345	3121887650	3439727718	1015.138854
209	220	1449812995101456303	0.292241	0.320325	0.320371	1.000000	1.000000	1.000000	1.418350	1.304038	1.302646	3121376796	3121825049	3438204507	1019.204903
210	221	1449812998226708295	0.292361	0.320303	0.319974	1.000000	1.000000	1.000000	1.417842	1.303946	1.300995	3125251992	3122039300	3436714257	1023.270840
211	222	1449813001351902744	0.292480	0.320392	0.319980	1.000000	1.000000	1.000000	1.417340	1.303794	1.301419	3125194449	3121173781	3435237860	1027.338027
212	223	1449813004471859962	0.292600	0.320390	0.320517	1.000000	1.000000	1.000000	1.416841	1.303774	1.300884	3119957218	3121196518	3433750687	1031.396729
213	224	1449813007591993638	0.292720	0.320391	0.320499	1.000000	1.000000	1.000000	1.416356	1.303708	1.303216	3120133676	3121186280	3432278307	1035.462936
214	225	1449813010712420645	0.292837	0.320390	0.320469	1.000000	1.000000	1.000000	1.415889	1.303804	1.306357	3120427007	3121198946	3430821058	1039.539329
215	226	1449813013832333446	0.292955	0.320388	0.320522	1.000000	1.000000	1.000000	1.415420	1.303887	1.305209	3119912801	3121217942	3429374973	1043.611468
216	227	1449813016952160038	0.293071	0.320388	0.320531	1.000000	1.000000	1.000000	1.414961	1.303998	1.306468	3119826592	3121211543	3427941879	1047.687423
217	228	1449813020071312841	0.293186	0.320392	0.320600	1.000000	1.000000	1.000000	1.414505	1.304069	1.306254	3119152803	3121178749	3426518887	1051.761828
218	229	1449813023190945225	0.293301	0.320396	0.320551	1.000000	1.000000	1.000000	1.414044	1.303978	1.304065	3119632384	3121137498	3425111151	1055.830029
219	230	1449813026310011153	0.293414	0.320402	0.320609	1.000000	1.000000	1.000000	1.413591	1.303932	1.305232	3119065928	3121077001	3423713684	1059.901134
220	231	1449813029432810859	0.293525	0.320388	0.320225	1.000000	1.000000	1.000000	1.413146	1.303976	1.306236	3122799706	3121214874	3422345894	1063.980248
221	232	1449813032552708117	0.293637	0.320385	0.320523	1.000000	1.000000	1.000000	1.412694	1.303918	1.303683	3119897258	3121244877	3420977348	1068.047606
222	233	1449813035682113758	0.293744	0.320371	0.319549	1.000000	1.000000	1.000000	1.412251	1.303909	1.305147	3129405641	3121376695	3419663962	1072.131939
223	234	1449813038801455976	0.293853	0.320377	0.320580	1.000000	1.000000	1.000000	1.411805	1.303956	1.303230	3119342218	3121320040	3418317227	1076.197159
224	235	1449813041921974689	0.293962	0.320374	0.320460	1.000000	1.000000	1.000000	1.411369	1.304096	1.304876	3120518713	3121352983	3416987770	1080.269050
225	236	1449813045042325028	0.294070	0.320368	0.320477	1.000000	1.000000	1.000000	1.410924	1.304048	1.301857	3120350339	3121405524	3415669381	1084.331301
226	237	1449813048162648950	0.294176	0.320384	0.320480	1.000000	1.000000	1.000000	1.410487	1.304145	1.302937	3120323922	3121250724	3414362543	1088.396885
227	238	1449813051283039538	0.294282	0.320412	0.320473	1.000000	1.000000	1.000000	1.410068	1.304379	1.306381	3120390588	3120980379	3413067512	1092.473305
228	239	1449813054404566997	0.294387	0.320408	0.320356	1.000000	1.000000	1.000000	1.409647	1.304519	1.305026	3121527459	3121023841	3411788828	1096.546980
229	240	1449813057524787627	0.294491	0.320407	0.320490	1.000000	1.000000	1.000000	1.409229	1.304648	1.305118	3120220630	3121035023	3410515604	1100.619238
230	241	1449813060645141714	0.294595	0.320405	0.320476	1.000000	1.000000	1.000000	1.408818	1.304724	1.305881	3120354087	3121051815	3409254032	1104.694049
231	242	1449813063772487610	0.294695	0.320377	0.319760	1.000000	1.000000	1.000000	1.408408	1.304673	1.305610	3127345896	3121318625	3408033651	1108.777145
232	243	1449813066892565324	0.294796	0.320378	0.320505	1.000000	1.000000	1.000000	1.407984	1.304510	1.301003	3120077714	3121315948	3406792461	1112.836377
233	244	1449813070014893612	0.294897	0.320381	0.320274	1.000000	1.000000	1.000000	1.407580	1.304470	1.305444	3122328288	3121279663	3405571585	1116.912401
234	245	1449813073140363931	0.294995	0.320369	0.319952	1.000000	1.000000	1.000000	1.407174	1.304392	1.304040	3125470319	3121402217	3404374571	1120.988140
235	246	1449813076262342095	0.295094	0.320364	0.320310	1.000000	1.000000	1.000000	1.406770	1.304321	1.303694	3121978164	3121449520	3403172884	1125.058244
236	247	1449813079382918764	0.295192	0.320360	0.320454	1.000000	1.000000	1.000000	1.406380	1.304341	1.306322	3120576669	3121483464	3401975443	1129.134721
237	248	1449813082505295760	0.295290	0.320359	0.320269	1.000000	1.000000	1.000000	1.405997	1.304426	1.307490	3122376996	3121498686	3400795703	1133.217198
238	249	1449813085625624596	0.295387	0.320357	0.320479	1.000000	1.000000	1.000000	1.405611	1.304423	1.305986	3120328836	3121518169	3399617270	1137.292302
239	250	1449813088749266545	0.295482	0.320349	0.320139	1.000000	1.000000	1.000000	1.405227	1.304528	1.305778	3123641949	3121593674	3398462562	1141.371084
240	251	1449813091873302701	0.295576	0.320353	0.320099	1.000000	1.000000	1.000000	1.404846	1.304685	1.305695	3124036156	3121553146	3397319118	1145.450122
241	252	1449813094994554575	0.295671	0.320367	0.320384	1.000000	1.000000	1.000000	1.404460	1.304763	1.303772	3121251874	3121421727	3396173611	1149.519523
242	253	1449813098114714661	0.295765	0.320366	0.320496	1.000000	1.000000	1.000000	1.404071	1.304801	1.302017	3120160086	3121428490	3395033059	1153.582023
243	254	1449813101234127749	0.295859	0.320369	0.320573	1.000000	1.000000	1.000000	1.403699	1.304883	1.305682	3119413088	3121404471	3393898821	1157.654985
244	255	1449813104353198796	0.295952	0.320373	0.320608	1.000000	1.000000	1.000000	1.403311	1.304696	1.300724	3119071047	3121359272	3392772478	1161.712036
245	256	1449813107472339093	0.296045	0.320376	0.320601	1.000000	1.000000	1.000000	1.402926	1.304550	1.300838	3119140297	3121333522	3391655612	1165.769533
246	257	1449813110601874312	0.296133	0.320343	0.319536	1.000000	1.000000	1.000000	1.402548	1.304405	1.302138	3129535219	3121657143	3390590081	1169.844620
247	258	1449813113721020859	0.296224	0.320343	0.320601	1.000000	1.000000	1.000000	1.402172	1.304254	1.301705	3119146547	3121656934	3389491120	1173.904828
248	259	1449813116840091280	0.296314	0.320345	0.320608	1.000000	1.000000	1.000000	1.401811	1.304274	1.304663	3119070421	3121638202	3388400714	1177.974165
249	260	1449813119965586554	0.296402	0.320323	0.319949	1.000000	1.000000	1.000000	1.401461	1.304345	1.307357	3125495274	3121852513	3387344869	1182.060302
250	261	1449813123085872680	0.296491	0.320331	0.320483	1.000000	1.000000	1.000000	1.401107	1.304323	1.305596	3120286126	3121768727	3386276634	1186.134136
251	262	1449813126211058371	0.296577	0.320313	0.319981	1.000000	1.000000	1.000000	1.400761	1.304434	1.306983	3125185691	3121945008	3385236431	1190.218700
252	263	1449813129332666741	0.296664	0.320340	0.320348	1.000000	1.000000	1.000000	1.400405	1.304375	1.303402	3121608370	3121685099	3384190288	1194.287409
253	264	1449813132452565659	0.296751	0.320338	0.320523	1.000000	1.000000	1.000000	1.400054	1.304410	1.304269	3119898918	3121703656	3383145658	1198.356596
254	265	1449813135572834200	0.296837	0.320339	0.320485	1.000000	1.000000	1.000000	1.399695	1.304285	1.301136	3120268541	3121695317	3382110708	1202.416492
255	266	1449813138701363962	0.296920	0.320311	0.319639	1.000000	1.000000	1.000000	1.399340	1.304290	1.302018	3128529762	3121967965	3381116273	1206.489894
256	267	1449813141821094838	0.297005	0.320313	0.320540	1.000000	1.000000	1.000000	1.398985	1.304220	1.300824	3119730876	3121948197	3380095237	1210.548113
257	268	1449813144939967134	0.297090	0.320318	0.320629	1.000000	1.000000	1.000000	1.398626	1.303974	1.299004	3118872296	3121897587	3379078805	1214.599541
258	269	1449813148059551843	0.297174	0.320325	0.320555	1.000000	1.000000	1.000000	1.398272	1.303800	1.299777	3119584709	3121832828	3378073014	1218.654306
259	270	1449813151179645343	0.297257	0.320325	0.320503	1.000000	1.000000	1.000000	1.397925	1.303661	1.300974	3120093500	3121828590	3377076954	1222.713468
260	271	1449813154299332343	0.297340	0.320327	0.320545	1.000000	1.000000	1.000000	1.397582	1.303511	1.301357	3119687000	3121806354	3376086993	1226.773295
261	272	1449813157420358922	0.297422	0.320349	0.320407	1.000000	1.000000	1.000000	1.397250	1.303450	1.303805	3121026579	3121595710	3375109750	1230.842504
262	273	1449813160558612815	0.297497	0.320287	0.318649	1.000000	1.000000	1.000000	1.396926	1.303616	1.305973	3138253893	3122201583	3374205720	1234.940978
263	274	1449813163678481106	0.297578	0.320295	0.320526	1.000000	1.000000	1.000000	1.396589	1.303476	1.301237	3119868291	3122119583	3373238657	1239.000665
264	275	1449813166806920700	0.297656	0.320285	0.319648	1.000000	1.000000	1.000000	1.396264	1.303478	1.304083	3128439594	3122218559	3372311388	1243.080410
265	276	1449813169928342151	0.297735	0.320287	0.320367	1.000000	1.000000	1.000000	1.395933	1.303405	1.301513	3121421451	3122200002	3371364633	1247.142982
266	277	1449813173046868446	0.297815	0.320294	0.320664	1.000000	1.000000	1.000000	1.395602	1.303216	1.300643	3118526295	3122131656	3370414113	1251.199072
267	278	1449813176174179335	0.297891	0.320277	0.319764	1.000000	1.000000	1.000000	1.395243	1.302707	1.292247	3127310889	3122296119	3369503614	1255.240331
268	279	1449813179293084253	0.297970	0.320282	0.320625	1.000000	1.000000	1.000000	1.394927	1.302635	1.303806	3118904918	3122248655	3368568545	1259.306778
269	280	1449813182418364107	0.298046	0.320276	0.319971	1.000000	1.000000	1.000000	1.394617	1.302613	1.305138	3125279854	3122303252	3367664126	1263.385699
270	281	1449813185544706874	0.298121	0.320269	0.319863	1.000000	1.000000	1.000000	1.394308	1.302582	1.304740	3126342767	3122380139	3366770343	1267.464764
271	282	1449813188664367872	0.298197	0.320274	0.320548	1.000000	1.000000	1.000000	1.393932	1.301942	1.284574	3119660998	3122327109	3365858500	1271.472198
272	283	1449813191795386289	0.298270	0.320237	0.319385	1.000000	1.000000	1.000000	1.393624	1.301998	1.303685	3131018417	3122689053	3364995118	1275.554062
273	284	1449813194915314869	0.298345	0.320235	0.320520	1.000000	1.000000	1.000000	1.393305	1.301798	1.299665	3119928580	3122706236	3364097438	1279.608924
274	285	1449813198036784485	0.298420	0.320227	0.320362	1.000000	1.000000	1.000000	1.393000	1.301886	1.303369	3121469616	3122786189	3363211935	1283.677352
275	286	1449813201168917314	0.298491	0.320182	0.319271	1.000000	1.000000	1.000000	1.392649	1.301508	1.289536	3132132829	3123219273	3362371647	1287.716350
276	287	1449813204300599561	0.298561	0.320175	0.319317	1.000000	1.000000	1.000000	1.392351	1.301579	1.304282	3131682247	3123290841	3361535816	1291.800948
277	288	1449813207428132405	0.298632	0.320146	0.319741	1.000000	1.000000	1.000000	1.392054	1.301652	1.303875	3127532844	3123570384	3360691040	1295.878861
278	289	1449813210555727999	0.298703	0.320117	0.319734	1.000000	1.000000	1.000000	1.391756	1.301602	1.303175	3127595594	3123854556	3359852567	1299.954666
279	290	1449813213676019577	0.298775	0.320135	0.320483	1.000000	1.000000	1.000000	1.391410	1.300948	1.287726	3120291578	3123681100	3358993926	1303.972747
280	291	1449813216794721868	0.298848	0.320141	0.320646	1.000000	1.000000	1.000000	1.391120	1.300894	1.303963	3118702291	3123628306	3358135741	1308.039419
281	292	1449813219913834950	0.298920	0.320161	0.320604	1.000000	1.000000	1.000000	1.390838	1.300857	1.305896	3119113082	3123425886	3357285127	1312.112656
282	293	1449813223032526699	0.298991	0.320171	0.320647	1.000000	1.000000	1.000000	1.390544	1.300796	1.301565	3118691749	3123328665	3356439051	1316.171836
283	294	1449813226156381347	0.299061	0.320158	0.320117	1.000000	1.000000	1.000000	1.390191	1.300100	1.283378	3123854648	3123460523	3355617198	1320.180921
284	295	1449813229278468417	0.299130	0.320152	0.320299	1.000000	1.000000	1.000000	1.389893	1.300031	1.299068	3122087070	3123521141	3354794909	1324.236725
285	296	1449813232396946209	0.299201	0.320186	0.320669	1.000000	1.000000	1.000000	1.389601	1.299975	1.300352	3118477792	3123186075	3353965726	1328.291844
286	297	1449813235517163660	0.299270	0.320184	0.320490	1.000000	1.000000	1.000000	1.389309	1.299951	1.300086	3120217451	3123202294	3353148424	1332.348395
287	298	1449813238637091779	0.299339	0.320181	0.320520	1.000000	1.000000	1.000000	1.388983	1.299610	1.288760	3119928119	3123237488	3352335810	1336.369235
288	299	1449813241758439393	0.299407	0.320175	0.320374	1.000000	1.000000	1.000000	1.388717	1.299837	1.306600	3121347614	3123296252	3351533768	1340.447588
289	300	1449813244880226839	0.299474	0.320169	0.320329	1.000000	1.000000	1.000000	1.388447	1.299972	1.305012	3121787446	3123352717	3350738798	1344.521558
290	301	1449813248000179499	0.299542	0.320168	0.320518	1.000000	1.000000	1.000000	1.388175	1.300047	1.303616	3119952660	3123361573	3349942983	1348.588779
291	302	1449813251121498320	0.299609	0.320167	0.320377	1.000000	1.000000	1.000000	1.387906	1.300060	1.304211	3121318821	3123371314	3349157333	1352.659638
292	303	1449813254241521313	0.299675	0.320229	0.320510	1.000000	1.000000	1.000000	1.387643	1.300041	1.305432	3120022993	3122763617	3348372627	1356.732617
293	304	1449813257363121800	0.299741	0.320223	0.320348	1.000000	1.000000	1.000000	1.387377	1.300138	1.304133	3121600487	3122821357	3347598660	1360.803600
294	305	1449813260483117042	0.299807	0.320252	0.320513	1.000000	1.000000	1.000000	1.387113	1.300136	1.304047	3119995242	3122539879	3346824499	1364.872220
295	306	1449813263605116027	0.299872	0.320250	0.320308	1.000000	1.000000	1.000000	1.386840	1.300115	1.300874	3121998985	3122559130	3346062379	1368.933546
296	307	1449813266724907229	0.299937	0.320246	0.320534	1.000000	1.000000	1.000000	1.386561	1.300042	1.298447	3119791202	3122601294	3345297949	1372.984431
297	308	1449813269846075550	0.300001	0.320267	0.320393	1.000000	1.000000	1.000000	1.386286	1.300263	1.298882	3121168321	3122396542	3344543304	1377.038459
298	309	1449813272965653834	0.300066	0.320265	0.320556	1.000000	1.000000	1.000000	1.386014	1.300114	1.299309	3119578284	3122418987	3343788388	1381.091756
299	310	1449813276087146404	0.300129	0.320277	0.320360	1.000000	1.000000	1.000000	1.385747	1.299965	1.300691	3121492570	3122292744	3343044923	1385.151853
300	311	1449813279206375273	0.300193	0.320302	0.320592	1.000000	1.000000	1.000000	1.385490	1.299906	1.302986	3119228869	3122055614	3342298870	1389.216166
301	312	1449813282328772922	0.300255	0.320292	0.320267	1.000000	1.000000	1.000000	1.385241	1.300597	1.305289	3122397649	3122146836	3341568301	1393.291797
302	313	1449813285465145772	0.300313	0.320274	0.318840	1.000000	1.000000	1.000000	1.384987	1.300596	1.303657	3136372850	3122325317	3340888846	1397.380553
303	314	1449813288599518379	0.300371	0.320225	0.319043	1.000000	1.000000	1.000000	1.384731	1.300684	1.302299	3134372607	3122806784	3340207274	1401.462443
304	315	1449813291722917816	0.300432	0.320218	0.320164	1.000000	1.000000	1.000000	1.384480	1.300675	1.303091	3123399437	3122871111	3339494091	1405.532518
305	316	1449813294843086222	0.300493	0.320259	0.320496	1.000000	1.000000	1.000000	1.384236	1.301189	1.304931	3120168406	3122472297	3338774990	1409.604121
306	317	1449813297977656869	0.300550	0.320249	0.319023	1.000000	1.000000	1.000000	1.383993	1.301213	1.305014	3134570647	3122568577	3338107655	1413.694781
307	318	1449813301101931886	0.300609	0.320260	0.320074	1.000000	1.000000	1.000000	1.383749	1.301214	1.303911	3124275017	3122459983	3337411132	1417.768559
308	319	1449813304229795931	0.300668	0.320259	0.319707	1.000000	1.000000	1.000000	1.383507	1.301252	1.304297	3127864045	3122468931	3336730785	1421.848224
309	320	1449813307350147044	0.300728	0.320259	0.320477	1.000000	1.000000	1.000000	1.383263	1.301759	1.302962	3120351113	3122470915	3336030527	1425.913923
310	321	1449813310867454767	0.300672	0.318902	0.284308	1.000000	1.000000	1.000000	1.384340	1.316572	1.699887	3517307723	3135757762	3336615292	1431.892949
311	322	1449813315304451768	0.300350	0.314496	0.225378	1.000000	1.000000	1.000000	1.388088	1.360891	2.261874	4436997001	3179687226	3340153497	1441.928878
312	323	1449813319741522227	0.300031	0.310209	0.225374	1.000000	1.000000	1.000000	1.391772	1.403790	2.254213	4437070459	3223633183	3343669256	1451.930979
313	324	1449813324239981095	0.299697	0.305862	0.222298	1.000000	1.000000	1.000000	1.395588	1.447835	2.280520	4498458868	3269453323	3347358680	1462.189806
314	325	1449813328715655168	0.299373	0.301698	0.223430	1.000000	1.000000	1.000000	1.399087	1.487181	2.218211	4475674073	3314572889	3350952041	1472.117797
315	326	1449813333154163662	0.299062	0.297745	0.225301	1.000000	1.000000	1.000000	1.402588	1.525802	2.232636	4438508494	3358573913	3354404601	1482.027369
316	327	1449813337589947541	0.298754	0.293908	0.225439	1.000000	1.000000	1.000000	1.406152	1.564391	2.255023	4435783879	3402426127	3357826687	1492.030163
317	328	1449813342030020779	0.298448	0.290155	0.225222	1.000000	1.000000	1.000000	1.409823	1.603748	2.287187	4440073238	3446430965	3361240714	1502.185441
318	329	1449813346526563569	0.298128	0.286347	0.222393	1.000000	1.000000	1.000000	1.413443	1.641246	2.271177	4496542790	3492270804	3364810847	1512.397886
319	330	1449813351014722346	0.297813	0.282660	0.222809	1.000000	1.000000	1.000000	1.417028	1.677801	2.271819	4488158777	3537816515	3368332314	1522.594173
320	331	1449813355450947054	0.297516	0.279198	0.225417	1.000000	1.000000	1.000000	1.420256	1.710306	2.201937	4436224708	3581692249	3371669477	1532.362462
321	332	1449813359936335840	0.297207	0.275698	0.222946	1.000000	1.000000	1.000000	1.423875	1.746037	2.294549	4485388786	3627161248	3375139008	1542.654407
322	333	1449813364372163508	0.296914	0.272404	0.225437	1.000000	1.000000	1.000000	1.427099	1.777386	2.214443	4435827668	3671021404	3378433072	1552.477296
323	334	1449813368861479821	0.296610	0.269062	0.222751	1.000000	1.000000	1.000000	1.430763	1.812426	2.318580	4489316313	3716611932	3381872339	1562.886134
324	335	1449813373304850836	0.296320	0.265906	0.225054	1.000000	1.000000	1.000000	1.433806	1.841037	2.181915	4443371015	3760724458	3385148570	1572.581190
325	336	1449813377746853023	0.296033	0.262831	0.225124	1.000000	1.000000	1.000000	1.437156	1.872282	2.264264	4442002187	3804724565	3388400427	1582.639057
326	337	1449813382184849681	0.295749	0.259830	0.225327	1.000000	1.000000	1.000000	1.440392	1.902050	2.243344	4437996658	3848664746	3391620047	1592.595009
327	338	1449813386624612458	0.295467	0.256897	0.225237	1.000000	1.000000	1.000000	1.443597	1.931092	2.241922	4439762777	3892617894	3394825377	1602.548610
328	339	1449813391067417265	0.295186	0.254018	0.225083	1.000000	1.000000	1.000000	1.446761	1.959296	2.237212	4442804807	3936725445	3398020436	1612.488105
329	340	1449813395504151510	0.294909	0.251220	0.225391	1.000000	1.000000	1.000000	1.449899	1.986881	2.238387	4436734245	3980566834	3401177621	1622.419235
330	341	1449813400565251192	0.294471	0.247201	0.197586	1.000000	1.000000	1.000000	1.452776	2.008706	2.088731	5061099682	4045295861	3406207688	1632.990511
331	342	1449813410289594073	0.292828	0.234447	0.102835	1.000000	1.000000	1.000000	1.448391	1.944774	0.941576	9724342881	4265360702	3425295709	1642.146715
332	343	1449813413339975716	0.292922	0.234604	0.327828	1.000000	1.000000	1.000000	1.452420	1.984475	2.949878	3050381643	4262494329	3424166450	1651.144969
333	344	1449813416388870281	0.293015	0.234761	0.327988	1.000000	1.000000	1.000000	1.456413	2.024134	2.945402	3048894565	4259645061	3423039507	1660.125190
334	345	1449813419439981505	0.293108	0.234894	0.327749	1.000000	1.000000	1.000000	1.460432	2.064162	2.961560	3051111224	4257235454	3421925950	1669.161240
335	346	1449813431074597604	0.291020	0.220213	0.085950	1.000000	1.000000	1.000000	1.459000	2.017861	1.318408	11634616099	4541050377	3446441443	1684.500407
336	347	1449813440434025841	0.289539	0.210591	0.106844	1.000000	1.000000	1.000000	1.455076	1.964762	0.970914	9359428237	4748545630	3464039618	1693.587607
337	348	1449813443483955318	0.289640	0.210701	0.327876	1.000000	1.000000	1.000000	1.458985	2.000391	2.951102	3049929477	4746067445	3462810804	1702.588260
338	349	1449813446532925381	0.289740	0.210818	0.327980	1.000000	1.000000	1.000000	1.462860	2.035948	2.945836	3048970063	4743437646	3461586423	1711.570027
339	350	1449813449733811745	0.289801	0.210698	0.312413	1.000000	1.000000	1.000000	1.466954	2.072860	2.963350	3200886364	4746122155	3460817397	1721.055375
340	351	1449813460689581508	0.287965	0.200237	0.091276	1.000000	1.000000	1.000000	1.465805	2.028226	1.342732	10955769763	4994070890	3482861374	1735.766039
341	352	1449813466709453280	0.287348	0.198144	0.166116	1.000000	1.000000	1.000000	1.467611	2.013215	1.822900	6019871772	5046833382	3490301287	1746.739662
342	353	1449813471791321715	0.286963	0.197304	0.196778	1.000000	1.000000	1.000000	1.468317	1.993502	1.633839	5081868435	5068326648	3494954992	1755.042617
343	354	1449813474923222361	0.287048	0.199093	0.319295	1.000000	1.000000	1.000000	1.467825	1.970104	1.280001	3131900646	5022774708	3493896525	1759.051454
344	355	1449813478043704088	0.287135	0.200900	0.320463	1.000000	1.000000	1.000000	1.467341	1.948274	1.281300	3120481727	4977601630	3492811017	1763.049726
345	356	1449813481163870524	0.287221	0.202689	0.320496	1.000000	1.000000	1.000000	1.466856	1.925660	1.280050	3120166436	4933656894	3491730888	1767.043695
346	357	1449813484284399209	0.287307	0.204507	0.320459	1.000000	1.000000	1.000000	1.466371	1.901949	1.279224	3120528685	4889815054	3490658049	1771.035549
347	358	1449813487410062876	0.287391	0.206356	0.319932	1.000000	1.000000	1.000000	1.465888	1.876793	1.279149	3125663667	4846001401	3489606192	1775.033739
348	359	1449813490531287891	0.287476	0.208326	0.320387	1.000000	1.000000	1.000000	1.465414	1.851576	1.281474	3121225015	4800157475	3488547625	1779.033508
349	360	1449813493672577044	0.287556	0.210293	0.318341	1.000000	1.000000	1.000000	1.464939	1.825803	1.281589	3141289153	4755261821	3487552615	1783.059349
350	361	1449813496792026941	0.287640	0.212253	0.320569	1.000000	1.000000	1.000000	1.464463	1.801923	1.278683	3119449897	4711369328	3486500893	1787.048137
351	362	1449813499910429215	0.287724	0.214325	0.320677	1.000000	1.000000	1.000000	1.463969	1.774296	1.270455	3118402274	4665803111	3485452179	1791.009926
352	363	1449813503029278613	0.287808	0.216361	0.320631	1.000000	1.000000	1.000000	1.463517	1.749241	1.286402	3118849398	4621903835	3484410694	1795.022021
353	364	1449813506147703638	0.287891	0.218522	0.320675	1.000000	1.000000	1.000000	1.463070	1.720129	1.287233	3118425025	4576207458	3483373907	1799.036161
354	365	1449813509267140367	0.287974	0.220649	0.320571	1.000000	1.000000	1.000000	1.462629	1.695140	1.288755	3119436729	4532076315	3482345836	1803.056351
355	366	1449813512385893639	0.288056	0.222818	0.320641	1.000000	1.000000	1.000000	1.462200	1.667044	1.292786	3118753272	4487968018	3481321632	1807.088232
356	367	1449813515504792828	0.288138	0.225023	0.320626	1.000000	1.000000	1.000000	1.461775	1.639119	1.293397	3118899189	4443998103	3480303591	1811.122206
357	368	1449813518623746183	0.288220	0.227274	0.320620	1.000000	1.000000	1.000000	1.461354	1.610686	1.293867	3118953355	4399971122	3479291406	1815.157716
358	369	1449813521748443976	0.288300	0.229567	0.320031	1.000000	1.000000	1.000000	1.460940	1.581877	1.296663	3124697793	4356034222	3478300921	1819.209395
359	370	1449813524869028033	0.288380	0.231902	0.320453	1.000000	1.000000	1.000000	1.460528	1.552462	1.295893	3120584057	4312162549	3477304495	1823.253340
360	371	1449813527991539209	0.288460	0.235430	0.320255	1.000000	1.000000	1.000000	1.460124	1.524940	1.298494	3122511176	4247542932	3476318958	1827.307900
361	372	1449813531110149606	0.288540	0.248302	0.320656	1.000000	1.000000	1.000000	1.459725	1.566081	1.299791	3118610397	4027351849	3475328076	1831.361442
362	373	1449813534229008043	0.288619	0.248161	0.320630	1.000000	1.000000	1.000000	1.459325	1.524254	1.298256	3118858437	4029634408	3474343353	1835.410519
363	374	1449813537347743356	0.288698	0.248018	0.320643	1.000000	1.000000	1.000000	1.458907	1.482404	1.290444	3118735313	4031962433	3473363716	1839.435073
364	375	1449813540467060584	0.288777	0.247878	0.320583	1.000000	1.000000	1.000000	1.458526	1.440530	1.304555	3119317228	4034235966	3472391061	1843.504395
365	376	1449813543586080812	0.288856	0.266639	0.320614	1.000000	1.000000	1.000000	1.458149	1.449407	1.305189	3119020228	3750382770	3471422922	1847.575305
366	377	1449813546707954697	0.288933	0.282289	0.320320	1.000000	1.000000	1.000000	1.457777	1.487364	1.307011	3121873885	3542464291	3470467870	1851.655628
367	378	1449813549826395968	0.289011	0.282108	0.320673	1.000000	1.000000	1.000000	1.457361	1.439531	1.287798	3118441271	3544748018	3469508669	1855.671550
368	379	1449813552961203891	0.289084	0.281880	0.318999	1.000000	1.000000	1.000000	1.456985	1.392392	1.304192	3134807923	3547609280	3468599156	1859.759941
369	380	1449813556088053216	0.289159	0.282076	0.319811	1.000000	1.000000	1.000000	1.456599	1.342370	1.299136	3126849325	3545141378	3467673005	1863.822144
370	381	1449813559208319314	0.289236	0.304511	0.320485	1.000000	1.000000	1.000000	1.456224	1.341067	1.302500	3120266098	3283957922	3466734068	1867.886292
371	382	1449813562328883869	0.289311	0.313744	0.320455	1.000000	1.000000	1.000000	1.455820	1.309062	1.289863	3120564555	3187314348	3465800996	1871.911394
372	383	1449813565456633732	0.289385	0.320289	0.319719	1.000000	1.000000	1.000000	1.455453	1.291281	1.304292	3127749863	3122177062	3464892256	1875.990893
373	384	1449813568587531542	0.289458	0.320293	0.319397	1.000000	1.000000	1.000000	1.455086	1.292093	1.304274	3130897810	3122143634	3463996829	1880.074441
374	385	1449813571707169100	0.289533	0.320296	0.320550	1.000000	1.000000	1.000000	1.454723	1.292854	1.304142	3119637558	3122115495	3463076082	1884.142892
375	386	1449813574827040823	0.289607	0.320297	0.320526	1.000000	1.000000	1.000000	1.454339	1.293350	1.294942	3119871723	3122105672	3462160871	1888.182944
376	387	1449813577946687547	0.289681	0.320300	0.320549	1.000000	1.000000	1.000000	1.453981	1.294207	1.304955	3119646724	3122076274	3461249929	1892.253942
377	388	1449813581083458586	0.289751	0.320262	0.318799	1.000000	1.000000	1.000000	1.453625	1.295102	1.305926	3136771039	3122446520	3460389242	1896.350334
378	389	1449813584210960115	0.289823	0.320240	0.319744	1.000000	1.000000	1.000000	1.453259	1.295744	1.300737	3127501529	3122655737	3459508587	1900.418390
379	390	1449813587331411128	0.289896	0.320311	0.320466	1.000000	1.000000	1.000000	1.452851	1.295756	1.281852	3120451013	3121961132	3458613976	1904.418347
380	391	1449813590474659976	0.289964	0.320230	0.318142	1.000000	1.000000	1.000000	1.452492	1.296562	1.302824	3143248848	3122754430	3457784067	1908.513446
381	392	1449813593593976076	0.290036	0.320227	0.320583	1.000000	1.000000	1.000000	1.452118	1.297370	1.294743	3119316100	3122784891	3456895700	1912.552159
382	393	1449813596713413924	0.290108	0.320225	0.320571	1.000000	1.000000	1.000000	1.451756	1.297780	1.298706	3119437848	3122804506	3456012303	1916.603393
383	394	1449813599845294687	0.290177	0.320179	0.319297	1.000000	1.000000	1.000000	1.451375	1.297903	1.290969	3131880763	3123253031	3455166006	1920.646553
384	395	1449813602965216784	0.290249	0.320177	0.320521	1.000000	1.000000	1.000000	1.451017	1.298245	1.299024	3119922097	3123269210	3454292975	1924.699408
385	396	1449813606084225342	0.290320	0.320176	0.320615	1.000000	1.000000	1.000000	1.450669	1.298579	1.302818	3119008558	3123277719	3453422106	1928.762910
386	397	1449813609203416691	0.290391	0.320175	0.320596	1.000000	1.000000	1.000000	1.450326	1.298925	1.303796	3119191349	3123287457	3452556224	1932.829698
387	398	1449813612322449665	0.290461	0.320175	0.320612	1.000000	1.000000	1.000000	1.449992	1.299382	1.307592	3119032974	3123290111	3451694407	1936.908121
388	399	1449813615441162057	0.290532	0.320196	0.320645	1.000000	1.000000	1.000000	1.449657	1.299699	1.306193	3118712392	3123090597	3450836205	1940.981763
