Results normalized to results/baselines/bodytrack-4,5,6,7-native.log
Total Time x Total Energy:  1.28531406431
<<<<<<< HEAD
Total Violation x Total Energy:  1.05392519237
=======
Total Violation x Total Energy:  0.0
>>>>>>> 5d07200b22786ce931e1e444b56379d7a10d9e86
MAPE:  1.0
