Beat	Tag	Timestamp	Global_Rate	Window_Rate	Instant_Rate	Global_Accuracy	Window_Accuracy	Instant_Accuracy	Global_Power	Window_Power	Instant_Power	Instant_Latency	Window_Latency	Global_latency	total_energy
0	1	1449562796792771265	0.000000	0.000000	0.000000	1.000000	1.000000	1.000000	0.000000	0.000000	0.000000	0	0	0	0.003598
1	1	1449562796796584493	524.490012	262.244995	262.245006	1.000000	1.000000	1.000000	0.943509	0.943509	0.943509	3813228	3813228	3813228	0.003598
2	1	1449562796800590636	383.662573	255.775055	249.616651	1.000000	1.000000	1.000000	0.943509	0.943509	0.943509	4006143	3909685	3909685	0.007378
3	1	1449562796804726946	334.568980	250.926743	241.761377	1.000000	1.000000	1.000000	0.943509	0.943509	0.943509	4136310	3985227	3985227	0.011280
4	1	1449562796810994201	274.379496	219.503601	159.559488	1.000000	1.000000	1.000000	0.943509	0.943509	0.943509	6267255	4555734	4555734	0.017194
5	1	1449562796817204291	245.569255	204.641052	161.028262	1.000000	1.000000	1.000000	0.943509	0.943509	0.943509	6210090	4886605	4886605	0.023053
6	1	1449562796842473187	140.839624	120.719681	39.574345	1.000000	1.000000	1.000000	0.943509	0.943509	0.943509	25268896	8283653	8283653	0.046894
7	1	1449562796875826744	96.321159	84.281013	29.981810	1.000000	1.000000	1.000000	0.932561	0.932561	0.916247	33353557	11865068	11865068	0.077454
8	1	1449562796909183677	77.311344	68.721191	29.978775	1.000000	1.000000	1.000000	0.916950	0.916950	0.878080	33356933	14551551	14551551	0.106744
9	1	1449562796942553568	66.763562	60.087204	29.967134	1.000000	1.000000	1.000000	0.908290	0.908290	0.878080	33369891	16642478	16642478	0.136046
10	1	1449562796975921626	60.059942	54.599949	29.968780	1.000000	1.000000	1.000000	0.902786	0.902786	0.878080	33368058	18315036	18315036	0.165346
11	1	1449562797009283809	55.424040	50.805370	29.974058	1.000000	1.000000	1.000000	0.898979	0.898979	0.878080	33362183	19682958	19682958	0.194640
12	1	1449562797042654741	52.024248	48.022381	29.966199	1.000000	1.000000	1.000000	0.896188	0.896188	0.878080	33370932	20823623	20823623	0.223943
13	1	1449562797076017924	49.426885	45.896393	29.973159	1.000000	1.000000	1.000000	0.897217	0.897217	0.904918	33363183	21788204	21788204	0.254134
14	1	1449562797109383023	47.376636	44.218193	29.971438	1.000000	1.000000	1.000000	0.898028	0.898028	0.904918	33365099	22615125	22615125	0.284326
15	1	1449562797142747331	45.717412	42.860073	29.972149	1.000000	1.000000	1.000000	0.898224	0.898224	0.900082	33364308	23331737	23331737	0.314357
16	1	1449562797176113722	44.346771	41.738136	29.970278	1.000000	1.000000	1.000000	0.898025	0.898025	0.895934	33366391	23958903	23958903	0.344251
17	1	1449562797209483030	43.195325	40.795586	29.967658	1.000000	1.000000	1.000000	0.897857	0.897857	0.895934	33369308	24512456	24512456	0.374148
18	1	1449562797242848087	42.215015	39.993172	29.971476	1.000000	1.000000	1.000000	0.897715	0.897715	0.895934	33365057	25004267	25004267	0.404041
19	1	1449562797276211395	41.370169	39.301659	29.973047	1.000000	1.000000	1.000000	0.897592	0.897592	0.895934	33363308	25444217	25444217	0.433932
20	1	1449562797309583078	40.633746	38.698807	29.965525	1.000000	1.000000	1.000000	0.897001	0.897001	0.888437	33371683	25840590	25840590	0.463581
21	1	1449562797342948594	39.987108	38.169514	29.971064	1.000000	1.000000	1.000000	0.891480	0.891480	0.805967	33365516	26198920	26198920	0.490472
22	1	1449562797376311901	39.414564	37.700890	29.973048	1.000000	1.000000	1.000000	0.886591	0.886591	0.805967	33363307	26524574	26524574	0.517362
23	1	1449562797409684334	38.903374	37.282398	29.964852	1.000000	1.000000	1.000000	0.881787	0.881787	0.797782	33372433	26822307	26822307	0.543986
24	1	1449562797443045892	38.445295	36.907482	29.974619	1.000000	1.000000	1.000000	0.877241	0.877241	0.793194	33361558	27094776	27094776	0.570448
25	1	1449562797476414074	38.031556	36.568806	29.968669	1.000000	1.000000	1.000000	0.873139	0.873139	0.793194	33368182	27345712	27345712	0.596915
26	1	1449562797509786340	37.656112	36.261444	29.965001	1.000000	1.000000	1.000000	0.869418	0.869418	0.793194	33372266	27577502	27577502	0.623386
27	1	1449562797543156273	37.314178	35.981529	29.967096	1.000000	1.000000	1.000000	0.866028	0.866028	0.793194	33369933	27792037	27792037	0.649855
28	1	1449562797576517873	37.001755	35.725834	29.974582	1.000000	1.000000	1.000000	0.862990	0.862990	0.794649	33361600	27990950	27990950	0.676366
29	1	1449562797609901805	36.713840	35.490044	29.954530	1.000000	1.000000	1.000000	0.860495	0.860495	0.801923	33383932	28176915	28176915	0.703137
30	1	1449562797643259363	36.449658	35.273861	29.978214	1.000000	1.000000	1.000000	0.858198	0.858198	0.801923	33357558	28349603	28349603	0.729887
31	1	1449562797676622754	36.205177	34.089428	29.972972	1.000000	1.000000	1.000000	0.855984	0.855604	0.799538	33363391	29334609	28511338	0.756562
32	1	1449562797709981187	35.978678	32.989128	29.977427	1.000000	1.000000	1.000000	0.853889	0.853118	0.798387	33358433	30313018	28662810	0.783195
33	1	1449562797743346286	35.767824	31.961838	29.971438	1.000000	1.000000	1.000000	0.851941	0.850774	0.798387	33365099	31287310	28805303	0.809834
34	1	1449562797776725969	35.570743	31.064528	29.958343	1.000000	1.000000	1.000000	0.850124	0.848362	0.798387	33379683	32191058	28939844	0.836484
35	1	1449562797810082610	35.387397	30.215183	29.979038	1.000000	1.000000	1.000000	0.848428	0.846088	0.798387	33356641	33095943	29066038	0.863115
36	1	1449562797843450251	35.215323	29.970716	29.969155	1.000000	1.000000	1.000000	0.846797	0.841995	0.797075	33367641	33365901	29185527	0.889712
37	1	1449562797876821225	35.053735	29.970196	29.966162	1.000000	1.000000	1.000000	0.845064	0.837804	0.790517	33370974	33366481	29298647	0.916092
38	1	1449562797910186074	34.901990	29.969959	29.971663	1.000000	1.000000	1.000000	0.843436	0.834886	0.790517	33364849	33366745	29405652	0.942467
39	1	1449562797943554382	34.758939	29.970005	29.968556	1.000000	1.000000	1.000000	0.841832	0.831888	0.788145	33368308	33366692	29507259	0.968766
40	1	1449562797976916690	34.624126	29.970179	29.973945	1.000000	1.000000	1.000000	0.840287	0.828852	0.786987	33362308	33366500	29603635	0.995022
41	1	1449562798010284122	34.496556	29.970020	29.969343	1.000000	1.000000	1.000000	0.838826	0.825815	0.786987	33367432	33366675	29695435	1.021282
42	1	1449562798043655847	34.375674	29.969995	29.965487	1.000000	1.000000	1.000000	0.837443	0.822779	0.786987	33371725	33366701	29782966	1.047545
43	1	1449562798077021946	34.261224	29.969910	29.970540	1.000000	1.000000	1.000000	0.836132	0.818848	0.786987	33366099	33366798	29866294	1.073804
44	1	1449562798110383712	34.152683	29.970009	29.974432	1.000000	1.000000	1.000000	0.834888	0.814917	0.786987	33361766	33366687	29945737	1.100059
45	1	1449562798143747562	34.049450	29.970024	29.972560	1.000000	1.000000	1.000000	0.833705	0.811148	0.786987	33363850	33366672	30021695	1.126316
46	1	1449562798177121744	33.950940	29.969790	29.963281	1.000000	1.000000	1.000000	0.832579	0.807516	0.786987	33374182	33366931	30094575	1.152581
47	1	1449562798210482135	33.857397	29.970058	29.975668	1.000000	1.000000	1.000000	0.831671	0.804118	0.794007	33360391	33366634	30164061	1.179069
48	1	1449562798243850235	33.767976	29.969965	29.968743	1.000000	1.000000	1.000000	0.830835	0.800764	0.795308	33368100	33366736	30230811	1.205607
49	1	1449562798277221501	33.682503	29.969727	29.965899	1.000000	1.000000	1.000000	0.830036	0.797410	0.795308	33371266	33367001	30294902	1.232148
50	1	1449562798310583392	33.600997	29.970020	29.974320	1.000000	1.000000	1.000000	0.829273	0.794306	0.795308	33361891	33366675	30356242	1.258681
51	1	1449562798343952241	33.522845	29.969921	29.968070	1.000000	1.000000	1.000000	0.828542	0.793950	0.795308	33368849	33366786	30415313	1.285219
52	1	1449562798377318340	33.448044	29.969837	29.970540	1.000000	1.000000	1.000000	0.827853	0.793612	0.795827	33366099	33366879	30472059	1.311773
53	1	1449562798410722023	33.375552	29.968903	29.936819	1.000000	1.000000	1.000000	0.827207	0.793571	0.796553	33403683	33367921	30527372	1.338381
54	1	1449562798444052539	33.307469	29.969831	30.002536	1.000000	1.000000	1.000000	0.826588	0.793683	0.796553	33330516	33366887	30579282	1.364930
55	1	1449562798477418889	33.241373	29.969885	29.970314	1.000000	1.000000	1.000000	0.825975	0.793764	0.795622	33366350	33366826	30629956	1.391477
56	1	1449562798510789696	33.177758	29.969931	29.966312	1.000000	1.000000	1.000000	0.825386	0.793845	0.795622	33370807	33366778	30678900	1.418028
57	1	1449562798544150754	33.116752	29.970196	29.975069	1.000000	1.000000	1.000000	0.824819	0.793926	0.795622	33361058	33366482	30725955	1.444570
58	1	1449562798577520312	33.057869	29.969957	29.967433	1.000000	1.000000	1.000000	0.824273	0.793959	0.795622	33369558	33366747	30771535	1.471120
59	1	1449562798610889119	33.001161	29.970409	29.968108	1.000000	1.000000	1.000000	0.823747	0.793748	0.795622	33368807	33366243	30815556	1.497669
60	1	1449562798644252677	32.946591	29.970230	29.972822	1.000000	1.000000	1.000000	0.823242	0.793542	0.795720	33363558	33366443	30858023	1.524217
61	1	1449562798677618651	32.893910	29.970152	29.970652	1.000000	1.000000	1.000000	0.822756	0.793418	0.795817	33365974	33366529	30899137	1.550770
62	1	1449562798710989501	32.842978	29.969780	29.966273	1.000000	1.000000	1.000000	0.822280	0.793318	0.795397	33370850	33366943	30939003	1.577313
63	1	1449562798744350642	32.793952	29.969900	29.974994	1.000000	1.000000	1.000000	0.821744	0.793068	0.790873	33361141	33366812	30977450	1.603698
64	1	1449562798777716241	32.746500	29.970322	29.970989	1.000000	1.000000	1.000000	0.821225	0.792818	0.790891	33365599	33366342	31014765	1.630086
65	1	1449562798811088757	32.700504	29.969845	29.964777	1.000000	1.000000	1.000000	0.820723	0.792568	0.790891	33372516	33366871	31051038	1.656480
66	1	1449562798844450440	32.656178	29.970026	29.974507	1.000000	1.000000	1.000000	0.820238	0.792362	0.790891	33361683	33366673	31086048	1.682866
67	1	1449562798877825248	32.613064	29.969910	29.962719	1.000000	1.000000	1.000000	0.819768	0.792374	0.790891	33374808	33366801	31120208	1.709262
68	1	1449562798911189472	32.571472	29.969929	29.972224	1.000000	1.000000	1.000000	0.819325	0.792411	0.791618	33364224	33366780	31153208	1.735673
69	1	1449562798944549613	32.531232	29.970173	29.975892	1.000000	1.000000	1.000000	0.818904	0.792544	0.792137	33360141	33366508	31185193	1.762099
70	1	1449562798977913629	32.492162	29.970121	29.972411	1.000000	1.000000	1.000000	0.818489	0.792703	0.791763	33364016	33366565	31216319	1.788515
71	1	1449562799011288353	32.454111	29.969904	29.962795	1.000000	1.000000	1.000000	0.818045	0.792770	0.788984	33374724	33366808	31246719	1.814848
72	1	1449562799044653911	32.417320	29.970089	29.971026	1.000000	1.000000	1.000000	0.817614	0.792833	0.788901	33365558	33366603	31276147	1.841170
73	1	1449562799078018302	32.381619	29.970139	29.972074	1.000000	1.000000	1.000000	0.817194	0.792897	0.788901	33364391	33366546	31304753	1.867491
74	1	1449562799111383860	32.346930	29.970026	29.971026	1.000000	1.000000	1.000000	0.816787	0.792961	0.788901	33365558	33366673	31332602	1.893813
75	1	1449562799144753126	32.313174	29.969864	29.967695	1.000000	1.000000	1.000000	0.816392	0.793025	0.788901	33369266	33366853	31359758	1.920138
76	1	1449562799178117809	32.280425	29.970148	29.971812	1.000000	1.000000	1.000000	0.816059	0.793213	0.792639	33364683	33366537	31386138	1.946584
77	1	1449562799211484325	32.248555	29.969965	29.970165	1.000000	1.000000	1.000000	0.815753	0.793209	0.793885	33366516	33366741	31411857	1.973073
78	1	1449562799244853341	32.217519	29.969936	29.967920	1.000000	1.000000	1.000000	0.815472	0.793202	0.795098	33369016	33366771	31436949	1.999605
79	1	1449562799278221648	32.187325	29.970026	29.968557	1.000000	1.000000	1.000000	0.815261	0.793350	0.799729	33368307	33366672	31461397	2.026291
80	1	1449562799311587873	32.157959	29.969896	29.970427	1.000000	1.000000	1.000000	0.815055	0.793497	0.799729	33366225	33366816	31485207	2.052975
81	1	1449562799344953555	32.129366	29.969992	29.970914	1.000000	1.000000	1.000000	0.814855	0.793644	0.799729	33365682	33366711	31508423	2.079658
82	1	1449562799378323072	32.101465	29.969889	29.967470	1.000000	1.000000	1.000000	0.814660	0.793774	0.799729	33369517	33366825	31531119	2.106345
83	1	1449562799411687629	32.074335	29.971060	29.971925	1.000000	1.000000	1.000000	0.814469	0.793880	0.799729	33364557	33365520	31553209	2.133027
84	1	1449562799445053270	32.047874	29.970007	29.970951	1.000000	1.000000	1.000000	0.814245	0.793882	0.796614	33365641	33366691	31574785	2.159607
85	1	1449562799478421245	32.022043	29.969959	29.968855	1.000000	1.000000	1.000000	0.814018	0.793895	0.795991	33367975	33366745	31595882	2.186167
86	1	1449562799511786011	31.996884	29.970140	29.971737	1.000000	1.000000	1.000000	0.813804	0.793926	0.796572	33364766	33366543	31616450	2.212745
87	1	1449562799545154860	31.972288	29.969906	29.968070	1.000000	1.000000	1.000000	0.813605	0.793985	0.797386	33368849	33366802	31636593	2.239353
88	1	1449562799578521001	31.948311	29.970009	29.970502	1.000000	1.000000	1.000000	0.813411	0.794044	0.797386	33366141	33366688	31656247	2.265958
89	1	1449562799611890309	31.924867	29.969995	29.967658	1.000000	1.000000	1.000000	0.813221	0.794103	0.797386	33369308	33366705	31675494	2.292567
90	1	1449562799645252242	31.902053	29.970043	29.974282	1.000000	1.000000	1.000000	0.813036	0.794158	0.797386	33361933	33366651	31694233	2.319169
91	1	1449562799678621049	31.879691	29.969959	29.968108	1.000000	1.000000	1.000000	0.812855	0.794210	0.797386	33368807	33366745	31712634	2.345777
92	1	1449562799711991524	31.857822	29.969969	29.966610	1.000000	1.000000	1.000000	0.812630	0.794138	0.793233	33370475	33366733	31730654	2.372247
93	1	1449562799745353331	31.836541	29.969950	29.974396	1.000000	1.000000	1.000000	0.812402	0.794189	0.792402	33361807	33366755	31748194	2.398683
94	1	1449562799778720556	31.815678	29.969902	29.969528	1.000000	1.000000	1.000000	0.812185	0.794259	0.792991	33367225	33366809	31765417	2.425143
95	1	1449562799812090197	31.795250	29.969988	29.967359	1.000000	1.000000	1.000000	0.811982	0.794357	0.793816	33369641	33366713	31782304	2.451633
96	1	1449562799845451338	31.775357	29.970003	29.974994	1.000000	1.000000	1.000000	0.811783	0.794454	0.793816	33361141	33366695	31798750	2.478115
97	1	1449562799878821937	31.755797	29.970129	29.966498	1.000000	1.000000	1.000000	0.811589	0.794552	0.793816	33370599	33366555	31814955	2.504605
98	1	1449562799912197953	31.736601	29.969776	29.961635	1.000000	1.000000	1.000000	0.811399	0.794625	0.793816	33376016	33366948	31830884	2.531100
99	1	1449562799945552011	31.718032	29.969959	29.981359	1.000000	1.000000	1.000000	0.811213	0.794681	0.793816	33354058	33366745	31846270	2.557577
100	1	1449562799978920402	31.699709	29.969828	29.968481	1.000000	1.000000	1.000000	0.811007	0.794673	0.791532	33368391	33366891	31861491	2.583989
101	1	1449562800012289710	31.681757	29.969990	29.967658	1.000000	1.000000	1.000000	0.810803	0.794751	0.791324	33369308	33366711	31876420	2.610395
102	1	1449562800045654392	31.664218	29.970016	29.971813	1.000000	1.000000	1.000000	0.810571	0.794729	0.788229	33364682	33366682	31891011	2.636694
103	1	1449562800079022450	31.647003	29.969906	29.968780	1.000000	1.000000	1.000000	0.810313	0.794603	0.785134	33368058	33366804	31905351	2.662892
104	1	1449562800112389050	31.630147	29.969873	29.970090	1.000000	1.000000	1.000000	0.810060	0.794478	0.785134	33366600	33366839	31919401	2.689089
105	1	1449562800145756732	31.613617	29.969923	29.969118	1.000000	1.000000	1.000000	0.809812	0.794352	0.785134	33367682	33366787	31933194	2.715287
106	1	1449562800179123915	31.597418	29.969847	29.969566	1.000000	1.000000	1.000000	0.809569	0.794102	0.785134	33367183	33366870	31946723	2.741485
107	1	1449562800212491139	31.581534	29.969826	29.969529	1.000000	1.000000	1.000000	0.809330	0.793810	0.785134	33367224	33366893	31959998	2.767683
108	1	1449562800245856864	31.565971	29.969925	29.970876	1.000000	1.000000	1.000000	0.809109	0.793520	0.786380	33365725	33366783	31973014	2.793921
109	1	1449562800279217713	31.550750	29.970148	29.975256	1.000000	1.000000	1.000000	0.808891	0.793075	0.786380	33360849	33366535	31985747	2.820155
110	1	1449562800312587313	31.535739	29.970047	29.967395	1.000000	1.000000	1.000000	0.808668	0.792594	0.785319	33369600	33366648	31998327	2.846361
111	1	1449562800345956079	31.521017	29.969955	29.968144	1.000000	1.000000	1.000000	0.808436	0.792070	0.783989	33368766	33366751	32010674	2.872522
112	1	1449562800379317470	31.506634	29.970198	29.974769	1.000000	1.000000	1.000000	0.808208	0.791545	0.783989	33361391	33366480	32022733	2.898677
113	1	1449562800412684527	31.492467	29.970121	29.969679	1.000000	1.000000	1.000000	0.807985	0.791020	0.783989	33367057	33366564	32034630	2.924836
114	1	1449562800446050585	31.478568	29.970110	29.970577	1.000000	1.000000	1.000000	0.807766	0.790600	0.783989	33366058	33366577	32046309	2.950995
115	1	1449562800479419059	31.464899	29.970095	29.968407	1.000000	1.000000	1.000000	0.807568	0.790263	0.785892	33368474	33366594	32057806	2.977219
116	1	1449562800512787575	31.451475	29.969984	29.968369	1.000000	1.000000	1.000000	0.807459	0.790224	0.795404	33368516	33366719	32069106	3.003760
117	1	1449562800546156175	31.438289	29.969992	29.968294	1.000000	1.000000	1.000000	0.807352	0.790158	0.795404	33368600	33366711	32080212	3.030302
118	1	1449562800579520316	31.425373	29.970051	29.972299	1.000000	1.000000	1.000000	0.807254	0.790120	0.796251	33364141	33366645	32091093	3.056868
119	1	1449562800612885790	31.412671	29.970165	29.971101	1.000000	1.000000	1.000000	0.807163	0.790101	0.796803	33365474	33366517	32101802	3.083454
120	1	1449562800646260723	31.400112	29.969776	29.962607	1.000000	1.000000	1.000000	0.807073	0.790081	0.796803	33374933	33366950	32112412	3.110047
121	1	1449562800679620031	31.387895	29.970060	29.976641	1.000000	1.000000	1.000000	0.806985	0.790062	0.796803	33359308	33366633	32122717	3.136628
122	1	1449562800712987463	31.375821	29.970150	29.969343	1.000000	1.000000	1.000000	0.806898	0.790181	0.796803	33367432	33366531	32132919	3.163215
123	1	1449562800746357480	31.363930	29.969906	29.967021	1.000000	1.000000	1.000000	0.806812	0.790326	0.796753	33370017	33366804	32142977	3.189803
124	1	1449562800779720204	31.352295	29.970041	29.973572	1.000000	1.000000	1.000000	0.806727	0.790446	0.796602	33362724	33366654	32152814	3.216380
125	1	1449562800813085595	31.340833	29.970167	29.971176	1.000000	1.000000	1.000000	0.806643	0.790539	0.796602	33365391	33366512	32162514	3.242959
126	1	1449562800846455694	31.329523	29.969900	29.966947	1.000000	1.000000	1.000000	0.806585	0.790731	0.799577	33370099	33366810	32172098	3.269640
127	1	1449562800879820335	31.318440	29.970078	29.971850	1.000000	1.000000	1.000000	0.806532	0.790942	0.800140	33364641	33366611	32181488	3.296337
128	1	1449562800913186976	31.307521	29.970360	29.970053	1.000000	1.000000	1.000000	0.806480	0.791153	0.800140	33366641	33366299	32190747	3.323035
129	1	1449562800946553576	31.296777	29.969984	29.970090	1.000000	1.000000	1.000000	0.806430	0.791364	0.800140	33366600	33366718	32199862	3.349733
130	1	1449562800979921134	31.286198	29.970007	29.969229	1.000000	1.000000	1.000000	0.806379	0.791651	0.800140	33367558	33366690	32208845	3.376432
131	1	1449562801013284400	31.275818	29.970188	29.973085	1.000000	1.000000	1.000000	0.806308	0.791850	0.797297	33363266	33366488	32217657	3.403032
132	1	1449562801046658457	31.265521	29.969908	29.963393	1.000000	1.000000	1.000000	0.806192	0.791962	0.791612	33374057	33366800	32226418	3.429451
133	1	1449562801080025973	31.255432	29.969925	29.969267	1.000000	1.000000	1.000000	0.806079	0.792178	0.791612	33367516	33366782	32234997	3.455865
134	1	1449562801113386990	31.245547	29.970091	29.975105	1.000000	1.000000	1.000000	0.805942	0.792285	0.788342	33361017	33366595	32243400	3.482165
135	1	1449562801146754964	31.235762	29.970083	29.968856	1.000000	1.000000	1.000000	0.805805	0.792383	0.788074	33367974	33366604	32251731	3.508462
136	1	1449562801180123813	31.226121	29.970032	29.968070	1.000000	1.000000	1.000000	0.805670	0.792481	0.788074	33368849	33366659	32259945	3.534759
137	1	1449562801213485746	31.216673	29.970192	29.974282	1.000000	1.000000	1.000000	0.805537	0.792579	0.788074	33361933	33366483	32267988	3.561051
138	1	1449562801246853720	31.207325	29.970123	29.968856	1.000000	1.000000	1.000000	0.805406	0.792636	0.788074	33367974	33366558	32275959	3.587347
139	1	1449562801280220862	31.198122	29.969934	29.969603	1.000000	1.000000	1.000000	0.805273	0.792672	0.787474	33367142	33366768	32283810	3.613623
140	1	1449562801313586294	31.189066	29.970060	29.971139	1.000000	1.000000	1.000000	0.805136	0.792716	0.786634	33365432	33366629	32291535	3.639869
141	1	1449562801346941310	31.180215	29.970472	29.980498	1.000000	1.000000	1.000000	0.805000	0.792804	0.786634	33355016	33366170	32299078	3.666107
142	1	1449562801380321910	31.171318	29.969898	29.957520	1.000000	1.000000	1.000000	0.804848	0.792809	0.784124	33380600	33366810	32306694	3.692282
143	1	1449562801413686551	31.162657	29.969969	29.971850	1.000000	1.000000	1.000000	0.804698	0.792812	0.784097	33364641	33366729	32314092	3.718443
144	1	1449562801447052692	31.154111	29.969967	29.970502	1.000000	1.000000	1.000000	0.804551	0.792816	0.784097	33366141	33366732	32321398	3.744605
145	1	1449562801480421708	31.145667	29.969952	29.967920	1.000000	1.000000	1.000000	0.804405	0.792756	0.784097	33369016	33366750	32328623	3.770770
146	1	1449562801513785266	31.137379	29.970098	29.972822	1.000000	1.000000	1.000000	0.804262	0.792379	0.784097	33363558	33366585	32335712	3.796930
147	1	1449562801547155198	31.129165	29.970058	29.967097	1.000000	1.000000	1.000000	0.804111	0.791961	0.782851	33369932	33366630	32342747	3.823054
148	1	1449562801580522464	31.121082	29.969965	29.969492	1.000000	1.000000	1.000000	0.803954	0.791472	0.781605	33367266	33366734	32349670	3.849134
149	1	1449562801613884772	31.113144	29.970060	29.973945	1.000000	1.000000	1.000000	0.803801	0.790973	0.781808	33362308	33366628	32356466	3.875217
150	1	1449562801647254580	31.105267	29.970213	29.967209	1.000000	1.000000	1.000000	0.803665	0.790547	0.784035	33369808	33366457	32363222	3.901380
151	1	1449562801680623513	31.097503	29.969927	29.967994	1.000000	1.000000	1.000000	0.803531	0.790121	0.784035	33368933	33366778	32369882	3.927542
152	1	1449562801713986904	31.089879	29.970047	29.972972	1.000000	1.000000	1.000000	0.803399	0.789696	0.784035	33363391	33366644	32376418	3.953700
153	1	1449562801747353378	31.082339	29.970152	29.970203	1.000000	1.000000	1.000000	0.803269	0.789272	0.784035	33366474	33366526	32382889	3.979861
154	1	1449562801780726186	31.074860	29.969851	29.964515	1.000000	1.000000	1.000000	0.803140	0.788853	0.784035	33372808	33366862	32389317	4.006026
155	1	1449562801814088119	31.067548	29.969955	29.974282	1.000000	1.000000	1.000000	0.803013	0.788434	0.784035	33361933	33366747	32395592	4.032183
156	1	1449562801847451676	31.060322	29.970150	29.972823	1.000000	1.000000	1.000000	0.802888	0.787916	0.784035	33363557	33366529	32401797	4.058341
157	1	1449562801880822234	31.053148	29.969973	29.966535	1.000000	1.000000	1.000000	0.802768	0.787397	0.784573	33370558	33366726	32407967	4.084523
158	1	1449562801914187625	31.046099	29.970011	29.971176	1.000000	1.000000	1.000000	0.802670	0.786985	0.787780	33365391	33366684	32414027	4.110807
159	1	1449562801947551891	31.039148	29.970081	29.972186	1.000000	1.000000	1.000000	0.802574	0.786573	0.787780	33364266	33366606	32420003	4.137091
160	1	1449562801980926616	31.032224	29.969866	29.962794	1.000000	1.000000	1.000000	0.802479	0.786161	0.787780	33374725	33366845	32425970	4.163383
161	1	1449562802014287465	31.025471	29.969938	29.975256	1.000000	1.000000	1.000000	0.802385	0.785844	0.787780	33360849	33366765	32431777	4.189664
162	1	1449562802047654564	31.018767	29.970148	29.969642	1.000000	1.000000	1.000000	0.802292	0.785716	0.787780	33367099	33366533	32437551	4.215950
163	1	1449562802081024372	31.012131	29.970078	29.967209	1.000000	1.000000	1.000000	0.802230	0.785744	0.792452	33369808	33366609	32443270	4.242394
164	1	1449562802114386388	31.005624	29.970049	29.974208	1.000000	1.000000	1.000000	0.802178	0.785933	0.794010	33362016	33366643	32448872	4.268884
165	1	1449562802147752863	30.999173	29.970093	29.970202	1.000000	1.000000	1.000000	0.802125	0.786116	0.793572	33366475	33366593	32454433	4.295363
166	1	1449562802181131962	30.992728	29.969786	29.958867	1.000000	1.000000	1.000000	0.802066	0.786270	0.792695	33379099	33366935	32460004	4.321822
167	1	1449562802214486436	30.986504	29.970009	29.980985	1.000000	1.000000	1.000000	0.802009	0.786424	0.792695	33354474	33366686	32465360	4.348262
168	1	1449562802247855452	30.980273	29.969978	29.967920	1.000000	1.000000	1.000000	0.801952	0.786578	0.792695	33369016	33366721	32470739	4.374713
169	1	1449562802281221385	30.974136	29.970015	29.970689	1.000000	1.000000	1.000000	0.801895	0.786752	0.792695	33365933	33366680	32476036	4.401162
170	1	1449562802314582026	30.968102	29.970158	29.975443	1.000000	1.000000	1.000000	0.801840	0.786954	0.792695	33360641	33366520	32481239	4.427607
171	1	1449562802347955251	30.962071	29.969612	29.964140	1.000000	1.000000	1.000000	0.801829	0.787405	0.800132	33373225	33367127	32486456	4.454310
172	1	1449562802381321225	30.956152	29.970051	29.970652	1.000000	1.000000	1.000000	0.801828	0.787988	0.801620	33365974	33366640	32491569	4.481057
173	1	1449562802414683491	30.950323	29.970121	29.973983	1.000000	1.000000	1.000000	0.801812	0.788487	0.799089	33362266	33366561	32496602	4.507716
174	1	1449562802448052882	30.944524	29.970026	29.967583	1.000000	1.000000	1.000000	0.801775	0.788869	0.795545	33369391	33366670	32501618	4.534263
175	1	1449562802481421815	30.938796	29.970028	29.967994	1.000000	1.000000	1.000000	0.801738	0.789251	0.795545	33368933	33366667	32506574	4.560810
176	1	1449562802514786331	30.933159	29.969997	29.971962	1.000000	1.000000	1.000000	0.801702	0.789632	0.795545	33364516	33366699	32511449	4.587353
177	1	1449562802548153056	30.927575	29.970093	29.969978	1.000000	1.000000	1.000000	0.801667	0.790055	0.795545	33366725	33366592	32516281	4.613897
178	1	1449562802581520738	30.922050	29.970081	29.969118	1.000000	1.000000	1.000000	0.801631	0.790520	0.795545	33367682	33366606	32521064	4.640443
179	1	1449562802614887838	30.916592	29.969938	29.969641	1.000000	1.000000	1.000000	0.801615	0.791086	0.798785	33367100	33366766	32525790	4.667096
180	1	1449562802648253937	30.911201	29.970049	29.970540	1.000000	1.000000	1.000000	0.801601	0.791587	0.799080	33366099	33366643	32530459	4.693758
181	1	1449562802681620870	30.905867	29.970110	29.969791	1.000000	1.000000	1.000000	0.801590	0.792110	0.799714	33366933	33366577	32535080	4.720442
182	1	1449562802714987553	30.900594	29.970011	29.970015	1.000000	1.000000	1.000000	0.801583	0.792656	0.800402	33366683	33366686	32539649	4.747149
183	1	1449562802748353610	30.895383	29.970024	29.970578	1.000000	1.000000	1.000000	0.801577	0.793201	0.800402	33366057	33366672	32544165	4.773855
184	1	1449562802781723085	30.890213	29.970121	29.967508	1.000000	1.000000	1.000000	0.801570	0.793747	0.800402	33369475	33366561	32548651	4.800564
185	1	1449562802815087142	30.885129	29.970058	29.972374	1.000000	1.000000	1.000000	0.801564	0.794292	0.800402	33364057	33366632	32553058	4.827269
186	1	1449562802848441950	30.880147	29.970322	29.980685	1.000000	1.000000	1.000000	0.801557	0.794838	0.800402	33354808	33366340	32557369	4.853966
187	1	1449562802881821841	30.875093	29.970041	29.958157	1.000000	1.000000	1.000000	0.801484	0.794957	0.788138	33379891	33366652	32561767	4.880274
188	1	1449562802915187441	30.870165	29.970036	29.970988	1.000000	1.000000	1.000000	0.801411	0.794969	0.788138	33365600	33366659	32566043	4.906571
189	1	1449562802948555165	30.865281	29.969933	29.969080	1.000000	1.000000	1.000000	0.801347	0.795031	0.789663	33367724	33366774	32570285	4.932920
190	1	1449562802981921556	30.860456	29.970182	29.970278	1.000000	1.000000	1.000000	0.801290	0.795130	0.790752	33366391	33366497	32574475	4.959305
191	1	1449562803015287697	30.855684	29.970024	29.970502	1.000000	1.000000	1.000000	0.801234	0.795229	0.790752	33366141	33366673	32578620	4.985689
192	1	1449562803048644547	30.851009	29.970331	29.978850	1.000000	1.000000	1.000000	0.801178	0.795329	0.790752	33356850	33366332	32582673	5.012066
193	1	1449562803082021271	30.846285	29.970121	29.960999	1.000000	1.000000	1.000000	0.801122	0.795272	0.790752	33376724	33366563	32586787	5.038459
194	1	1449562803115383996	30.841680	29.970102	29.973571	1.000000	1.000000	1.000000	0.801065	0.795145	0.790201	33362725	33366586	32590787	5.064822
195	1	1449562803148753470	30.837091	29.970013	29.967509	1.000000	1.000000	1.000000	0.800976	0.794830	0.784135	33369474	33366686	32594780	5.090988
196	1	1449562803182121944	30.832554	29.970331	29.968407	1.000000	1.000000	1.000000	0.800888	0.794545	0.784135	33368474	33366332	32598727	5.117154
197	1	1449562803215487544	30.828078	29.969995	29.970988	1.000000	1.000000	1.000000	0.800813	0.794337	0.786442	33365600	33366703	32602620	5.143394
198	1	1449562803248855268	30.823639	29.970036	29.969080	1.000000	1.000000	1.000000	0.800745	0.794167	0.787596	33367724	33366660	32606484	5.169674
199	1	1449562803282219826	30.819260	29.970078	29.971924	1.000000	1.000000	1.000000	0.800677	0.793997	0.787596	33364558	33366614	32610294	5.195952
200	1	1449562803315585342	30.814921	29.969931	29.971064	1.000000	1.000000	1.000000	0.800610	0.793827	0.787596	33365516	33366776	32614070	5.222230
201	1	1449562803348955650	30.810604	29.970018	29.966760	1.000000	1.000000	1.000000	0.800544	0.793409	0.787596	33370308	33366679	32617832	5.248513
202	1	1449562803382318541	30.806365	29.970110	29.973422	1.000000	1.000000	1.000000	0.800478	0.792942	0.787628	33362891	33366576	32621521	5.274790
203	1	1449562803415722890	30.801976	29.968851	29.936222	1.000000	1.000000	1.000000	0.800414	0.792565	0.787787	33404349	33367979	32625377	5.301106
204	1	1449562803449058781	30.797948	29.969852	29.997698	1.000000	1.000000	1.000000	0.800351	0.792307	0.787787	33335891	33366862	32628860	5.327367
205	1	1449562803482421381	30.793838	29.970043	29.973683	1.000000	1.000000	1.000000	0.800265	0.791895	0.783177	33362600	33366651	32632439	5.353496
206	1	1449562803515790064	30.789740	29.969917	29.968219	1.000000	1.000000	1.000000	0.800173	0.791430	0.781605	33368683	33366790	32636013	5.379577
207	1	1449562803549152996	30.785709	29.970032	29.973385	1.000000	1.000000	1.000000	0.800081	0.790965	0.781605	33362932	33366663	32639525	5.405654
208	1	1449562803582517096	30.781712	29.970139	29.972336	1.000000	1.000000	1.000000	0.799990	0.790501	0.781605	33364100	33366543	32643008	5.431731
209	1	1449562803615888029	30.777723	29.970024	29.966198	1.000000	1.000000	1.000000	0.799900	0.789928	0.781605	33370933	33366671	32646491	5.457814
210	1	1449562803649250003	30.773814	29.970148	29.974246	1.000000	1.000000	1.000000	0.799815	0.789371	0.782371	33361974	33366533	32649898	5.483916
211	1	1449562803682619727	30.769908	29.970064	29.967284	1.000000	1.000000	1.000000	0.799738	0.788844	0.783904	33369724	33366626	32653310	5.510074
212	1	1449562803715984077	30.766063	29.970135	29.972111	1.000000	1.000000	1.000000	0.799662	0.788294	0.783904	33364350	33366549	32656664	5.536229
213	1	1449562803749352385	30.762237	29.970066	29.968556	1.000000	1.000000	1.000000	0.799582	0.787713	0.782959	33368308	33366624	32660005	5.562355
214	1	1449562803782718984	30.758456	29.970152	29.970091	1.000000	1.000000	1.000000	0.799502	0.787128	0.782873	33366599	33366528	32663307	5.588477
215	1	1449562803816087875	30.754701	29.970007	29.968032	1.000000	1.000000	1.000000	0.799423	0.786544	0.782873	33368891	33366689	32666588	5.614600
216	1	1449562803849450599	30.751008	29.969772	29.973572	1.000000	1.000000	1.000000	0.799345	0.785960	0.782873	33362724	33366953	32669811	5.640719
217	1	1449562803882823616	30.747305	29.969976	29.964327	1.000000	1.000000	1.000000	0.799267	0.785784	0.782873	33373017	33366723	32673052	5.666846
218	1	1449562803916182340	30.743698	29.970182	29.977166	1.000000	1.000000	1.000000	0.799210	0.785750	0.787091	33358724	33366494	32676197	5.693102
219	1	1449562803949552939	30.740074	29.970097	29.966498	1.000000	1.000000	1.000000	0.799193	0.785945	0.795526	33370599	33366590	32679368	5.719649
220	1	1449562803982917539	30.736510	29.970150	29.971886	1.000000	1.000000	1.000000	0.799176	0.786104	0.795526	33364600	33366530	32682483	5.746192
221	1	1449562804016289430	30.732947	29.969978	29.965338	1.000000	1.000000	1.000000	0.799194	0.786517	0.803148	33371891	33366722	32685602	5.772994
222	1	1449562804049652571	30.729454	29.969790	29.973197	1.000000	1.000000	1.000000	0.799216	0.786955	0.803870	33363141	33366931	32688654	5.799814
223	1	1449562804083017670	30.725985	29.970139	29.971438	1.000000	1.000000	1.000000	0.799237	0.787392	0.803870	33365099	33366543	32691687	5.826635
224	1	1449562804116389103	30.722521	29.969877	29.965749	1.000000	1.000000	1.000000	0.799258	0.787848	0.803870	33371433	33366834	32694722	5.853461
225	1	1449562804149757578	30.719100	29.969906	29.968406	1.000000	1.000000	1.000000	0.799279	0.788506	0.803870	33368475	33366801	32697716	5.880285
226	1	1449562804183115594	30.715754	29.970221	29.977802	1.000000	1.000000	1.000000	0.799310	0.789235	0.806033	33358016	33366452	32700638	5.907173
227	1	1449562804216486027	30.712387	29.970076	29.966647	1.000000	1.000000	1.000000	0.799353	0.789989	0.809061	33370433	33366613	32703589	5.934172
228	1	1449562804249853543	30.709062	29.970081	29.969267	1.000000	1.000000	1.000000	0.799397	0.790705	0.809061	33367516	33366606	32706501	5.961168
229	1	1449562804283215725	30.705788	29.970152	29.974059	1.000000	1.000000	1.000000	0.799435	0.791386	0.808030	33362182	33366527	32709364	5.988126
230	1	1449562804316587950	30.702502	29.969952	29.965038	1.000000	1.000000	1.000000	0.799473	0.792067	0.808030	33372225	33366751	32712246	6.015092
231	1	1449562804349952299	30.699278	29.970131	29.972112	1.000000	1.000000	1.000000	0.799511	0.792748	0.808030	33364349	33366552	32715069	6.042051
232	1	1449562804383317399	30.696079	29.970064	29.971437	1.000000	1.000000	1.000000	0.799549	0.793428	0.808030	33365100	33366626	32717871	6.069011
233	1	1449562804416688206	30.692884	29.971069	29.966312	1.000000	1.000000	1.000000	0.799586	0.794103	0.808030	33370807	33365508	32720673	6.095976
234	1	1449562804450049806	30.689755	29.970299	29.974582	1.000000	1.000000	1.000000	0.799625	0.794795	0.808549	33361600	33366365	32723412	6.122950
235	1	1449562804483416697	30.686631	29.970171	29.969828	1.000000	1.000000	1.000000	0.799666	0.795658	0.809069	33366891	33366508	32726150	6.149946
236	1	1449562804516787005	30.683521	29.970121	29.966760	1.000000	1.000000	1.000000	0.799704	0.796554	0.808468	33370308	33366562	32728880	6.176925
237	1	1449562804550149979	30.680467	29.970119	29.973347	1.000000	1.000000	1.000000	0.799713	0.797229	0.801863	33362974	33366564	32731555	6.203678
238	1	1449562804583516870	30.677423	29.970036	29.969828	1.000000	1.000000	1.000000	0.799722	0.797904	0.801863	33366891	33366657	32734225	6.230433
239	1	1449562804616890095	30.674381	29.969967	29.964140	1.000000	1.000000	1.000000	0.799731	0.798579	0.801863	33373225	33366733	32736898	6.257194
240	1	1449562804650250861	30.671413	29.970003	29.975331	1.000000	1.000000	1.000000	0.799741	0.799229	0.801863	33360766	33366693	32739498	6.283945
241	1	1449562804683617335	30.668448	29.970102	29.970203	1.000000	1.000000	1.000000	0.799749	0.799828	0.801863	33366474	33366584	32742099	6.310700
242	1	1449562804716987018	30.665495	29.969942	29.967321	1.000000	1.000000	1.000000	0.799713	0.800066	0.791064	33369683	33366761	32744693	6.337098
243	1	1449562804750351742	30.662587	29.970049	29.971775	1.000000	1.000000	1.000000	0.799654	0.800157	0.785665	33364724	33366642	32747244	6.363311
244	1	1449562804783714967	30.659708	29.970150	29.973122	1.000000	1.000000	1.000000	0.799594	0.800236	0.785260	33363225	33366530	32749769	6.389510
245	1	1449562804817083608	30.656833	29.970158	29.968257	1.000000	1.000000	1.000000	0.799526	0.800248	0.783235	33368641	33366522	32752295	6.415645
246	1	1449562804850450041	30.653989	29.970047	29.970240	1.000000	1.000000	1.000000	0.799458	0.800260	0.783235	33366433	33366646	32754791	6.441779
247	1	1449562804883818432	30.651162	29.970184	29.968481	1.000000	1.000000	1.000000	0.799392	0.800272	0.783235	33368391	33366492	32757275	6.467914
248	1	1449562804917186115	30.648361	29.969917	29.969117	1.000000	1.000000	1.000000	0.799325	0.800144	0.783235	33367683	33366791	32759737	6.494049
249	1	1449562804950551381	30.645592	29.970078	29.971288	1.000000	1.000000	1.000000	0.799259	0.799734	0.783235	33365266	33366613	32762169	6.520182
250	1	1449562804983917313	30.642843	29.970036	29.970690	1.000000	1.000000	1.000000	0.799179	0.799200	0.779497	33365932	33366657	32764584	6.546191
251	1	1449562805017282121	30.640120	29.970247	29.971700	1.000000	1.000000	1.000000	0.799094	0.798370	0.778251	33364808	33366421	32766975	6.572157
252	1	1449562805050648929	30.637412	29.970139	29.969903	1.000000	1.000000	1.000000	0.799021	0.797610	0.781077	33366808	33366543	32769355	6.598219
253	1	1449562805084013903	30.634732	29.970142	29.971550	1.000000	1.000000	1.000000	0.798971	0.797036	0.786649	33364974	33366539	32771710	6.624465
254	1	1449562805117379336	30.632073	29.970322	29.971138	1.000000	1.000000	1.000000	0.798922	0.796462	0.786649	33365433	33366339	32774047	6.650712
255	1	1449562805150753061	30.629404	29.970165	29.963691	1.000000	1.000000	1.000000	0.798873	0.795888	0.786649	33373725	33366514	32776399	6.676966
256	1	1449562805184117202	30.626791	29.969982	29.972299	1.000000	1.000000	1.000000	0.798824	0.795242	0.786649	33364141	33366719	32778695	6.703212
257	1	1449562805217480218	30.624203	29.970203	29.973309	1.000000	1.000000	1.000000	0.798776	0.794495	0.786649	33363016	33366472	32780968	6.729457
258	1	1449562805250851859	30.621605	29.970081	29.965563	1.000000	1.000000	1.000000	0.798728	0.793748	0.786649	33371641	33366610	32783258	6.755708
259	1	1449562805284216292	30.619052	29.970013	29.972036	1.000000	1.000000	1.000000	0.798681	0.793035	0.786649	33364433	33366685	32785502	6.781954
260	1	1449562805317580641	30.616520	29.970247	29.972112	1.000000	1.000000	1.000000	0.798634	0.792322	0.786649	33364349	33366422	32787728	6.808201
261	1	1449562805350949782	30.613991	29.970106	29.967808	1.000000	1.000000	1.000000	0.798587	0.791610	0.786649	33369141	33366582	32789956	6.834450
262	1	1449562805384315215	30.611494	29.970095	29.971138	1.000000	1.000000	1.000000	0.798541	0.790897	0.786649	33365433	33366593	32792152	6.860697
263	1	1449562805417679773	30.609020	29.970282	29.971924	1.000000	1.000000	1.000000	0.798495	0.790184	0.786649	33364558	33366384	32794328	6.886943
264	1	1449562805451046956	30.606556	29.970116	29.969566	1.000000	1.000000	1.000000	0.798449	0.789454	0.786649	33367183	33366570	32796498	6.913192
265	1	1449562805484415930	30.604104	29.970053	29.967958	1.000000	1.000000	1.000000	0.798404	0.788707	0.786649	33368974	33366640	32798659	6.939441
266	1	1449562805517781571	30.601683	29.970192	29.970951	1.000000	1.000000	1.000000	0.798389	0.788246	0.794644	33365641	33366485	32800790	6.965955
267	1	1449562805551148337	30.599276	29.970079	29.969941	1.000000	1.000000	1.000000	0.798378	0.788030	0.795371	33366766	33366611	32802910	6.992494
268	1	1449562805584515645	30.596886	29.970066	29.969454	1.000000	1.000000	1.000000	0.798357	0.787732	0.792941	33367308	33366625	32805016	7.018952
269	1	1449562805617880370	30.594523	29.970322	29.971774	1.000000	1.000000	1.000000	0.798328	0.787354	0.790511	33364725	33366342	32807097	7.045328
270	1	1449562805651249802	30.592161	29.970060	29.967546	1.000000	1.000000	1.000000	0.798298	0.786976	0.790511	33369432	33366631	32809179	7.071706
271	1	1449562805684615318	30.589830	29.970089	29.971064	1.000000	1.000000	1.000000	0.798269	0.786597	0.790511	33365516	33366599	32811232	7.098082
272	1	1449562805717979960	30.587520	29.970242	29.971849	1.000000	1.000000	1.000000	0.798240	0.786579	0.790511	33364642	33366431	32813267	7.124457
273	1	1449562805751348601	30.585213	29.970123	29.968257	1.000000	1.000000	1.000000	0.798211	0.786740	0.790511	33368641	33366562	32815301	7.150836
274	1	1449562805784714575	30.582933	29.970041	29.970652	1.000000	1.000000	1.000000	0.798206	0.787123	0.796741	33365974	33366654	32817311	7.177420
275	1	1449562805818080258	30.580670	29.970129	29.970914	1.000000	1.000000	1.000000	0.798200	0.787573	0.796741	33365683	33366555	32819305	7.204004
276	1	1449562805851446066	30.578424	29.970150	29.970801	1.000000	1.000000	1.000000	0.798190	0.787977	0.795359	33365808	33366534	32821285	7.230541
277	1	1449562805884815082	30.576183	29.970129	29.967920	1.000000	1.000000	1.000000	0.798176	0.788350	0.794418	33369016	33366555	32823262	7.257050
278	1	1449562805918181056	30.573969	29.970182	29.970652	1.000000	1.000000	1.000000	0.798162	0.788723	0.794418	33365974	33366498	32825215	7.283557
279	1	1449562805951545739	30.571776	29.970200	29.971812	1.000000	1.000000	1.000000	0.798149	0.789096	0.794418	33364683	33366479	32827148	7.310062
280	1	1449562805984915713	30.569581	29.970078	29.967060	1.000000	1.000000	1.000000	0.798135	0.789593	0.794418	33369974	33366614	32829087	7.336572
281	1	1449562806018283730	30.567408	29.969982	29.968817	1.000000	1.000000	1.000000	0.798121	0.790126	0.794244	33368017	33366721	32831005	7.363074
282	1	1449562806051648246	30.565262	29.970051	29.971962	1.000000	1.000000	1.000000	0.798104	0.790536	0.793374	33364516	33366645	32832897	7.389545
283	1	1449562806085016178	30.563120	29.969963	29.968893	1.000000	1.000000	1.000000	0.798087	0.790760	0.793374	33367932	33366744	32834787	7.416018
284	1	1449562806118383236	30.560997	29.969913	29.969678	1.000000	1.000000	1.000000	0.798087	0.791144	0.798153	33367058	33366798	32836661	7.442650
285	1	1449562806151741169	30.558919	29.970387	29.977877	1.000000	1.000000	1.000000	0.798095	0.791601	0.800373	33357933	33366272	32838490	7.469349
286	1	1449562806185136602	30.556733	29.969448	29.944214	1.000000	1.000000	1.000000	0.798103	0.792059	0.800373	33395433	33367315	32840438	7.496078
287	1	1449562806218484618	30.554717	29.969898	29.986791	1.000000	1.000000	1.000000	0.798111	0.792516	0.800373	33348016	33366815	32842206	7.522769
288	1	1449562806251854051	30.552645	29.969965	29.967545	1.000000	1.000000	1.000000	0.798119	0.792974	0.800373	33369433	33366741	32844037	7.549477
289	1	1449562806285215150	30.550615	29.970064	29.975032	1.000000	1.000000	1.000000	0.798126	0.793416	0.799924	33361099	33366630	32845826	7.576163
290	1	1449562806318581958	30.548581	29.969992	29.969903	1.000000	1.000000	1.000000	0.798124	0.793784	0.797679	33366808	33366712	32847623	7.602779
291	1	1449562806351952182	30.546550	29.969959	29.966835	1.000000	1.000000	1.000000	0.798123	0.794151	0.797679	33370224	33366748	32849418	7.629398
292	1	1449562806385318824	30.544545	29.969923	29.970052	1.000000	1.000000	1.000000	0.798130	0.794608	0.800348	33366642	33366788	32851190	7.656103
293	1	1449562806418683090	30.542561	29.969931	29.972186	1.000000	1.000000	1.000000	0.798141	0.795094	0.801238	33364266	33366779	32852941	7.682835
294	1	1449562806452052481	30.540575	29.969866	29.967583	1.000000	1.000000	1.000000	0.798152	0.795581	0.801238	33369391	33366853	32854698	7.709572
295	1	1449562806485416747	30.538618	29.970005	29.972186	1.000000	1.000000	1.000000	0.798162	0.796067	0.801238	33364266	33366696	32856425	7.736305
296	1	1449562806518784263	30.536665	29.969950	29.969267	1.000000	1.000000	1.000000	0.798173	0.796287	0.801238	33367516	33366758	32858152	7.763040
297	1	1449562806552149279	30.534733	29.970001	29.971513	1.000000	1.000000	1.000000	0.798176	0.796408	0.799009	33365016	33366700	32859858	7.789699
298	1	1449562806585516795	30.532806	29.969995	29.969267	1.000000	1.000000	1.000000	0.798156	0.796387	0.792323	33367516	33366707	32861562	7.816137
299	1	1449562806618881895	30.530900	29.969984	29.971437	1.000000	1.000000	1.000000	0.798136	0.796448	0.792323	33365100	33366720	32863246	7.842573
300	1	1449562806652251536	30.528993	29.969978	29.967359	1.000000	1.000000	1.000000	0.798099	0.796337	0.787179	33369641	33366727	32864934	7.868841
301	1	1449562806685617760	30.527109	29.969957	29.970428	1.000000	1.000000	1.000000	0.798059	0.796191	0.786150	33366224	33366751	32866599	7.895072
302	1	1449562806718985068	30.525234	29.969877	29.969454	1.000000	1.000000	1.000000	0.798019	0.796046	0.786150	33367308	33366840	32868257	7.921303
303	1	1449562806752352834	30.523371	29.969904	29.969043	1.000000	1.000000	1.000000	0.797979	0.795900	0.786150	33367766	33366810	32869906	7.947535
304	1	1449562806785726725	30.521501	29.969666	29.963542	1.000000	1.000000	1.000000	0.797939	0.795547	0.786150	33373891	33367074	32871564	7.973772
305	1	1449562806819082450	30.519699	29.969965	29.979861	1.000000	1.000000	1.000000	0.797895	0.795141	0.784553	33355725	33366742	32873151	7.999942
306	1	1449562806852451174	30.517870	29.969877	29.968182	1.000000	1.000000	1.000000	0.797840	0.794675	0.781359	33368724	33366839	32874770	8.026015
307	1	1449562806885816899	30.516061	29.969975	29.970876	1.000000	1.000000	1.000000	0.797785	0.794239	0.781359	33365725	33366729	32876370	8.052085
308	1	1449562806919184623	30.514259	29.969923	29.969080	1.000000	1.000000	1.000000	0.797718	0.793669	0.777313	33367724	33366787	32877965	8.078022
309	1	1449562806952548056	30.512481	29.969961	29.972935	1.000000	1.000000	1.000000	0.797650	0.793088	0.776974	33363433	33366745	32879536	8.103945
310	1	1449562806985919614	30.510691	29.969913	29.965637	1.000000	1.000000	1.000000	0.797582	0.792506	0.776974	33371558	33366798	32881123	8.129874
311	1	1449562807019283588	30.508935	29.970034	29.972449	1.000000	1.000000	1.000000	0.797515	0.791930	0.776974	33363974	33366663	32882676	8.155797
312	1	1449562807052651479	30.507179	29.969934	29.968930	1.000000	1.000000	1.000000	0.797448	0.791384	0.776974	33367891	33366776	32884231	8.181723
313	1	1449562807086020454	30.505431	29.969902	29.967957	1.000000	1.000000	1.000000	0.797396	0.790982	0.781335	33368975	33366811	32885780	8.207795
314	1	1449562807119385095	30.503707	29.969975	29.971850	1.000000	1.000000	1.000000	0.797358	0.790567	0.785696	33364641	33366730	32887305	8.234009
315	1	1449562807152746319	30.502004	29.969875	29.974919	1.000000	1.000000	1.000000	0.797322	0.790092	0.786101	33361224	33366839	32888809	8.260235
316	1	1449562807186121419	30.500271	29.970486	29.962457	1.000000	1.000000	1.000000	0.797300	0.789764	0.790556	33375100	33366161	32890348	8.286620
317	1	1449562807219485685	30.498582	29.969997	29.972186	1.000000	1.000000	1.000000	0.797279	0.789437	0.790556	33364266	33366703	32891843	8.312996
318	1	1449562807252851118	30.496899	29.970119	29.971138	1.000000	1.000000	1.000000	0.797257	0.789110	0.790556	33365433	33366570	32893332	8.339373
319	1	1449562807286221092	30.495214	29.969852	29.967060	1.000000	1.000000	1.000000	0.797236	0.788798	0.790556	33369974	33366866	32894827	8.365754
320	1	1449562807319584567	30.493559	29.969952	29.972897	1.000000	1.000000	1.000000	0.797215	0.788560	0.790556	33363475	33366755	32896291	8.392130
321	1	1449562807352950083	30.491908	29.970093	29.971064	1.000000	1.000000	1.000000	0.797212	0.788517	0.796371	33365516	33366598	32897753	8.418701
322	1	1449562807386320307	30.490254	29.969986	29.966835	1.000000	1.000000	1.000000	0.797222	0.788522	0.800524	33370224	33366717	32899220	8.445415
323	1	1449562807419683199	30.488631	29.970028	29.973421	1.000000	1.000000	1.000000	0.797235	0.788519	0.801131	33362892	33366671	32900656	8.472143
324	1	1449562807453049631	30.487009	29.970116	29.970241	1.000000	1.000000	1.000000	0.797256	0.788613	0.804071	33366432	33366572	32902093	8.498972
325	1	1449562807486416439	30.485395	29.970039	29.969903	1.000000	1.000000	1.000000	0.797277	0.788707	0.804062	33366808	33366656	32903523	8.525801
326	1	1449562807519784997	30.483787	29.970007	29.968331	1.000000	1.000000	1.000000	0.797298	0.788802	0.804062	33368558	33366691	32904950	8.552631
327	1	1449562807553152013	30.482193	29.969948	29.969716	1.000000	1.000000	1.000000	0.797319	0.788970	0.804062	33367016	33366757	32906363	8.579460
328	1	1449562807586519363	30.480608	29.969954	29.969416	1.000000	1.000000	1.000000	0.797340	0.789361	0.804062	33367350	33366752	32907768	8.606290
329	1	1449562807619883879	30.479040	29.969971	29.971962	1.000000	1.000000	1.000000	0.797364	0.789780	0.804893	33364516	33366732	32909156	8.633145
330	1	1449562807653248478	30.477482	29.970121	29.971887	1.000000	1.000000	1.000000	0.797388	0.790385	0.805308	33364599	33366564	32910537	8.660013
331	1	1449562807686618286	30.475919	29.970015	29.967209	1.000000	1.000000	1.000000	0.797409	0.790993	0.804397	33369808	33366683	32911924	8.686856
332	1	1449562807719984719	30.474375	29.970039	29.970240	1.000000	1.000000	1.000000	0.797422	0.791510	0.801663	33366433	33366654	32913293	8.713605
333	1	1449562807753349902	30.472844	29.970119	29.971363	1.000000	1.000000	1.000000	0.797435	0.792027	0.801663	33365183	33366568	32914650	8.740352
334	1	1449562807786724626	30.471295	29.970093	29.962795	1.000000	1.000000	1.000000	0.797448	0.792544	0.801663	33374724	33366595	32916028	8.767107
335	1	1449562807820084142	30.469798	29.969978	29.976454	1.000000	1.000000	1.000000	0.797461	0.793114	0.801663	33359516	33366721	32917351	8.793851
336	1	1449562807853453617	30.468283	29.969957	29.967508	1.000000	1.000000	1.000000	0.797474	0.793791	0.801663	33369475	33366746	32918697	8.820602
337	1	1449562807886821133	30.466782	29.969904	29.969267	1.000000	1.000000	1.000000	0.797481	0.794406	0.799794	33367516	33366806	32920029	8.847289
338	1	1449562807920186232	30.465297	29.969982	29.971438	1.000000	1.000000	1.000000	0.797486	0.795134	0.799171	33365099	33366718	32921346	8.873953
339	1	1449562807953549457	30.463826	29.969988	29.973122	1.000000	1.000000	1.000000	0.797488	0.795845	0.798300	33363225	33366711	32922649	8.900587
340	1	1449562807986917348	30.462350	29.970097	29.968930	1.000000	1.000000	1.000000	0.797482	0.796458	0.795342	33367891	33366589	32923959	8.927126
341	1	1449562808020284489	30.460886	29.970003	29.969604	1.000000	1.000000	1.000000	0.797475	0.797070	0.795342	33367141	33366695	32925258	8.953664
342	1	1449562808053656838	30.459416	29.969870	29.964927	1.000000	1.000000	1.000000	0.797469	0.797682	0.795342	33372349	33366843	32926566	8.980207
343	1	1449562808087019521	30.457981	29.970058	29.973609	1.000000	1.000000	1.000000	0.797463	0.798149	0.795342	33362683	33366633	32927837	9.006741
344	1	1449562808120385662	30.456545	29.970013	29.970502	1.000000	1.000000	1.000000	0.797456	0.798470	0.795342	33366141	33366683	32929111	9.033279
345	1	1449562808153748095	30.455128	29.969976	29.973833	1.000000	1.000000	1.000000	0.797423	0.798467	0.785997	33362433	33366724	32930367	9.059502
346	1	1449562808187122236	30.453687	29.970005	29.963318	1.000000	1.000000	1.000000	0.797384	0.798253	0.784128	33374141	33366692	32931650	9.085671
347	1	1449562808220481752	30.452294	29.970148	29.976454	1.000000	1.000000	1.000000	0.797345	0.798042	0.784222	33359516	33366533	32932883	9.111833
348	1	1449562808253851102	30.450883	29.970030	29.967620	1.000000	1.000000	1.000000	0.797308	0.797837	0.784419	33369350	33366663	32934137	9.138008
349	1	1449562808287222993	30.449473	29.969973	29.965338	1.000000	1.000000	1.000000	0.797270	0.797632	0.784419	33371891	33366727	32935391	9.164186
350	1	1449562808320585176	30.448097	29.970013	29.974058	1.000000	1.000000	1.000000	0.797233	0.797428	0.784419	33362183	33366684	32936611	9.190356
351	1	1449562808353948817	30.446726	29.970068	29.972748	1.000000	1.000000	1.000000	0.797196	0.797030	0.784419	33363641	33366622	32937827	9.216527
352	1	1449562808387322208	30.445336	29.969973	29.963991	1.000000	1.000000	1.000000	0.797159	0.796493	0.784419	33373391	33366728	32939065	9.242705
353	1	1449562808420741932	30.443833	29.968271	29.922449	1.000000	1.000000	1.000000	0.797113	0.795821	0.780992	33419724	33368622	32940426	9.268806
354	1	1449562808454049032	30.442633	29.970049	30.023629	1.000000	1.000000	1.000000	0.797066	0.795042	0.780681	33307100	33366644	32941462	9.294808
355	1	1449562808487414298	30.441288	29.970093	29.971288	1.000000	1.000000	1.000000	0.797030	0.794385	0.784348	33365266	33366593	32942656	9.320978
356	1	1449562808520788689	30.439927	29.969919	29.963094	1.000000	1.000000	1.000000	0.797004	0.793848	0.787962	33374391	33366787	32943869	9.347276
357	1	1449562808554147956	30.438614	29.970150	29.976678	1.000000	1.000000	1.000000	0.796978	0.793311	0.787962	33359267	33366529	32945032	9.373562
358	1	1449562808587516888	30.437282	29.970104	29.967995	1.000000	1.000000	1.000000	0.796953	0.792775	0.787962	33368932	33366581	32946216	9.399855
359	1	1449562808620887030	30.435955	29.969934	29.966909	1.000000	1.000000	1.000000	0.796927	0.792210	0.787962	33370142	33366769	32947397	9.426150
360	1	1449562808654250004	30.434654	29.969984	29.973347	1.000000	1.000000	1.000000	0.796902	0.791632	0.787962	33362974	33366715	32948552	9.452438
361	1	1449562808687615187	30.433354	29.970121	29.971363	1.000000	1.000000	1.000000	0.796863	0.790918	0.782978	33365183	33366561	32949706	9.478563
362	1	1449562808720987578	30.432044	29.969944	29.964889	1.000000	1.000000	1.000000	0.796824	0.790295	0.782978	33372391	33366760	32950873	9.504692
363	1	1449562808754348761	30.430769	29.970064	29.974956	1.000000	1.000000	1.000000	0.796780	0.789601	0.780830	33361183	33366627	32952004	9.530742
364	1	1449562808787715902	30.429486	29.970291	29.969604	1.000000	1.000000	1.000000	0.796731	0.788857	0.779342	33367141	33366375	32953144	9.556746
365	1	1449562808821088668	30.428196	29.969894	29.964553	1.000000	1.000000	1.000000	0.796683	0.788113	0.779342	33372766	33366817	32954294	9.582755
366	1	1449562808854453018	30.426934	29.970049	29.972111	1.000000	1.000000	1.000000	0.796635	0.787369	0.779342	33364350	33366647	32955414	9.608757
367	1	1449562808887816534	30.425682	29.970167	29.972860	1.000000	1.000000	1.000000	0.796587	0.786687	0.779342	33363516	33366514	32956526	9.634759
368	1	1449562808921187425	30.424418	29.969995	29.966236	1.000000	1.000000	1.000000	0.796547	0.786117	0.782075	33370891	33366708	32957652	9.660857
369	1	1449562808954548899	30.423184	29.970047	29.974695	1.000000	1.000000	1.000000	0.796545	0.786032	0.795740	33361474	33366650	32958746	9.687404
370	1	1449562808987916249	30.421943	29.970062	29.969416	1.000000	1.000000	1.000000	0.796543	0.786045	0.795740	33367350	33366632	32959851	9.713956
371	1	1449562809021287682	30.420698	29.969934	29.965749	1.000000	1.000000	1.000000	0.796532	0.785949	0.792455	33371433	33366775	32960960	9.740402
372	1	1449562809054649114	30.419484	29.970261	29.974732	1.000000	1.000000	1.000000	0.796516	0.785796	0.790773	33361432	33366411	32962037	9.766783
373	1	1449562809088017922	30.418259	29.970078	29.968107	1.000000	1.000000	1.000000	0.796500	0.785644	0.790773	33368808	33366615	32963127	9.793170
374	1	1449562809121389022	30.417035	29.969931	29.966048	1.000000	1.000000	1.000000	0.796485	0.785492	0.790773	33371100	33366781	32964218	9.819559
375	1	1449562809154751663	30.415839	29.969923	29.973646	1.000000	1.000000	1.000000	0.796470	0.785651	0.790773	33362641	33366788	32965281	9.845941
376	1	1449562809188115679	30.414645	29.970226	29.972411	1.000000	1.000000	1.000000	0.796456	0.785892	0.791346	33364016	33366450	32966341	9.872344
377	1	1449562809221489070	30.413435	29.969810	29.963991	1.000000	1.000000	1.000000	0.796447	0.786187	0.793065	33373391	33366913	32967421	9.898811
378	1	1449562809254849795	30.412262	29.970068	29.975368	1.000000	1.000000	1.000000	0.796438	0.786475	0.793065	33360725	33366626	32968461	9.925268
379	1	1449562809288218603	30.411076	29.970161	29.968107	1.000000	1.000000	1.000000	0.796434	0.786832	0.795144	33368808	33366523	32969518	9.951801
380	1	1449562809321581244	30.409911	29.970148	29.973646	1.000000	1.000000	1.000000	0.796432	0.787205	0.795602	33362641	33366539	32970552	9.978345
381	1	1449562809354949510	30.408739	29.970009	29.968594	1.000000	1.000000	1.000000	0.796430	0.787578	0.795602	33368266	33366693	32971596	10.004892
382	1	1449562809388313943	30.407582	29.970276	29.972036	1.000000	1.000000	1.000000	0.796428	0.787950	0.795602	33364433	33366394	32972624	10.031437
383	1	1449562809421680834	30.406426	29.971859	29.969828	1.000000	1.000000	1.000000	0.796425	0.788438	0.795602	33366891	33364633	32973654	10.057984
384	1	1449562809455046933	30.405277	29.970093	29.970540	1.000000	1.000000	1.000000	0.796424	0.788949	0.796017	33366099	33366600	32974676	10.084544
385	1	1449562809488413033	30.404135	29.970068	29.970539	1.000000	1.000000	1.000000	0.796425	0.789365	0.796848	33366100	33366628	32975692	10.111132
386	1	1449562809521782007	30.402991	29.970230	29.967958	1.000000	1.000000	1.000000	0.796427	0.789661	0.796848	33368974	33366448	32976711	10.137722
387	1	1449562809555150398	30.401855	29.969957	29.968481	1.000000	1.000000	1.000000	0.796442	0.790141	0.802340	33368391	33366752	32977723	10.164495
388	1	1449562809588515998	30.400732	29.970057	29.970988	1.000000	1.000000	1.000000	0.796459	0.790637	0.802839	33365600	33366641	32978723	10.191282
389	1	1449562809621880806	30.399616	29.970215	29.971700	1.000000	1.000000	1.000000	0.796475	0.791133	0.802839	33364808	33366463	32979716	10.218068
390	1	1449562809655250114	30.398495	29.970028	29.967658	1.000000	1.000000	1.000000	0.796492	0.791628	0.802839	33369308	33366674	32980714	10.244858
391	1	1449562809688616838	30.397386	29.969980	29.969978	1.000000	1.000000	1.000000	0.796508	0.792290	0.802839	33366724	33366726	32981702	10.271647
392	1	1449562809721980563	30.396290	29.970242	29.972672	1.000000	1.000000	1.000000	0.796515	0.792831	0.799205	33363725	33366437	32982676	10.298311
393	1	1449562809755349495	30.395188	29.970007	29.967995	1.000000	1.000000	1.000000	0.796509	0.793274	0.794117	33368932	33366695	32983659	10.324810
394	1	1449562809788716970	30.394094	29.969997	29.969304	1.000000	1.000000	1.000000	0.796503	0.793767	0.794117	33367475	33366706	32984633	10.351308
395	1	1449562809822079319	30.393018	29.970308	29.973909	1.000000	1.000000	1.000000	0.796499	0.794294	0.795148	33362349	33366359	32985590	10.377836
396	1	1449562809855450044	30.391929	29.970119	29.966385	1.000000	1.000000	1.000000	0.796496	0.794821	0.795148	33370725	33366571	32986562	10.404370
397	1	1449562809888815477	30.390856	29.970060	29.971138	1.000000	1.000000	1.000000	0.796492	0.795347	0.795148	33365433	33366635	32987516	10.430901
398	1	1449562809922181826	30.389788	29.970198	29.970315	1.000000	1.000000	1.000000	0.796489	0.795783	0.795148	33366349	33366483	32988468	10.457432
399	1	1449562809955549092	30.388722	29.970024	29.969492	1.000000	1.000000	1.000000	0.796486	0.795763	0.795148	33367266	33366676	32989418	10.483964
400	1	1449562809988916525	30.387662	29.970022	29.969342	1.000000	1.000000	1.000000	0.796476	0.795657	0.792560	33367433	33366678	32990363	10.510409
401	1	1449562810022280250	30.386615	29.970253	29.972672	1.000000	1.000000	1.000000	0.796459	0.795575	0.789972	33363725	33366421	32991294	10.536766
402	1	1449562810055648849	30.385563	29.970037	29.968294	1.000000	1.000000	1.000000	0.796443	0.795545	0.789878	33368599	33366660	32992232	10.563123
403	1	1449562810089019115	30.384512	29.969995	29.966797	1.000000	1.000000	1.000000	0.796424	0.795480	0.788841	33370266	33366709	32993170	10.589447
404	1	1449562810122383631	30.383479	29.970192	29.971962	1.000000	1.000000	1.000000	0.796405	0.795416	0.788841	33364516	33366489	32994090	10.615766
405	1	1449562810155750773	30.382446	29.970058	29.969603	1.000000	1.000000	1.000000	0.796386	0.795352	0.788841	33367142	33366639	32995011	10.642087
406	1	1449562810189119955	30.381413	29.969902	29.967771	1.000000	1.000000	1.000000	0.796367	0.795268	0.788841	33369182	33366812	32995932	10.668410
407	1	1449562810222495638	30.380370	29.969833	29.961934	1.000000	1.000000	1.000000	0.796348	0.795127	0.788841	33375683	33366888	32996865	10.694739
408	1	1449562810255854363	30.379371	29.969894	29.977165	1.000000	1.000000	1.000000	0.796330	0.794990	0.788953	33358725	33366821	32997752	10.721057
409	1	1449562810289218962	30.378364	29.970020	29.971887	1.000000	1.000000	1.000000	0.796312	0.794787	0.789033	33364599	33366681	32998649	10.747383
410	1	1449562810322585687	30.377357	29.969898	29.969978	1.000000	1.000000	1.000000	0.796292	0.794539	0.788183	33366725	33366817	32999547	10.773682
411	1	1449562810355953786	30.376352	29.969902	29.968743	1.000000	1.000000	1.000000	0.796254	0.794046	0.780807	33368099	33366811	33000444	10.799736
412	1	1449562810389319344	30.375357	29.969870	29.971026	1.000000	1.000000	1.000000	0.796216	0.793552	0.780789	33365558	33366849	33001330	10.825787
413	1	1449562810422692110	30.374351	29.969692	29.964553	1.000000	1.000000	1.000000	0.796178	0.793058	0.780789	33372766	33367045	33002229	10.851844
414	1	1449562810456048293	30.373387	29.969990	29.979449	1.000000	1.000000	1.000000	0.796141	0.792551	0.780789	33356183	33366714	33003084	10.877889
415	1	1449562810489416684	30.372400	29.969921	29.968481	1.000000	1.000000	1.000000	0.796103	0.792016	0.780789	33368391	33366790	33003964	10.903942
416	1	1449562810522790742	30.371406	29.969769	29.963393	1.000000	1.000000	1.000000	0.796066	0.791480	0.780789	33374058	33366959	33004854	10.930000
417	1	1449562810556149842	30.370450	29.970047	29.976828	1.000000	1.000000	1.000000	0.796029	0.790762	0.780789	33359100	33366650	33005704	10.956047
418	1	1449562810589526399	30.369460	29.969719	29.961149	1.000000	1.000000	1.000000	0.795993	0.790044	0.781304	33376557	33367015	33006591	10.982124
419	1	1449562810622892041	30.368498	29.969692	29.970950	1.000000	1.000000	1.000000	0.795962	0.789381	0.782949	33365642	33367043	33007448	11.008248
420	1	1449562810656251390	30.367555	29.969992	29.976604	1.000000	1.000000	1.000000	0.795930	0.788718	0.782958	33359349	33366711	33008286	11.034367
421	1	1449562810689618823	30.366599	29.969971	29.969342	1.000000	1.000000	1.000000	0.795899	0.788056	0.782958	33367433	33366734	33009139	11.060492
422	1	1449562810722993714	30.365631	29.969635	29.962645	1.000000	1.000000	1.000000	0.795868	0.787514	0.782958	33374891	33367106	33010005	11.086623
423	1	1449562810756354647	30.364699	29.969875	29.975181	1.000000	1.000000	1.000000	0.795837	0.787142	0.782958	33360933	33366840	33010835	11.112743
424	1	1449562810789716288	30.363769	29.970051	29.974545	1.000000	1.000000	1.000000	0.795822	0.786988	0.789499	33361641	33366645	33011662	11.139082
425	1	1449562810823088096	30.362821	29.969767	29.965413	1.000000	1.000000	1.000000	0.795813	0.786873	0.791680	33371808	33366960	33012510	11.165502
426	1	1449562810856453945	30.361891	29.969913	29.970764	1.000000	1.000000	1.000000	0.795807	0.786823	0.793669	33365849	33366797	33013339	11.191984
427	1	1449562810889819420	30.360966	29.969912	29.971100	1.000000	1.000000	1.000000	0.795812	0.786904	0.797566	33365475	33366798	33014164	11.218595
428	1	1449562810923186061	30.360043	29.969904	29.970053	1.000000	1.000000	1.000000	0.795816	0.786985	0.797566	33366641	33366808	33014987	11.245207
429	1	1449562810956551286	30.359127	29.969965	29.971325	1.000000	1.000000	1.000000	0.795820	0.787065	0.797566	33365225	33366740	33015804	11.271818
430	1	1449562810989914302	30.358221	29.970097	29.973309	1.000000	1.000000	1.000000	0.795824	0.787232	0.797566	33363016	33366593	33016611	11.298427
431	1	1449562811023286193	30.357299	29.969852	29.965338	1.000000	1.000000	1.000000	0.795828	0.787485	0.797566	33371891	33366865	33017436	11.325043
432	1	1449562811056656084	30.356386	29.969812	29.967134	1.000000	1.000000	1.000000	0.795815	0.787499	0.790298	33369891	33366908	33018251	11.351415
433	1	1449562811090023600	30.355483	29.969896	29.969267	1.000000	1.000000	1.000000	0.795799	0.787499	0.788844	33367516	33366816	33019058	11.377737
434	1	1449562811123384408	30.354598	29.970007	29.975293	1.000000	1.000000	1.000000	0.795782	0.787486	0.788449	33360808	33366692	33019845	11.404040
435	1	1449562811156756341	30.353693	29.969864	29.965300	1.000000	1.000000	1.000000	0.795763	0.787455	0.787895	33371933	33366851	33020655	11.430334
436	1	1449562811190116732	30.352818	29.970125	29.975668	1.000000	1.000000	1.000000	0.795745	0.787423	0.787895	33360391	33366558	33021434	11.456618
437	1	1449562811223484915	30.351929	29.970350	29.968668	1.000000	1.000000	1.000000	0.795727	0.787392	0.787895	33368183	33366308	33022228	11.482909
438	1	1449562811256853681	30.351044	29.970051	29.968144	1.000000	1.000000	1.000000	0.795709	0.787356	0.787895	33368766	33366643	33023019	11.509200
439	1	1449562811290219822	30.350168	29.970003	29.970502	1.000000	1.000000	1.000000	0.795691	0.787318	0.787895	33366141	33366694	33023800	11.535489
440	1	1449562811323585505	30.349297	29.970036	29.970914	1.000000	1.000000	1.000000	0.795705	0.787766	0.801601	33365683	33366659	33024577	11.562235
441	1	1449562811356952480	30.348428	29.970068	29.969753	1.000000	1.000000	1.000000	0.795721	0.788500	0.802847	33366975	33366622	33025354	11.589024
442	1	1449562811390317704	30.347566	29.970079	29.971326	1.000000	1.000000	1.000000	0.795729	0.789117	0.799294	33365224	33366611	33026123	11.615692
443	1	1449562811423685387	30.346703	29.970232	29.969117	1.000000	1.000000	1.000000	0.795729	0.789616	0.795741	33367683	33366442	33026894	11.642244
444	1	1449562811457049862	30.345850	29.969984	29.971999	1.000000	1.000000	1.000000	0.795729	0.790114	0.795741	33364475	33366719	33027654	11.668794
445	1	1449562811490415044	30.345000	29.970079	29.971364	1.000000	1.000000	1.000000	0.795729	0.790612	0.795741	33365182	33366612	33028412	11.695344
446	1	1449562811523784394	30.344145	29.970219	29.967620	1.000000	1.000000	1.000000	0.795729	0.791111	0.795741	33369350	33366455	33029177	11.721897
447	1	1449562811557153910	30.343294	29.969908	29.967471	1.000000	1.000000	1.000000	0.795729	0.791606	0.795637	33369516	33366802	33029938	11.748447
448	1	1449562811590517551	30.342458	29.970295	29.972748	1.000000	1.000000	1.000000	0.795726	0.792045	0.794495	33363641	33366372	33030683	11.774955
449	1	1449562811623886359	30.341616	29.970200	29.968107	1.000000	1.000000	1.000000	0.795723	0.792430	0.794495	33368808	33366477	33031436	11.801466
450	1	1449562811657253625	30.340781	29.969963	29.969492	1.000000	1.000000	1.000000	0.795722	0.792837	0.795161	33367266	33366741	33032183	11.827998
451	1	1449562811690617642	30.339956	29.970064	29.972410	1.000000	1.000000	1.000000	0.795721	0.793250	0.795342	33364017	33366627	33032918	11.854534
452	1	1449562811723985324	30.339127	29.970282	29.969118	1.000000	1.000000	1.000000	0.795720	0.793663	0.795342	33367682	33366387	33033659	11.881073
453	1	1449562811757355341	30.338297	29.970009	29.967021	1.000000	1.000000	1.000000	0.795720	0.794075	0.795342	33370017	33366689	33034401	11.907613
454	1	1449562811790721607	30.337479	29.969872	29.970390	1.000000	1.000000	1.000000	0.795719	0.794270	0.795342	33366266	33366843	33035132	11.934151
455	1	1449562811824084873	30.336670	29.970125	29.973085	1.000000	1.000000	1.000000	0.795712	0.794303	0.792674	33363266	33366558	33035854	11.960597
456	1	1449562811857449431	30.335862	29.970165	29.971924	1.000000	1.000000	1.000000	0.795676	0.793826	0.779334	33364558	33366515	33036574	11.986599
457	1	1449562811890821447	30.335043	29.969969	29.965226	1.000000	1.000000	1.000000	0.795640	0.793218	0.779334	33372016	33366733	33037308	12.012607
458	1	1449562811924185130	30.334244	29.970058	29.972710	1.000000	1.000000	1.000000	0.795610	0.792701	0.782068	33363683	33366634	33038021	12.038700
459	1	1449562811957549146	30.333448	29.970093	29.972411	1.000000	1.000000	1.000000	0.795582	0.792215	0.782979	33364016	33366593	33038731	12.064823
460	1	1449562811990918037	30.332646	29.969917	29.968032	1.000000	1.000000	1.000000	0.795554	0.791729	0.782979	33368891	33366789	33039449	12.090950
461	1	1449562812024286012	30.331849	29.970036	29.968855	1.000000	1.000000	1.000000	0.795527	0.791242	0.782979	33367975	33366658	33040162	12.117077
462	1	1449562812057650695	30.331062	29.970190	29.971812	1.000000	1.000000	1.000000	0.795499	0.790999	0.782979	33364683	33366485	33040864	12.143201
463	1	1449562812091028086	30.330253	29.969896	29.960400	1.000000	1.000000	1.000000	0.795473	0.790824	0.783603	33377391	33366814	33041591	12.169355
464	1	1449562812124384769	30.329489	29.970020	29.979000	1.000000	1.000000	1.000000	0.795452	0.790725	0.785473	33356683	33366677	33042270	12.195556
465	1	1449562812157748910	30.328713	29.970253	29.972299	1.000000	1.000000	1.000000	0.795430	0.790644	0.785473	33364141	33366418	33042962	12.221763
466	1	1449562812191124259	30.327919	29.969805	29.962234	1.000000	1.000000	1.000000	0.795413	0.790633	0.787583	33375349	33366916	33043675	12.248048
467	1	1449562812224489359	30.327148	29.969898	29.971437	1.000000	1.000000	1.000000	0.795397	0.790637	0.788005	33365100	33366814	33044364	12.274340
468	1	1449562812257849750	30.326390	29.970148	29.975668	1.000000	1.000000	1.000000	0.795381	0.790641	0.788005	33360391	33366535	33045039	12.300629
469	1	1449562812291227266	30.325601	29.969809	29.960288	1.000000	1.000000	1.000000	0.795365	0.790644	0.788005	33377516	33366914	33045748	12.326930
470	1	1449562812324588491	30.324848	29.969940	29.974918	1.000000	1.000000	1.000000	0.795349	0.790191	0.788005	33361225	33366765	33046419	12.353219
471	1	1449562812357951340	30.324095	29.970064	29.973459	1.000000	1.000000	1.000000	0.795334	0.789708	0.788356	33362849	33366627	33047091	12.379521
472	1	1449562812391324190	30.323326	29.969837	29.964477	1.000000	1.000000	1.000000	0.795321	0.789367	0.789059	33372850	33366881	33047781	12.405854
473	1	1449562812424719747	30.322515	29.969002	29.944103	1.000000	1.000000	1.000000	0.795307	0.789144	0.789059	33395557	33367810	33048516	12.432205
474	1	1449562812458054264	30.321827	29.969898	29.998935	1.000000	1.000000	1.000000	0.795287	0.788811	0.785723	33334517	33366811	33049120	12.458397
475	1	1449562812491422280	30.321077	29.969812	29.968818	1.000000	1.000000	1.000000	0.795266	0.788467	0.785420	33368016	33366906	33049791	12.484605
476	1	1449562812524788463	30.320333	29.969908	29.970464	1.000000	1.000000	1.000000	0.795245	0.788122	0.785420	33366183	33366801	33050456	12.510811
477	1	1449562812558154937	30.319592	29.969999	29.970203	1.000000	1.000000	1.000000	0.795224	0.787782	0.785420	33366474	33366699	33051118	12.537018
478	1	1449562812591523120	30.318851	29.969864	29.968668	1.000000	1.000000	1.000000	0.795204	0.787479	0.785420	33368183	33366850	33051782	12.563226
479	1	1449562812624895845	30.318104	29.969748	29.964589	1.000000	1.000000	1.000000	0.795193	0.787333	0.790092	33372725	33366981	33052452	12.589593
480	1	1449562812658251903	30.317392	29.970081	29.979562	1.000000	1.000000	1.000000	0.795196	0.787382	0.796634	33356058	33366607	33053084	12.616166
481	1	1449562812691617044	30.316666	29.970049	29.971400	1.000000	1.000000	1.000000	0.795199	0.787425	0.796634	33365141	33366645	33053733	12.642746
482	1	1449562812724992810	30.315923	29.969807	29.961859	1.000000	1.000000	1.000000	0.795197	0.787386	0.794176	33375766	33366914	33054401	12.669252
483	1	1449562812758352076	30.315214	29.970127	29.976679	1.000000	1.000000	1.000000	0.795195	0.787348	0.794203	33359266	33366556	33055032	12.695746
484	1	1449562812791717759	30.314496	29.970146	29.970914	1.000000	1.000000	1.000000	0.795193	0.787310	0.794203	33365683	33366537	33055674	12.722245
485	1	1449562812825088317	30.313772	29.969927	29.966535	1.000000	1.000000	1.000000	0.795191	0.787361	0.794203	33370558	33366780	33056323	12.748748
486	1	1449562812858450000	30.313067	29.970013	29.974507	1.000000	1.000000	1.000000	0.795189	0.787856	0.794203	33361683	33366685	33056952	12.775244
487	1	1449562812891817516	30.312355	29.970148	29.969267	1.000000	1.000000	1.000000	0.795197	0.788522	0.799291	33367516	33366535	33057589	12.801914
488	1	1449562812925187282	30.311641	29.969965	29.967246	1.000000	1.000000	1.000000	0.795213	0.789217	0.802925	33369766	33366738	33058229	12.828708
489	1	1449562812958548715	30.310946	29.970043	29.974732	1.000000	1.000000	1.000000	0.795230	0.789899	0.803431	33361433	33366652	33058849	12.855511
490	1	1449562812991919606	30.310235	29.969984	29.966236	1.000000	1.000000	1.000000	0.795258	0.790763	0.808911	33370891	33366719	33059486	12.882506
491	1	1449562813025283789	30.309541	29.970097	29.972261	1.000000	1.000000	1.000000	0.795286	0.791627	0.808893	33364183	33366593	33060106	12.909494
492	1	1449562813058651847	30.308842	29.969995	29.968780	1.000000	1.000000	1.000000	0.795314	0.792491	0.808893	33368058	33366705	33060732	12.936485
493	1	1449562813092017488	30.308150	29.970346	29.970951	1.000000	1.000000	1.000000	0.795342	0.793334	0.808893	33365641	33366314	33061351	12.963474
494	1	1449562813125384254	30.307459	29.970045	29.969941	1.000000	1.000000	1.000000	0.795370	0.794114	0.808893	33366766	33366650	33061969	12.990464
495	1	1449562813158750979	30.306771	29.969967	29.969978	1.000000	1.000000	1.000000	0.795392	0.794812	0.806401	33366725	33366736	33062585	13.017371
496	1	1449562813192117995	30.306085	29.970217	29.969716	1.000000	1.000000	1.000000	0.795412	0.795398	0.805155	33367016	33366458	33063199	13.044237
497	1	1449562813225480386	30.305411	29.970299	29.973871	1.000000	1.000000	1.000000	0.795432	0.795981	0.805505	33362391	33366367	33063801	13.071110
498	1	1449562813258845194	30.304735	29.970167	29.971700	1.000000	1.000000	1.000000	0.795455	0.796599	0.806554	33364808	33366514	33064405	13.098021
499	1	1449562813292211294	30.304059	29.970509	29.970539	1.000000	1.000000	1.000000	0.795477	0.797218	0.806554	33366100	33366134	33065010	13.124932
500	1	1449562813293337662	30.362594	30.967768	887.809313	1.000000	1.000000	1.000000	0.795478	0.797546	0.806554	1126368	32291639	33001132	13.125841
