0.4, 0.2, 2.6, 0.0, 99.8, 100.0, 100.0, 100.0; 61.47; 2812.19; 2.88; [4, 5, 6, 7]
94.4, 94.8, 97.1, 97.1, 0.0, 0.0, 0.0, 0.0; 66.90; 3060.47; 2.94; [0, 1, 2, 3]
0.0, 0.0, 0.0, 0.0, 100.0, 100.0, 0.0, 0.0; 78.08; 3572.17; 2.17; [4, 5]
0.2, 0.0, 0.0, 0.0, 99.2, 100.0, 0.0, 0.0; 88.82; 4063.55; 2.07; [4, 5]
0.0, 0.0, 0.0, 0.0, 100.0, 0.0, 0.0, 0.0; 100.03; 4576.26; 1.97; [4]
0.6, 0.0, 0.0, 0.0, 98.9, 98.7, 98.5, 100.0; 101.57; 4646.72; 1.96; [4, 5, 6, 7]
0.4, 0.0, 0.0, 0.0, 98.2, 96.8, 98.2, 96.4; 97.03; 4439.30; 2.11; [4, 5, 6, 7]
99.1, 99.8, 87.9, 0.2, 0.0, 0.0, 0.0, 0.0; 92.65; 4238.84; 2.13; [0, 1, 2]
90.0, 100.0, 0.2, 0.4, 0.0, 0.0, 0.0, 0.0; 94.02; 4301.64; 2.02; [0, 1]
0.0, 0.0, 0.0, 0.0, 100.0, 99.2, 0.0, 0.0; 97.26; 4449.49; 1.94; [4, 5]
0.5, 0.2, 0.0, 0.0, 99.5, 100.0, 87.7, 0.0; 98.16; 4490.79; 1.96; [4, 5, 6]
99.1, 76.8, 100.0, 80.6, 0.0, 0.0, 0.0, 0.0; 97.53; 4461.83; 1.96; [0, 1, 2, 3]
0.4, 0.2, 0.0, 0.0, 96.0, 98.1, 95.5, 97.2; 95.49; 4368.75; 1.97; [4, 5, 6, 7]
100.0, 84.6, 95.5, 0.2, 0.0, 0.0, 0.0, 0.0; 93.21; 4264.44; 1.98; [0, 1, 2]
99.8, 98.9, 0.2, 0.8, 0.0, 0.0, 0.0, 0.0; 93.80; 4291.48; 1.93; [0, 1]
0.0, 0.2, 0.0, 0.0, 100.0, 99.4, 0.0, 0.0; 95.85; 4385.29; 1.88; [4, 5]
0.0, 0.0, 0.0, 0.0, 100.0, 100.0, 89.8, 0.0; 96.51; 4415.18; 1.89; [4, 5, 6]
96.1, 81.8, 100.0, 82.0, 0.0, 0.0, 0.0, 0.0; 96.15; 4399.00; 1.90; [0, 1, 2, 3]
0.6, 0.0, 0.0, 0.0, 95.8, 96.4, 97.5, 98.1; 94.82; 4337.99; 1.91; [4, 5, 6, 7]
99.8, 100.0, 89.7, 0.0, 0.0, 0.0, 0.0, 0.0; 93.10; 4259.33; 1.92; [0, 1, 2]
80.3, 99.8, 0.4, 0.4, 0.0, 0.2, 0.0, 0.0; 93.78; 4290.59; 1.88; [0, 1]
0.4, 0.0, 0.0, 0.0, 100.0, 98.7, 0.0, 0.0; 95.29; 4359.64; 1.85; [4, 5]
0.9, 0.0, 0.0, 0.0, 86.5, 100.0, 98.1, 0.0; 95.85; 4385.35; 1.86; [4, 5, 6]
96.6, 100.0, 81.4, 80.9, 0.0, 0.0, 0.0, 0.0; 95.60; 4373.85; 1.87; [0, 1, 2, 3]
0.4, 0.0, 0.0, 0.0, 96.2, 96.6, 98.1, 97.7; 94.61; 4328.53; 1.88; [4, 5, 6, 7]
97.4, 99.8, 84.2, 0.4, 0.0, 0.0, 0.0, 0.0; 94.33; 4315.59; 1.86; [0, 1, 2]
100.0, 94.9, 0.4, 0.0, 0.0, 0.0, 0.0, 0.0; 95.56; 4371.80; 1.81; [0, 1]
0.0, 0.0, 0.0, 0.0, 99.4, 100.0, 0.0, 0.0; 97.71; 4470.22; 1.80; [4, 5]
0.5, 0.5, 0.0, 0.0, 99.8, 100.0, 91.9, 0.0; 97.64; 4467.11; 1.81; [4, 5, 6]
100.0, 93.8, 80.2, 81.7, 0.0, 0.0, 0.0, 0.0; 96.26; 4403.90; 1.82; [0, 1, 2, 3]
0.2, 0.2, 0.0, 0.0, 96.0, 96.2, 98.1, 97.9; 93.26; 4266.72; 1.83; [4, 5, 6, 7]
97.8, 87.4, 100.0, 0.7, 0.0, 0.0, 0.0, 0.0; 92.35; 4225.05; 1.82; [0, 1, 2]
99.6, 100.0, 0.0, 0.0, 0.0, 0.0, 0.0, 0.0; 93.49; 4276.95; 1.76; [0, 1]
0.2, 0.2, 0.0, 0.0, 100.0, 98.1, 0.0, 0.0; 95.19; 4355.00; 1.73; [4, 5]
0.2, 0.0, 0.0, 0.0, 94.2, 100.0, 90.2, 0.0; 95.38; 4363.43; 1.77; [4, 5, 6]
78.8, 78.9, 97.6, 100.0, 0.0, 0.0, 0.0, 0.0; 93.97; 4299.15; 1.79; [0, 1, 2, 3]
0.0, 0.0, 0.0, 0.2, 95.9, 96.1, 98.1, 97.9; 92.59; 4235.83; 1.78; [4, 5, 6, 7]
100.0, 97.8, 90.6, 0.7, 0.0, 0.0, 0.0, 0.0; 92.22; 4219.16; 1.81; [0, 1, 2]
100.0, 98.7, 0.2, 0.2, 0.0, 0.0, 0.0, 0.0; 93.32; 4269.22; 1.76; [0, 1]
0.4, 0.0, 0.0, 0.0, 99.6, 100.0, 0.0, 0.0; 94.93; 4343.22; 1.73; [4, 5]
0.2, 0.0, 0.0, 0.0, 100.0, 100.0, 99.5, 61.7; 95.09; 4350.51; 1.76; [4, 5, 6, 7]
95.8, 91.8, 92.7, 0.7, 0.0, 0.0, 0.0, 0.0; 93.05; 4257.26; 1.80; [0, 1, 2]
100.0, 97.0, 0.0, 0.8, 0.0, 0.0, 0.0, 0.0; 92.68; 4240.09; 1.77; [0, 1]
0.0, 0.0, 0.0, 0.0, 100.0, 99.4, 0.0, 0.0; 94.16; 4308.03; 1.74; [4, 5]
0.5, 0.2, 0.0, 0.0, 99.3, 100.0, 93.3, 0.0; 95.96; 4390.10; 1.75; [4, 5, 6]
97.4, 97.0, 70.1, 73.7, 0.0, 0.0, 0.0, 0.0; 97.00; 4437.68; 1.74; [0, 1, 2, 3]
0.0, 0.2, 0.0, 0.0, 99.2, 98.9, 98.3, 100.0; 95.17; 4354.23; 1.75; [4, 5, 6, 7]
100.0, 93.1, 93.3, 0.4, 0.0, 0.0, 0.0, 0.0; 93.17; 4262.70; 1.79; [0, 1, 2]
100.0, 92.0, 0.2, 0.0, 0.0, 0.0, 0.0, 0.0; 92.81; 4246.15; 1.76; [0, 1]
0.2, 0.0, 0.0, 0.0, 100.0, 91.4, 0.0, 0.0; 94.44; 4320.69; 1.73; [4, 5]
0.2, 0.0, 0.0, 0.2, 97.9, 100.0, 97.9, 0.0; 96.07; 4395.16; 1.74; [4, 5, 6]
97.4, 67.2, 70.1, 96.7, 0.0, 0.0, 0.0, 0.0; 97.13; 4443.51; 1.72; [0, 1, 2, 3]
0.4, 0.0, 0.0, 0.0, 98.5, 98.3, 98.5, 100.0; 95.42; 4365.65; 1.74; [4, 5, 6, 7]
96.4, 100.0, 83.7, 0.4, 0.0, 0.0, 0.0, 0.0; 93.55; 4280.01; 1.78; [0, 1, 2]
100.0, 99.2, 0.4, 0.0, 0.0, 0.0, 0.0, 0.0; 93.20; 4263.93; 1.75; [0, 1]
0.2, 0.0, 0.0, 0.0, 100.0, 87.7, 0.0, 0.0; 94.84; 4339.10; 1.72; [4, 5]
0.2, 0.0, 0.0, 0.0, 99.8, 100.0, 100.0, 0.0; 96.34; 4407.78; 1.73; [4, 5, 6]
100.0, 96.8, 72.0, 69.7, 0.0, 0.0, 0.0, 0.0; 97.39; 4455.47; 1.72; [0, 1, 2, 3]
0.2, 0.0, 0.0, 0.0, 98.3, 98.5, 97.9, 100.0; 96.90; 4433.01; 1.73; [4, 5, 6, 7]
100.0, 90.1, 97.6, 0.2, 0.0, 0.0, 0.0, 0.0; 94.00; 4300.35; 1.77; [0, 1, 2]
100.0, 99.4, 0.6, 0.2, 0.0, 0.0, 0.0, 0.0; 93.52; 4278.59; 1.74; [0, 1]
0.2, 0.0, 0.0, 0.0, 98.5, 100.0, 0.0, 0.0; 94.96; 4344.24; 1.71; [4, 5]
0.5, 0.2, 0.0, 0.0, 100.0, 99.1, 100.0, 0.0; 96.41; 4410.92; 1.73; [4, 5, 6]
100.0, 98.2, 74.5, 70.4, 0.0, 0.0, 0.0, 0.0; 97.41; 4456.72; 1.72; [0, 1, 2, 3]
0.2, 0.2, 0.0, 0.2, 98.1, 97.9, 98.1, 100.0; 97.01; 4438.10; 1.74; [4, 5, 6, 7]
100.0, 88.1, 96.8, 0.6, 0.0, 0.0, 0.0, 0.0; 94.19; 4309.04; 1.78; [0, 1, 2]
100.0, 99.2, 0.0, 0.0, 0.0, 0.0, 0.0, 0.0; 93.87; 4294.57; 1.75; [0, 1]
0.2, 0.0, 0.0, 0.0, 100.0, 99.1, 0.0, 0.0; 95.92; 4388.19; 1.70; [4, 5]
0.5, 0.0, 0.0, 0.0, 96.5, 99.8, 98.1, 0.0; 96.45; 4412.73; 1.73; [4, 5, 6]
98.7, 100.0, 73.2, 70.5, 0.0, 0.0, 0.0, 0.0; 95.22; 4356.47; 1.76; [0, 1, 2, 3]
0.0, 0.0, 0.0, 0.2, 98.7, 99.8, 98.7, 98.5; 93.38; 4272.14; 1.76; [4, 5, 6, 7]
98.5, 87.3, 100.0, 0.0, 0.0, 0.0, 0.0, 0.0; 92.70; 4240.93; 1.79; [0, 1, 2]
100.0, 99.4, 0.4, 0.6, 0.0, 0.0, 0.0, 0.0; 93.78; 4290.27; 1.75; [0, 1]
0.4, 0.0, 0.0, 0.0, 98.7, 100.0, 0.0, 0.0; 95.78; 4382.14; 1.71; [4, 5]
0.2, 0.0, 0.0, 0.0, 98.8, 99.8, 100.0, 0.0; 96.22; 4402.24; 1.74; [4, 5, 6]
95.4, 70.2, 71.7, 100.0, 0.0, 0.0, 0.0, 0.0; 94.91; 4342.04; 1.77; [0, 1, 2, 3]
0.2, 0.0, 0.0, 0.0, 98.7, 98.7, 97.9, 100.0; 93.23; 4265.18; 1.77; [4, 5, 6, 7]
100.0, 89.6, 96.0, 0.0, 0.0, 0.0, 0.0, 0.0; 92.55; 4234.34; 1.80; [0, 1, 2]
96.6, 100.0, 0.0, 0.4, 0.0, 0.0, 0.0, 0.0; 93.63; 4283.47; 1.76; [0, 1]
0.2, 0.0, 0.0, 0.0, 100.0, 99.1, 0.0, 0.0; 95.51; 4369.48; 1.72; [4, 5]
0.2, 0.0, 0.0, 0.0, 97.7, 100.0, 99.5, 0.0; 95.98; 4391.14; 1.75; [4, 5, 6]
100.0, 70.2, 97.0, 71.9, 0.0, 0.0, 0.0, 0.0; 94.58; 4326.86; 1.79; [0, 1, 2, 3]
0.2, 0.0, 0.0, 0.0, 99.8, 100.0, 98.0, 98.3; 93.03; 4255.91; 1.78; [4, 5, 6, 7]
100.0, 98.6, 95.9, 1.1, 0.0, 0.0, 0.0, 0.0; 92.23; 4219.52; 1.82; [0, 1, 2]
0.2, 0.0, 0.0, 0.0, 96.0, 100.0, 71.6, 0.0; 93.06; 4257.36; 1.78; [4, 5, 6]
97.3, 96.8, 96.8, 99.8, 0.0, 0.0, 0.0, 0.0; 93.64; 4284.00; 1.79; [0, 1, 2, 3]
0.2, 0.2, 0.0, 0.0, 96.4, 98.1, 96.1, 98.5; 90.40; 4135.86; 1.84; [4, 5, 6, 7]
98.9, 78.8, 100.0, 0.4, 0.0, 0.0, 0.0, 0.0; 88.80; 4062.47; 1.82; [0, 1, 2]
98.7, 100.0, 0.2, 0.4, 0.0, 0.0, 0.0, 0.0; 90.44; 4137.81; 1.80; [0, 1]
0.2, 0.0, 0.0, 0.0, 100.0, 100.0, 0.0, 0.0; 92.60; 4236.42; 1.77; [4, 5]
1.1, 0.2, 0.0, 0.0, 99.6, 81.2, 100.0, 0.0; 94.45; 4320.93; 1.76; [4, 5, 6]
97.5, 86.7, 87.1, 89.9, 0.0, 0.2, 0.0, 0.0; 94.29; 4313.97; 1.81; [0, 1, 2, 3]
0.2, 0.0, 0.0, 0.2, 97.2, 98.9, 97.2, 98.1; 90.72; 4150.42; 1.81; [4, 5, 6, 7]
100.0, 70.8, 97.4, 0.4, 0.0, 0.0, 0.0, 0.0; 90.68; 4148.43; 1.83; [0, 1, 2]
100.0, 100.0, 0.4, 0.4, 0.0, 0.0, 0.0, 0.0; 92.68; 4240.12; 1.77; [0, 1]
0.2, 0.0, 0.0, 0.0, 100.0, 98.1, 0.0, 0.0; 94.56; 4326.23; 1.72; [4, 5]
0.2, 0.0, 0.0, 0.2, 99.1, 99.8, 93.1, 0.0; 95.35; 4362.46; 1.75; [4, 5, 6]
0.4, 0.2, 0.0, 0.2, 100.0, 99.0, 63.9, 0.0; 94.17; 4308.15; 1.79; [4, 5, 6]
97.3, 83.1, 97.5, 85.8, 0.0, 0.0, 0.0, 0.0; 93.61; 4282.75; 1.79; [0, 1, 2, 3]
0.2, 0.0, 0.0, 0.0, 100.0, 99.8, 99.6, 98.9; 92.61; 4237.11; 1.79; [4, 5, 6, 7]
100.0, 74.3, 99.8, 0.7, 0.0, 0.0, 0.0, 0.0; 93.18; 4263.00; 1.80; [0, 1, 2]
95.2, 100.0, 0.2, 0.2, 0.0, 0.0, 0.0, 0.0; 94.19; 4309.10; 1.76; [0, 1]
0.6, 0.0, 0.0, 0.0, 100.0, 99.8, 0.0, 0.0; 94.20; 4309.49; 1.75; [4, 5]
0.0, 0.0, 0.0, 0.0, 99.8, 100.0, 96.1, 0.0; 94.44; 4320.42; 1.75; [4, 5, 6]
97.6, 96.8, 70.6, 73.0, 0.0, 0.0, 0.0, 0.0; 94.48; 4322.28; 1.75; [0, 1, 2, 3]
0.2, 0.0, 0.0, 0.0, 98.3, 97.9, 98.3, 100.0; 94.51; 4323.96; 1.74; [4, 5, 6, 7]
97.4, 99.8, 78.6, 0.4, 0.0, 0.0, 0.0, 0.0; 94.50; 4323.26; 1.74; [0, 1, 2]
100.0, 99.8, 0.4, 0.2, 0.0, 0.0, 0.0, 0.0; 94.72; 4333.42; 1.74; [0, 1]
0.7, 0.0, 0.0, 0.2, 100.0, 98.3, 0.0, 0.0; 95.93; 4388.83; 1.70; [4, 5]
0.0, 0.2, 0.0, 0.0, 100.0, 100.0, 98.4, 0.0; 97.59; 4464.61; 1.71; [4, 5, 6]
96.9, 95.4, 68.7, 72.6, 0.0, 0.0, 0.0, 0.0; 98.69; 4515.13; 1.72; [0, 1, 2, 3]
0.4, 0.0, 0.0, 0.0, 98.3, 98.3, 98.7, 100.0; 97.87; 4477.59; 1.70; [4, 5, 6, 7]
88.3, 100.0, 96.3, 0.4, 0.0, 0.2, 0.0, 0.0; 96.39; 4409.99; 1.75; [0, 1, 2]
95.8, 100.0, 0.0, 0.0, 0.0, 0.0, 0.0, 0.0; 95.31; 4360.21; 1.74; [0, 1]
0.2, 0.0, 0.0, 0.2, 100.0, 98.5, 0.0, 0.0; 95.30; 4360.01; 1.71; [4, 5]
0.7, 0.0, 0.0, 0.0, 99.5, 99.8, 100.0, 0.0; 95.93; 4388.69; 1.70; [4, 5, 6]
97.5, 81.3, 84.2, 71.4, 0.0, 0.0, 0.0, 0.0; 96.96; 4436.09; 1.72; [0, 1, 2, 3]
0.9, 0.0, 0.0, 0.0, 98.9, 98.5, 98.1, 100.0; 96.97; 4436.50; 1.70; [4, 5, 6, 7]
100.0, 100.0, 92.6, 0.2, 0.0, 0.0, 0.0, 0.0; 96.17; 4399.83; 1.73; [0, 1, 2]
100.0, 85.9, 0.2, 0.6, 0.0, 0.0, 0.0, 0.0; 95.31; 4360.39; 1.75; [0, 1]
0.2, 0.2, 0.0, 0.2, 100.0, 98.5, 0.0, 0.0; 95.30; 4359.85; 1.75; [4, 5]
0.2, 0.0, 0.0, 0.0, 98.7, 99.8, 98.7, 0.0; 94.99; 4345.94; 1.75; [4, 5, 6]
97.4, 95.7, 72.0, 68.1, 0.0, 0.0, 0.0, 0.0; 94.98; 4345.37; 1.75; [0, 1, 2, 3]
0.6, 0.0, 0.0, 0.0, 98.7, 98.7, 98.3, 100.0; 94.01; 4300.98; 1.75; [4, 5, 6, 7]
88.6, 99.8, 91.8, 0.2, 0.0, 0.0, 0.0, 0.0; 94.30; 4314.10; 1.77; [0, 1, 2]
100.0, 99.2, 0.4, 0.4, 0.0, 0.0, 0.0, 0.0; 95.36; 4362.85; 1.72; [0, 1]
0.4, 0.0, 0.0, 0.0, 92.1, 100.0, 0.0, 0.0; 96.72; 4424.72; 1.70; [4, 5]
0.2, 0.2, 0.0, 0.0, 98.9, 98.9, 100.0, 0.0; 96.20; 4401.32; 1.74; [4, 5, 6]
97.8, 95.1, 69.8, 70.9, 0.0, 0.0, 0.0, 0.0; 95.05; 4348.74; 1.78; [0, 1, 2, 3]
0.0, 0.0, 0.0, 0.0, 98.5, 98.5, 97.6, 100.0; 93.26; 4266.84; 1.77; [4, 5, 6, 7]
100.0, 84.1, 97.6, 0.7, 0.0, 0.0, 0.0, 0.0; 92.54; 4233.52; 1.81; [0, 1, 2]
100.0, 99.4, 0.4, 0.2, 0.0, 0.0, 0.0, 0.0; 93.57; 4281.05; 1.77; [0, 1]
0.4, 0.0, 0.0, 0.0, 100.0, 98.1, 0.0, 0.0; 95.58; 4372.90; 1.72; [4, 5]
0.5, 0.2, 0.0, 0.0, 98.6, 100.0, 98.9, 0.0; 96.12; 4397.31; 1.75; [4, 5, 6]
99.8, 94.7, 70.6, 69.3, 0.0, 0.0, 0.0, 0.0; 94.97; 4344.69; 1.79; [0, 1, 2, 3]
0.0, 0.0, 0.0, 0.0, 98.7, 98.5, 98.3, 100.0; 93.26; 4266.53; 1.78; [4, 5, 6, 7]
100.0, 90.8, 96.1, 0.7, 0.0, 0.0, 0.0, 0.0; 92.55; 4234.05; 1.82; [0, 1, 2]
100.0, 92.4, 0.0, 0.0, 0.0, 0.0, 0.0, 0.0; 93.61; 4282.54; 1.78; [0, 1]
0.0, 0.0, 0.0, 0.0, 100.0, 100.0, 0.0, 0.0; 95.59; 4373.40; 1.73; [4, 5]
0.7, 0.0, 0.0, 0.0, 98.6, 98.8, 100.0, 0.0; 96.10; 4396.54; 1.76; [4, 5, 6]
100.0, 69.1, 71.3, 96.6, 0.0, 0.0, 0.0, 0.0; 94.91; 4342.15; 1.80; [0, 1, 2, 3]
0.4, 0.2, 0.0, 0.0, 98.5, 98.5, 98.3, 100.0; 93.24; 4265.96; 1.78; [4, 5, 6, 7]
99.8, 98.9, 93.2, 0.4, 0.0, 0.0, 0.0, 0.0; 92.52; 4232.60; 1.82; [0, 1, 2]
88.6, 100.0, 0.2, 0.2, 0.0, 0.0, 0.0, 0.0; 93.65; 4284.62; 1.77; [0, 1]
0.9, 0.0, 0.0, 0.0, 100.0, 99.6, 0.0, 0.0; 95.61; 4374.05; 1.72; [4, 5]
0.0, 0.0, 0.0, 0.0, 96.0, 100.0, 97.7, 0.0; 96.08; 4395.56; 1.75; [4, 5, 6]
100.0, 72.1, 99.8, 68.6, 0.0, 0.0, 0.0, 0.0; 94.84; 4338.95; 1.79; [0, 1, 2, 3]
0.0, 0.0, 0.0, 0.0, 100.0, 99.1, 98.1, 98.1; 93.27; 4267.10; 1.78; [4, 5, 6, 7]
100.0, 98.6, 91.0, 0.2, 0.0, 0.0, 0.0, 0.0; 92.46; 4229.96; 1.81; [0, 1, 2]
100.0, 99.2, 0.4, 0.4, 0.0, 0.0, 0.0, 0.0; 93.52; 4278.70; 1.77; [0, 1]
0.4, 0.0, 0.0, 0.0, 100.0, 98.5, 0.0, 0.0; 95.46; 4367.52; 1.72; [4, 5]
0.2, 0.2, 0.0, 0.0, 98.6, 98.9, 100.0, 0.0; 96.00; 4391.92; 1.75; [4, 5, 6]
100.0, 78.4, 71.4, 87.7, 0.0, 0.0, 0.0, 0.0; 94.70; 4332.61; 1.79; [0, 1, 2, 3]
0.0, 0.0, 0.2, 0.0, 98.5, 98.5, 98.3, 100.0; 93.14; 4260.94; 1.78; [4, 5, 6, 7]
100.0, 88.2, 97.4, 0.9, 0.0, 0.0, 0.0, 0.0; 92.48; 4230.83; 1.81; [0, 1, 2]
100.0, 98.9, 0.0, 0.2, 0.0, 0.0, 0.0, 0.0; 93.54; 4279.26; 1.77; [0, 1]
0.4, 0.0, 0.0, 0.0, 100.0, 99.1, 0.0, 0.0; 95.44; 4366.60; 1.72; [4, 5]
0.7, 0.2, 0.0, 0.0, 97.0, 100.0, 98.4, 0.0; 95.93; 4388.92; 1.75; [4, 5, 6]
100.0, 72.2, 70.1, 97.0, 0.0, 0.0, 0.0, 0.0; 94.72; 4333.25; 1.79; [0, 1, 2, 3]
0.2, 0.0, 0.0, 0.0, 99.8, 100.0, 98.0, 98.0; 93.12; 4260.03; 1.77; [4, 5, 6, 7]
95.9, 94.4, 88.5, 0.5, 0.0, 0.0, 0.0, 0.0; 92.41; 4227.78; 1.81; [0, 1, 2]
100.0, 98.9, 0.0, 0.2, 0.0, 0.0, 0.0, 0.0; 93.51; 4278.18; 1.76; [0, 1]
0.4, 0.2, 0.0, 0.0, 99.6, 100.0, 0.0, 0.0; 95.37; 4363.09; 1.72; [4, 5]
0.0, 0.0, 0.0, 0.0, 98.6, 99.8, 97.0, 0.0; 95.85; 4385.28; 1.75; [4, 5, 6]
96.1, 100.0, 73.3, 74.1, 0.0, 0.0, 0.0, 0.0; 94.63; 4329.13; 1.78; [0, 1, 2, 3]
0.2, 0.2, 0.0, 0.0, 100.0, 98.9, 98.1, 98.1; 93.05; 4256.81; 1.77; [4, 5, 6, 7]
98.2, 100.0, 92.0, 0.7, 0.0, 0.0, 0.0, 0.0; 92.23; 4219.47; 1.81; [0, 1, 2]
100.0, 98.9, 0.6, 0.2, 0.0, 0.0, 0.0, 0.0; 93.29; 4268.01; 1.76; [0, 1]
0.2, 0.0, 0.0, 0.0, 99.6, 100.0, 0.0, 0.0; 95.18; 4354.26; 1.72; [4, 5]
0.2, 0.2, 0.0, 0.0, 98.7, 99.6, 100.0, 0.0; 95.58; 4372.90; 1.75; [4, 5, 6]
100.0, 69.0, 70.3, 94.7, 0.0, 0.0, 0.0, 0.0; 94.48; 4322.44; 1.79; [0, 1, 2, 3]
0.2, 0.0, 0.0, 0.0, 98.3, 98.1, 97.9, 100.0; 92.91; 4250.45; 1.78; [4, 5, 6, 7]
99.6, 100.0, 88.7, 0.4, 0.0, 0.0, 0.0, 0.0; 92.20; 4218.37; 1.81; [0, 1, 2]
100.0, 99.4, 0.2, 0.2, 0.0, 0.0, 0.0, 0.0; 93.28; 4267.48; 1.77; [0, 1]
0.0, 0.0, 0.0, 0.2, 98.1, 100.0, 0.0, 0.0; 95.26; 4358.34; 1.72; [4, 5]
0.7, 0.0, 0.0, 0.2, 99.8, 85.4, 81.8, 0.0; 96.14; 4398.26; 1.75; [4, 5, 6]
100.0, 76.9, 78.9, 100.0, 0.0, 0.0, 0.0, 0.0; 94.73; 4333.71; 1.78; [0, 1, 2, 3]
0.0, 0.0, 0.2, 0.0, 98.1, 97.7, 99.8, 97.7; 93.13; 4260.55; 1.78; [4, 5, 6, 7]
100.0, 99.8, 93.1, 0.2, 0.0, 0.0, 0.0, 0.0; 92.41; 4227.91; 1.81; [0, 1, 2]
100.0, 83.5, 0.2, 0.2, 0.0, 0.0, 0.0, 0.0; 93.64; 4283.94; 1.76; [0, 1]
0.2, 0.2, 0.0, 0.0, 100.0, 99.8, 0.0, 0.0; 95.45; 4366.91; 1.72; [4, 5]
0.3, 0.0, 0.0, 0.0, 100.0, 86.5, 100.0, 0.0; 96.04; 4393.97; 1.76; [4, 5, 6]
95.7, 76.1, 100.0, 79.4, 0.0, 0.0, 0.0, 0.0; 94.70; 4332.38; 1.79; [0, 1, 2, 3]
0.2, 0.2, 0.0, 0.0, 98.1, 96.2, 96.2, 98.1; 93.14; 4260.99; 1.78; [4, 5, 6, 7]
100.0, 94.7, 98.9, 0.0, 0.0, 0.0, 0.0, 0.0; 92.44; 4229.13; 1.81; [0, 1, 2]
99.4, 99.8, 0.4, 0.8, 0.0, 0.0, 0.0, 0.0; 93.52; 4278.45; 1.77; [0, 1]
0.0, 0.0, 0.0, 0.0, 98.3, 100.0, 0.0, 0.0; 95.37; 4363.21; 1.73; [4, 5]
0.0, 0.0, 0.0, 0.0, 99.8, 85.0, 100.0, 0.0; 95.95; 4389.89; 1.76; [4, 5, 6]
100.0, 74.6, 78.7, 96.1, 0.0, 0.0, 0.0, 0.0; 94.63; 4329.48; 1.79; [0, 1, 2, 3]
1.1, 0.6, 1.3, 0.2, 98.1, 97.2, 98.7, 97.0; 93.07; 4258.09; 1.78; [4, 5, 6, 7]
100.0, 98.5, 88.3, 0.9, 0.0, 0.0, 0.0, 0.0; 92.50; 4231.83; 1.81; [0, 1, 2]
100.0, 98.7, 0.0, 0.0, 0.0, 0.0, 0.0, 0.0; 93.63; 4283.73; 1.77; [0, 1]
0.2, 0.0, 0.0, 0.2, 98.7, 100.0, 0.0, 0.0; 95.62; 4374.58; 1.72; [4, 5]
0.2, 0.2, 0.0, 0.0, 85.7, 84.7, 100.0, 0.0; 96.35; 4407.97; 1.76; [4, 5, 6]
98.0, 77.3, 82.3, 100.0, 0.0, 0.0, 0.0, 0.0; 94.91; 4342.25; 1.78; [0, 1, 2, 3]
0.4, 0.0, 0.0, 0.2, 95.7, 97.7, 98.1, 96.4; 93.35; 4270.98; 1.78; [4, 5, 6, 7]
100.0, 99.8, 90.3, 0.2, 0.0, 0.0, 0.0, 0.0; 92.68; 4240.11; 1.80; [0, 1, 2]
92.1, 99.8, 0.0, 0.2, 0.0, 0.0, 0.0, 0.0; 93.89; 4295.66; 1.76; [0, 1]
96.8, 97.2, 94.5, 97.2, 0.0, 0.0, 0.0, 0.0; 94.82; 4338.22; 1.72; [0, 1, 2, 3]
0.4, 0.2, 0.0, 0.0, 98.9, 100.0, 98.3, 98.1; 91.62; 4191.63; 1.76; [4, 5, 6, 7]
98.0, 96.9, 96.3, 0.7, 0.0, 0.0, 0.0, 0.0; 89.88; 4112.12; 1.78; [0, 1, 2]
90.3, 100.0, 0.4, 0.2, 0.0, 0.0, 0.0, 0.0; 90.15; 4124.38; 1.75; [0, 1]
0.2, 0.0, 0.0, 0.0, 99.4, 100.0, 0.0, 0.0; 92.32; 4223.66; 1.74; [4, 5]
0.2, 0.5, 0.0, 0.0, 99.8, 100.0, 99.1, 0.0; 94.00; 4300.64; 1.72; [4, 5, 6]
97.2, 94.1, 68.4, 72.3, 0.0, 0.2, 0.0, 0.0; 94.71; 4333.03; 1.72; [0, 1, 2, 3]
99.8, 100.0, 0.4, 1.0, 0.0, 0.0, 0.0, 0.0; 93.33; 4269.95; 1.72; [0, 1]
0.2, 0.0, 0.0, 0.0, 98.3, 100.0, 0.0, 0.0; 93.89; 4295.52; 1.68; [4, 5]
0.5, 0.0, 0.0, 0.0, 95.2, 98.9, 100.0, 0.0; 94.77; 4335.77; 1.68; [4, 5, 6]
78.7, 83.9, 97.3, 69.0, 0.0, 0.2, 0.0, 0.0; 95.91; 4387.98; 1.70; [0, 1, 2, 3]
0.6, 0.0, 0.0, 0.0, 98.9, 98.5, 98.3, 100.0; 95.59; 4373.02; 1.67; [4, 5, 6, 7]
100.0, 94.5, 98.9, 0.7, 0.0, 0.0, 0.0, 0.0; 94.68; 4331.64; 1.71; [0, 1, 2]
97.0, 100.0, 0.0, 0.4, 0.0, 0.0, 0.0, 0.0; 93.40; 4272.87; 1.72; [0, 1]
0.0, 0.0, 0.0, 0.0, 97.6, 99.8, 0.0, 0.0; 93.94; 4297.63; 1.68; [4, 5]
0.9, 0.0, 0.0, 0.0, 99.8, 100.0, 96.1, 0.0; 94.78; 4336.17; 1.68; [4, 5, 6]
97.4, 96.5, 72.8, 70.7, 0.0, 0.0, 0.0, 0.0; 95.84; 4384.79; 1.70; [0, 1, 2, 3]
0.0, 0.0, 0.0, 0.0, 100.0, 0.0, 0.0, 0.0; 101.03; 4622.31; 1.62; [4]
0.2, 0.0, 0.0, 0.0, 98.9, 99.2, 98.7, 100.0; 102.49; 4688.73; 1.64; [4, 5, 6, 7]
0.4, 0.0, 0.0, 0.0, 96.6, 96.4, 98.2, 98.4; 100.17; 4582.91; 1.70; [4, 5, 6, 7]
0.4, 0.0, 0.2, 0.0, 98.2, 96.6, 96.4, 98.2; 97.67; 4468.37; 1.76; [4, 5, 6, 7]
100.0, 98.9, 80.6, 0.6, 0.0, 0.0, 0.0, 0.0; 98.38; 4500.83; 1.74; [0, 1, 2]
82.3, 99.8, 0.0, 0.2, 0.0, 0.0, 0.0, 0.0; 99.78; 4565.15; 1.69; [0, 1]
100.0, 100.0, 1.0, 0.2, 0.0, 0.0, 0.0, 0.0; 100.79; 4611.09; 1.68; [0, 1]
0.0, 0.0, 0.0, 0.0, 98.1, 98.5, 98.1, 96.6; 101.43; 4640.36; 1.71; [4, 5, 6, 7]
0.2, 0.0, 0.2, 0.0, 96.4, 98.2, 98.2, 96.4; 101.36; 4637.33; 1.73; [4, 5, 6, 7]
0.4, 0.0, 0.0, 0.0, 98.2, 98.4, 100.0, 98.2; 100.07; 4578.12; 1.77; [4, 5, 6, 7]
0.0, 0.0, 0.0, 0.0, 98.2, 96.6, 96.4, 98.2; 97.76; 4472.54; 1.85; [4, 5, 6, 7]
98.3, 100.0, 86.9, 0.9, 0.0, 0.0, 0.0, 0.0; 95.68; 4377.20; 1.84; [0, 1, 2]
100.0, 78.1, 0.2, 0.0, 0.0, 0.0, 0.0, 0.0; 97.36; 4454.43; 1.83; [0, 1]
0.0, 0.0, 0.0, 0.0, 98.9, 99.8, 0.0, 0.0; 97.60; 4465.41; 1.85; [4, 5]
0.3, 0.0, 0.0, 0.0, 100.0, 100.0, 76.1, 0.0; 96.72; 4424.86; 1.89; [4, 5, 6]
100.0, 91.2, 95.6, 91.2, 0.0, 0.0, 0.0, 0.0; 95.40; 4364.43; 1.88; [0, 1, 2, 3]
0.2, 0.2, 0.0, 0.0, 96.0, 97.9, 96.0, 98.1; 94.29; 4313.85; 1.91; [4, 5, 6, 7]
100.0, 99.8, 85.7, 0.2, 0.0, 0.0, 0.0, 0.0; 94.86; 4340.05; 1.89; [0, 1, 2]
100.0, 91.5, 0.0, 0.0, 0.0, 0.2, 0.0, 0.0; 96.24; 4402.75; 1.84; [0, 1]
0.0, 0.0, 0.0, 0.0, 100.0, 98.7, 0.0, 0.0; 97.49; 4460.15; 1.84; [4, 5]
0.2, 0.0, 0.0, 0.0, 99.8, 100.0, 79.6, 0.0; 96.54; 4416.89; 1.89; [4, 5, 6]
95.4, 88.0, 100.0, 90.3, 0.0, 0.0, 0.0, 0.0; 95.31; 4360.38; 1.88; [0, 1, 2, 3]
0.4, 0.0, 0.2, 0.0, 96.4, 98.1, 97.9, 96.2; 94.27; 4313.08; 1.90; [4, 5, 6, 7]
100.0, 98.5, 87.9, 0.2, 0.0, 0.0, 0.0, 0.0; 89.17; 4079.62; 1.97; [0, 1, 2]
100.0, 90.6, 0.4, 0.4, 0.0, 0.0, 0.0, 0.0; 88.05; 4028.46; 1.95; [0, 1]
0.2, 0.0, 0.0, 0.0, 98.9, 100.0, 0.0, 0.0; 90.26; 4129.35; 1.90; [4, 5]
0.0, 0.0, 0.0, 0.0, 100.0, 100.0, 83.9, 0.0; 91.59; 4190.28; 1.88; [4, 5, 6]
100.0, 86.2, 97.8, 86.0, 0.0, 0.0, 0.0, 0.0; 92.17; 4216.67; 1.86; [0, 1, 2, 3]
0.6, 0.0, 0.0, 0.0, 96.2, 97.7, 98.1, 95.5; 92.18; 4217.11; 1.84; [4, 5, 6, 7]
90.3, 100.0, 97.1, 0.7, 0.0, 0.2, 0.0, 0.0; 90.11; 4122.34; 1.89; [0, 1, 2]
100.0, 98.5, 0.2, 0.4, 0.0, 0.0, 0.0, 0.0; 89.11; 4076.70; 1.90; [0, 1]
0.0, 0.0, 0.0, 0.0, 99.2, 100.0, 0.0, 0.0; 89.40; 4089.93; 1.92; [4, 5]
100.0, 0.0, 0.0, 0.0, 0.0, 0.0, 0.0, 0.0; 94.56; 4326.28; 1.83; [0]
97.9, 97.5, 100.0, 97.2, 0.0, 0.0, 0.0, 0.0; 95.63; 4374.89; 1.78; [0, 1, 2, 3]
0.4, 0.2, 0.0, 0.0, 96.2, 98.1, 97.7, 97.0; 95.66; 4376.48; 1.75; [4, 5, 6, 7]
0.2, 0.0, 0.0, 0.0, 100.0, 99.1, 0.0, 0.0; 96.94; 4435.04; 1.73; [4, 5]
0.2, 0.0, 0.0, 0.0, 99.5, 100.0, 83.8, 0.0; 98.29; 4496.87; 1.72; [4, 5, 6]
84.5, 83.0, 100.0, 93.3, 0.0, 0.0, 0.0, 0.0; 98.33; 4498.69; 1.72; [0, 1, 2, 3]
0.2, 0.0, 0.0, 0.0, 98.1, 97.7, 96.2, 95.8; 96.53; 4416.24; 1.77; [4, 5, 6, 7]
98.3, 100.0, 87.0, 0.4, 0.0, 0.0, 0.0, 0.0; 93.66; 4285.17; 1.77; [0, 1, 2]
100.0, 90.5, 0.2, 0.2, 0.0, 0.0, 0.0, 0.0; 94.68; 4331.44; 1.74; [0, 1]
0.0, 0.0, 0.0, 0.0, 98.7, 100.0, 0.0, 0.0; 96.84; 4430.55; 1.73; [4, 5]
0.5, 0.2, 0.2, 0.0, 99.5, 99.8, 83.8, 0.0; 98.20; 4492.85; 1.72; [4, 5, 6]
94.9, 85.6, 85.1, 100.0, 0.0, 0.0, 0.0, 0.0; 98.19; 4492.39; 1.72; [0, 1, 2, 3]
0.2, 0.0, 0.0, 0.0, 96.4, 95.6, 97.5, 98.1; 96.59; 4418.85; 1.77; [4, 5, 6, 7]
100.0, 95.4, 87.3, 0.0, 0.0, 0.0, 0.0, 0.0; 93.75; 4289.18; 1.77; [0, 1, 2]
100.0, 92.2, 0.2, 0.4, 0.0, 0.0, 0.0, 0.0; 94.62; 4328.99; 1.74; [0, 1]
0.4, 0.2, 0.0, 0.0, 98.3, 99.8, 0.0, 0.0; 96.81; 4428.85; 1.73; [4, 5]
0.2, 0.0, 0.0, 0.0, 99.1, 100.0, 85.4, 0.0; 98.20; 4492.67; 1.72; [4, 5, 6]
93.8, 82.1, 100.0, 81.5, 0.0, 0.0, 0.0, 0.0; 98.36; 4500.02; 1.71; [0, 1, 2, 3]
0.4, 0.0, 0.0, 0.0, 95.5, 96.0, 97.0, 98.1; 96.84; 4430.46; 1.77; [4, 5, 6, 7]
100.0, 87.3, 99.8, 0.2, 0.0, 0.0, 0.0, 0.0; 93.96; 4298.53; 1.77; [0, 1, 2]
100.0, 97.5, 0.6, 0.2, 0.0, 0.0, 0.0, 0.0; 94.66; 4330.51; 1.74; [0, 1]
0.9, 0.0, 0.0, 0.0, 99.2, 99.8, 0.0, 0.0; 96.81; 4429.21; 1.73; [4, 5]
0.2, 0.2, 0.0, 0.0, 94.9, 100.0, 86.6, 0.0; 98.29; 4496.55; 1.72; [4, 5, 6]
100.0, 100.0, 77.0, 81.5, 0.0, 0.0, 0.0, 0.0; 98.52; 4507.23; 1.71; [0, 1, 2, 3]
0.4, 0.0, 0.0, 0.0, 95.5, 97.5, 95.5, 98.1; 97.24; 4448.51; 1.76; [4, 5, 6, 7]
90.6, 100.0, 94.5, 0.4, 0.0, 0.2, 0.0, 0.0; 90.49; 4139.73; 1.83; [0, 1, 2]
99.8, 99.2, 0.2, 0.6, 0.0, 0.0, 0.0, 0.0; 90.64; 4146.66; 1.83; [0, 1]
0.2, 0.0, 0.0, 0.0, 100.0, 99.8, 0.0, 0.0; 92.79; 4245.13; 1.81; [4, 5]
0.2, 0.0, 0.0, 0.0, 98.8, 99.8, 89.0, 0.0; 94.25; 4312.13; 1.80; [4, 5, 6]
94.2, 81.0, 100.0, 80.6, 0.0, 0.0, 0.0, 0.0; 93.77; 4289.79; 1.78; [0, 1, 2, 3]
0.2, 0.0, 0.0, 0.0, 95.8, 98.1, 96.2, 97.5; 92.43; 4228.87; 1.78; [4, 5, 6, 7]
100.0, 88.4, 99.8, 0.9, 0.0, 0.0, 0.0, 0.0; 92.22; 4219.04; 1.80; [0, 1, 2]
100.0, 78.0, 0.0, 0.0, 0.0, 0.2, 0.0, 0.0; 93.72; 4287.74; 1.75; [0, 1]
0.4, 0.0, 0.0, 0.0, 100.0, 99.2, 0.0, 0.0; 95.35; 4362.32; 1.72; [4, 5]
0.5, 0.2, 0.0, 0.0, 99.5, 100.0, 88.4, 0.0; 95.32; 4360.69; 1.75; [4, 5, 6]
100.0, 81.6, 94.2, 82.6, 0.0, 0.0, 0.0, 0.0; 93.85; 4293.69; 1.77; [0, 1, 2, 3]
0.4, 0.0, 0.0, 0.0, 97.9, 95.5, 97.5, 95.5; 92.52; 4232.66; 1.77; [4, 5, 6, 7]
0.7, 0.0, 0.0, 0.0, 100.0, 100.0, 0.0, 0.0; 92.86; 4248.23; 1.80; [4, 5]
0.2, 0.0, 0.0, 0.0, 100.0, 100.0, 93.3, 0.0; 94.30; 4314.34; 1.78; [4, 5, 6]
93.3, 76.0, 100.0, 83.9, 0.0, 0.0, 0.0, 0.0; 94.59; 4327.49; 1.78; [0, 1, 2, 3]
0.6, 0.0, 0.0, 0.0, 96.0, 95.8, 97.9, 98.1; 93.16; 4262.15; 1.84; [4, 5, 6, 7]
0.2, 0.2, 0.0, 0.0, 100.0, 98.5, 0.0, 0.0; 90.56; 4143.21; 1.85; [4, 5]
0.2, 0.0, 0.0, 0.0, 99.5, 100.0, 95.6, 0.0; 91.34; 4178.79; 1.85; [4, 5, 6]
98.7, 100.0, 77.0, 77.0, 0.0, 0.0, 0.0, 0.0; 92.15; 4215.89; 1.87; [0, 1, 2, 3]
0.4, 0.0, 0.0, 0.0, 99.8, 100.0, 98.0, 98.0; 92.18; 4217.03; 1.84; [4, 5, 6, 7]
0.2, 0.0, 0.0, 0.0, 100.0, 97.0, 0.0, 0.0; 91.17; 4171.18; 1.89; [4, 5]
0.2, 0.0, 0.0, 0.2, 99.3, 99.8, 100.0, 0.0; 90.52; 4141.19; 1.92; [4, 5, 6]
99.3, 71.3, 72.3, 97.8, 0.0, 0.0, 0.0, 0.0; 90.05; 4119.98; 1.92; [0, 1, 2, 3]
0.0, 0.2, 0.0, 0.0, 98.3, 98.5, 98.3, 100.0; 89.38; 4089.04; 1.93; [4, 5, 6, 7]
0.7, 0.2, 0.2, 0.0, 96.9, 99.8, 0.0, 0.0; 90.00; 4117.34; 1.93; [4, 5]
0.2, 0.0, 0.0, 0.0, 98.9, 99.1, 100.0, 0.0; 91.04; 4165.07; 1.93; [4, 5, 6]
97.3, 94.7, 71.9, 68.0, 0.0, 0.0, 0.0, 0.0; 90.82; 4154.88; 1.98; [0, 1, 2, 3]
0.4, 0.0, 0.0, 0.0, 98.5, 98.5, 98.3, 100.0; 87.33; 3995.22; 1.99; [4, 5, 6, 7]
0.0, 0.2, 0.0, 0.0, 100.0, 99.6, 0.0, 0.0; 87.09; 3984.24; 2.02; [4, 5]
0.2, 0.2, 0.0, 0.2, 99.8, 99.8, 100.0, 0.0; 88.72; 4058.79; 2.03; [4, 5, 6]
97.4, 94.8, 68.8, 72.0, 0.0, 0.0, 0.0, 0.0; 89.80; 4108.40; 2.02; [0, 1, 2, 3]
0.2, 0.2, 0.0, 0.0, 98.5, 99.2, 98.5, 100.0; 87.91; 4021.70; 2.05; [4, 5, 6, 7]
0.4, 0.2, 0.0, 0.0, 100.0, 98.7, 0.0, 0.0; 86.18; 3942.66; 2.10; [4, 5]
0.0, 0.0, 0.0, 0.0, 99.2, 100.0, 0.0, 0.0; 86.93; 3977.13; 2.09; [4, 5]
0.7, 0.0, 0.0, 0.0, 100.0, 100.0, 97.9, 0.0; 87.69; 4011.84; 2.09; [4, 5, 6]
100.0, 76.8, 88.0, 86.8, 0.0, 0.0, 0.0, 0.0; 88.53; 4050.11; 2.11; [0, 1, 2, 3]
96.0, 95.4, 98.0, 97.4, 0.0, 0.2, 0.0, 0.0; 88.53; 4050.33; 2.07; [0, 1, 2, 3]
0.2, 0.0, 0.0, 0.0, 98.7, 96.8, 98.1, 97.0; 86.19; 3942.99; 2.06; [4, 5, 6, 7]
0.4, 0.0, 0.2, 0.0, 100.0, 96.8, 0.0, 0.0; 86.92; 3976.65; 2.08; [4, 5]
0.5, 0.0, 0.0, 0.0, 99.3, 100.0, 75.6, 0.0; 88.19; 4034.56; 2.07; [4, 5, 6]
92.7, 100.0, 91.1, 99.3, 0.0, 0.2, 0.0, 0.0; 87.66; 4010.51; 2.05; [0, 1, 2, 3]
0.0, 0.0, 0.0, 0.0, 96.6, 98.1, 96.0, 98.3; 86.15; 3941.28; 2.06; [4, 5, 6, 7]
0.2, 0.0, 0.0, 0.2, 98.9, 100.0, 0.0, 0.0; 86.57; 3960.78; 2.09; [4, 5]
0.2, 0.5, 0.2, 0.0, 99.8, 100.0, 83.8, 0.0; 87.91; 4021.89; 2.07; [4, 5, 6]
85.2, 82.8, 96.6, 100.0, 0.0, 0.0, 0.0, 0.0; 87.74; 4014.27; 2.05; [0, 1, 2, 3]
0.0, 0.2, 0.0, 0.0, 95.3, 98.1, 97.0, 95.3; 86.21; 3944.00; 2.06; [4, 5, 6, 7]
0.2, 0.2, 0.0, 0.0, 100.0, 99.6, 0.0, 0.0; 86.33; 3949.39; 2.09; [4, 5]
0.0, 0.0, 0.0, 0.0, 99.1, 100.0, 86.6, 0.0; 87.76; 4014.82; 2.08; [4, 5, 6]
81.0, 95.3, 100.0, 81.1, 0.0, 0.0, 0.0, 0.0; 87.82; 4017.61; 2.06; [0, 1, 2, 3]
0.4, 0.2, 0.0, 0.0, 97.7, 96.0, 95.6, 98.1; 86.26; 3946.20; 2.06; [4, 5, 6, 7]
0.2, 0.2, 0.0, 0.0, 100.0, 98.7, 0.0, 0.0; 86.16; 3941.93; 2.09; [4, 5]
