3.6, 1.8, 0.0, 1.2, 1.0, 4.8, 0.6, 1.2; 1.90; 33.86; 1.16; [4, 5, 6, 7]
3.6, 1.8, 0.0, 1.2, 1.0, 4.8, 0.6, 1.2; 2.70; 44.95; 1.08; [0, 1]
3.6, 1.8, 0.0, 1.2, 1.0, 4.8, 0.6, 1.2; 1.90; 40.00; 1.49; [4, 5, 6, 7]
3.6, 1.8, 0.0, 1.2, 1.0, 4.8, 0.6, 1.2; 1.80; 40.00; 1.57; [0, 1, 2]
3.6, 1.8, 0.0, 1.2, 1.0, 4.8, 0.6, 1.2; 1.00; 46.80; 1.40; [4]
3.6, 1.8, 0.0, 1.2, 1.0, 4.8, 0.6, 1.2; 3.60; 86.17; 1.47; [0]
3.6, 1.8, 0.0, 1.2, 1.0, 4.8, 0.6, 1.2; 2.70; 84.04; 1.09; [0, 1]
3.6, 1.8, 0.0, 1.2, 1.0, 4.8, 0.6, 1.2; 3.60; 85.59; 1.12; [0]
3.6, 1.8, 0.0, 1.2, 1.0, 4.8, 0.6, 1.2; 1.00; 79.28; 1.39; [4]
3.6, 1.8, 0.0, 1.2, 1.0, 4.8, 0.6, 1.2; 2.90; 40.00; 1.46; [4, 5]
3.6, 1.8, 0.0, 1.2, 1.0, 4.8, 0.6, 1.2; 2.90; 40.00; 1.41; [4, 5]
3.6, 1.8, 0.0, 1.2, 1.0, 4.8, 0.6, 1.2; 3.60; 85.60; 1.43; [0]
3.6, 1.8, 0.0, 1.2, 1.0, 4.8, 0.6, 1.2; 2.13; 76.22; 1.49; [4, 5, 6]
3.6, 1.8, 0.0, 1.2, 1.0, 4.8, 0.6, 1.2; 2.90; 40.00; 1.58; [4, 5]
3.6, 1.8, 0.0, 1.2, 1.0, 4.8, 0.6, 1.2; 3.60; 88.14; 1.49; [0]
3.6, 1.8, 0.0, 1.2, 1.0, 4.8, 0.6, 1.2; 2.70; 82.74; 1.09; [0, 1]
3.6, 1.8, 0.0, 1.2, 1.0, 4.8, 0.6, 1.2; 1.65; 43.85; 1.16; [0, 1, 2, 3]
3.6, 1.8, 0.0, 1.2, 1.0, 4.8, 0.6, 1.2; 3.60; 88.56; 1.14; [0]
3.6, 1.8, 0.0, 1.2, 1.0, 4.8, 0.6, 1.2; 1.90; 79.02; 1.45; [4, 5, 6, 7]
3.6, 1.8, 0.0, 1.2, 1.0, 4.8, 0.6, 1.2; 1.90; 40.00; 1.45; [4, 5, 6, 7]
3.6, 1.8, 0.0, 1.2, 1.0, 4.8, 0.6, 1.2; 1.90; 40.00; 1.44; [4, 5, 6, 7]
3.6, 1.8, 0.0, 1.2, 1.0, 4.8, 0.6, 1.2; 1.90; 40.00; 1.46; [4, 5, 6, 7]
3.6, 1.8, 0.0, 1.2, 1.0, 4.8, 0.6, 1.2; 1.00; 48.15; 1.55; [4]
3.6, 1.8, 0.0, 1.2, 1.0, 4.8, 0.6, 1.2; 1.00; 44.67; 1.38; [4]
3.6, 1.8, 0.0, 1.2, 1.0, 4.8, 0.6, 1.2; 1.90; 42.12; 1.70; [4, 5, 6, 7]
3.6, 1.8, 0.0, 1.2, 1.0, 4.8, 0.6, 1.2; 1.65; 40.00; 1.51; [0, 1, 2, 3]
3.6, 1.8, 0.0, 1.2, 1.0, 4.8, 0.6, 1.2; 1.00; 44.47; 1.42; [4]
3.6, 1.8, 0.0, 1.2, 1.0, 4.8, 0.6, 1.2; 2.90; 42.52; 1.62; [4, 5]
3.6, 1.8, 0.0, 1.2, 1.0, 4.8, 0.6, 1.2; 1.90; 40.00; 1.52; [4, 5, 6, 7]
3.6, 1.8, 0.0, 1.2, 1.0, 4.8, 0.6, 1.2; 1.00; 40.00; 1.49; [4]
3.6, 1.8, 0.0, 1.2, 1.0, 4.8, 0.6, 1.2; 1.90; 40.00; 1.53; [4, 5, 6, 7]
3.6, 1.8, 0.0, 1.2, 1.0, 4.8, 0.6, 1.2; 1.65; 40.00; 1.51; [0, 1, 2, 3]
3.6, 1.8, 0.0, 1.2, 1.0, 4.8, 0.6, 1.2; 1.90; 40.00; 1.44; [4, 5, 6, 7]
3.6, 1.8, 0.0, 1.2, 1.0, 4.8, 0.6, 1.2; 1.00; 44.16; 1.51; [4]
3.6, 1.8, 0.0, 1.2, 1.0, 4.8, 0.6, 1.2; 1.90; 40.12; 1.58; [4, 5, 6, 7]
3.6, 1.8, 0.0, 1.2, 1.0, 4.8, 0.6, 1.2; 1.65; 40.00; 1.50; [0, 1, 2, 3]
3.6, 1.8, 0.0, 1.2, 1.0, 4.8, 0.6, 1.2; 1.65; 40.00; 1.06; [0, 1, 2, 3]
3.6, 1.8, 0.0, 1.2, 1.0, 4.8, 0.6, 1.2; 1.80; 40.00; 1.16; [0, 1, 2]
3.6, 1.8, 0.0, 1.2, 1.0, 4.8, 0.6, 1.2; 2.13; 40.00; 1.51; [4, 5, 6]
3.6, 1.8, 0.0, 1.2, 1.0, 4.8, 0.6, 1.2; 2.90; 40.00; 1.49; [4, 5]
3.6, 1.8, 0.0, 1.2, 1.0, 4.8, 0.6, 1.2; 3.60; 85.68; 1.29; [0]
3.6, 1.8, 0.0, 1.2, 1.0, 4.8, 0.6, 1.2; 2.13; 80.46; 1.46; [4, 5, 6]
3.6, 1.8, 0.0, 1.2, 1.0, 4.8, 0.6, 1.2; 2.13; 40.00; 1.54; [4, 5, 6]
3.6, 1.8, 0.0, 1.2, 1.0, 4.8, 0.6, 1.2; 3.60; 80.62; 1.51; [0]
3.6, 1.8, 0.0, 1.2, 1.0, 4.8, 0.6, 1.2; 1.00; 62.77; 1.35; [4]
3.6, 1.8, 0.0, 1.2, 1.0, 4.8, 0.6, 1.2; 2.13; 40.00; 1.47; [4, 5, 6]
3.6, 1.8, 0.0, 1.2, 1.0, 4.8, 0.6, 1.2; 1.65; 40.00; 1.43; [0, 1, 2, 3]
3.6, 1.8, 0.0, 1.2, 1.0, 4.8, 0.6, 1.2; 1.80; 40.00; 1.13; [0, 1, 2]
3.6, 1.8, 0.0, 1.2, 1.0, 4.8, 0.6, 1.2; 1.00; 40.00; 1.39; [4]
3.6, 1.8, 0.0, 1.2, 1.0, 4.8, 0.6, 1.2; 3.60; 107.25; 1.38; [0]
3.6, 1.8, 0.0, 1.2, 1.0, 4.8, 0.6, 1.2; 1.00; 99.13; 1.40; [4]
3.6, 1.8, 0.0, 1.2, 1.0, 4.8, 0.6, 1.2; 1.00; 57.02; 1.40; [4]
3.6, 1.8, 0.0, 1.2, 1.0, 4.8, 0.6, 1.2; 1.80; 40.00; 1.43; [0, 1, 2]
3.6, 1.8, 0.0, 1.2, 1.0, 4.8, 0.6, 1.2; 1.90; 40.00; 1.49; [4, 5, 6, 7]
3.6, 1.8, 0.0, 1.2, 1.0, 4.8, 0.6, 1.2; 2.70; 47.19; 1.58; [0, 1]
3.6, 1.8, 0.0, 1.2, 1.0, 4.8, 0.6, 1.2; 1.65; 47.06; 1.24; [0, 1, 2, 3]
3.6, 1.8, 0.0, 1.2, 1.0, 4.8, 0.6, 1.2; 1.80; 40.00; 1.23; [0, 1, 2]
3.6, 1.8, 0.0, 1.2, 1.0, 4.8, 0.6, 1.2; 2.90; 40.00; 1.45; [4, 5]
3.6, 1.8, 0.0, 1.2, 1.0, 4.8, 0.6, 1.2; 2.13; 40.00; 1.47; [4, 5, 6]
3.6, 1.8, 0.0, 1.2, 1.0, 4.8, 0.6, 1.2; 2.70; 40.00; 1.51; [0, 1]
