1.6, 0.6, 1.7, 0.1, 97.7, 96.1, 99.7, 95.7; 40.87; 1096.55; 3.72; [4, 5, 6, 7]
1.2, 0.1, 0.0, 0.1, 100.0, 100.0, 0.0, 0.0; 53.65; 1439.47; 3.72; [4, 5]
1.4, 0.3, 0.0, 0.1, 99.9, 99.9, 100.0, 0.0; 62.79; 1684.75; 2.92; [4, 5, 6]
100.0, 100.0, 0.3, 0.4, 0.0, 0.0, 0.0, 0.0; 63.64; 1707.58; 2.92; [0, 1]
1.0, 0.1, 0.0, 0.0, 100.0, 99.9, 0.0, 0.0; 76.37; 2049.09; 2.46; [4, 5]
1.6, 0.4, 0.0, 0.1, 100.0, 100.0, 0.0, 0.0; 78.88; 2116.42; 2.40; [4, 5]
0.9, 0.1, 0.0, 0.1, 100.0, 100.0, 0.0, 0.0; 79.48; 2132.46; 2.36; [4, 5]
1.5, 0.1, 0.0, 0.1, 100.0, 100.0, 0.0, 0.0; 84.78; 2274.71; 2.26; [4, 5]
100.0, 100.0, 100.0, 1.1, 0.0, 0.0, 0.0, 0.0; 90.35; 2424.17; 2.15; [0, 1, 2]
1.0, 0.0, 0.0, 0.1, 100.0, 100.0, 0.0, 0.0; 92.48; 2481.23; 2.03; [4, 5]
0.9, 0.1, 0.0, 0.0, 100.0, 0.0, 0.0, 0.0; 97.52; 2616.59; 1.98; [4]
0.8, 0.1, 0.0, 0.2, 100.0, 99.9, 0.0, 0.0; 101.18; 2714.65; 1.96; [4, 5]
100.0, 100.0, 0.3, 0.3, 0.0, 0.1, 0.0, 0.0; 94.04; 2523.04; 1.96; [0, 1]
1.7, 0.0, 0.1, 0.0, 99.9, 99.8, 100.0, 0.0; 99.05; 2657.47; 1.90; [4, 5, 6]
1.8, 0.0, 0.1, 0.2, 100.0, 100.0, 99.8, 0.0; 93.11; 2498.10; 2.01; [4, 5, 6]
3.2, 0.2, 0.0, 0.1, 80.2, 98.3, 99.1, 0.0; 82.72; 2219.30; 2.42; [4, 5, 6]
3.2, 0.2, 0.0, 0.5, 99.8, 99.8, 99.9, 0.0; 36.94; 991.16; 2.87; [4, 5, 6]
99.9, 97.0, 100.0, 98.8, 0.0, 0.0, 0.0, 0.0; 28.64; 768.38; 2.87; [0, 1, 2, 3]
99.3, 99.9, 100.0, 1.5, 0.0, 0.1, 0.0, 0.0; 35.30; 947.23; 2.34; [0, 1, 2]
100.0, 0.4, 0.0, 0.2, 0.0, 0.0, 0.0, 0.0; 43.85; 1176.40; 1.90; [0]
3.0, 0.5, 0.0, 0.0, 99.7, 100.0, 99.9, 0.0; 48.26; 1294.94; 1.61; [4, 5, 6]
100.0, 0.3, 0.3, 0.2, 0.0, 0.0, 0.0, 0.0; 52.78; 1416.01; 1.64; [0]
2.7, 0.6, 0.0, 0.0, 99.8, 99.8, 99.7, 0.0; 56.27; 1509.64; 1.95; [4, 5, 6]
100.0, 0.1, 0.4, 0.6, 0.0, 0.0, 0.0, 0.0; 44.18; 1185.26; 2.23; [0]
100.0, 0.6, 0.6, 0.1, 0.0, 0.1, 0.0, 0.0; 52.32; 1403.69; 1.90; [0]
100.0, 0.6, 0.6, 0.1, 0.0, 0.0, 0.0, 0.0; 65.62; 1760.66; 1.58; [0]
100.0, 100.0, 1.2, 0.5, 0.0, 0.0, 0.0, 0.0; 72.61; 1948.15; 1.43; [0, 1]
4.8, 0.7, 0.1, 0.0, 99.6, 97.2, 96.9, 98.9; 74.02; 1985.97; 1.82; [4, 5, 6, 7]
100.0, 0.1, 0.2, 0.8, 0.0, 0.0, 0.0, 0.0; 30.38; 815.15; 2.20; [0]
99.6, 100.0, 100.0, 99.4, 0.0, 0.0, 0.0, 0.0; 32.72; 877.81; 2.19; [0, 1, 2, 3]
100.0, 99.8, 99.9, 2.0, 0.0, 0.0, 0.0, 0.0; 39.70; 1065.17; 1.85; [0, 1, 2]
100.0, 0.4, 0.3, 0.4, 0.0, 0.0, 0.0, 0.0; 51.21; 1373.83; 1.45; [0]
3.1, 0.5, 0.2, 0.0, 99.9, 99.9, 99.9, 0.0; 52.49; 1408.31; 1.62; [4, 5, 6]
100.0, 0.3, 0.5, 0.1, 0.0, 0.0, 0.0, 0.0; 45.02; 1207.90; 1.68; [0]
2.3, 0.4, 0.0, 0.0, 99.5, 99.8, 99.6, 0.0; 48.07; 1289.83; 2.22; [4, 5, 6]
100.0, 0.4, 0.6, 0.0, 0.0, 0.0, 0.0, 0.0; 41.86; 1123.01; 2.23; [0]
2.5, 1.1, 0.0, 0.0, 99.9, 99.9, 99.9, 0.8; 50.38; 1351.59; 1.95; [4, 5, 6]
2.7, 0.2, 0.0, 0.2, 99.9, 100.0, 99.7, 0.0; 50.07; 1343.49; 2.34; [4, 5, 6]
100.0, 0.2, 0.3, 0.3, 0.0, 0.1, 0.0, 0.0; 45.88; 1231.06; 2.30; [0]
2.9, 0.1, 0.1, 0.0, 99.8, 99.9, 99.9, 0.0; 37.49; 1005.79; 2.29; [4, 5, 6]
99.5, 100.0, 100.0, 100.0, 0.0, 0.0, 0.0, 0.0; 35.27; 946.34; 2.19; [0, 1, 2, 3]
99.9, 99.9, 100.0, 2.0, 0.0, 0.1, 0.0, 0.0; 32.50; 872.01; 2.11; [0, 1, 2]
100.0, 0.2, 0.0, 0.8, 0.0, 0.0, 0.0, 0.0; 43.95; 1179.09; 1.59; [0]
1.6, 0.3, 0.1, 0.0, 100.0, 100.0, 99.7, 0.0; 51.93; 1393.30; 1.71; [4, 5, 6]
1.4, 0.1, 0.1, 0.0, 99.9, 99.9, 99.9, 0.0; 58.81; 1577.92; 1.84; [4, 5, 6]
2.0, 0.3, 0.2, 0.0, 100.0, 100.0, 99.7, 0.0; 66.71; 1789.76; 2.10; [4, 5, 6]
100.0, 100.0, 0.5, 0.4, 0.0, 0.0, 0.0, 0.0; 69.55; 1866.06; 2.13; [0, 1]
1.0, 0.1, 0.0, 0.0, 100.0, 100.0, 0.0, 0.0; 82.44; 2211.94; 2.04; [4, 5]
99.9, 100.0, 100.0, 0.8, 0.0, 0.1, 0.0, 0.0; 90.56; 2429.60; 2.06; [0, 1, 2]
1.2, 0.2, 0.0, 0.2, 100.0, 100.0, 0.0, 0.0; 94.32; 2530.61; 2.21; [4, 5]
100.0, 99.9, 100.0, 1.4, 0.0, 0.1, 0.0, 0.0; 89.38; 2398.00; 2.17; [0, 1, 2]
1.1, 0.0, 0.0, 0.1, 100.0, 100.0, 0.0, 0.0; 94.63; 2538.95; 2.03; [4, 5]
99.7, 99.9, 99.9, 0.8, 0.0, 0.0, 0.0, 0.0; 95.67; 2566.71; 1.96; [0, 1, 2]
0.9, 0.0, 0.0, 0.2, 100.0, 100.0, 0.0, 0.0; 103.34; 2772.71; 1.82; [4, 5]
100.0, 100.0, 0.3, 0.9, 0.0, 0.0, 0.0, 0.0; 109.27; 2931.71; 1.72; [0, 1]
0.8, 0.0, 0.0, 0.0, 100.0, 0.0, 0.0, 0.0; 117.60; 3155.18; 1.65; [4]
1.1, 0.0, 0.0, 0.1, 100.0, 100.0, 0.0, 0.0; 114.41; 3069.66; 1.69; [4, 5]
0.9, 0.1, 0.0, 0.0, 100.0, 0.1, 0.0, 0.0; 116.25; 3118.99; 1.68; [4]
0.9, 0.1, 0.0, 0.0, 99.9, 99.9, 0.0, 0.0; 116.78; 3133.18; 1.70; [4, 5]
2.3, 0.4, 0.1, 0.0, 100.0, 100.0, 0.0, 0.0; 116.38; 3122.54; 1.76; [4, 5]
1.8, 0.2, 0.1, 0.1, 99.9, 99.4, 97.7, 99.8; 101.60; 2726.05; 1.97; [4, 5, 6, 7]
0.4, 0.0, 0.0, 0.0, 100.0, 0.0, 0.0, 0.0; 90.76; 2434.97; 1.99; [4]
97.6, 99.8, 99.8, 100.0, 0.0, 0.0, 0.0, 0.0; 90.64; 2431.74; 2.09; [0, 1, 2, 3]
1.0, 0.2, 0.0, 0.0, 100.0, 0.0, 0.0, 0.0; 85.72; 2299.90; 2.04; [4]
99.6, 100.0, 100.0, 99.9, 0.0, 0.0, 0.0, 0.0; 84.69; 2272.31; 1.98; [0, 1, 2, 3]
0.7, 0.1, 0.0, 0.0, 100.0, 0.0, 0.0, 0.0; 84.83; 2275.89; 1.93; [4]
99.4, 100.0, 100.0, 99.9, 0.0, 0.0, 0.0, 0.0; 90.34; 2423.74; 1.84; [0, 1, 2, 3]
0.8, 0.0, 0.0, 0.0, 100.0, 0.0, 0.0, 0.0; 98.36; 2639.10; 1.77; [4]
99.3, 99.9, 99.9, 99.9, 0.0, 0.0, 0.0, 0.0; 103.21; 2769.05; 1.71; [0, 1, 2, 3]
100.0, 100.0, 100.0, 100.0, 0.0, 0.0, 0.0, 0.0; 108.93; 2922.61; 1.58; [0, 1, 2, 3]
1.6, 0.2, 0.0, 0.0, 99.7, 99.9, 99.2, 0.0; 109.61; 2940.91; 1.61; [4, 5, 6]
99.9, 99.9, 99.9, 99.9, 0.0, 0.0, 0.0, 0.0; 95.05; 2550.26; 1.67; [0, 1, 2, 3]
0.8, 0.1, 0.0, 0.0, 100.0, 0.0, 0.0, 0.0; 95.73; 2568.48; 1.66; [4]
100.0, 100.0, 0.4, 0.4, 0.0, 0.0, 0.0, 0.0; 95.72; 2568.25; 1.64; [0, 1]
1.9, 0.1, 0.0, 0.1, 100.0, 99.8, 100.0, 0.0; 97.95; 2628.07; 1.82; [4, 5, 6]
1.2, 0.1, 0.0, 0.1, 100.0, 99.7, 99.9, 0.0; 85.52; 2294.47; 2.03; [4, 5, 6]
1.7, 0.0, 0.1, 0.2, 99.8, 99.8, 98.0, 0.0; 82.11; 2202.93; 2.18; [4, 5, 6]
2.3, 0.2, 0.2, 0.0, 100.0, 99.9, 100.0, 0.0; 79.14; 2123.32; 2.30; [4, 5, 6]
100.0, 100.0, 0.6, 0.3, 0.0, 0.1, 0.0, 0.0; 76.62; 2055.78; 2.34; [0, 1]
1.0, 0.0, 0.0, 0.0, 100.0, 100.0, 0.0, 0.0; 80.04; 2147.59; 2.41; [4, 5]
100.0, 100.0, 100.0, 0.8, 0.0, 0.0, 0.0, 0.0; 80.36; 2156.01; 2.47; [0, 1, 2]
1.5, 0.3, 0.0, 0.1, 100.0, 100.0, 99.9, 0.0; 83.22; 2232.74; 2.30; [4, 5, 6]
1.4, 0.2, 0.0, 0.1, 100.0, 99.9, 99.9, 0.0; 82.44; 2211.74; 2.30; [4, 5, 6]
1.1, 0.3, 0.0, 0.0, 100.0, 100.0, 100.0, 0.0; 85.89; 2304.38; 2.32; [4, 5, 6]
2.4, 0.2, 0.0, 0.2, 100.0, 100.0, 100.0, 0.0; 85.06; 2282.05; 2.38; [4, 5, 6]
1.0, 0.3, 0.0, 0.3, 99.9, 99.9, 100.0, 0.0; 72.60; 1947.81; 2.74; [4, 5, 6]
100.0, 100.0, 0.9, 0.3, 0.0, 0.0, 0.0, 0.0; 66.66; 1788.62; 2.86; [0, 1]
1.0, 0.1, 0.3, 0.0, 100.0, 100.0, 0.0, 0.0; 73.30; 1966.62; 2.61; [4, 5]
